2021-04-22 15:41:45,986 DEBUG scheduler Queued events for site meeting.dev
2021-04-22 15:42:46,226 DEBUG scheduler Queued events for site meeting.dev
2021-04-22 15:43:46,463 DEBUG scheduler Queued events for site meeting.dev
2021-04-22 15:44:46,769 DEBUG scheduler Queued events for site meeting.dev
2021-04-22 15:44:46,807 INFO scheduler Scheduled Job Start: frappe.monitor.flush for meeting.dev
2021-04-22 15:44:47,025 INFO scheduler Scheduled Job Complete: frappe.monitor.flush for meeting.dev
2021-04-22 15:44:47,101 INFO scheduler Scheduled Job Start: frappe.utils.global_search.sync_global_search for meeting.dev
2021-04-22 15:44:47,261 INFO scheduler Scheduled Job Complete: frappe.utils.global_search.sync_global_search for meeting.dev
2021-04-22 15:44:47,333 INFO scheduler Scheduled Job Start: frappe.integrations.doctype.razorpay_settings.razorpay_settings.capture_payment for meeting.dev
2021-04-22 15:44:47,824 INFO scheduler Scheduled Job Complete: frappe.integrations.doctype.razorpay_settings.razorpay_settings.capture_payment for meeting.dev
2021-04-22 15:44:47,895 INFO scheduler Scheduled Job Start: frappe.email.doctype.email_account.email_account.notify_unreplied for meeting.dev
2021-04-22 15:44:48,205 INFO scheduler Scheduled Job Complete: frappe.email.doctype.email_account.email_account.notify_unreplied for meeting.dev
2021-04-22 15:44:48,278 INFO scheduler Scheduled Job Start: frappe.email.doctype.email_account.email_account.pull for meeting.dev
2021-04-22 15:44:48,600 INFO scheduler Scheduled Job Complete: frappe.email.doctype.email_account.email_account.pull for meeting.dev
2021-04-22 15:44:48,673 INFO scheduler Scheduled Job Start: frappe.email.queue.flush for meeting.dev
2021-04-22 15:44:49,002 INFO scheduler Scheduled Job Complete: frappe.email.queue.flush for meeting.dev
2021-04-22 15:45:47,050 DEBUG scheduler Queued events for site meeting.dev
2021-04-22 15:45:47,112 INFO scheduler Scheduled Job Start: frappe.twofactor.delete_all_barcodes_for_users for meeting.dev
2021-04-22 15:45:47,546 INFO scheduler Scheduled Job Complete: frappe.twofactor.delete_all_barcodes_for_users for meeting.dev
2021-04-22 15:45:47,636 INFO scheduler Scheduled Job Start: frappe.website.doctype.web_page.web_page.check_publish_status for meeting.dev
2021-04-22 15:45:48,101 INFO scheduler Scheduled Job Complete: frappe.website.doctype.web_page.web_page.check_publish_status for meeting.dev
2021-04-22 15:45:48,216 INFO scheduler Scheduled Job Start: frappe.oauth.delete_oauth2_data for meeting.dev
2021-04-22 15:45:48,675 INFO scheduler Scheduled Job Complete: frappe.oauth.delete_oauth2_data for meeting.dev
2021-04-22 15:46:47,349 DEBUG scheduler Queued events for site meeting.dev
2021-04-22 15:47:47,658 DEBUG scheduler Queued events for site meeting.dev
2021-04-22 15:48:47,949 DEBUG scheduler Queued events for site meeting.dev
2021-04-22 15:48:48,005 INFO scheduler Scheduled Job Start: frappe.monitor.flush for meeting.dev
2021-04-22 15:48:48,283 INFO scheduler Scheduled Job Complete: frappe.monitor.flush for meeting.dev
2021-04-22 15:48:48,359 INFO scheduler Scheduled Job Start: frappe.utils.global_search.sync_global_search for meeting.dev
2021-04-22 15:48:48,521 INFO scheduler Scheduled Job Complete: frappe.utils.global_search.sync_global_search for meeting.dev
2021-04-22 15:48:48,598 INFO scheduler Scheduled Job Start: frappe.integrations.doctype.razorpay_settings.razorpay_settings.capture_payment for meeting.dev
2021-04-22 15:48:49,103 INFO scheduler Scheduled Job Complete: frappe.integrations.doctype.razorpay_settings.razorpay_settings.capture_payment for meeting.dev
2021-04-22 15:48:49,175 INFO scheduler Scheduled Job Start: frappe.email.doctype.email_account.email_account.notify_unreplied for meeting.dev
2021-04-22 15:48:49,578 INFO scheduler Scheduled Job Complete: frappe.email.doctype.email_account.email_account.notify_unreplied for meeting.dev
2021-04-22 15:48:49,665 INFO scheduler Scheduled Job Start: frappe.email.doctype.email_account.email_account.pull for meeting.dev
2021-04-22 15:48:50,121 INFO scheduler Scheduled Job Complete: frappe.email.doctype.email_account.email_account.pull for meeting.dev
2021-04-22 15:48:50,204 INFO scheduler Scheduled Job Start: frappe.email.queue.flush for meeting.dev
2021-04-22 15:48:50,504 INFO scheduler Scheduled Job Complete: frappe.email.queue.flush for meeting.dev
2021-04-22 15:49:48,206 DEBUG scheduler Queued events for site meeting.dev
2021-04-22 15:50:48,441 DEBUG scheduler Queued events for site meeting.dev
2021-04-22 15:51:48,688 DEBUG scheduler Queued events for site meeting.dev
2021-04-22 15:52:48,976 DEBUG scheduler Queued events for site meeting.dev
2021-04-22 15:52:49,023 INFO scheduler Scheduled Job Start: frappe.monitor.flush for meeting.dev
2021-04-22 15:52:49,187 INFO scheduler Scheduled Job Complete: frappe.monitor.flush for meeting.dev
2021-04-22 15:52:49,270 INFO scheduler Scheduled Job Start: frappe.utils.global_search.sync_global_search for meeting.dev
2021-04-22 15:52:49,421 INFO scheduler Scheduled Job Complete: frappe.utils.global_search.sync_global_search for meeting.dev
2021-04-22 15:52:49,500 INFO scheduler Scheduled Job Start: frappe.integrations.doctype.razorpay_settings.razorpay_settings.capture_payment for meeting.dev
2021-04-22 15:52:49,919 INFO scheduler Scheduled Job Complete: frappe.integrations.doctype.razorpay_settings.razorpay_settings.capture_payment for meeting.dev
2021-04-22 15:52:50,022 INFO scheduler Scheduled Job Start: frappe.email.doctype.email_account.email_account.notify_unreplied for meeting.dev
2021-04-22 15:52:50,364 INFO scheduler Scheduled Job Complete: frappe.email.doctype.email_account.email_account.notify_unreplied for meeting.dev
2021-04-22 15:52:50,437 INFO scheduler Scheduled Job Start: frappe.email.doctype.email_account.email_account.pull for meeting.dev
2021-04-22 15:52:50,777 INFO scheduler Scheduled Job Complete: frappe.email.doctype.email_account.email_account.pull for meeting.dev
2021-04-22 15:52:50,850 INFO scheduler Scheduled Job Start: frappe.email.queue.flush for meeting.dev
2021-04-22 15:52:51,296 INFO scheduler Scheduled Job Complete: frappe.email.queue.flush for meeting.dev
2021-04-22 15:53:49,256 DEBUG scheduler Queued events for site meeting.dev
2021-04-22 15:54:49,493 DEBUG scheduler Queued events for site meeting.dev
2021-04-22 15:55:49,747 DEBUG scheduler Queued events for site meeting.dev
2021-04-22 15:56:50,085 DEBUG scheduler Queued events for site meeting.dev
2021-04-22 15:56:50,096 INFO scheduler Scheduled Job Start: frappe.monitor.flush for meeting.dev
2021-04-22 15:56:50,256 INFO scheduler Scheduled Job Complete: frappe.monitor.flush for meeting.dev
2021-04-22 15:56:50,329 INFO scheduler Scheduled Job Start: frappe.utils.global_search.sync_global_search for meeting.dev
2021-04-22 15:56:50,481 INFO scheduler Scheduled Job Complete: frappe.utils.global_search.sync_global_search for meeting.dev
2021-04-22 15:56:50,563 INFO scheduler Scheduled Job Start: frappe.integrations.doctype.razorpay_settings.razorpay_settings.capture_payment for meeting.dev
2021-04-22 15:56:50,941 INFO scheduler Scheduled Job Complete: frappe.integrations.doctype.razorpay_settings.razorpay_settings.capture_payment for meeting.dev
2021-04-22 15:56:51,010 INFO scheduler Scheduled Job Start: frappe.email.doctype.email_account.email_account.notify_unreplied for meeting.dev
2021-04-22 15:56:51,321 INFO scheduler Scheduled Job Complete: frappe.email.doctype.email_account.email_account.notify_unreplied for meeting.dev
2021-04-22 15:56:51,393 INFO scheduler Scheduled Job Start: frappe.email.doctype.email_account.email_account.pull for meeting.dev
2021-04-22 15:56:51,731 INFO scheduler Scheduled Job Complete: frappe.email.doctype.email_account.email_account.pull for meeting.dev
2021-04-22 15:56:51,802 INFO scheduler Scheduled Job Start: frappe.email.queue.flush for meeting.dev
2021-04-22 15:56:52,065 INFO scheduler Scheduled Job Complete: frappe.email.queue.flush for meeting.dev
2021-04-22 15:57:50,343 DEBUG scheduler Queued events for site meeting.dev
2021-04-22 15:58:50,620 DEBUG scheduler Queued events for site meeting.dev
2021-04-22 15:59:50,861 DEBUG scheduler Queued events for site meeting.dev
2021-04-22 16:00:51,149 INFO scheduler Scheduled Job Start: frappe.email.doctype.newsletter.newsletter.send_scheduled_email for meeting.dev
2021-04-22 16:00:51,216 DEBUG scheduler Queued events for site meeting.dev
2021-04-22 16:00:51,622 INFO scheduler Scheduled Job Complete: frappe.email.doctype.newsletter.newsletter.send_scheduled_email for meeting.dev
2021-04-22 16:00:51,711 INFO scheduler Scheduled Job Start: frappe.integrations.doctype.google_calendar.google_calendar.sync for meeting.dev
2021-04-22 16:00:52,268 INFO scheduler Scheduled Job Complete: frappe.integrations.doctype.google_calendar.google_calendar.sync for meeting.dev
2021-04-22 16:00:52,352 INFO scheduler Scheduled Job Start: frappe.desk.form.document_follow.send_hourly_updates for meeting.dev
2021-04-22 16:00:52,744 INFO scheduler Scheduled Job Complete: frappe.desk.form.document_follow.send_hourly_updates for meeting.dev
2021-04-22 16:00:52,830 INFO scheduler Scheduled Job Start: frappe.deferred_insert.save_to_db for meeting.dev
2021-04-22 16:00:53,237 INFO scheduler Scheduled Job Complete: frappe.deferred_insert.save_to_db for meeting.dev
2021-04-22 16:00:53,326 INFO scheduler Scheduled Job Start: frappe.desk.page.backups.backups.delete_downloadable_backups for meeting.dev
2021-04-22 16:00:53,728 INFO scheduler Scheduled Job Complete: frappe.desk.page.backups.backups.delete_downloadable_backups for meeting.dev
2021-04-22 16:00:53,813 INFO scheduler Scheduled Job Start: frappe.utils.error.collect_error_snapshots for meeting.dev
2021-04-22 16:00:54,198 INFO scheduler Scheduled Job Complete: frappe.utils.error.collect_error_snapshots for meeting.dev
2021-04-22 16:00:54,286 INFO scheduler Scheduled Job Start: frappe.model.utils.user_settings.sync_user_settings for meeting.dev
2021-04-22 16:00:54,665 INFO scheduler Scheduled Job Complete: frappe.model.utils.user_settings.sync_user_settings for meeting.dev
2021-04-22 16:00:54,752 INFO scheduler Scheduled Job Start: frappe.model.utils.link_count.update_link_count for meeting.dev
2021-04-22 16:00:55,145 INFO scheduler Scheduled Job Complete: frappe.model.utils.link_count.update_link_count for meeting.dev
2021-04-22 16:00:55,240 INFO scheduler Scheduled Job Start: frappe.monitor.flush for meeting.dev
2021-04-22 16:00:55,398 INFO scheduler Scheduled Job Complete: frappe.monitor.flush for meeting.dev
2021-04-22 16:00:55,480 INFO scheduler Scheduled Job Start: frappe.utils.global_search.sync_global_search for meeting.dev
2021-04-22 16:00:55,639 INFO scheduler Scheduled Job Complete: frappe.utils.global_search.sync_global_search for meeting.dev
2021-04-22 16:00:55,712 INFO scheduler Scheduled Job Start: frappe.integrations.doctype.razorpay_settings.razorpay_settings.capture_payment for meeting.dev
2021-04-22 16:00:56,199 INFO scheduler Scheduled Job Complete: frappe.integrations.doctype.razorpay_settings.razorpay_settings.capture_payment for meeting.dev
2021-04-22 16:00:56,328 INFO scheduler Scheduled Job Start: frappe.email.doctype.email_account.email_account.notify_unreplied for meeting.dev
2021-04-22 16:00:56,659 INFO scheduler Scheduled Job Complete: frappe.email.doctype.email_account.email_account.notify_unreplied for meeting.dev
2021-04-22 16:00:56,731 INFO scheduler Scheduled Job Start: frappe.email.doctype.email_account.email_account.pull for meeting.dev
2021-04-22 16:00:57,051 INFO scheduler Scheduled Job Complete: frappe.email.doctype.email_account.email_account.pull for meeting.dev
2021-04-22 16:00:57,123 INFO scheduler Scheduled Job Start: frappe.email.queue.flush for meeting.dev
2021-04-22 16:00:57,386 INFO scheduler Scheduled Job Complete: frappe.email.queue.flush for meeting.dev
2021-04-22 16:00:57,463 INFO scheduler Scheduled Job Start: frappe.twofactor.delete_all_barcodes_for_users for meeting.dev
2021-04-22 16:00:57,876 INFO scheduler Scheduled Job Complete: frappe.twofactor.delete_all_barcodes_for_users for meeting.dev
2021-04-22 16:00:57,960 INFO scheduler Scheduled Job Start: frappe.website.doctype.web_page.web_page.check_publish_status for meeting.dev
2021-04-22 16:00:58,488 INFO scheduler Scheduled Job Complete: frappe.website.doctype.web_page.web_page.check_publish_status for meeting.dev
2021-04-22 16:00:58,576 INFO scheduler Scheduled Job Start: frappe.oauth.delete_oauth2_data for meeting.dev
2021-04-22 16:00:58,979 INFO scheduler Scheduled Job Complete: frappe.oauth.delete_oauth2_data for meeting.dev
2021-04-22 16:01:51,475 DEBUG scheduler Queued events for site meeting.dev
2021-04-22 16:02:51,868 DEBUG scheduler Queued events for site meeting.dev
2021-04-22 16:03:52,125 DEBUG scheduler Queued events for site meeting.dev
2021-04-22 16:04:52,447 DEBUG scheduler Queued events for site meeting.dev
2021-04-22 16:04:52,479 INFO scheduler Scheduled Job Start: frappe.monitor.flush for meeting.dev
2021-04-22 16:04:52,693 INFO scheduler Scheduled Job Complete: frappe.monitor.flush for meeting.dev
2021-04-22 16:04:52,809 INFO scheduler Scheduled Job Start: frappe.utils.global_search.sync_global_search for meeting.dev
2021-04-22 16:04:53,009 INFO scheduler Scheduled Job Complete: frappe.utils.global_search.sync_global_search for meeting.dev
2021-04-22 16:04:53,166 INFO scheduler Scheduled Job Start: frappe.integrations.doctype.razorpay_settings.razorpay_settings.capture_payment for meeting.dev
2021-04-22 16:04:53,713 INFO scheduler Scheduled Job Complete: frappe.integrations.doctype.razorpay_settings.razorpay_settings.capture_payment for meeting.dev
2021-04-22 16:04:53,796 INFO scheduler Scheduled Job Start: frappe.email.doctype.email_account.email_account.notify_unreplied for meeting.dev
2021-04-22 16:04:54,127 INFO scheduler Scheduled Job Complete: frappe.email.doctype.email_account.email_account.notify_unreplied for meeting.dev
2021-04-22 16:04:54,199 INFO scheduler Scheduled Job Start: frappe.email.doctype.email_account.email_account.pull for meeting.dev
2021-04-22 16:04:54,534 INFO scheduler Scheduled Job Complete: frappe.email.doctype.email_account.email_account.pull for meeting.dev
2021-04-22 16:04:54,605 INFO scheduler Scheduled Job Start: frappe.email.queue.flush for meeting.dev
2021-04-22 16:04:54,879 INFO scheduler Scheduled Job Complete: frappe.email.queue.flush for meeting.dev
2021-04-22 16:05:52,704 DEBUG scheduler Queued events for site meeting.dev
2021-04-22 16:06:52,940 DEBUG scheduler Queued events for site meeting.dev
2021-04-22 16:07:53,218 DEBUG scheduler Queued events for site meeting.dev
2021-04-22 16:08:53,575 DEBUG scheduler Queued events for site meeting.dev
2021-04-22 16:08:53,601 INFO scheduler Scheduled Job Start: frappe.monitor.flush for meeting.dev
2021-04-22 16:08:53,763 INFO scheduler Scheduled Job Complete: frappe.monitor.flush for meeting.dev
2021-04-22 16:08:53,837 INFO scheduler Scheduled Job Start: frappe.utils.global_search.sync_global_search for meeting.dev
2021-04-22 16:08:53,995 INFO scheduler Scheduled Job Complete: frappe.utils.global_search.sync_global_search for meeting.dev
2021-04-22 16:08:54,070 INFO scheduler Scheduled Job Start: frappe.integrations.doctype.razorpay_settings.razorpay_settings.capture_payment for meeting.dev
2021-04-22 16:08:54,473 INFO scheduler Scheduled Job Complete: frappe.integrations.doctype.razorpay_settings.razorpay_settings.capture_payment for meeting.dev
2021-04-22 16:08:54,547 INFO scheduler Scheduled Job Start: frappe.email.doctype.email_account.email_account.notify_unreplied for meeting.dev
2021-04-22 16:08:54,852 INFO scheduler Scheduled Job Complete: frappe.email.doctype.email_account.email_account.notify_unreplied for meeting.dev
2021-04-22 16:08:54,922 INFO scheduler Scheduled Job Start: frappe.email.doctype.email_account.email_account.pull for meeting.dev
2021-04-22 16:08:55,310 INFO scheduler Scheduled Job Complete: frappe.email.doctype.email_account.email_account.pull for meeting.dev
2021-04-22 16:08:55,408 INFO scheduler Scheduled Job Start: frappe.email.queue.flush for meeting.dev
2021-04-22 16:08:55,701 INFO scheduler Scheduled Job Complete: frappe.email.queue.flush for meeting.dev
2021-04-22 16:09:53,897 DEBUG scheduler Queued events for site meeting.dev
2021-04-22 16:10:54,146 DEBUG scheduler Queued events for site meeting.dev
2021-04-22 16:11:54,399 DEBUG scheduler Queued events for site meeting.dev
2021-04-22 16:12:54,720 DEBUG scheduler Queued events for site meeting.dev
2021-04-22 16:12:54,746 INFO scheduler Scheduled Job Start: frappe.monitor.flush for meeting.dev
2021-04-22 16:12:54,943 INFO scheduler Scheduled Job Complete: frappe.monitor.flush for meeting.dev
2021-04-22 16:12:55,033 INFO scheduler Scheduled Job Start: frappe.utils.global_search.sync_global_search for meeting.dev
2021-04-22 16:12:55,246 INFO scheduler Scheduled Job Complete: frappe.utils.global_search.sync_global_search for meeting.dev
2021-04-22 16:12:55,348 INFO scheduler Scheduled Job Start: frappe.integrations.doctype.razorpay_settings.razorpay_settings.capture_payment for meeting.dev
2021-04-22 16:12:55,814 INFO scheduler Scheduled Job Complete: frappe.integrations.doctype.razorpay_settings.razorpay_settings.capture_payment for meeting.dev
2021-04-22 16:12:55,928 INFO scheduler Scheduled Job Start: frappe.email.doctype.email_account.email_account.notify_unreplied for meeting.dev
2021-04-22 16:12:56,317 INFO scheduler Scheduled Job Complete: frappe.email.doctype.email_account.email_account.notify_unreplied for meeting.dev
2021-04-22 16:12:56,407 INFO scheduler Scheduled Job Start: frappe.email.doctype.email_account.email_account.pull for meeting.dev
2021-04-22 16:12:56,838 INFO scheduler Scheduled Job Complete: frappe.email.doctype.email_account.email_account.pull for meeting.dev
2021-04-22 16:12:56,923 INFO scheduler Scheduled Job Start: frappe.email.queue.flush for meeting.dev
2021-04-22 16:12:57,236 INFO scheduler Scheduled Job Complete: frappe.email.queue.flush for meeting.dev
2021-04-22 16:13:54,994 DEBUG scheduler Queued events for site meeting.dev
2021-04-22 16:14:55,264 DEBUG scheduler Queued events for site meeting.dev
2021-04-22 16:15:55,539 DEBUG scheduler Queued events for site meeting.dev
2021-04-22 16:15:55,598 INFO scheduler Scheduled Job Start: frappe.twofactor.delete_all_barcodes_for_users for meeting.dev
2021-04-22 16:15:56,019 INFO scheduler Scheduled Job Complete: frappe.twofactor.delete_all_barcodes_for_users for meeting.dev
2021-04-22 16:15:56,103 INFO scheduler Scheduled Job Start: frappe.website.doctype.web_page.web_page.check_publish_status for meeting.dev
2021-04-22 16:15:56,562 INFO scheduler Scheduled Job Complete: frappe.website.doctype.web_page.web_page.check_publish_status for meeting.dev
2021-04-22 16:15:56,653 INFO scheduler Scheduled Job Start: frappe.oauth.delete_oauth2_data for meeting.dev
2021-04-22 16:15:57,069 INFO scheduler Scheduled Job Complete: frappe.oauth.delete_oauth2_data for meeting.dev
2021-04-22 16:16:55,922 DEBUG scheduler Queued events for site meeting.dev
2021-04-22 16:16:55,964 INFO scheduler Scheduled Job Start: frappe.monitor.flush for meeting.dev
2021-04-22 16:16:56,195 INFO scheduler Scheduled Job Complete: frappe.monitor.flush for meeting.dev
2021-04-22 16:16:56,311 INFO scheduler Scheduled Job Start: frappe.utils.global_search.sync_global_search for meeting.dev
2021-04-22 16:16:56,551 INFO scheduler Scheduled Job Complete: frappe.utils.global_search.sync_global_search for meeting.dev
2021-04-22 16:16:56,655 INFO scheduler Scheduled Job Start: frappe.integrations.doctype.razorpay_settings.razorpay_settings.capture_payment for meeting.dev
2021-04-22 16:16:57,059 INFO scheduler Scheduled Job Complete: frappe.integrations.doctype.razorpay_settings.razorpay_settings.capture_payment for meeting.dev
2021-04-22 16:16:57,132 INFO scheduler Scheduled Job Start: frappe.email.doctype.email_account.email_account.notify_unreplied for meeting.dev
2021-04-22 16:16:57,448 INFO scheduler Scheduled Job Complete: frappe.email.doctype.email_account.email_account.notify_unreplied for meeting.dev
2021-04-22 16:16:57,521 INFO scheduler Scheduled Job Start: frappe.email.doctype.email_account.email_account.pull for meeting.dev
2021-04-22 16:16:57,865 INFO scheduler Scheduled Job Complete: frappe.email.doctype.email_account.email_account.pull for meeting.dev
2021-04-22 16:16:57,940 INFO scheduler Scheduled Job Start: frappe.email.queue.flush for meeting.dev
2021-04-22 16:16:58,205 INFO scheduler Scheduled Job Complete: frappe.email.queue.flush for meeting.dev
2021-04-22 16:17:56,251 DEBUG scheduler Queued events for site meeting.dev
2021-04-22 16:18:56,536 DEBUG scheduler Queued events for site meeting.dev
2021-04-22 16:19:56,785 DEBUG scheduler Queued events for site meeting.dev
2021-04-22 16:20:57,054 DEBUG scheduler Queued events for site meeting.dev
2021-04-22 16:20:57,096 INFO scheduler Scheduled Job Start: frappe.monitor.flush for meeting.dev
2021-04-22 16:20:57,254 INFO scheduler Scheduled Job Complete: frappe.monitor.flush for meeting.dev
2021-04-22 16:20:57,327 INFO scheduler Scheduled Job Start: frappe.utils.global_search.sync_global_search for meeting.dev
2021-04-22 16:20:57,500 INFO scheduler Scheduled Job Complete: frappe.utils.global_search.sync_global_search for meeting.dev
2021-04-22 16:20:57,576 INFO scheduler Scheduled Job Start: frappe.integrations.doctype.razorpay_settings.razorpay_settings.capture_payment for meeting.dev
2021-04-22 16:20:57,971 INFO scheduler Scheduled Job Complete: frappe.integrations.doctype.razorpay_settings.razorpay_settings.capture_payment for meeting.dev
2021-04-22 16:20:58,041 INFO scheduler Scheduled Job Start: frappe.email.doctype.email_account.email_account.notify_unreplied for meeting.dev
2021-04-22 16:20:58,358 INFO scheduler Scheduled Job Complete: frappe.email.doctype.email_account.email_account.notify_unreplied for meeting.dev
2021-04-22 16:20:58,431 INFO scheduler Scheduled Job Start: frappe.email.doctype.email_account.email_account.pull for meeting.dev
2021-04-22 16:20:58,746 INFO scheduler Scheduled Job Complete: frappe.email.doctype.email_account.email_account.pull for meeting.dev
2021-04-22 16:20:58,820 INFO scheduler Scheduled Job Start: frappe.email.queue.flush for meeting.dev
2021-04-22 16:20:59,094 INFO scheduler Scheduled Job Complete: frappe.email.queue.flush for meeting.dev
2021-04-22 16:21:57,324 DEBUG scheduler Queued events for site meeting.dev
2021-04-22 16:22:57,628 DEBUG scheduler Queued events for site meeting.dev
2021-04-22 16:23:57,897 DEBUG scheduler Queued events for site meeting.dev
2021-04-22 16:24:58,194 DEBUG scheduler Queued events for site meeting.dev
2021-04-22 16:24:58,226 INFO scheduler Scheduled Job Start: frappe.monitor.flush for meeting.dev
2021-04-22 16:24:58,396 INFO scheduler Scheduled Job Complete: frappe.monitor.flush for meeting.dev
2021-04-22 16:24:58,474 INFO scheduler Scheduled Job Start: frappe.utils.global_search.sync_global_search for meeting.dev
2021-04-22 16:24:58,639 INFO scheduler Scheduled Job Complete: frappe.utils.global_search.sync_global_search for meeting.dev
2021-04-22 16:24:58,716 INFO scheduler Scheduled Job Start: frappe.integrations.doctype.razorpay_settings.razorpay_settings.capture_payment for meeting.dev
2021-04-22 16:24:59,187 INFO scheduler Scheduled Job Complete: frappe.integrations.doctype.razorpay_settings.razorpay_settings.capture_payment for meeting.dev
2021-04-22 16:24:59,261 INFO scheduler Scheduled Job Start: frappe.email.doctype.email_account.email_account.notify_unreplied for meeting.dev
2021-04-22 16:24:59,573 INFO scheduler Scheduled Job Complete: frappe.email.doctype.email_account.email_account.notify_unreplied for meeting.dev
2021-04-22 16:24:59,646 INFO scheduler Scheduled Job Start: frappe.email.doctype.email_account.email_account.pull for meeting.dev
2021-04-22 16:25:00,080 INFO scheduler Scheduled Job Complete: frappe.email.doctype.email_account.email_account.pull for meeting.dev
2021-04-22 16:25:00,155 INFO scheduler Scheduled Job Start: frappe.email.queue.flush for meeting.dev
2021-04-22 16:25:00,431 INFO scheduler Scheduled Job Complete: frappe.email.queue.flush for meeting.dev
2021-04-22 16:25:58,449 DEBUG scheduler Queued events for site meeting.dev
2021-04-22 16:26:58,726 DEBUG scheduler Queued events for site meeting.dev
2021-04-22 16:27:58,968 DEBUG scheduler Queued events for site meeting.dev
2021-04-22 16:28:59,315 DEBUG scheduler Queued events for site meeting.dev
2021-04-22 16:28:59,351 INFO scheduler Scheduled Job Start: frappe.monitor.flush for meeting.dev
2021-04-22 16:28:59,580 INFO scheduler Scheduled Job Complete: frappe.monitor.flush for meeting.dev
2021-04-22 16:28:59,665 INFO scheduler Scheduled Job Start: frappe.utils.global_search.sync_global_search for meeting.dev
2021-04-22 16:28:59,861 INFO scheduler Scheduled Job Complete: frappe.utils.global_search.sync_global_search for meeting.dev
2021-04-22 16:28:59,937 INFO scheduler Scheduled Job Start: frappe.integrations.doctype.razorpay_settings.razorpay_settings.capture_payment for meeting.dev
2021-04-22 16:29:00,447 INFO scheduler Scheduled Job Complete: frappe.integrations.doctype.razorpay_settings.razorpay_settings.capture_payment for meeting.dev
2021-04-22 16:29:00,562 INFO scheduler Scheduled Job Start: frappe.email.doctype.email_account.email_account.notify_unreplied for meeting.dev
2021-04-22 16:29:00,921 INFO scheduler Scheduled Job Complete: frappe.email.doctype.email_account.email_account.notify_unreplied for meeting.dev
2021-04-22 16:29:01,008 INFO scheduler Scheduled Job Start: frappe.email.doctype.email_account.email_account.pull for meeting.dev
2021-04-22 16:29:01,506 INFO scheduler Scheduled Job Complete: frappe.email.doctype.email_account.email_account.pull for meeting.dev
2021-04-22 16:29:01,598 INFO scheduler Scheduled Job Start: frappe.email.queue.flush for meeting.dev
2021-04-22 16:29:01,966 INFO scheduler Scheduled Job Complete: frappe.email.queue.flush for meeting.dev
2021-04-22 16:29:59,612 DEBUG scheduler Queued events for site meeting.dev
2021-04-22 16:30:59,918 DEBUG scheduler Queued events for site meeting.dev
2021-04-22 16:30:59,988 INFO scheduler Scheduled Job Start: frappe.twofactor.delete_all_barcodes_for_users for meeting.dev
2021-04-22 16:31:00,541 INFO scheduler Scheduled Job Complete: frappe.twofactor.delete_all_barcodes_for_users for meeting.dev
2021-04-22 16:31:00,632 INFO scheduler Scheduled Job Start: frappe.website.doctype.web_page.web_page.check_publish_status for meeting.dev
2021-04-22 16:31:01,128 INFO scheduler Scheduled Job Complete: frappe.website.doctype.web_page.web_page.check_publish_status for meeting.dev
2021-04-22 16:31:01,221 INFO scheduler Scheduled Job Start: frappe.oauth.delete_oauth2_data for meeting.dev
2021-04-22 16:31:01,704 INFO scheduler Scheduled Job Complete: frappe.oauth.delete_oauth2_data for meeting.dev
2021-04-22 16:32:00,290 DEBUG scheduler Queued events for site meeting.dev
2021-04-22 16:32:00,344 INFO scheduler Scheduled Job Start: frappe.monitor.flush for meeting.dev
2021-04-22 16:32:00,645 INFO scheduler Scheduled Job Complete: frappe.monitor.flush for meeting.dev
2021-04-22 16:32:00,747 INFO scheduler Scheduled Job Start: frappe.utils.global_search.sync_global_search for meeting.dev
2021-04-22 16:32:00,937 INFO scheduler Scheduled Job Complete: frappe.utils.global_search.sync_global_search for meeting.dev
2021-04-22 16:32:01,012 INFO scheduler Scheduled Job Start: frappe.integrations.doctype.razorpay_settings.razorpay_settings.capture_payment for meeting.dev
2021-04-22 16:32:01,454 INFO scheduler Scheduled Job Complete: frappe.integrations.doctype.razorpay_settings.razorpay_settings.capture_payment for meeting.dev
2021-04-22 16:32:01,563 INFO scheduler Scheduled Job Start: frappe.email.doctype.email_account.email_account.notify_unreplied for meeting.dev
2021-04-22 16:32:02,033 INFO scheduler Scheduled Job Complete: frappe.email.doctype.email_account.email_account.notify_unreplied for meeting.dev
2021-04-22 16:32:02,145 INFO scheduler Scheduled Job Start: frappe.email.doctype.email_account.email_account.pull for meeting.dev
2021-04-22 16:32:02,517 INFO scheduler Scheduled Job Complete: frappe.email.doctype.email_account.email_account.pull for meeting.dev
2021-04-22 16:32:02,627 INFO scheduler Scheduled Job Start: frappe.email.queue.flush for meeting.dev
2021-04-22 16:32:02,917 INFO scheduler Scheduled Job Complete: frappe.email.queue.flush for meeting.dev
2021-04-22 16:33:00,587 DEBUG scheduler Queued events for site meeting.dev
2021-04-22 16:34:00,856 DEBUG scheduler Queued events for site meeting.dev
2021-04-22 16:35:01,099 DEBUG scheduler Queued events for site meeting.dev
2021-04-22 16:36:01,371 DEBUG scheduler Queued events for site meeting.dev
2021-04-22 16:36:01,402 INFO scheduler Scheduled Job Start: frappe.monitor.flush for meeting.dev
2021-04-22 16:36:01,705 INFO scheduler Scheduled Job Complete: frappe.monitor.flush for meeting.dev
2021-04-22 16:36:01,804 INFO scheduler Scheduled Job Start: frappe.utils.global_search.sync_global_search for meeting.dev
2021-04-22 16:36:02,054 INFO scheduler Scheduled Job Complete: frappe.utils.global_search.sync_global_search for meeting.dev
2021-04-22 16:36:02,146 INFO scheduler Scheduled Job Start: frappe.integrations.doctype.razorpay_settings.razorpay_settings.capture_payment for meeting.dev
2021-04-22 16:36:02,659 INFO scheduler Scheduled Job Complete: frappe.integrations.doctype.razorpay_settings.razorpay_settings.capture_payment for meeting.dev
2021-04-22 16:36:02,743 INFO scheduler Scheduled Job Start: frappe.email.doctype.email_account.email_account.notify_unreplied for meeting.dev
2021-04-22 16:36:03,173 INFO scheduler Scheduled Job Complete: frappe.email.doctype.email_account.email_account.notify_unreplied for meeting.dev
2021-04-22 16:36:03,287 INFO scheduler Scheduled Job Start: frappe.email.doctype.email_account.email_account.pull for meeting.dev
2021-04-22 16:36:03,668 INFO scheduler Scheduled Job Complete: frappe.email.doctype.email_account.email_account.pull for meeting.dev
2021-04-22 16:36:03,756 INFO scheduler Scheduled Job Start: frappe.email.queue.flush for meeting.dev
2021-04-22 16:36:04,104 INFO scheduler Scheduled Job Complete: frappe.email.queue.flush for meeting.dev
2021-04-22 16:37:01,633 DEBUG scheduler Queued events for site meeting.dev
2021-04-22 16:38:01,881 DEBUG scheduler Queued events for site meeting.dev
2021-04-22 16:39:02,142 DEBUG scheduler Queued events for site meeting.dev
2021-04-22 16:40:02,408 DEBUG scheduler Queued events for site meeting.dev
2021-04-22 16:40:02,447 INFO scheduler Scheduled Job Start: frappe.monitor.flush for meeting.dev
2021-04-22 16:40:02,651 INFO scheduler Scheduled Job Complete: frappe.monitor.flush for meeting.dev
2021-04-22 16:40:02,723 INFO scheduler Scheduled Job Start: frappe.utils.global_search.sync_global_search for meeting.dev
2021-04-22 16:40:02,875 INFO scheduler Scheduled Job Complete: frappe.utils.global_search.sync_global_search for meeting.dev
2021-04-22 16:40:02,946 INFO scheduler Scheduled Job Start: frappe.integrations.doctype.razorpay_settings.razorpay_settings.capture_payment for meeting.dev
2021-04-22 16:40:03,412 INFO scheduler Scheduled Job Complete: frappe.integrations.doctype.razorpay_settings.razorpay_settings.capture_payment for meeting.dev
2021-04-22 16:40:03,497 INFO scheduler Scheduled Job Start: frappe.email.doctype.email_account.email_account.notify_unreplied for meeting.dev
2021-04-22 16:40:03,827 INFO scheduler Scheduled Job Complete: frappe.email.doctype.email_account.email_account.notify_unreplied for meeting.dev
2021-04-22 16:40:03,901 INFO scheduler Scheduled Job Start: frappe.email.doctype.email_account.email_account.pull for meeting.dev
2021-04-22 16:40:04,234 INFO scheduler Scheduled Job Complete: frappe.email.doctype.email_account.email_account.pull for meeting.dev
2021-04-22 16:40:04,343 INFO scheduler Scheduled Job Start: frappe.email.queue.flush for meeting.dev
2021-04-22 16:40:04,706 INFO scheduler Scheduled Job Complete: frappe.email.queue.flush for meeting.dev
2021-04-22 16:41:02,656 DEBUG scheduler Queued events for site meeting.dev
2021-04-22 16:42:02,959 DEBUG scheduler Queued events for site meeting.dev
2021-04-22 16:43:03,199 DEBUG scheduler Queued events for site meeting.dev
2021-04-22 16:44:03,489 DEBUG scheduler Queued events for site meeting.dev
2021-04-22 16:44:03,521 INFO scheduler Scheduled Job Start: frappe.monitor.flush for meeting.dev
2021-04-22 16:44:03,687 INFO scheduler Scheduled Job Complete: frappe.monitor.flush for meeting.dev
2021-04-22 16:44:03,798 INFO scheduler Scheduled Job Start: frappe.utils.global_search.sync_global_search for meeting.dev
2021-04-22 16:44:04,002 INFO scheduler Scheduled Job Complete: frappe.utils.global_search.sync_global_search for meeting.dev
2021-04-22 16:44:04,076 INFO scheduler Scheduled Job Start: frappe.integrations.doctype.razorpay_settings.razorpay_settings.capture_payment for meeting.dev
2021-04-22 16:44:04,650 INFO scheduler Scheduled Job Complete: frappe.integrations.doctype.razorpay_settings.razorpay_settings.capture_payment for meeting.dev
2021-04-22 16:44:04,770 INFO scheduler Scheduled Job Start: frappe.email.doctype.email_account.email_account.notify_unreplied for meeting.dev
2021-04-22 16:44:05,097 INFO scheduler Scheduled Job Complete: frappe.email.doctype.email_account.email_account.notify_unreplied for meeting.dev
2021-04-22 16:44:05,170 INFO scheduler Scheduled Job Start: frappe.email.doctype.email_account.email_account.pull for meeting.dev
2021-04-22 16:44:05,634 INFO scheduler Scheduled Job Complete: frappe.email.doctype.email_account.email_account.pull for meeting.dev
2021-04-22 16:44:05,751 INFO scheduler Scheduled Job Start: frappe.email.queue.flush for meeting.dev
2021-04-22 16:44:06,050 INFO scheduler Scheduled Job Complete: frappe.email.queue.flush for meeting.dev
2021-04-22 16:45:03,768 DEBUG scheduler Queued events for site meeting.dev
2021-04-22 16:45:03,828 INFO scheduler Scheduled Job Start: frappe.twofactor.delete_all_barcodes_for_users for meeting.dev
2021-04-22 16:45:04,282 INFO scheduler Scheduled Job Complete: frappe.twofactor.delete_all_barcodes_for_users for meeting.dev
2021-04-22 16:45:04,368 INFO scheduler Scheduled Job Start: frappe.website.doctype.web_page.web_page.check_publish_status for meeting.dev
2021-04-22 16:45:04,871 INFO scheduler Scheduled Job Complete: frappe.website.doctype.web_page.web_page.check_publish_status for meeting.dev
2021-04-22 16:45:04,961 INFO scheduler Scheduled Job Start: frappe.oauth.delete_oauth2_data for meeting.dev
2021-04-22 16:45:05,410 INFO scheduler Scheduled Job Complete: frappe.oauth.delete_oauth2_data for meeting.dev
2021-04-22 16:46:04,037 DEBUG scheduler Queued events for site meeting.dev
2021-04-22 16:47:04,271 DEBUG scheduler Queued events for site meeting.dev
2021-04-22 16:48:04,620 DEBUG scheduler Queued events for site meeting.dev
2021-04-22 16:48:04,677 INFO scheduler Scheduled Job Start: frappe.monitor.flush for meeting.dev
2021-04-22 16:48:04,877 INFO scheduler Scheduled Job Complete: frappe.monitor.flush for meeting.dev
2021-04-22 16:48:04,996 INFO scheduler Scheduled Job Start: frappe.utils.global_search.sync_global_search for meeting.dev
2021-04-22 16:48:05,249 INFO scheduler Scheduled Job Complete: frappe.utils.global_search.sync_global_search for meeting.dev
2021-04-22 16:48:05,381 INFO scheduler Scheduled Job Start: frappe.integrations.doctype.razorpay_settings.razorpay_settings.capture_payment for meeting.dev
2021-04-22 16:48:05,988 INFO scheduler Scheduled Job Complete: frappe.integrations.doctype.razorpay_settings.razorpay_settings.capture_payment for meeting.dev
2021-04-22 16:48:06,071 INFO scheduler Scheduled Job Start: frappe.email.doctype.email_account.email_account.notify_unreplied for meeting.dev
2021-04-22 16:48:06,454 INFO scheduler Scheduled Job Complete: frappe.email.doctype.email_account.email_account.notify_unreplied for meeting.dev
2021-04-22 16:48:06,581 INFO scheduler Scheduled Job Start: frappe.email.doctype.email_account.email_account.pull for meeting.dev
2021-04-22 16:48:07,308 INFO scheduler Scheduled Job Complete: frappe.email.doctype.email_account.email_account.pull for meeting.dev
2021-04-22 16:48:07,397 INFO scheduler Scheduled Job Start: frappe.email.queue.flush for meeting.dev
2021-04-22 16:48:07,707 INFO scheduler Scheduled Job Complete: frappe.email.queue.flush for meeting.dev
2021-04-22 16:49:04,919 DEBUG scheduler Queued events for site meeting.dev
2021-04-22 16:50:05,157 DEBUG scheduler Queued events for site meeting.dev
2021-04-22 16:51:05,406 DEBUG scheduler Queued events for site meeting.dev
2021-04-22 16:52:05,674 DEBUG scheduler Queued events for site meeting.dev
2021-04-22 16:52:05,701 INFO scheduler Scheduled Job Start: frappe.monitor.flush for meeting.dev
2021-04-22 16:52:05,870 INFO scheduler Scheduled Job Complete: frappe.monitor.flush for meeting.dev
2021-04-22 16:52:05,945 INFO scheduler Scheduled Job Start: frappe.utils.global_search.sync_global_search for meeting.dev
2021-04-22 16:52:06,106 INFO scheduler Scheduled Job Complete: frappe.utils.global_search.sync_global_search for meeting.dev
2021-04-22 16:52:06,177 INFO scheduler Scheduled Job Start: frappe.integrations.doctype.razorpay_settings.razorpay_settings.capture_payment for meeting.dev
2021-04-22 16:52:06,567 INFO scheduler Scheduled Job Complete: frappe.integrations.doctype.razorpay_settings.razorpay_settings.capture_payment for meeting.dev
2021-04-22 16:52:06,636 INFO scheduler Scheduled Job Start: frappe.email.doctype.email_account.email_account.notify_unreplied for meeting.dev
2021-04-22 16:52:06,949 INFO scheduler Scheduled Job Complete: frappe.email.doctype.email_account.email_account.notify_unreplied for meeting.dev
2021-04-22 16:52:07,027 INFO scheduler Scheduled Job Start: frappe.email.doctype.email_account.email_account.pull for meeting.dev
2021-04-22 16:52:07,346 INFO scheduler Scheduled Job Complete: frappe.email.doctype.email_account.email_account.pull for meeting.dev
2021-04-22 16:52:07,422 INFO scheduler Scheduled Job Start: frappe.email.queue.flush for meeting.dev
2021-04-22 16:52:07,698 INFO scheduler Scheduled Job Complete: frappe.email.queue.flush for meeting.dev
2021-04-22 16:53:05,926 DEBUG scheduler Queued events for site meeting.dev
2021-04-22 16:54:06,213 DEBUG scheduler Queued events for site meeting.dev
2021-04-22 16:55:06,454 DEBUG scheduler Queued events for site meeting.dev
2021-04-22 16:56:06,725 DEBUG scheduler Queued events for site meeting.dev
2021-04-22 16:56:06,758 INFO scheduler Scheduled Job Start: frappe.monitor.flush for meeting.dev
2021-04-22 16:56:06,911 INFO scheduler Scheduled Job Complete: frappe.monitor.flush for meeting.dev
2021-04-22 16:56:06,980 INFO scheduler Scheduled Job Start: frappe.utils.global_search.sync_global_search for meeting.dev
2021-04-22 16:56:07,143 INFO scheduler Scheduled Job Complete: frappe.utils.global_search.sync_global_search for meeting.dev
2021-04-22 16:56:07,223 INFO scheduler Scheduled Job Start: frappe.integrations.doctype.razorpay_settings.razorpay_settings.capture_payment for meeting.dev
2021-04-22 16:56:07,601 INFO scheduler Scheduled Job Complete: frappe.integrations.doctype.razorpay_settings.razorpay_settings.capture_payment for meeting.dev
2021-04-22 16:56:07,673 INFO scheduler Scheduled Job Start: frappe.email.doctype.email_account.email_account.notify_unreplied for meeting.dev
2021-04-22 16:56:07,979 INFO scheduler Scheduled Job Complete: frappe.email.doctype.email_account.email_account.notify_unreplied for meeting.dev
2021-04-22 16:56:08,052 INFO scheduler Scheduled Job Start: frappe.email.doctype.email_account.email_account.pull for meeting.dev
2021-04-22 16:56:08,368 INFO scheduler Scheduled Job Complete: frappe.email.doctype.email_account.email_account.pull for meeting.dev
2021-04-22 16:56:08,438 INFO scheduler Scheduled Job Start: frappe.email.queue.flush for meeting.dev
2021-04-22 16:56:08,699 INFO scheduler Scheduled Job Complete: frappe.email.queue.flush for meeting.dev
2021-04-22 16:57:06,987 DEBUG scheduler Queued events for site meeting.dev
2021-04-22 16:58:07,230 DEBUG scheduler Queued events for site meeting.dev
2021-04-22 16:59:07,466 DEBUG scheduler Queued events for site meeting.dev
2021-04-22 17:00:07,916 INFO scheduler Scheduled Job Start: frappe.email.doctype.newsletter.newsletter.send_scheduled_email for meeting.dev
2021-04-22 17:00:08,068 DEBUG scheduler Queued events for site meeting.dev
2021-04-22 17:00:08,460 INFO scheduler Scheduled Job Complete: frappe.email.doctype.newsletter.newsletter.send_scheduled_email for meeting.dev
2021-04-22 17:00:08,552 INFO scheduler Scheduled Job Start: frappe.integrations.doctype.google_calendar.google_calendar.sync for meeting.dev
2021-04-22 17:00:09,126 INFO scheduler Scheduled Job Complete: frappe.integrations.doctype.google_calendar.google_calendar.sync for meeting.dev
2021-04-22 17:00:09,223 INFO scheduler Scheduled Job Start: frappe.desk.form.document_follow.send_hourly_updates for meeting.dev
2021-04-22 17:00:09,613 INFO scheduler Scheduled Job Complete: frappe.desk.form.document_follow.send_hourly_updates for meeting.dev
2021-04-22 17:00:09,706 INFO scheduler Scheduled Job Start: frappe.deferred_insert.save_to_db for meeting.dev
2021-04-22 17:00:10,084 INFO scheduler Scheduled Job Complete: frappe.deferred_insert.save_to_db for meeting.dev
2021-04-22 17:00:10,175 INFO scheduler Scheduled Job Start: frappe.desk.page.backups.backups.delete_downloadable_backups for meeting.dev
2021-04-22 17:00:10,590 INFO scheduler Scheduled Job Complete: frappe.desk.page.backups.backups.delete_downloadable_backups for meeting.dev
2021-04-22 17:00:10,678 INFO scheduler Scheduled Job Start: frappe.utils.error.collect_error_snapshots for meeting.dev
2021-04-22 17:00:11,084 INFO scheduler Scheduled Job Complete: frappe.utils.error.collect_error_snapshots for meeting.dev
2021-04-22 17:00:11,176 INFO scheduler Scheduled Job Start: frappe.model.utils.user_settings.sync_user_settings for meeting.dev
2021-04-22 17:00:11,572 INFO scheduler Scheduled Job Complete: frappe.model.utils.user_settings.sync_user_settings for meeting.dev
2021-04-22 17:00:11,660 INFO scheduler Scheduled Job Start: frappe.model.utils.link_count.update_link_count for meeting.dev
2021-04-22 17:00:12,055 INFO scheduler Scheduled Job Complete: frappe.model.utils.link_count.update_link_count for meeting.dev
2021-04-22 17:00:12,144 INFO scheduler Scheduled Job Start: frappe.monitor.flush for meeting.dev
2021-04-22 17:00:12,303 INFO scheduler Scheduled Job Complete: frappe.monitor.flush for meeting.dev
2021-04-22 17:00:12,375 INFO scheduler Scheduled Job Start: frappe.utils.global_search.sync_global_search for meeting.dev
2021-04-22 17:00:12,548 INFO scheduler Scheduled Job Complete: frappe.utils.global_search.sync_global_search for meeting.dev
2021-04-22 17:00:12,622 INFO scheduler Scheduled Job Start: frappe.integrations.doctype.razorpay_settings.razorpay_settings.capture_payment for meeting.dev
2021-04-22 17:00:13,014 INFO scheduler Scheduled Job Complete: frappe.integrations.doctype.razorpay_settings.razorpay_settings.capture_payment for meeting.dev
2021-04-22 17:00:13,084 INFO scheduler Scheduled Job Start: frappe.email.doctype.email_account.email_account.notify_unreplied for meeting.dev
2021-04-22 17:00:13,403 INFO scheduler Scheduled Job Complete: frappe.email.doctype.email_account.email_account.notify_unreplied for meeting.dev
2021-04-22 17:00:13,482 INFO scheduler Scheduled Job Start: frappe.email.doctype.email_account.email_account.pull for meeting.dev
2021-04-22 17:00:13,800 INFO scheduler Scheduled Job Complete: frappe.email.doctype.email_account.email_account.pull for meeting.dev
2021-04-22 17:00:13,873 INFO scheduler Scheduled Job Start: frappe.email.queue.flush for meeting.dev
2021-04-22 17:00:14,144 INFO scheduler Scheduled Job Complete: frappe.email.queue.flush for meeting.dev
2021-04-22 17:00:14,215 INFO scheduler Scheduled Job Start: frappe.twofactor.delete_all_barcodes_for_users for meeting.dev
2021-04-22 17:00:14,643 INFO scheduler Scheduled Job Complete: frappe.twofactor.delete_all_barcodes_for_users for meeting.dev
2021-04-22 17:00:14,728 INFO scheduler Scheduled Job Start: frappe.website.doctype.web_page.web_page.check_publish_status for meeting.dev
2021-04-22 17:00:15,196 INFO scheduler Scheduled Job Complete: frappe.website.doctype.web_page.web_page.check_publish_status for meeting.dev
2021-04-22 17:00:15,292 INFO scheduler Scheduled Job Start: frappe.oauth.delete_oauth2_data for meeting.dev
2021-04-22 17:00:15,718 INFO scheduler Scheduled Job Complete: frappe.oauth.delete_oauth2_data for meeting.dev
2021-04-22 17:01:08,480 DEBUG scheduler Queued events for site meeting.dev
2021-04-22 17:02:08,770 DEBUG scheduler Queued events for site meeting.dev
2021-04-22 17:03:09,007 DEBUG scheduler Queued events for site meeting.dev
2021-04-22 17:04:09,512 DEBUG scheduler Queued events for site meeting.dev
2021-04-22 17:04:09,546 INFO scheduler Scheduled Job Start: frappe.monitor.flush for meeting.dev
2021-04-22 17:04:09,712 INFO scheduler Scheduled Job Complete: frappe.monitor.flush for meeting.dev
2021-04-22 17:04:09,797 INFO scheduler Scheduled Job Start: frappe.utils.global_search.sync_global_search for meeting.dev
2021-04-22 17:04:10,015 INFO scheduler Scheduled Job Complete: frappe.utils.global_search.sync_global_search for meeting.dev
2021-04-22 17:04:10,090 INFO scheduler Scheduled Job Start: frappe.integrations.doctype.razorpay_settings.razorpay_settings.capture_payment for meeting.dev
2021-04-22 17:04:10,495 INFO scheduler Scheduled Job Complete: frappe.integrations.doctype.razorpay_settings.razorpay_settings.capture_payment for meeting.dev
2021-04-22 17:04:10,567 INFO scheduler Scheduled Job Start: frappe.email.doctype.email_account.email_account.notify_unreplied for meeting.dev
2021-04-22 17:04:10,876 INFO scheduler Scheduled Job Complete: frappe.email.doctype.email_account.email_account.notify_unreplied for meeting.dev
2021-04-22 17:04:10,949 INFO scheduler Scheduled Job Start: frappe.email.doctype.email_account.email_account.pull for meeting.dev
2021-04-22 17:04:11,263 INFO scheduler Scheduled Job Complete: frappe.email.doctype.email_account.email_account.pull for meeting.dev
2021-04-22 17:04:11,335 INFO scheduler Scheduled Job Start: frappe.email.queue.flush for meeting.dev
2021-04-22 17:04:11,603 INFO scheduler Scheduled Job Complete: frappe.email.queue.flush for meeting.dev
2021-04-22 17:13:19,333 DEBUG scheduler Queued events for site meeting.dev
2021-04-22 17:13:19,380 INFO scheduler Scheduled Job Start: frappe.monitor.flush for meeting.dev
2021-04-22 17:13:19,602 INFO scheduler Scheduled Job Complete: frappe.monitor.flush for meeting.dev
2021-04-22 17:13:19,699 INFO scheduler Scheduled Job Start: frappe.utils.global_search.sync_global_search for meeting.dev
2021-04-22 17:13:19,861 INFO scheduler Scheduled Job Complete: frappe.utils.global_search.sync_global_search for meeting.dev
2021-04-22 17:13:19,937 INFO scheduler Scheduled Job Start: frappe.integrations.doctype.razorpay_settings.razorpay_settings.capture_payment for meeting.dev
2021-04-22 17:13:20,369 INFO scheduler Scheduled Job Complete: frappe.integrations.doctype.razorpay_settings.razorpay_settings.capture_payment for meeting.dev
2021-04-22 17:13:20,441 INFO scheduler Scheduled Job Start: frappe.email.doctype.email_account.email_account.notify_unreplied for meeting.dev
2021-04-22 17:13:20,792 INFO scheduler Scheduled Job Complete: frappe.email.doctype.email_account.email_account.notify_unreplied for meeting.dev
2021-04-22 17:13:20,864 INFO scheduler Scheduled Job Start: frappe.email.doctype.email_account.email_account.pull for meeting.dev
2021-04-22 17:13:21,189 INFO scheduler Scheduled Job Complete: frappe.email.doctype.email_account.email_account.pull for meeting.dev
2021-04-22 17:13:21,261 INFO scheduler Scheduled Job Start: frappe.email.queue.flush for meeting.dev
2021-04-22 17:13:21,536 INFO scheduler Scheduled Job Complete: frappe.email.queue.flush for meeting.dev
2021-04-22 17:14:19,614 DEBUG scheduler Queued events for site meeting.dev
2021-04-22 17:15:19,883 DEBUG scheduler Queued events for site meeting.dev
2021-04-22 17:15:19,948 INFO scheduler Scheduled Job Start: frappe.twofactor.delete_all_barcodes_for_users for meeting.dev
2021-04-22 17:15:20,463 INFO scheduler Scheduled Job Complete: frappe.twofactor.delete_all_barcodes_for_users for meeting.dev
2021-04-22 17:15:20,575 INFO scheduler Scheduled Job Start: frappe.website.doctype.web_page.web_page.check_publish_status for meeting.dev
2021-04-22 17:15:21,127 INFO scheduler Scheduled Job Complete: frappe.website.doctype.web_page.web_page.check_publish_status for meeting.dev
2021-04-22 17:15:21,235 INFO scheduler Scheduled Job Start: frappe.oauth.delete_oauth2_data for meeting.dev
2021-04-22 17:15:21,686 INFO scheduler Scheduled Job Complete: frappe.oauth.delete_oauth2_data for meeting.dev
2021-04-22 17:16:20,893 DEBUG scheduler Queued events for site meeting.dev
2021-04-22 17:16:20,931 INFO scheduler Scheduled Job Start: frappe.monitor.flush for meeting.dev
2021-04-22 17:16:21,151 INFO scheduler Scheduled Job Complete: frappe.monitor.flush for meeting.dev
2021-04-22 17:16:21,257 INFO scheduler Scheduled Job Start: frappe.utils.global_search.sync_global_search for meeting.dev
2021-04-22 17:16:21,457 INFO scheduler Scheduled Job Complete: frappe.utils.global_search.sync_global_search for meeting.dev
2021-04-22 17:16:21,561 INFO scheduler Scheduled Job Start: frappe.integrations.doctype.razorpay_settings.razorpay_settings.capture_payment for meeting.dev
2021-04-22 17:16:22,084 INFO scheduler Scheduled Job Complete: frappe.integrations.doctype.razorpay_settings.razorpay_settings.capture_payment for meeting.dev
2021-04-22 17:16:22,203 INFO scheduler Scheduled Job Start: frappe.email.doctype.email_account.email_account.notify_unreplied for meeting.dev
2021-04-22 17:16:22,644 INFO scheduler Scheduled Job Complete: frappe.email.doctype.email_account.email_account.notify_unreplied for meeting.dev
2021-04-22 17:16:22,746 INFO scheduler Scheduled Job Start: frappe.email.doctype.email_account.email_account.pull for meeting.dev
2021-04-22 17:16:23,206 INFO scheduler Scheduled Job Complete: frappe.email.doctype.email_account.email_account.pull for meeting.dev
2021-04-22 17:16:23,300 INFO scheduler Scheduled Job Start: frappe.email.queue.flush for meeting.dev
2021-04-22 17:16:23,677 INFO scheduler Scheduled Job Complete: frappe.email.queue.flush for meeting.dev
2021-04-22 17:17:21,235 DEBUG scheduler Queued events for site meeting.dev
2021-04-22 17:18:21,553 DEBUG scheduler Queued events for site meeting.dev
2021-04-22 17:19:21,843 DEBUG scheduler Queued events for site meeting.dev
2021-04-22 17:20:22,231 DEBUG scheduler Queued events for site meeting.dev
2021-04-22 17:20:22,268 INFO scheduler Scheduled Job Start: frappe.monitor.flush for meeting.dev
2021-04-22 17:20:22,504 INFO scheduler Scheduled Job Complete: frappe.monitor.flush for meeting.dev
2021-04-22 17:20:22,609 INFO scheduler Scheduled Job Start: frappe.utils.global_search.sync_global_search for meeting.dev
2021-04-22 17:20:22,838 INFO scheduler Scheduled Job Complete: frappe.utils.global_search.sync_global_search for meeting.dev
2021-04-22 17:20:22,937 INFO scheduler Scheduled Job Start: frappe.integrations.doctype.razorpay_settings.razorpay_settings.capture_payment for meeting.dev
2021-04-22 17:20:23,470 INFO scheduler Scheduled Job Complete: frappe.integrations.doctype.razorpay_settings.razorpay_settings.capture_payment for meeting.dev
2021-04-22 17:20:23,573 INFO scheduler Scheduled Job Start: frappe.email.doctype.email_account.email_account.notify_unreplied for meeting.dev
2021-04-22 17:20:24,023 INFO scheduler Scheduled Job Complete: frappe.email.doctype.email_account.email_account.notify_unreplied for meeting.dev
2021-04-22 17:20:24,125 INFO scheduler Scheduled Job Start: frappe.email.doctype.email_account.email_account.pull for meeting.dev
2021-04-22 17:20:24,552 INFO scheduler Scheduled Job Complete: frappe.email.doctype.email_account.email_account.pull for meeting.dev
2021-04-22 17:20:24,652 INFO scheduler Scheduled Job Start: frappe.email.queue.flush for meeting.dev
2021-04-22 17:20:25,021 INFO scheduler Scheduled Job Complete: frappe.email.queue.flush for meeting.dev
2021-04-22 17:21:22,564 DEBUG scheduler Queued events for site meeting.dev
2021-04-22 17:22:22,871 DEBUG scheduler Queued events for site meeting.dev
2021-04-22 17:23:23,120 DEBUG scheduler Queued events for site meeting.dev
2021-04-22 17:24:23,400 DEBUG scheduler Queued events for site meeting.dev
2021-04-22 17:24:23,431 INFO scheduler Scheduled Job Start: frappe.monitor.flush for meeting.dev
2021-04-22 17:24:23,592 INFO scheduler Scheduled Job Complete: frappe.monitor.flush for meeting.dev
2021-04-22 17:24:23,669 INFO scheduler Scheduled Job Start: frappe.utils.global_search.sync_global_search for meeting.dev
2021-04-22 17:24:23,824 INFO scheduler Scheduled Job Complete: frappe.utils.global_search.sync_global_search for meeting.dev
2021-04-22 17:24:23,898 INFO scheduler Scheduled Job Start: frappe.integrations.doctype.razorpay_settings.razorpay_settings.capture_payment for meeting.dev
2021-04-22 17:24:24,293 INFO scheduler Scheduled Job Complete: frappe.integrations.doctype.razorpay_settings.razorpay_settings.capture_payment for meeting.dev
2021-04-22 17:24:24,364 INFO scheduler Scheduled Job Start: frappe.email.doctype.email_account.email_account.notify_unreplied for meeting.dev
2021-04-22 17:24:24,671 INFO scheduler Scheduled Job Complete: frappe.email.doctype.email_account.email_account.notify_unreplied for meeting.dev
2021-04-22 17:24:24,741 INFO scheduler Scheduled Job Start: frappe.email.doctype.email_account.email_account.pull for meeting.dev
2021-04-22 17:24:25,069 INFO scheduler Scheduled Job Complete: frappe.email.doctype.email_account.email_account.pull for meeting.dev
2021-04-22 17:24:25,143 INFO scheduler Scheduled Job Start: frappe.email.queue.flush for meeting.dev
2021-04-22 17:24:25,412 INFO scheduler Scheduled Job Complete: frappe.email.queue.flush for meeting.dev
2021-04-22 17:25:23,665 DEBUG scheduler Queued events for site meeting.dev
2021-04-22 17:26:23,902 DEBUG scheduler Queued events for site meeting.dev
2021-04-22 17:27:24,136 DEBUG scheduler Queued events for site meeting.dev
2021-04-22 17:28:24,409 DEBUG scheduler Queued events for site meeting.dev
2021-04-22 17:28:24,440 INFO scheduler Scheduled Job Start: frappe.monitor.flush for meeting.dev
2021-04-22 17:28:24,596 INFO scheduler Scheduled Job Complete: frappe.monitor.flush for meeting.dev
2021-04-22 17:28:24,668 INFO scheduler Scheduled Job Start: frappe.utils.global_search.sync_global_search for meeting.dev
2021-04-22 17:28:24,828 INFO scheduler Scheduled Job Complete: frappe.utils.global_search.sync_global_search for meeting.dev
2021-04-22 17:28:24,903 INFO scheduler Scheduled Job Start: frappe.integrations.doctype.razorpay_settings.razorpay_settings.capture_payment for meeting.dev
2021-04-22 17:28:25,287 INFO scheduler Scheduled Job Complete: frappe.integrations.doctype.razorpay_settings.razorpay_settings.capture_payment for meeting.dev
2021-04-22 17:28:25,360 INFO scheduler Scheduled Job Start: frappe.email.doctype.email_account.email_account.notify_unreplied for meeting.dev
2021-04-22 17:28:25,672 INFO scheduler Scheduled Job Complete: frappe.email.doctype.email_account.email_account.notify_unreplied for meeting.dev
2021-04-22 17:28:25,749 INFO scheduler Scheduled Job Start: frappe.email.doctype.email_account.email_account.pull for meeting.dev
2021-04-22 17:28:26,073 INFO scheduler Scheduled Job Complete: frappe.email.doctype.email_account.email_account.pull for meeting.dev
2021-04-22 17:28:26,142 INFO scheduler Scheduled Job Start: frappe.email.queue.flush for meeting.dev
2021-04-22 17:28:26,406 INFO scheduler Scheduled Job Complete: frappe.email.queue.flush for meeting.dev
2021-04-22 17:29:24,660 DEBUG scheduler Queued events for site meeting.dev
2021-04-22 17:30:24,956 DEBUG scheduler Queued events for site meeting.dev
2021-04-22 17:30:25,026 INFO scheduler Scheduled Job Start: frappe.twofactor.delete_all_barcodes_for_users for meeting.dev
2021-04-22 17:30:25,766 INFO scheduler Scheduled Job Complete: frappe.twofactor.delete_all_barcodes_for_users for meeting.dev
2021-04-22 17:30:25,907 INFO scheduler Scheduled Job Start: frappe.website.doctype.web_page.web_page.check_publish_status for meeting.dev
2021-04-22 17:30:26,500 INFO scheduler Scheduled Job Complete: frappe.website.doctype.web_page.web_page.check_publish_status for meeting.dev
2021-04-22 17:30:26,619 INFO scheduler Scheduled Job Start: frappe.oauth.delete_oauth2_data for meeting.dev
2021-04-22 17:30:27,114 INFO scheduler Scheduled Job Complete: frappe.oauth.delete_oauth2_data for meeting.dev
2021-04-22 17:31:25,229 DEBUG scheduler Queued events for site meeting.dev
2021-04-22 17:32:25,508 DEBUG scheduler Queued events for site meeting.dev
2021-04-22 17:32:25,543 INFO scheduler Scheduled Job Start: frappe.monitor.flush for meeting.dev
2021-04-22 17:32:25,705 INFO scheduler Scheduled Job Complete: frappe.monitor.flush for meeting.dev
2021-04-22 17:32:25,779 INFO scheduler Scheduled Job Start: frappe.utils.global_search.sync_global_search for meeting.dev
2021-04-22 17:32:25,939 INFO scheduler Scheduled Job Complete: frappe.utils.global_search.sync_global_search for meeting.dev
2021-04-22 17:32:26,017 INFO scheduler Scheduled Job Start: frappe.integrations.doctype.razorpay_settings.razorpay_settings.capture_payment for meeting.dev
2021-04-22 17:32:26,422 INFO scheduler Scheduled Job Complete: frappe.integrations.doctype.razorpay_settings.razorpay_settings.capture_payment for meeting.dev
2021-04-22 17:32:26,508 INFO scheduler Scheduled Job Start: frappe.email.doctype.email_account.email_account.notify_unreplied for meeting.dev
2021-04-22 17:32:26,858 INFO scheduler Scheduled Job Complete: frappe.email.doctype.email_account.email_account.notify_unreplied for meeting.dev
2021-04-22 17:32:26,950 INFO scheduler Scheduled Job Start: frappe.email.doctype.email_account.email_account.pull for meeting.dev
2021-04-22 17:32:27,357 INFO scheduler Scheduled Job Complete: frappe.email.doctype.email_account.email_account.pull for meeting.dev
2021-04-22 17:32:27,473 INFO scheduler Scheduled Job Start: frappe.email.queue.flush for meeting.dev
2021-04-22 17:32:27,868 INFO scheduler Scheduled Job Complete: frappe.email.queue.flush for meeting.dev
2021-04-22 17:33:25,773 DEBUG scheduler Queued events for site meeting.dev
2021-04-22 17:34:26,007 DEBUG scheduler Queued events for site meeting.dev
2021-04-22 17:35:26,254 DEBUG scheduler Queued events for site meeting.dev
2021-04-22 17:36:26,614 DEBUG scheduler Queued events for site meeting.dev
2021-04-22 17:36:26,652 INFO scheduler Scheduled Job Start: frappe.monitor.flush for meeting.dev
2021-04-22 17:36:26,857 INFO scheduler Scheduled Job Complete: frappe.monitor.flush for meeting.dev
2021-04-22 17:36:26,939 INFO scheduler Scheduled Job Start: frappe.utils.global_search.sync_global_search for meeting.dev
2021-04-22 17:36:27,119 INFO scheduler Scheduled Job Complete: frappe.utils.global_search.sync_global_search for meeting.dev
2021-04-22 17:36:27,240 INFO scheduler Scheduled Job Start: frappe.integrations.doctype.razorpay_settings.razorpay_settings.capture_payment for meeting.dev
2021-04-22 17:36:27,780 INFO scheduler Scheduled Job Complete: frappe.integrations.doctype.razorpay_settings.razorpay_settings.capture_payment for meeting.dev
2021-04-22 17:36:27,891 INFO scheduler Scheduled Job Start: frappe.email.doctype.email_account.email_account.notify_unreplied for meeting.dev
2021-04-22 17:36:28,413 INFO scheduler Scheduled Job Complete: frappe.email.doctype.email_account.email_account.notify_unreplied for meeting.dev
2021-04-22 17:36:28,519 INFO scheduler Scheduled Job Start: frappe.email.doctype.email_account.email_account.pull for meeting.dev
2021-04-22 17:36:28,972 INFO scheduler Scheduled Job Complete: frappe.email.doctype.email_account.email_account.pull for meeting.dev
2021-04-22 17:36:29,043 INFO scheduler Scheduled Job Start: frappe.email.queue.flush for meeting.dev
2021-04-22 17:36:29,324 INFO scheduler Scheduled Job Complete: frappe.email.queue.flush for meeting.dev
2021-04-22 17:37:26,934 DEBUG scheduler Queued events for site meeting.dev
2021-04-22 17:38:27,220 DEBUG scheduler Queued events for site meeting.dev
2021-04-22 17:39:27,490 DEBUG scheduler Queued events for site meeting.dev
2021-04-22 17:40:27,865 DEBUG scheduler Queued events for site meeting.dev
2021-04-22 17:40:27,907 INFO scheduler Scheduled Job Start: frappe.monitor.flush for meeting.dev
2021-04-22 17:40:28,162 INFO scheduler Scheduled Job Complete: frappe.monitor.flush for meeting.dev
2021-04-22 17:40:28,266 INFO scheduler Scheduled Job Start: frappe.utils.global_search.sync_global_search for meeting.dev
2021-04-22 17:40:28,461 INFO scheduler Scheduled Job Complete: frappe.utils.global_search.sync_global_search for meeting.dev
2021-04-22 17:40:28,563 INFO scheduler Scheduled Job Start: frappe.integrations.doctype.razorpay_settings.razorpay_settings.capture_payment for meeting.dev
2021-04-22 17:40:29,206 INFO scheduler Scheduled Job Complete: frappe.integrations.doctype.razorpay_settings.razorpay_settings.capture_payment for meeting.dev
2021-04-22 17:40:29,328 INFO scheduler Scheduled Job Start: frappe.email.doctype.email_account.email_account.notify_unreplied for meeting.dev
2021-04-22 17:40:29,893 INFO scheduler Scheduled Job Complete: frappe.email.doctype.email_account.email_account.notify_unreplied for meeting.dev
2021-04-22 17:40:30,024 INFO scheduler Scheduled Job Start: frappe.email.doctype.email_account.email_account.pull for meeting.dev
2021-04-22 17:40:30,448 INFO scheduler Scheduled Job Complete: frappe.email.doctype.email_account.email_account.pull for meeting.dev
2021-04-22 17:40:30,553 INFO scheduler Scheduled Job Start: frappe.email.queue.flush for meeting.dev
2021-04-22 17:40:30,968 INFO scheduler Scheduled Job Complete: frappe.email.queue.flush for meeting.dev
2021-04-22 17:41:28,162 DEBUG scheduler Queued events for site meeting.dev
2021-04-22 17:42:28,417 DEBUG scheduler Queued events for site meeting.dev
2021-04-22 17:43:28,842 DEBUG scheduler Queued events for site meeting.dev
2021-04-22 17:44:29,318 DEBUG scheduler Queued events for site meeting.dev
2021-04-22 17:44:29,341 INFO scheduler Scheduled Job Start: frappe.monitor.flush for meeting.dev
2021-04-22 17:44:29,636 INFO scheduler Scheduled Job Complete: frappe.monitor.flush for meeting.dev
2021-04-22 17:44:29,766 INFO scheduler Scheduled Job Start: frappe.utils.global_search.sync_global_search for meeting.dev
2021-04-22 17:44:30,029 INFO scheduler Scheduled Job Complete: frappe.utils.global_search.sync_global_search for meeting.dev
2021-04-22 17:44:30,161 INFO scheduler Scheduled Job Start: frappe.integrations.doctype.razorpay_settings.razorpay_settings.capture_payment for meeting.dev
2021-04-22 17:44:30,922 INFO scheduler Scheduled Job Complete: frappe.integrations.doctype.razorpay_settings.razorpay_settings.capture_payment for meeting.dev
2021-04-22 17:44:31,096 INFO scheduler Scheduled Job Start: frappe.email.doctype.email_account.email_account.notify_unreplied for meeting.dev
2021-04-22 17:44:31,615 INFO scheduler Scheduled Job Complete: frappe.email.doctype.email_account.email_account.notify_unreplied for meeting.dev
2021-04-22 17:44:31,738 INFO scheduler Scheduled Job Start: frappe.email.doctype.email_account.email_account.pull for meeting.dev
2021-04-22 17:44:32,246 INFO scheduler Scheduled Job Complete: frappe.email.doctype.email_account.email_account.pull for meeting.dev
2021-04-22 17:44:32,348 INFO scheduler Scheduled Job Start: frappe.email.queue.flush for meeting.dev
2021-04-22 17:44:32,871 INFO scheduler Scheduled Job Complete: frappe.email.queue.flush for meeting.dev
2021-04-22 17:45:29,608 DEBUG scheduler Queued events for site meeting.dev
2021-04-22 17:45:29,664 INFO scheduler Scheduled Job Start: frappe.twofactor.delete_all_barcodes_for_users for meeting.dev
2021-04-22 17:45:30,256 INFO scheduler Scheduled Job Complete: frappe.twofactor.delete_all_barcodes_for_users for meeting.dev
2021-04-22 17:45:30,351 INFO scheduler Scheduled Job Start: frappe.website.doctype.web_page.web_page.check_publish_status for meeting.dev
2021-04-22 17:45:30,855 INFO scheduler Scheduled Job Complete: frappe.website.doctype.web_page.web_page.check_publish_status for meeting.dev
2021-04-22 17:45:30,951 INFO scheduler Scheduled Job Start: frappe.oauth.delete_oauth2_data for meeting.dev
2021-04-22 17:45:31,380 INFO scheduler Scheduled Job Complete: frappe.oauth.delete_oauth2_data for meeting.dev
2021-04-22 17:46:29,890 DEBUG scheduler Queued events for site meeting.dev
2021-04-22 17:47:30,139 DEBUG scheduler Queued events for site meeting.dev
2021-04-22 17:48:30,489 DEBUG scheduler Queued events for site meeting.dev
2021-04-22 17:48:30,530 INFO scheduler Scheduled Job Start: frappe.monitor.flush for meeting.dev
2021-04-22 17:48:30,743 INFO scheduler Scheduled Job Complete: frappe.monitor.flush for meeting.dev
2021-04-22 17:48:30,853 INFO scheduler Scheduled Job Start: frappe.utils.global_search.sync_global_search for meeting.dev
2021-04-22 17:48:31,027 INFO scheduler Scheduled Job Complete: frappe.utils.global_search.sync_global_search for meeting.dev
2021-04-22 17:48:31,104 INFO scheduler Scheduled Job Start: frappe.integrations.doctype.razorpay_settings.razorpay_settings.capture_payment for meeting.dev
2021-04-22 17:48:31,555 INFO scheduler Scheduled Job Complete: frappe.integrations.doctype.razorpay_settings.razorpay_settings.capture_payment for meeting.dev
2021-04-22 17:48:31,650 INFO scheduler Scheduled Job Start: frappe.email.doctype.email_account.email_account.notify_unreplied for meeting.dev
2021-04-22 17:48:32,050 INFO scheduler Scheduled Job Complete: frappe.email.doctype.email_account.email_account.notify_unreplied for meeting.dev
2021-04-22 17:48:32,125 INFO scheduler Scheduled Job Start: frappe.email.doctype.email_account.email_account.pull for meeting.dev
2021-04-22 17:48:32,514 INFO scheduler Scheduled Job Complete: frappe.email.doctype.email_account.email_account.pull for meeting.dev
2021-04-22 17:48:32,611 INFO scheduler Scheduled Job Start: frappe.email.queue.flush for meeting.dev
2021-04-22 17:48:32,890 INFO scheduler Scheduled Job Complete: frappe.email.queue.flush for meeting.dev
2021-04-22 17:49:30,775 DEBUG scheduler Queued events for site meeting.dev
2021-04-22 17:50:31,023 DEBUG scheduler Queued events for site meeting.dev
2021-04-22 17:51:31,355 DEBUG scheduler Queued events for site meeting.dev
2021-04-22 17:52:31,655 DEBUG scheduler Queued events for site meeting.dev
2021-04-22 17:52:31,700 INFO scheduler Scheduled Job Start: frappe.monitor.flush for meeting.dev
2021-04-22 17:52:31,885 INFO scheduler Scheduled Job Complete: frappe.monitor.flush for meeting.dev
2021-04-22 17:52:31,972 INFO scheduler Scheduled Job Start: frappe.utils.global_search.sync_global_search for meeting.dev
2021-04-22 17:52:32,136 INFO scheduler Scheduled Job Complete: frappe.utils.global_search.sync_global_search for meeting.dev
2021-04-22 17:52:32,214 INFO scheduler Scheduled Job Start: frappe.integrations.doctype.razorpay_settings.razorpay_settings.capture_payment for meeting.dev
2021-04-22 17:52:32,605 INFO scheduler Scheduled Job Complete: frappe.integrations.doctype.razorpay_settings.razorpay_settings.capture_payment for meeting.dev
2021-04-22 17:52:32,679 INFO scheduler Scheduled Job Start: frappe.email.doctype.email_account.email_account.notify_unreplied for meeting.dev
2021-04-22 17:52:32,999 INFO scheduler Scheduled Job Complete: frappe.email.doctype.email_account.email_account.notify_unreplied for meeting.dev
2021-04-22 17:52:33,070 INFO scheduler Scheduled Job Start: frappe.email.doctype.email_account.email_account.pull for meeting.dev
2021-04-22 17:52:33,438 INFO scheduler Scheduled Job Complete: frappe.email.doctype.email_account.email_account.pull for meeting.dev
2021-04-22 17:52:33,510 INFO scheduler Scheduled Job Start: frappe.email.queue.flush for meeting.dev
2021-04-22 17:52:33,770 INFO scheduler Scheduled Job Complete: frappe.email.queue.flush for meeting.dev
2021-04-22 17:53:31,930 DEBUG scheduler Queued events for site meeting.dev
2021-04-22 17:54:32,201 DEBUG scheduler Queued events for site meeting.dev
2021-04-22 17:55:32,461 DEBUG scheduler Queued events for site meeting.dev
2021-04-22 17:56:32,725 DEBUG scheduler Queued events for site meeting.dev
2021-04-22 17:56:32,756 INFO scheduler Scheduled Job Start: frappe.monitor.flush for meeting.dev
2021-04-22 17:56:32,911 INFO scheduler Scheduled Job Complete: frappe.monitor.flush for meeting.dev
2021-04-22 17:56:32,983 INFO scheduler Scheduled Job Start: frappe.utils.global_search.sync_global_search for meeting.dev
2021-04-22 17:56:33,136 INFO scheduler Scheduled Job Complete: frappe.utils.global_search.sync_global_search for meeting.dev
2021-04-22 17:56:33,218 INFO scheduler Scheduled Job Start: frappe.integrations.doctype.razorpay_settings.razorpay_settings.capture_payment for meeting.dev
2021-04-22 17:56:33,639 INFO scheduler Scheduled Job Complete: frappe.integrations.doctype.razorpay_settings.razorpay_settings.capture_payment for meeting.dev
2021-04-22 17:56:33,711 INFO scheduler Scheduled Job Start: frappe.email.doctype.email_account.email_account.notify_unreplied for meeting.dev
2021-04-22 17:56:34,132 INFO scheduler Scheduled Job Complete: frappe.email.doctype.email_account.email_account.notify_unreplied for meeting.dev
2021-04-22 17:56:34,265 INFO scheduler Scheduled Job Start: frappe.email.doctype.email_account.email_account.pull for meeting.dev
2021-04-22 17:56:34,759 INFO scheduler Scheduled Job Complete: frappe.email.doctype.email_account.email_account.pull for meeting.dev
2021-04-22 17:56:34,889 INFO scheduler Scheduled Job Start: frappe.email.queue.flush for meeting.dev
2021-04-22 17:56:35,197 INFO scheduler Scheduled Job Complete: frappe.email.queue.flush for meeting.dev
2021-04-22 17:57:33,014 DEBUG scheduler Queued events for site meeting.dev
2021-04-22 17:58:33,261 DEBUG scheduler Queued events for site meeting.dev
2021-04-22 17:59:33,516 DEBUG scheduler Queued events for site meeting.dev
2021-04-22 18:00:33,974 INFO scheduler Scheduled Job Start: frappe.email.doctype.newsletter.newsletter.send_scheduled_email for meeting.dev
2021-04-22 18:00:34,145 DEBUG scheduler Queued events for site meeting.dev
2021-04-22 18:00:34,752 INFO scheduler Scheduled Job Complete: frappe.email.doctype.newsletter.newsletter.send_scheduled_email for meeting.dev
2021-04-22 18:00:34,847 INFO scheduler Scheduled Job Start: frappe.integrations.doctype.google_calendar.google_calendar.sync for meeting.dev
2021-04-22 18:00:35,445 INFO scheduler Scheduled Job Complete: frappe.integrations.doctype.google_calendar.google_calendar.sync for meeting.dev
2021-04-22 18:00:35,535 INFO scheduler Scheduled Job Start: frappe.desk.form.document_follow.send_hourly_updates for meeting.dev
2021-04-22 18:00:35,956 INFO scheduler Scheduled Job Complete: frappe.desk.form.document_follow.send_hourly_updates for meeting.dev
2021-04-22 18:00:36,046 INFO scheduler Scheduled Job Start: frappe.deferred_insert.save_to_db for meeting.dev
2021-04-22 18:00:36,463 INFO scheduler Scheduled Job Complete: frappe.deferred_insert.save_to_db for meeting.dev
2021-04-22 18:00:36,591 INFO scheduler Scheduled Job Start: frappe.desk.page.backups.backups.delete_downloadable_backups for meeting.dev
2021-04-22 18:00:37,081 INFO scheduler Scheduled Job Complete: frappe.desk.page.backups.backups.delete_downloadable_backups for meeting.dev
2021-04-22 18:00:37,175 INFO scheduler Scheduled Job Start: frappe.utils.error.collect_error_snapshots for meeting.dev
2021-04-22 18:00:37,578 INFO scheduler Scheduled Job Complete: frappe.utils.error.collect_error_snapshots for meeting.dev
2021-04-22 18:00:37,663 INFO scheduler Scheduled Job Start: frappe.model.utils.user_settings.sync_user_settings for meeting.dev
2021-04-22 18:00:38,176 INFO scheduler Scheduled Job Complete: frappe.model.utils.user_settings.sync_user_settings for meeting.dev
2021-04-22 18:00:38,277 INFO scheduler Scheduled Job Start: frappe.model.utils.link_count.update_link_count for meeting.dev
2021-04-22 18:00:38,709 INFO scheduler Scheduled Job Complete: frappe.model.utils.link_count.update_link_count for meeting.dev
2021-04-22 18:00:38,795 INFO scheduler Scheduled Job Start: frappe.monitor.flush for meeting.dev
2021-04-22 18:00:38,972 INFO scheduler Scheduled Job Complete: frappe.monitor.flush for meeting.dev
2021-04-22 18:00:39,082 INFO scheduler Scheduled Job Start: frappe.utils.global_search.sync_global_search for meeting.dev
2021-04-22 18:00:39,246 INFO scheduler Scheduled Job Complete: frappe.utils.global_search.sync_global_search for meeting.dev
2021-04-22 18:00:39,339 INFO scheduler Scheduled Job Start: frappe.integrations.doctype.razorpay_settings.razorpay_settings.capture_payment for meeting.dev
2021-04-22 18:00:40,067 INFO scheduler Scheduled Job Complete: frappe.integrations.doctype.razorpay_settings.razorpay_settings.capture_payment for meeting.dev
2021-04-22 18:00:40,215 INFO scheduler Scheduled Job Start: frappe.email.doctype.email_account.email_account.notify_unreplied for meeting.dev
2021-04-22 18:00:40,618 INFO scheduler Scheduled Job Complete: frappe.email.doctype.email_account.email_account.notify_unreplied for meeting.dev
2021-04-22 18:00:40,690 INFO scheduler Scheduled Job Start: frappe.email.doctype.email_account.email_account.pull for meeting.dev
2021-04-22 18:00:41,199 INFO scheduler Scheduled Job Complete: frappe.email.doctype.email_account.email_account.pull for meeting.dev
2021-04-22 18:00:41,340 INFO scheduler Scheduled Job Start: frappe.email.queue.flush for meeting.dev
2021-04-22 18:00:41,718 INFO scheduler Scheduled Job Complete: frappe.email.queue.flush for meeting.dev
2021-04-22 18:00:41,838 INFO scheduler Scheduled Job Start: frappe.twofactor.delete_all_barcodes_for_users for meeting.dev
2021-04-22 18:00:42,504 INFO scheduler Scheduled Job Complete: frappe.twofactor.delete_all_barcodes_for_users for meeting.dev
2021-04-22 18:00:42,607 INFO scheduler Scheduled Job Start: frappe.website.doctype.web_page.web_page.check_publish_status for meeting.dev
2021-04-22 18:00:43,104 INFO scheduler Scheduled Job Complete: frappe.website.doctype.web_page.web_page.check_publish_status for meeting.dev
2021-04-22 18:00:43,202 INFO scheduler Scheduled Job Start: frappe.oauth.delete_oauth2_data for meeting.dev
2021-04-22 18:00:43,898 INFO scheduler Scheduled Job Complete: frappe.oauth.delete_oauth2_data for meeting.dev
2021-04-22 18:01:34,615 DEBUG scheduler Queued events for site meeting.dev
2021-04-22 18:02:34,935 DEBUG scheduler Queued events for site meeting.dev
2021-04-22 18:03:35,197 DEBUG scheduler Queued events for site meeting.dev
2021-04-22 18:04:35,529 DEBUG scheduler Queued events for site meeting.dev
2021-04-22 18:04:35,576 INFO scheduler Scheduled Job Start: frappe.monitor.flush for meeting.dev
2021-04-22 18:04:35,746 INFO scheduler Scheduled Job Complete: frappe.monitor.flush for meeting.dev
2021-04-22 18:04:35,851 INFO scheduler Scheduled Job Start: frappe.utils.global_search.sync_global_search for meeting.dev
2021-04-22 18:04:36,011 INFO scheduler Scheduled Job Complete: frappe.utils.global_search.sync_global_search for meeting.dev
2021-04-22 18:04:36,085 INFO scheduler Scheduled Job Start: frappe.integrations.doctype.razorpay_settings.razorpay_settings.capture_payment for meeting.dev
2021-04-22 18:04:36,488 INFO scheduler Scheduled Job Complete: frappe.integrations.doctype.razorpay_settings.razorpay_settings.capture_payment for meeting.dev
2021-04-22 18:04:36,564 INFO scheduler Scheduled Job Start: frappe.email.doctype.email_account.email_account.notify_unreplied for meeting.dev
2021-04-22 18:04:36,897 INFO scheduler Scheduled Job Complete: frappe.email.doctype.email_account.email_account.notify_unreplied for meeting.dev
2021-04-22 18:04:36,969 INFO scheduler Scheduled Job Start: frappe.email.doctype.email_account.email_account.pull for meeting.dev
2021-04-22 18:04:37,289 INFO scheduler Scheduled Job Complete: frappe.email.doctype.email_account.email_account.pull for meeting.dev
2021-04-22 18:04:37,359 INFO scheduler Scheduled Job Start: frappe.email.queue.flush for meeting.dev
2021-04-22 18:04:37,622 INFO scheduler Scheduled Job Complete: frappe.email.queue.flush for meeting.dev
2021-04-22 18:05:35,899 DEBUG scheduler Queued events for site meeting.dev
2021-04-22 18:06:36,171 DEBUG scheduler Queued events for site meeting.dev
2021-04-22 18:07:36,417 DEBUG scheduler Queued events for site meeting.dev
2021-04-22 18:08:36,807 DEBUG scheduler Queued events for site meeting.dev
2021-04-22 18:08:36,869 INFO scheduler Scheduled Job Start: frappe.monitor.flush for meeting.dev
2021-04-22 18:08:37,103 INFO scheduler Scheduled Job Complete: frappe.monitor.flush for meeting.dev
2021-04-22 18:08:37,179 INFO scheduler Scheduled Job Start: frappe.utils.global_search.sync_global_search for meeting.dev
2021-04-22 18:08:37,354 INFO scheduler Scheduled Job Complete: frappe.utils.global_search.sync_global_search for meeting.dev
2021-04-22 18:08:37,429 INFO scheduler Scheduled Job Start: frappe.integrations.doctype.razorpay_settings.razorpay_settings.capture_payment for meeting.dev
2021-04-22 18:08:37,977 INFO scheduler Scheduled Job Complete: frappe.integrations.doctype.razorpay_settings.razorpay_settings.capture_payment for meeting.dev
2021-04-22 18:08:38,054 INFO scheduler Scheduled Job Start: frappe.email.doctype.email_account.email_account.notify_unreplied for meeting.dev
2021-04-22 18:08:38,374 INFO scheduler Scheduled Job Complete: frappe.email.doctype.email_account.email_account.notify_unreplied for meeting.dev
2021-04-22 18:08:38,451 INFO scheduler Scheduled Job Start: frappe.email.doctype.email_account.email_account.pull for meeting.dev
2021-04-22 18:08:38,792 INFO scheduler Scheduled Job Complete: frappe.email.doctype.email_account.email_account.pull for meeting.dev
2021-04-22 18:08:38,893 INFO scheduler Scheduled Job Start: frappe.email.queue.flush for meeting.dev
2021-04-22 18:08:39,192 INFO scheduler Scheduled Job Complete: frappe.email.queue.flush for meeting.dev
2021-04-22 18:09:37,118 DEBUG scheduler Queued events for site meeting.dev
2021-04-22 18:10:37,472 DEBUG scheduler Queued events for site meeting.dev
2021-04-22 18:11:37,740 DEBUG scheduler Queued events for site meeting.dev
2021-04-22 18:12:38,014 DEBUG scheduler Queued events for site meeting.dev
2021-04-22 18:12:38,058 INFO scheduler Scheduled Job Start: frappe.monitor.flush for meeting.dev
2021-04-22 18:12:38,287 INFO scheduler Scheduled Job Complete: frappe.monitor.flush for meeting.dev
2021-04-22 18:12:38,364 INFO scheduler Scheduled Job Start: frappe.utils.global_search.sync_global_search for meeting.dev
2021-04-22 18:12:38,533 INFO scheduler Scheduled Job Complete: frappe.utils.global_search.sync_global_search for meeting.dev
2021-04-22 18:12:38,607 INFO scheduler Scheduled Job Start: frappe.integrations.doctype.razorpay_settings.razorpay_settings.capture_payment for meeting.dev
2021-04-22 18:12:39,139 INFO scheduler Scheduled Job Complete: frappe.integrations.doctype.razorpay_settings.razorpay_settings.capture_payment for meeting.dev
2021-04-22 18:12:39,260 INFO scheduler Scheduled Job Start: frappe.email.doctype.email_account.email_account.notify_unreplied for meeting.dev
2021-04-22 18:12:39,625 INFO scheduler Scheduled Job Complete: frappe.email.doctype.email_account.email_account.notify_unreplied for meeting.dev
2021-04-22 18:12:39,699 INFO scheduler Scheduled Job Start: frappe.email.doctype.email_account.email_account.pull for meeting.dev
2021-04-22 18:12:40,021 INFO scheduler Scheduled Job Complete: frappe.email.doctype.email_account.email_account.pull for meeting.dev
2021-04-22 18:12:40,094 INFO scheduler Scheduled Job Start: frappe.email.queue.flush for meeting.dev
2021-04-22 18:12:40,359 INFO scheduler Scheduled Job Complete: frappe.email.queue.flush for meeting.dev
2021-04-22 18:13:38,310 DEBUG scheduler Queued events for site meeting.dev
2021-04-22 18:14:38,632 DEBUG scheduler Queued events for site meeting.dev
2021-04-22 18:15:38,981 DEBUG scheduler Queued events for site meeting.dev
2021-04-22 18:15:39,046 INFO scheduler Scheduled Job Start: frappe.twofactor.delete_all_barcodes_for_users for meeting.dev
2021-04-22 18:15:39,567 INFO scheduler Scheduled Job Complete: frappe.twofactor.delete_all_barcodes_for_users for meeting.dev
2021-04-22 18:15:39,661 INFO scheduler Scheduled Job Start: frappe.website.doctype.web_page.web_page.check_publish_status for meeting.dev
2021-04-22 18:15:40,227 INFO scheduler Scheduled Job Complete: frappe.website.doctype.web_page.web_page.check_publish_status for meeting.dev
2021-04-22 18:15:40,342 INFO scheduler Scheduled Job Start: frappe.oauth.delete_oauth2_data for meeting.dev
2021-04-22 18:15:40,820 INFO scheduler Scheduled Job Complete: frappe.oauth.delete_oauth2_data for meeting.dev
2021-04-22 18:16:39,291 DEBUG scheduler Queued events for site meeting.dev
2021-04-22 18:16:39,328 INFO scheduler Scheduled Job Start: frappe.monitor.flush for meeting.dev
2021-04-22 18:16:39,495 INFO scheduler Scheduled Job Complete: frappe.monitor.flush for meeting.dev
2021-04-22 18:16:39,570 INFO scheduler Scheduled Job Start: frappe.utils.global_search.sync_global_search for meeting.dev
2021-04-22 18:16:39,726 INFO scheduler Scheduled Job Complete: frappe.utils.global_search.sync_global_search for meeting.dev
2021-04-22 18:16:39,798 INFO scheduler Scheduled Job Start: frappe.integrations.doctype.razorpay_settings.razorpay_settings.capture_payment for meeting.dev
2021-04-22 18:16:40,213 INFO scheduler Scheduled Job Complete: frappe.integrations.doctype.razorpay_settings.razorpay_settings.capture_payment for meeting.dev
2021-04-22 18:16:40,289 INFO scheduler Scheduled Job Start: frappe.email.doctype.email_account.email_account.notify_unreplied for meeting.dev
2021-04-22 18:16:40,598 INFO scheduler Scheduled Job Complete: frappe.email.doctype.email_account.email_account.notify_unreplied for meeting.dev
2021-04-22 18:16:40,671 INFO scheduler Scheduled Job Start: frappe.email.doctype.email_account.email_account.pull for meeting.dev
2021-04-22 18:16:40,995 INFO scheduler Scheduled Job Complete: frappe.email.doctype.email_account.email_account.pull for meeting.dev
2021-04-22 18:16:41,068 INFO scheduler Scheduled Job Start: frappe.email.queue.flush for meeting.dev
2021-04-22 18:16:41,333 INFO scheduler Scheduled Job Complete: frappe.email.queue.flush for meeting.dev
2021-04-22 18:17:39,551 DEBUG scheduler Queued events for site meeting.dev
2021-04-22 18:18:39,787 DEBUG scheduler Queued events for site meeting.dev
2021-04-22 18:19:40,039 DEBUG scheduler Queued events for site meeting.dev
2021-04-22 18:20:40,316 DEBUG scheduler Queued events for site meeting.dev
2021-04-22 18:20:40,348 INFO scheduler Scheduled Job Start: frappe.monitor.flush for meeting.dev
2021-04-22 18:20:40,504 INFO scheduler Scheduled Job Complete: frappe.monitor.flush for meeting.dev
2021-04-22 18:20:40,575 INFO scheduler Scheduled Job Start: frappe.utils.global_search.sync_global_search for meeting.dev
2021-04-22 18:20:40,730 INFO scheduler Scheduled Job Complete: frappe.utils.global_search.sync_global_search for meeting.dev
2021-04-22 18:20:40,801 INFO scheduler Scheduled Job Start: frappe.integrations.doctype.razorpay_settings.razorpay_settings.capture_payment for meeting.dev
2021-04-22 18:20:41,194 INFO scheduler Scheduled Job Complete: frappe.integrations.doctype.razorpay_settings.razorpay_settings.capture_payment for meeting.dev
2021-04-22 18:20:41,270 INFO scheduler Scheduled Job Start: frappe.email.doctype.email_account.email_account.notify_unreplied for meeting.dev
2021-04-22 18:20:41,584 INFO scheduler Scheduled Job Complete: frappe.email.doctype.email_account.email_account.notify_unreplied for meeting.dev
2021-04-22 18:20:41,656 INFO scheduler Scheduled Job Start: frappe.email.doctype.email_account.email_account.pull for meeting.dev
2021-04-22 18:20:41,979 INFO scheduler Scheduled Job Complete: frappe.email.doctype.email_account.email_account.pull for meeting.dev
2021-04-22 18:20:42,058 INFO scheduler Scheduled Job Start: frappe.email.queue.flush for meeting.dev
2021-04-22 18:20:42,322 INFO scheduler Scheduled Job Complete: frappe.email.queue.flush for meeting.dev
2021-04-22 18:21:40,567 DEBUG scheduler Queued events for site meeting.dev
2021-04-22 18:22:40,802 DEBUG scheduler Queued events for site meeting.dev
2021-04-22 18:23:41,046 DEBUG scheduler Queued events for site meeting.dev
2021-04-22 18:24:41,312 DEBUG scheduler Queued events for site meeting.dev
2021-04-22 18:24:41,357 INFO scheduler Scheduled Job Start: frappe.monitor.flush for meeting.dev
2021-04-22 18:24:41,672 INFO scheduler Scheduled Job Complete: frappe.monitor.flush for meeting.dev
2021-04-22 18:24:41,750 INFO scheduler Scheduled Job Start: frappe.utils.global_search.sync_global_search for meeting.dev
2021-04-22 18:24:41,912 INFO scheduler Scheduled Job Complete: frappe.utils.global_search.sync_global_search for meeting.dev
2021-04-22 18:24:41,989 INFO scheduler Scheduled Job Start: frappe.integrations.doctype.razorpay_settings.razorpay_settings.capture_payment for meeting.dev
2021-04-22 18:24:42,398 INFO scheduler Scheduled Job Complete: frappe.integrations.doctype.razorpay_settings.razorpay_settings.capture_payment for meeting.dev
2021-04-22 18:24:42,477 INFO scheduler Scheduled Job Start: frappe.email.doctype.email_account.email_account.notify_unreplied for meeting.dev
2021-04-22 18:24:42,838 INFO scheduler Scheduled Job Complete: frappe.email.doctype.email_account.email_account.notify_unreplied for meeting.dev
2021-04-22 18:24:42,919 INFO scheduler Scheduled Job Start: frappe.email.doctype.email_account.email_account.pull for meeting.dev
2021-04-22 18:24:43,251 INFO scheduler Scheduled Job Complete: frappe.email.doctype.email_account.email_account.pull for meeting.dev
2021-04-22 18:24:43,358 INFO scheduler Scheduled Job Start: frappe.email.queue.flush for meeting.dev
2021-04-22 18:24:43,670 INFO scheduler Scheduled Job Complete: frappe.email.queue.flush for meeting.dev
2021-04-22 18:25:41,589 DEBUG scheduler Queued events for site meeting.dev
2021-04-22 18:26:41,924 DEBUG scheduler Queued events for site meeting.dev
2021-04-22 18:27:42,210 DEBUG scheduler Queued events for site meeting.dev
2021-04-22 18:28:42,723 DEBUG scheduler Queued events for site meeting.dev
2021-04-22 18:28:42,808 INFO scheduler Scheduled Job Start: frappe.monitor.flush for meeting.dev
2021-04-22 18:28:43,020 INFO scheduler Scheduled Job Complete: frappe.monitor.flush for meeting.dev
2021-04-22 18:28:43,094 INFO scheduler Scheduled Job Start: frappe.utils.global_search.sync_global_search for meeting.dev
2021-04-22 18:28:43,274 INFO scheduler Scheduled Job Complete: frappe.utils.global_search.sync_global_search for meeting.dev
2021-04-22 18:28:43,352 INFO scheduler Scheduled Job Start: frappe.integrations.doctype.razorpay_settings.razorpay_settings.capture_payment for meeting.dev
2021-04-22 18:28:43,878 INFO scheduler Scheduled Job Complete: frappe.integrations.doctype.razorpay_settings.razorpay_settings.capture_payment for meeting.dev
2021-04-22 18:28:43,954 INFO scheduler Scheduled Job Start: frappe.email.doctype.email_account.email_account.notify_unreplied for meeting.dev
2021-04-22 18:28:44,290 INFO scheduler Scheduled Job Complete: frappe.email.doctype.email_account.email_account.notify_unreplied for meeting.dev
2021-04-22 18:28:44,369 INFO scheduler Scheduled Job Start: frappe.email.doctype.email_account.email_account.pull for meeting.dev
2021-04-22 18:28:44,696 INFO scheduler Scheduled Job Complete: frappe.email.doctype.email_account.email_account.pull for meeting.dev
2021-04-22 18:28:44,778 INFO scheduler Scheduled Job Start: frappe.email.queue.flush for meeting.dev
2021-04-22 18:28:45,061 INFO scheduler Scheduled Job Complete: frappe.email.queue.flush for meeting.dev
2021-04-22 18:29:43,029 DEBUG scheduler Queued events for site meeting.dev
2021-04-22 18:30:43,331 DEBUG scheduler Queued events for site meeting.dev
2021-04-22 18:30:43,408 INFO scheduler Scheduled Job Start: frappe.twofactor.delete_all_barcodes_for_users for meeting.dev
2021-04-22 18:30:43,946 INFO scheduler Scheduled Job Complete: frappe.twofactor.delete_all_barcodes_for_users for meeting.dev
2021-04-22 18:30:44,069 INFO scheduler Scheduled Job Start: frappe.website.doctype.web_page.web_page.check_publish_status for meeting.dev
2021-04-22 18:30:44,638 INFO scheduler Scheduled Job Complete: frappe.website.doctype.web_page.web_page.check_publish_status for meeting.dev
2021-04-22 18:30:44,731 INFO scheduler Scheduled Job Start: frappe.oauth.delete_oauth2_data for meeting.dev
2021-04-22 18:30:45,291 INFO scheduler Scheduled Job Complete: frappe.oauth.delete_oauth2_data for meeting.dev
2021-04-22 18:31:43,598 DEBUG scheduler Queued events for site meeting.dev
2021-04-22 18:32:43,875 DEBUG scheduler Queued events for site meeting.dev
2021-04-22 18:32:43,908 INFO scheduler Scheduled Job Start: frappe.monitor.flush for meeting.dev
2021-04-22 18:32:44,063 INFO scheduler Scheduled Job Complete: frappe.monitor.flush for meeting.dev
2021-04-22 18:32:44,139 INFO scheduler Scheduled Job Start: frappe.utils.global_search.sync_global_search for meeting.dev
2021-04-22 18:32:44,292 INFO scheduler Scheduled Job Complete: frappe.utils.global_search.sync_global_search for meeting.dev
2021-04-22 18:32:44,361 INFO scheduler Scheduled Job Start: frappe.integrations.doctype.razorpay_settings.razorpay_settings.capture_payment for meeting.dev
2021-04-22 18:32:44,754 INFO scheduler Scheduled Job Complete: frappe.integrations.doctype.razorpay_settings.razorpay_settings.capture_payment for meeting.dev
2021-04-22 18:32:44,825 INFO scheduler Scheduled Job Start: frappe.email.doctype.email_account.email_account.notify_unreplied for meeting.dev
2021-04-22 18:32:45,138 INFO scheduler Scheduled Job Complete: frappe.email.doctype.email_account.email_account.notify_unreplied for meeting.dev
2021-04-22 18:32:45,226 INFO scheduler Scheduled Job Start: frappe.email.doctype.email_account.email_account.pull for meeting.dev
2021-04-22 18:32:45,542 INFO scheduler Scheduled Job Complete: frappe.email.doctype.email_account.email_account.pull for meeting.dev
2021-04-22 18:32:45,614 INFO scheduler Scheduled Job Start: frappe.email.queue.flush for meeting.dev
2021-04-22 18:32:45,876 INFO scheduler Scheduled Job Complete: frappe.email.queue.flush for meeting.dev
2021-04-22 18:33:44,151 DEBUG scheduler Queued events for site meeting.dev
2021-04-22 18:34:44,384 DEBUG scheduler Queued events for site meeting.dev
2021-04-22 18:35:44,741 DEBUG scheduler Queued events for site meeting.dev
2021-04-22 18:36:45,059 DEBUG scheduler Queued events for site meeting.dev
2021-04-22 18:36:45,093 INFO scheduler Scheduled Job Start: frappe.monitor.flush for meeting.dev
2021-04-22 18:36:45,252 INFO scheduler Scheduled Job Complete: frappe.monitor.flush for meeting.dev
2021-04-22 18:36:45,329 INFO scheduler Scheduled Job Start: frappe.utils.global_search.sync_global_search for meeting.dev
2021-04-22 18:36:45,509 INFO scheduler Scheduled Job Complete: frappe.utils.global_search.sync_global_search for meeting.dev
2021-04-22 18:36:45,682 INFO scheduler Scheduled Job Start: frappe.integrations.doctype.razorpay_settings.razorpay_settings.capture_payment for meeting.dev
2021-04-22 18:36:46,630 INFO scheduler Scheduled Job Complete: frappe.integrations.doctype.razorpay_settings.razorpay_settings.capture_payment for meeting.dev
2021-04-22 18:36:46,733 INFO scheduler Scheduled Job Start: frappe.email.doctype.email_account.email_account.notify_unreplied for meeting.dev
2021-04-22 18:36:47,227 INFO scheduler Scheduled Job Complete: frappe.email.doctype.email_account.email_account.notify_unreplied for meeting.dev
2021-04-22 18:36:47,319 INFO scheduler Scheduled Job Start: frappe.email.doctype.email_account.email_account.pull for meeting.dev
2021-04-22 18:36:47,716 INFO scheduler Scheduled Job Complete: frappe.email.doctype.email_account.email_account.pull for meeting.dev
2021-04-22 18:36:47,807 INFO scheduler Scheduled Job Start: frappe.email.queue.flush for meeting.dev
2021-04-22 18:36:48,121 INFO scheduler Scheduled Job Complete: frappe.email.queue.flush for meeting.dev
2021-04-22 18:37:45,320 DEBUG scheduler Queued events for site meeting.dev
2021-04-22 18:38:45,611 DEBUG scheduler Queued events for site meeting.dev
2021-04-22 18:39:45,848 DEBUG scheduler Queued events for site meeting.dev
2021-04-22 18:40:46,122 DEBUG scheduler Queued events for site meeting.dev
2021-04-22 18:40:46,152 INFO scheduler Scheduled Job Start: frappe.monitor.flush for meeting.dev
2021-04-22 18:40:46,313 INFO scheduler Scheduled Job Complete: frappe.monitor.flush for meeting.dev
2021-04-22 18:40:46,384 INFO scheduler Scheduled Job Start: frappe.utils.global_search.sync_global_search for meeting.dev
2021-04-22 18:40:46,552 INFO scheduler Scheduled Job Complete: frappe.utils.global_search.sync_global_search for meeting.dev
2021-04-22 18:40:46,636 INFO scheduler Scheduled Job Start: frappe.integrations.doctype.razorpay_settings.razorpay_settings.capture_payment for meeting.dev
2021-04-22 18:40:47,040 INFO scheduler Scheduled Job Complete: frappe.integrations.doctype.razorpay_settings.razorpay_settings.capture_payment for meeting.dev
2021-04-22 18:40:47,120 INFO scheduler Scheduled Job Start: frappe.email.doctype.email_account.email_account.notify_unreplied for meeting.dev
2021-04-22 18:40:47,443 INFO scheduler Scheduled Job Complete: frappe.email.doctype.email_account.email_account.notify_unreplied for meeting.dev
2021-04-22 18:40:47,517 INFO scheduler Scheduled Job Start: frappe.email.doctype.email_account.email_account.pull for meeting.dev
2021-04-22 18:40:47,854 INFO scheduler Scheduled Job Complete: frappe.email.doctype.email_account.email_account.pull for meeting.dev
2021-04-22 18:40:47,931 INFO scheduler Scheduled Job Start: frappe.email.queue.flush for meeting.dev
2021-04-22 18:40:48,211 INFO scheduler Scheduled Job Complete: frappe.email.queue.flush for meeting.dev
2021-04-22 18:41:46,400 DEBUG scheduler Queued events for site meeting.dev
2021-04-22 18:42:46,639 DEBUG scheduler Queued events for site meeting.dev
2021-04-22 18:43:46,879 DEBUG scheduler Queued events for site meeting.dev
2021-04-22 18:44:47,248 DEBUG scheduler Queued events for site meeting.dev
2021-04-22 18:44:47,322 INFO scheduler Scheduled Job Start: frappe.monitor.flush for meeting.dev
2021-04-22 18:44:47,513 INFO scheduler Scheduled Job Complete: frappe.monitor.flush for meeting.dev
2021-04-22 18:44:47,607 INFO scheduler Scheduled Job Start: frappe.utils.global_search.sync_global_search for meeting.dev
2021-04-22 18:44:47,807 INFO scheduler Scheduled Job Complete: frappe.utils.global_search.sync_global_search for meeting.dev
2021-04-22 18:44:47,942 INFO scheduler Scheduled Job Start: frappe.integrations.doctype.razorpay_settings.razorpay_settings.capture_payment for meeting.dev
2021-04-22 18:44:48,417 INFO scheduler Scheduled Job Complete: frappe.integrations.doctype.razorpay_settings.razorpay_settings.capture_payment for meeting.dev
2021-04-22 18:44:48,497 INFO scheduler Scheduled Job Start: frappe.email.doctype.email_account.email_account.notify_unreplied for meeting.dev
2021-04-22 18:44:48,931 INFO scheduler Scheduled Job Complete: frappe.email.doctype.email_account.email_account.notify_unreplied for meeting.dev
2021-04-22 18:44:49,049 INFO scheduler Scheduled Job Start: frappe.email.doctype.email_account.email_account.pull for meeting.dev
2021-04-22 18:44:49,493 INFO scheduler Scheduled Job Complete: frappe.email.doctype.email_account.email_account.pull for meeting.dev
2021-04-22 18:44:49,576 INFO scheduler Scheduled Job Start: frappe.email.queue.flush for meeting.dev
2021-04-22 18:44:49,862 INFO scheduler Scheduled Job Complete: frappe.email.queue.flush for meeting.dev
2021-04-22 18:45:47,576 DEBUG scheduler Queued events for site meeting.dev
2021-04-22 18:45:47,641 INFO scheduler Scheduled Job Start: frappe.twofactor.delete_all_barcodes_for_users for meeting.dev
2021-04-22 18:45:48,085 INFO scheduler Scheduled Job Complete: frappe.twofactor.delete_all_barcodes_for_users for meeting.dev
2021-04-22 18:45:48,169 INFO scheduler Scheduled Job Start: frappe.website.doctype.web_page.web_page.check_publish_status for meeting.dev
2021-04-22 18:45:48,689 INFO scheduler Scheduled Job Complete: frappe.website.doctype.web_page.web_page.check_publish_status for meeting.dev
2021-04-22 18:45:48,811 INFO scheduler Scheduled Job Start: frappe.oauth.delete_oauth2_data for meeting.dev
2021-04-22 18:45:49,296 INFO scheduler Scheduled Job Complete: frappe.oauth.delete_oauth2_data for meeting.dev
2021-04-22 18:46:47,904 DEBUG scheduler Queued events for site meeting.dev
2021-04-22 18:47:48,190 DEBUG scheduler Queued events for site meeting.dev
2021-04-22 18:48:48,480 DEBUG scheduler Queued events for site meeting.dev
2021-04-22 18:48:48,512 INFO scheduler Scheduled Job Start: frappe.monitor.flush for meeting.dev
2021-04-22 18:48:48,671 INFO scheduler Scheduled Job Complete: frappe.monitor.flush for meeting.dev
2021-04-22 18:48:48,748 INFO scheduler Scheduled Job Start: frappe.utils.global_search.sync_global_search for meeting.dev
2021-04-22 18:48:48,908 INFO scheduler Scheduled Job Complete: frappe.utils.global_search.sync_global_search for meeting.dev
2021-04-22 18:48:48,982 INFO scheduler Scheduled Job Start: frappe.integrations.doctype.razorpay_settings.razorpay_settings.capture_payment for meeting.dev
2021-04-22 18:48:49,402 INFO scheduler Scheduled Job Complete: frappe.integrations.doctype.razorpay_settings.razorpay_settings.capture_payment for meeting.dev
2021-04-22 18:48:49,475 INFO scheduler Scheduled Job Start: frappe.email.doctype.email_account.email_account.notify_unreplied for meeting.dev
2021-04-22 18:48:49,912 INFO scheduler Scheduled Job Complete: frappe.email.doctype.email_account.email_account.notify_unreplied for meeting.dev
2021-04-22 18:48:49,996 INFO scheduler Scheduled Job Start: frappe.email.doctype.email_account.email_account.pull for meeting.dev
2021-04-22 18:48:50,336 INFO scheduler Scheduled Job Complete: frappe.email.doctype.email_account.email_account.pull for meeting.dev
2021-04-22 18:48:50,406 INFO scheduler Scheduled Job Start: frappe.email.queue.flush for meeting.dev
2021-04-22 18:48:50,711 INFO scheduler Scheduled Job Complete: frappe.email.queue.flush for meeting.dev
2021-04-22 18:49:48,731 DEBUG scheduler Queued events for site meeting.dev
2021-04-22 18:50:49,048 DEBUG scheduler Queued events for site meeting.dev
2021-04-22 18:51:49,285 DEBUG scheduler Queued events for site meeting.dev
2021-04-22 18:52:49,557 DEBUG scheduler Queued events for site meeting.dev
2021-04-22 18:52:49,591 INFO scheduler Scheduled Job Start: frappe.monitor.flush for meeting.dev
2021-04-22 18:52:49,757 INFO scheduler Scheduled Job Complete: frappe.monitor.flush for meeting.dev
2021-04-22 18:52:49,833 INFO scheduler Scheduled Job Start: frappe.utils.global_search.sync_global_search for meeting.dev
2021-04-22 18:52:49,992 INFO scheduler Scheduled Job Complete: frappe.utils.global_search.sync_global_search for meeting.dev
2021-04-22 18:52:50,095 INFO scheduler Scheduled Job Start: frappe.integrations.doctype.razorpay_settings.razorpay_settings.capture_payment for meeting.dev
2021-04-22 18:53:49,824 DEBUG scheduler Queued events for site meeting.dev
