2021-04-22 15:40:45,760 DEBUG scheduler Queued events for site my_site
2021-04-22 15:40:46,033 INFO scheduler Scheduled Job Start: frappe.utils.global_search.sync_global_search for meeting.dev
2021-04-22 15:40:46,213 INFO scheduler Scheduled Job Complete: frappe.utils.global_search.sync_global_search for meeting.dev
2021-04-22 15:40:46,286 INFO scheduler Scheduled Job Start: frappe.integrations.doctype.razorpay_settings.razorpay_settings.capture_payment for meeting.dev
2021-04-22 15:40:46,668 INFO scheduler Scheduled Job Complete: frappe.integrations.doctype.razorpay_settings.razorpay_settings.capture_payment for meeting.dev
2021-04-22 15:40:46,742 INFO scheduler Scheduled Job Start: frappe.email.doctype.email_account.email_account.notify_unreplied for meeting.dev
2021-04-22 15:40:47,191 INFO scheduler Scheduled Job Complete: frappe.email.doctype.email_account.email_account.notify_unreplied for meeting.dev
2021-04-22 15:40:47,266 INFO scheduler Scheduled Job Start: frappe.email.doctype.email_account.email_account.pull for meeting.dev
2021-04-22 15:40:47,617 INFO scheduler Scheduled Job Complete: frappe.email.doctype.email_account.email_account.pull for meeting.dev
2021-04-22 15:40:47,708 INFO scheduler Scheduled Job Start: frappe.email.queue.flush for meeting.dev
2021-04-22 15:40:48,012 INFO scheduler Scheduled Job Complete: frappe.email.queue.flush for meeting.dev
2021-04-22 15:41:46,023 DEBUG scheduler Queued events for site my_site
2021-04-22 15:42:46,260 DEBUG scheduler Queued events for site my_site
2021-04-22 15:43:46,496 DEBUG scheduler Queued events for site my_site
2021-04-22 15:44:46,808 DEBUG scheduler Queued events for site my_site
2021-04-22 15:45:47,088 DEBUG scheduler Queued events for site my_site
2021-04-22 15:46:47,394 DEBUG scheduler Queued events for site my_site
2021-04-22 15:47:47,705 DEBUG scheduler Queued events for site my_site
2021-04-22 15:48:47,989 DEBUG scheduler Queued events for site my_site
2021-04-22 15:49:48,238 DEBUG scheduler Queued events for site my_site
2021-04-22 15:50:48,477 DEBUG scheduler Queued events for site my_site
2021-04-22 15:51:48,721 DEBUG scheduler Queued events for site my_site
2021-04-22 15:52:49,033 DEBUG scheduler Queued events for site my_site
2021-04-22 15:53:49,290 DEBUG scheduler Queued events for site my_site
2021-04-22 15:54:49,534 DEBUG scheduler Queued events for site my_site
2021-04-22 15:55:49,781 DEBUG scheduler Queued events for site my_site
2021-04-22 15:56:50,124 DEBUG scheduler Queued events for site my_site
2021-04-22 15:57:50,376 DEBUG scheduler Queued events for site my_site
2021-04-22 15:58:50,656 DEBUG scheduler Queued events for site my_site
2021-04-22 15:59:50,894 DEBUG scheduler Queued events for site my_site
2021-04-22 16:00:51,253 DEBUG scheduler Queued events for site my_site
2021-04-22 16:01:51,511 DEBUG scheduler Queued events for site my_site
2021-04-22 16:02:51,922 DEBUG scheduler Queued events for site my_site
2021-04-22 16:03:52,159 DEBUG scheduler Queued events for site my_site
2021-04-22 16:04:52,492 DEBUG scheduler Queued events for site my_site
2021-04-22 16:05:52,740 DEBUG scheduler Queued events for site my_site
2021-04-22 16:06:52,975 DEBUG scheduler Queued events for site my_site
2021-04-22 16:07:53,266 DEBUG scheduler Queued events for site my_site
2021-04-22 16:08:53,613 DEBUG scheduler Queued events for site my_site
2021-04-22 16:09:53,945 DEBUG scheduler Queued events for site my_site
2021-04-22 16:10:54,190 DEBUG scheduler Queued events for site my_site
2021-04-22 16:11:54,443 DEBUG scheduler Queued events for site my_site
2021-04-22 16:12:54,776 DEBUG scheduler Queued events for site my_site
2021-04-22 16:13:55,031 DEBUG scheduler Queued events for site my_site
2021-04-22 16:14:55,319 DEBUG scheduler Queued events for site my_site
2021-04-22 16:15:55,575 DEBUG scheduler Queued events for site my_site
2021-04-22 16:16:55,987 DEBUG scheduler Queued events for site my_site
2021-04-22 16:17:56,292 DEBUG scheduler Queued events for site my_site
2021-04-22 16:18:56,579 DEBUG scheduler Queued events for site my_site
2021-04-22 16:19:56,820 DEBUG scheduler Queued events for site my_site
2021-04-22 16:20:57,103 DEBUG scheduler Queued events for site my_site
2021-04-22 16:21:57,375 DEBUG scheduler Queued events for site my_site
2021-04-22 16:22:57,683 DEBUG scheduler Queued events for site my_site
2021-04-22 16:23:57,945 DEBUG scheduler Queued events for site my_site
2021-04-22 16:24:58,232 DEBUG scheduler Queued events for site my_site
2021-04-22 16:25:58,486 DEBUG scheduler Queued events for site my_site
2021-04-22 16:26:58,763 DEBUG scheduler Queued events for site my_site
2021-04-22 16:27:59,001 DEBUG scheduler Queued events for site my_site
2021-04-22 16:28:59,367 DEBUG scheduler Queued events for site my_site
2021-04-22 16:29:59,648 DEBUG scheduler Queued events for site my_site
2021-04-22 16:30:59,966 DEBUG scheduler Queued events for site my_site
2021-04-22 16:32:00,359 DEBUG scheduler Queued events for site my_site
2021-04-22 16:33:00,621 DEBUG scheduler Queued events for site my_site
2021-04-22 16:34:00,901 DEBUG scheduler Queued events for site my_site
2021-04-22 16:35:01,131 DEBUG scheduler Queued events for site my_site
2021-04-22 16:36:01,409 DEBUG scheduler Queued events for site my_site
2021-04-22 16:37:01,669 DEBUG scheduler Queued events for site my_site
2021-04-22 16:38:01,915 DEBUG scheduler Queued events for site my_site
2021-04-22 16:39:02,177 DEBUG scheduler Queued events for site my_site
2021-04-22 16:40:02,443 DEBUG scheduler Queued events for site my_site
2021-04-22 16:41:02,690 DEBUG scheduler Queued events for site my_site
2021-04-22 16:42:02,998 DEBUG scheduler Queued events for site my_site
2021-04-22 16:43:03,232 DEBUG scheduler Queued events for site my_site
2021-04-22 16:44:03,534 DEBUG scheduler Queued events for site my_site
2021-04-22 16:45:03,805 DEBUG scheduler Queued events for site my_site
2021-04-22 16:46:04,070 DEBUG scheduler Queued events for site my_site
2021-04-22 16:47:04,307 DEBUG scheduler Queued events for site my_site
2021-04-22 16:48:04,686 DEBUG scheduler Queued events for site my_site
2021-04-22 16:49:04,958 DEBUG scheduler Queued events for site my_site
2021-04-22 16:50:05,190 DEBUG scheduler Queued events for site my_site
2021-04-22 16:51:05,440 DEBUG scheduler Queued events for site my_site
2021-04-22 16:52:05,713 DEBUG scheduler Queued events for site my_site
2021-04-22 16:53:05,961 DEBUG scheduler Queued events for site my_site
2021-04-22 16:54:06,248 DEBUG scheduler Queued events for site my_site
2021-04-22 16:55:06,495 DEBUG scheduler Queued events for site my_site
2021-04-22 16:56:06,760 DEBUG scheduler Queued events for site my_site
2021-04-22 16:57:07,021 DEBUG scheduler Queued events for site my_site
2021-04-22 16:58:07,264 DEBUG scheduler Queued events for site my_site
2021-04-22 16:59:07,503 DEBUG scheduler Queued events for site my_site
2021-04-22 17:00:08,105 DEBUG scheduler Queued events for site my_site
2021-04-22 17:01:08,553 DEBUG scheduler Queued events for site my_site
2021-04-22 17:02:08,806 DEBUG scheduler Queued events for site my_site
2021-04-22 17:03:09,040 DEBUG scheduler Queued events for site my_site
2021-04-22 17:04:09,572 DEBUG scheduler Queued events for site my_site
2021-04-22 17:13:19,397 DEBUG scheduler Queued events for site my_site
2021-04-22 17:14:19,647 DEBUG scheduler Queued events for site my_site
2021-04-22 17:15:19,926 DEBUG scheduler Queued events for site my_site
2021-04-22 17:16:20,961 DEBUG scheduler Queued events for site my_site
2021-04-22 17:17:21,288 DEBUG scheduler Queued events for site my_site
2021-04-22 17:18:21,600 DEBUG scheduler Queued events for site my_site
2021-04-22 17:19:21,885 DEBUG scheduler Queued events for site my_site
2021-04-22 17:20:22,299 DEBUG scheduler Queued events for site my_site
2021-04-22 17:21:22,618 DEBUG scheduler Queued events for site my_site
2021-04-22 17:22:22,920 DEBUG scheduler Queued events for site my_site
2021-04-22 17:23:23,164 DEBUG scheduler Queued events for site my_site
2021-04-22 17:24:23,437 DEBUG scheduler Queued events for site my_site
2021-04-22 17:25:23,700 DEBUG scheduler Queued events for site my_site
2021-04-22 17:26:23,935 DEBUG scheduler Queued events for site my_site
2021-04-22 17:27:24,170 DEBUG scheduler Queued events for site my_site
2021-04-22 17:28:24,447 DEBUG scheduler Queued events for site my_site
2021-04-22 17:29:24,692 DEBUG scheduler Queued events for site my_site
2021-04-22 17:30:25,014 DEBUG scheduler Queued events for site my_site
2021-04-22 17:31:25,261 DEBUG scheduler Queued events for site my_site
2021-04-22 17:32:25,547 DEBUG scheduler Queued events for site my_site
2021-04-22 17:33:25,809 DEBUG scheduler Queued events for site my_site
2021-04-22 17:34:26,042 DEBUG scheduler Queued events for site my_site
2021-04-22 17:35:26,288 DEBUG scheduler Queued events for site my_site
2021-04-22 17:36:26,664 DEBUG scheduler Queued events for site my_site
2021-04-22 17:37:26,980 DEBUG scheduler Queued events for site my_site
2021-04-22 17:38:27,266 DEBUG scheduler Queued events for site my_site
2021-04-22 17:39:27,536 DEBUG scheduler Queued events for site my_site
2021-04-22 17:40:27,918 DEBUG scheduler Queued events for site my_site
2021-04-22 17:41:28,202 DEBUG scheduler Queued events for site my_site
2021-04-22 17:42:28,456 DEBUG scheduler Queued events for site my_site
2021-04-22 17:43:28,924 DEBUG scheduler Queued events for site my_site
2021-04-22 17:44:29,382 DEBUG scheduler Queued events for site my_site
2021-04-22 17:45:29,645 DEBUG scheduler Queued events for site my_site
2021-04-22 17:46:29,925 DEBUG scheduler Queued events for site my_site
2021-04-22 17:47:30,177 DEBUG scheduler Queued events for site my_site
2021-04-22 17:48:30,555 DEBUG scheduler Queued events for site my_site
2021-04-22 17:49:30,809 DEBUG scheduler Queued events for site my_site
2021-04-22 17:50:31,061 DEBUG scheduler Queued events for site my_site
2021-04-22 17:51:31,406 DEBUG scheduler Queued events for site my_site
2021-04-22 17:52:31,709 DEBUG scheduler Queued events for site my_site
2021-04-22 17:53:31,965 DEBUG scheduler Queued events for site my_site
2021-04-22 17:54:32,245 DEBUG scheduler Queued events for site my_site
2021-04-22 17:55:32,496 DEBUG scheduler Queued events for site my_site
2021-04-22 17:56:32,763 DEBUG scheduler Queued events for site my_site
2021-04-22 17:57:33,062 DEBUG scheduler Queued events for site my_site
2021-04-22 17:58:33,296 DEBUG scheduler Queued events for site my_site
2021-04-22 17:59:33,552 DEBUG scheduler Queued events for site my_site
2021-04-22 18:00:34,214 DEBUG scheduler Queued events for site my_site
2021-04-22 18:01:34,665 DEBUG scheduler Queued events for site my_site
2021-04-22 18:02:34,980 DEBUG scheduler Queued events for site my_site
2021-04-22 18:03:35,230 DEBUG scheduler Queued events for site my_site
2021-04-22 18:04:35,590 DEBUG scheduler Queued events for site my_site
2021-04-22 18:05:35,960 DEBUG scheduler Queued events for site my_site
2021-04-22 18:06:36,206 DEBUG scheduler Queued events for site my_site
2021-04-22 18:07:36,453 DEBUG scheduler Queued events for site my_site
2021-04-22 18:08:36,893 DEBUG scheduler Queued events for site my_site
2021-04-22 18:09:37,152 DEBUG scheduler Queued events for site my_site
2021-04-22 18:10:37,523 DEBUG scheduler Queued events for site my_site
2021-04-22 18:11:37,781 DEBUG scheduler Queued events for site my_site
2021-04-22 18:12:38,090 DEBUG scheduler Queued events for site my_site
2021-04-22 18:13:38,343 DEBUG scheduler Queued events for site my_site
2021-04-22 18:14:38,666 DEBUG scheduler Queued events for site my_site
2021-04-22 18:15:39,029 DEBUG scheduler Queued events for site my_site
2021-04-22 18:16:39,340 DEBUG scheduler Queued events for site my_site
2021-04-22 18:17:39,587 DEBUG scheduler Queued events for site my_site
2021-04-22 18:18:39,824 DEBUG scheduler Queued events for site my_site
2021-04-22 18:19:40,072 DEBUG scheduler Queued events for site my_site
2021-04-22 18:20:40,353 DEBUG scheduler Queued events for site my_site
2021-04-22 18:21:40,601 DEBUG scheduler Queued events for site my_site
2021-04-22 18:22:40,841 DEBUG scheduler Queued events for site my_site
2021-04-22 18:23:41,079 DEBUG scheduler Queued events for site my_site
2021-04-22 18:24:41,375 DEBUG scheduler Queued events for site my_site
2021-04-22 18:25:41,623 DEBUG scheduler Queued events for site my_site
2021-04-22 18:26:42,003 DEBUG scheduler Queued events for site my_site
2021-04-22 18:27:42,244 DEBUG scheduler Queued events for site my_site
2021-04-22 18:28:42,807 DEBUG scheduler Queued events for site my_site
2021-04-22 18:29:43,063 DEBUG scheduler Queued events for site my_site
2021-04-22 18:30:43,380 DEBUG scheduler Queued events for site my_site
2021-04-22 18:31:43,632 DEBUG scheduler Queued events for site my_site
2021-04-22 18:32:43,913 DEBUG scheduler Queued events for site my_site
2021-04-22 18:33:44,185 DEBUG scheduler Queued events for site my_site
2021-04-22 18:34:44,418 DEBUG scheduler Queued events for site my_site
2021-04-22 18:35:44,801 DEBUG scheduler Queued events for site my_site
2021-04-22 18:36:45,097 DEBUG scheduler Queued events for site my_site
2021-04-22 18:37:45,354 DEBUG scheduler Queued events for site my_site
2021-04-22 18:38:45,646 DEBUG scheduler Queued events for site my_site
2021-04-22 18:39:45,881 DEBUG scheduler Queued events for site my_site
2021-04-22 18:40:46,172 DEBUG scheduler Queued events for site my_site
2021-04-22 18:41:46,434 DEBUG scheduler Queued events for site my_site
2021-04-22 18:42:46,675 DEBUG scheduler Queued events for site my_site
2021-04-22 18:43:46,913 DEBUG scheduler Queued events for site my_site
2021-04-22 18:44:47,327 DEBUG scheduler Queued events for site my_site
2021-04-22 18:45:47,616 DEBUG scheduler Queued events for site my_site
2021-04-22 18:46:47,952 DEBUG scheduler Queued events for site my_site
2021-04-22 18:47:48,225 DEBUG scheduler Queued events for site my_site
2021-04-22 18:48:48,516 DEBUG scheduler Queued events for site my_site
2021-04-22 18:49:48,764 DEBUG scheduler Queued events for site my_site
2021-04-22 18:50:49,082 DEBUG scheduler Queued events for site my_site
2021-04-22 18:51:49,318 DEBUG scheduler Queued events for site my_site
2021-04-22 18:52:49,593 DEBUG scheduler Queued events for site my_site
2021-04-22 18:53:49,857 DEBUG scheduler Queued events for site my_site
2021-04-22 18:54:50,188 DEBUG scheduler Queued events for site my_site
2021-04-22 18:55:50,446 DEBUG scheduler Queued events for site my_site
2021-04-22 18:56:50,748 DEBUG scheduler Queued events for site my_site
2021-04-22 18:57:51,008 DEBUG scheduler Queued events for site my_site
2021-04-22 18:58:51,259 DEBUG scheduler Queued events for site my_site
2021-04-22 18:59:51,559 DEBUG scheduler Queued events for site my_site
2021-04-22 19:00:51,936 DEBUG scheduler Queued events for site my_site
2021-04-22 19:01:52,188 DEBUG scheduler Queued events for site my_site
2021-04-22 19:02:52,456 DEBUG scheduler Queued events for site my_site
2021-04-22 19:03:52,717 DEBUG scheduler Queued events for site my_site
2021-04-22 19:04:53,023 DEBUG scheduler Queued events for site my_site
2021-04-22 19:05:53,380 DEBUG scheduler Queued events for site my_site
2021-04-22 19:06:53,615 DEBUG scheduler Queued events for site my_site
2021-04-22 19:46:55,363 DEBUG scheduler Queued events for site my_site
2021-04-22 19:47:55,624 DEBUG scheduler Queued events for site my_site
2021-04-22 19:48:55,925 DEBUG scheduler Queued events for site my_site
2021-04-22 19:49:56,175 DEBUG scheduler Queued events for site my_site
2021-04-22 22:06:23,446 DEBUG scheduler Queued events for site my_site
2021-04-22 22:07:23,694 DEBUG scheduler Queued events for site my_site
2021-04-22 22:08:23,970 DEBUG scheduler Queued events for site my_site
2021-04-22 22:09:24,217 DEBUG scheduler Queued events for site my_site
2021-04-22 22:10:24,453 DEBUG scheduler Queued events for site my_site
2021-04-22 22:11:24,687 DEBUG scheduler Queued events for site my_site
2021-04-22 22:12:24,996 DEBUG scheduler Queued events for site my_site
2021-04-22 22:13:25,240 DEBUG scheduler Queued events for site my_site
2021-04-22 22:14:25,574 DEBUG scheduler Queued events for site my_site
2021-04-22 22:15:26,077 DEBUG scheduler Queued events for site my_site
2021-04-22 22:16:26,366 DEBUG scheduler Queued events for site my_site
2021-04-22 22:17:26,605 DEBUG scheduler Queued events for site my_site
2021-04-22 22:18:26,840 DEBUG scheduler Queued events for site my_site
2021-04-22 22:19:27,074 DEBUG scheduler Queued events for site my_site
2021-04-22 22:20:27,347 DEBUG scheduler Queued events for site my_site
2021-04-22 22:21:27,594 DEBUG scheduler Queued events for site my_site
2021-04-22 22:22:27,829 DEBUG scheduler Queued events for site my_site
2021-04-22 22:23:28,060 DEBUG scheduler Queued events for site my_site
2021-04-22 22:24:28,374 DEBUG scheduler Queued events for site my_site
2021-04-22 22:25:28,619 DEBUG scheduler Queued events for site my_site
2021-04-22 22:26:28,851 DEBUG scheduler Queued events for site my_site
2021-04-22 22:27:29,075 DEBUG scheduler Queued events for site my_site
2021-04-22 22:28:29,353 DEBUG scheduler Queued events for site my_site
2021-04-22 22:29:29,600 DEBUG scheduler Queued events for site my_site
2021-04-22 22:30:29,858 DEBUG scheduler Queued events for site my_site
2021-04-22 22:31:30,111 DEBUG scheduler Queued events for site my_site
2021-04-22 22:32:30,390 DEBUG scheduler Queued events for site my_site
2021-04-22 22:33:30,627 DEBUG scheduler Queued events for site my_site
2021-04-22 22:34:30,866 DEBUG scheduler Queued events for site my_site
2021-04-22 22:35:31,091 DEBUG scheduler Queued events for site my_site
2021-04-22 22:36:31,391 DEBUG scheduler Queued events for site my_site
2021-04-22 22:37:31,646 DEBUG scheduler Queued events for site my_site
2021-04-22 22:38:31,884 DEBUG scheduler Queued events for site my_site
2021-04-22 22:39:32,122 DEBUG scheduler Queued events for site my_site
2021-04-22 22:40:32,431 DEBUG scheduler Queued events for site my_site
2021-04-22 22:41:33,269 DEBUG scheduler Queued events for site my_site
2021-04-22 22:42:33,504 DEBUG scheduler Queued events for site my_site
2021-04-22 22:43:33,728 DEBUG scheduler Queued events for site my_site
2021-04-22 22:44:34,039 DEBUG scheduler Queued events for site my_site
2021-04-22 22:45:34,307 DEBUG scheduler Queued events for site my_site
2021-04-22 22:46:34,573 DEBUG scheduler Queued events for site my_site
2021-04-22 22:47:34,810 DEBUG scheduler Queued events for site my_site
2021-04-22 22:48:35,082 DEBUG scheduler Queued events for site my_site
2021-04-22 22:49:35,329 DEBUG scheduler Queued events for site my_site
2021-04-22 22:50:35,564 DEBUG scheduler Queued events for site my_site
2021-04-22 22:51:35,799 DEBUG scheduler Queued events for site my_site
2021-04-23 10:00:36,551 DEBUG scheduler Queued events for site my_site
2021-04-23 10:01:37,044 DEBUG scheduler Queued events for site my_site
2021-04-23 10:02:37,342 DEBUG scheduler Queued events for site my_site
2021-04-23 10:03:37,575 DEBUG scheduler Queued events for site my_site
2021-04-23 10:04:37,968 DEBUG scheduler Queued events for site my_site
2021-04-23 10:05:38,353 DEBUG scheduler Queued events for site my_site
2021-04-23 10:06:39,163 DEBUG scheduler Queued events for site my_site
2021-04-23 10:07:39,519 DEBUG scheduler Queued events for site my_site
2021-04-23 10:08:39,864 DEBUG scheduler Queued events for site my_site
2021-04-23 10:09:40,145 DEBUG scheduler Queued events for site my_site
2021-04-23 10:10:40,461 DEBUG scheduler Queued events for site my_site
2021-04-23 10:11:41,379 DEBUG scheduler Queued events for site my_site
2021-04-23 10:12:41,744 DEBUG scheduler Queued events for site my_site
2021-04-23 10:13:42,108 DEBUG scheduler Queued events for site my_site
2021-04-23 10:14:42,466 DEBUG scheduler Queued events for site my_site
2021-04-23 10:15:42,787 DEBUG scheduler Queued events for site my_site
2021-04-23 10:16:43,279 DEBUG scheduler Queued events for site my_site
2021-04-23 10:17:43,584 DEBUG scheduler Queued events for site my_site
2021-04-23 10:18:43,925 DEBUG scheduler Queued events for site my_site
2021-04-23 10:19:44,239 DEBUG scheduler Queued events for site my_site
2021-04-23 10:20:44,630 DEBUG scheduler Queued events for site my_site
2021-04-23 10:21:44,935 DEBUG scheduler Queued events for site my_site
2021-04-23 10:22:45,235 DEBUG scheduler Queued events for site my_site
2021-04-23 10:23:45,571 DEBUG scheduler Queued events for site my_site
2021-04-23 10:24:45,931 DEBUG scheduler Queued events for site my_site
2021-04-23 10:25:46,392 DEBUG scheduler Queued events for site my_site
2021-04-23 10:26:46,703 DEBUG scheduler Queued events for site my_site
2021-04-23 10:27:47,022 DEBUG scheduler Queued events for site my_site
2021-04-23 10:28:47,359 DEBUG scheduler Queued events for site my_site
2021-04-23 10:29:47,637 DEBUG scheduler Queued events for site my_site
2021-04-23 10:30:48,047 DEBUG scheduler Queued events for site my_site
2021-04-23 10:31:48,387 DEBUG scheduler Queued events for site my_site
2021-04-23 10:32:48,723 DEBUG scheduler Queued events for site my_site
2021-04-23 10:33:49,034 DEBUG scheduler Queued events for site my_site
2021-04-23 10:34:49,351 DEBUG scheduler Queued events for site my_site
2021-04-23 10:35:49,583 DEBUG scheduler Queued events for site my_site
2021-04-23 10:36:49,883 DEBUG scheduler Queued events for site my_site
2021-04-23 10:37:50,200 DEBUG scheduler Queued events for site my_site
2021-04-23 10:38:50,455 DEBUG scheduler Queued events for site my_site
2021-04-23 10:39:50,768 DEBUG scheduler Queued events for site my_site
2021-04-23 10:40:51,083 DEBUG scheduler Queued events for site my_site
2021-04-23 10:41:51,339 DEBUG scheduler Queued events for site my_site
2021-04-23 10:42:51,571 DEBUG scheduler Queued events for site my_site
2021-04-23 10:43:51,810 DEBUG scheduler Queued events for site my_site
2021-04-23 10:44:52,154 DEBUG scheduler Queued events for site my_site
2021-04-23 10:45:52,501 DEBUG scheduler Queued events for site my_site
2021-04-23 10:46:52,784 DEBUG scheduler Queued events for site my_site
2021-04-23 10:47:53,025 DEBUG scheduler Queued events for site my_site
2021-04-23 10:48:53,299 DEBUG scheduler Queued events for site my_site
2021-04-23 10:49:53,554 DEBUG scheduler Queued events for site my_site
2021-04-23 10:50:53,804 DEBUG scheduler Queued events for site my_site
2021-04-23 10:51:54,058 DEBUG scheduler Queued events for site my_site
2021-04-23 10:52:54,443 DEBUG scheduler Queued events for site my_site
2021-04-23 10:53:54,689 DEBUG scheduler Queued events for site my_site
2021-04-23 10:54:55,041 DEBUG scheduler Queued events for site my_site
2021-04-23 10:55:55,355 DEBUG scheduler Queued events for site my_site
2021-04-23 10:56:55,635 DEBUG scheduler Queued events for site my_site
2021-04-23 10:57:55,928 DEBUG scheduler Queued events for site my_site
2021-04-23 10:58:56,176 DEBUG scheduler Queued events for site my_site
2021-04-23 10:59:56,416 DEBUG scheduler Queued events for site my_site
2021-04-23 11:00:56,876 DEBUG scheduler Queued events for site my_site
2021-04-23 11:01:57,237 DEBUG scheduler Queued events for site my_site
2021-04-23 11:02:57,501 DEBUG scheduler Queued events for site my_site
2021-04-23 11:03:57,826 DEBUG scheduler Queued events for site my_site
2021-04-23 11:04:58,115 DEBUG scheduler Queued events for site my_site
2021-04-23 11:05:58,364 DEBUG scheduler Queued events for site my_site
2021-04-23 11:06:58,600 DEBUG scheduler Queued events for site my_site
2021-04-23 11:07:58,839 DEBUG scheduler Queued events for site my_site
2021-04-23 11:08:59,118 DEBUG scheduler Queued events for site my_site
2021-04-23 11:09:59,411 DEBUG scheduler Queued events for site my_site
2021-04-23 11:10:59,681 DEBUG scheduler Queued events for site my_site
2021-04-23 11:12:00,018 DEBUG scheduler Queued events for site my_site
2021-04-23 11:13:00,373 DEBUG scheduler Queued events for site my_site
2021-04-23 11:14:00,646 DEBUG scheduler Queued events for site my_site
2021-04-23 11:15:00,923 DEBUG scheduler Queued events for site my_site
2021-04-23 11:16:01,498 DEBUG scheduler Queued events for site my_site
2021-04-23 11:17:01,766 DEBUG scheduler Queued events for site my_site
2021-04-23 11:18:02,046 DEBUG scheduler Queued events for site my_site
2021-04-23 11:19:02,331 DEBUG scheduler Queued events for site my_site
2021-04-23 11:20:02,901 DEBUG scheduler Queued events for site my_site
2021-04-23 11:21:03,383 DEBUG scheduler Queued events for site my_site
2021-04-23 11:22:03,643 DEBUG scheduler Queued events for site my_site
2021-04-23 11:23:03,985 DEBUG scheduler Queued events for site my_site
2021-04-23 11:24:04,299 DEBUG scheduler Queued events for site my_site
2021-04-23 11:25:04,577 DEBUG scheduler Queued events for site my_site
2021-04-23 11:26:04,922 DEBUG scheduler Queued events for site my_site
2021-04-23 11:27:05,377 DEBUG scheduler Queued events for site my_site
2021-04-23 11:28:05,713 DEBUG scheduler Queued events for site my_site
2021-04-23 11:29:06,036 DEBUG scheduler Queued events for site my_site
2021-04-23 11:30:06,362 DEBUG scheduler Queued events for site my_site
2021-04-23 11:31:06,675 DEBUG scheduler Queued events for site my_site
2021-04-23 11:32:07,009 DEBUG scheduler Queued events for site my_site
2021-04-23 11:33:07,268 DEBUG scheduler Queued events for site my_site
2021-04-23 11:34:07,507 DEBUG scheduler Queued events for site my_site
2021-04-23 11:35:07,750 DEBUG scheduler Queued events for site my_site
2021-04-23 11:36:08,078 DEBUG scheduler Queued events for site my_site
2021-04-23 11:37:08,363 DEBUG scheduler Queued events for site my_site
2021-04-23 11:38:08,590 DEBUG scheduler Queued events for site my_site
2021-04-23 11:39:08,899 DEBUG scheduler Queued events for site my_site
2021-04-23 11:40:09,159 DEBUG scheduler Queued events for site my_site
2021-04-23 11:41:09,418 DEBUG scheduler Queued events for site my_site
2021-04-23 11:42:09,644 DEBUG scheduler Queued events for site my_site
2021-04-23 11:43:09,885 DEBUG scheduler Queued events for site my_site
2021-04-23 11:44:10,180 DEBUG scheduler Queued events for site my_site
2021-04-23 11:45:10,447 DEBUG scheduler Queued events for site my_site
2021-04-23 11:46:10,700 DEBUG scheduler Queued events for site my_site
2021-04-23 11:47:10,973 DEBUG scheduler Queued events for site my_site
2021-04-23 11:48:11,246 DEBUG scheduler Queued events for site my_site
2021-04-23 11:49:11,494 DEBUG scheduler Queued events for site my_site
2021-04-23 11:50:11,724 DEBUG scheduler Queued events for site my_site
2021-04-23 11:51:11,972 DEBUG scheduler Queued events for site my_site
2021-04-23 11:52:12,306 DEBUG scheduler Queued events for site my_site
2021-04-23 11:53:12,554 DEBUG scheduler Queued events for site my_site
2021-04-23 11:54:12,809 DEBUG scheduler Queued events for site my_site
2021-04-23 11:55:13,048 DEBUG scheduler Queued events for site my_site
2021-04-23 11:56:13,382 DEBUG scheduler Queued events for site my_site
2021-04-23 11:57:13,713 DEBUG scheduler Queued events for site my_site
2021-04-23 11:58:14,052 DEBUG scheduler Queued events for site my_site
2021-04-23 11:59:14,386 DEBUG scheduler Queued events for site my_site
2021-04-23 12:00:14,846 DEBUG scheduler Queued events for site my_site
2021-04-23 12:01:15,150 DEBUG scheduler Queued events for site my_site
2021-04-23 12:02:15,472 DEBUG scheduler Queued events for site my_site
2021-04-23 12:03:15,778 DEBUG scheduler Queued events for site my_site
2021-04-23 12:04:16,155 DEBUG scheduler Queued events for site my_site
2021-04-23 12:05:16,676 DEBUG scheduler Queued events for site my_site
2021-04-23 12:06:16,951 DEBUG scheduler Queued events for site my_site
2021-04-23 12:07:17,271 DEBUG scheduler Queued events for site my_site
2021-04-23 12:08:17,641 DEBUG scheduler Queued events for site my_site
2021-04-23 12:09:17,968 DEBUG scheduler Queued events for site my_site
2021-04-23 12:10:18,249 DEBUG scheduler Queued events for site my_site
2021-04-23 12:11:18,536 DEBUG scheduler Queued events for site my_site
2021-04-23 12:12:18,943 DEBUG scheduler Queued events for site my_site
2021-04-23 12:13:19,325 DEBUG scheduler Queued events for site my_site
2021-04-23 12:14:19,591 DEBUG scheduler Queued events for site my_site
2021-04-23 12:15:19,840 DEBUG scheduler Queued events for site my_site
2021-04-23 12:16:20,154 DEBUG scheduler Queued events for site my_site
2021-04-23 12:17:20,404 DEBUG scheduler Queued events for site my_site
2021-04-23 12:18:20,641 DEBUG scheduler Queued events for site my_site
2021-04-23 12:19:20,874 DEBUG scheduler Queued events for site my_site
2021-04-23 12:20:21,209 DEBUG scheduler Queued events for site my_site
2021-04-23 12:21:21,522 DEBUG scheduler Queued events for site my_site
2021-04-23 12:22:21,845 DEBUG scheduler Queued events for site my_site
2021-04-23 12:23:22,097 DEBUG scheduler Queued events for site my_site
2021-04-23 12:24:22,396 DEBUG scheduler Queued events for site my_site
2021-04-23 12:25:22,660 DEBUG scheduler Queued events for site my_site
2021-04-23 12:26:22,894 DEBUG scheduler Queued events for site my_site
2021-04-23 12:27:23,135 DEBUG scheduler Queued events for site my_site
2021-04-23 12:28:23,450 DEBUG scheduler Queued events for site my_site
2021-04-23 12:29:23,699 DEBUG scheduler Queued events for site my_site
2021-04-23 12:30:23,920 DEBUG scheduler Queued events for site my_site
2021-04-23 12:31:24,170 DEBUG scheduler Queued events for site my_site
2021-04-23 12:32:24,441 DEBUG scheduler Queued events for site my_site
2021-04-23 12:33:24,751 DEBUG scheduler Queued events for site my_site
2021-04-23 12:34:25,027 DEBUG scheduler Queued events for site my_site
2021-04-23 12:35:25,262 DEBUG scheduler Queued events for site my_site
2021-04-23 12:36:25,543 DEBUG scheduler Queued events for site my_site
2021-04-23 12:37:25,864 DEBUG scheduler Queued events for site my_site
2021-04-23 12:38:26,100 DEBUG scheduler Queued events for site my_site
2021-04-23 12:39:26,390 DEBUG scheduler Queued events for site my_site
2021-04-23 12:40:26,738 DEBUG scheduler Queued events for site my_site
2021-04-23 12:41:27,033 DEBUG scheduler Queued events for site my_site
2021-04-23 12:42:27,284 DEBUG scheduler Queued events for site my_site
2021-04-23 12:43:27,530 DEBUG scheduler Queued events for site my_site
2021-04-23 12:44:28,017 DEBUG scheduler Queued events for site my_site
2021-04-23 12:45:28,348 DEBUG scheduler Queued events for site my_site
2021-04-23 12:46:28,648 DEBUG scheduler Queued events for site my_site
2021-04-23 12:47:29,569 DEBUG scheduler Queued events for site my_site
2021-04-23 12:48:29,925 DEBUG scheduler Queued events for site my_site
2021-04-23 12:49:30,238 DEBUG scheduler Queued events for site my_site
2021-04-23 12:50:30,551 DEBUG scheduler Queued events for site my_site
2021-04-23 12:51:31,502 DEBUG scheduler Queued events for site my_site
2021-04-23 12:52:31,775 DEBUG scheduler Queued events for site my_site
2021-04-23 12:53:32,024 DEBUG scheduler Queued events for site my_site
2021-04-23 12:54:32,339 DEBUG scheduler Queued events for site my_site
2021-04-23 12:55:32,615 DEBUG scheduler Queued events for site my_site
2021-04-23 12:56:32,891 DEBUG scheduler Queued events for site my_site
2021-04-23 12:57:33,155 DEBUG scheduler Queued events for site my_site
2021-04-23 12:58:33,413 DEBUG scheduler Queued events for site my_site
2021-04-23 12:59:33,699 DEBUG scheduler Queued events for site my_site
2021-04-23 13:00:35,271 DEBUG scheduler Queued events for site my_site
2021-04-23 13:01:35,519 DEBUG scheduler Queued events for site my_site
2021-04-23 13:02:35,763 DEBUG scheduler Queued events for site my_site
2021-04-23 13:03:36,120 DEBUG scheduler Queued events for site my_site
2021-04-23 13:04:36,437 DEBUG scheduler Queued events for site my_site
2021-04-23 13:05:36,710 DEBUG scheduler Queued events for site my_site
2021-04-23 13:06:36,986 DEBUG scheduler Queued events for site my_site
2021-04-23 13:07:37,248 DEBUG scheduler Queued events for site my_site
2021-04-23 13:08:37,685 DEBUG scheduler Queued events for site my_site
2021-04-23 13:09:38,086 DEBUG scheduler Queued events for site my_site
2021-04-23 13:10:38,356 DEBUG scheduler Queued events for site my_site
2021-04-23 13:11:38,708 DEBUG scheduler Queued events for site my_site
2021-04-23 13:12:39,142 DEBUG scheduler Queued events for site my_site
2021-04-23 13:13:39,579 DEBUG scheduler Queued events for site my_site
2021-04-23 13:14:39,860 DEBUG scheduler Queued events for site my_site
2021-04-23 13:15:40,368 DEBUG scheduler Queued events for site my_site
2021-04-23 13:16:40,710 DEBUG scheduler Queued events for site my_site
2021-04-23 13:17:41,012 DEBUG scheduler Queued events for site my_site
2021-04-23 13:18:41,278 DEBUG scheduler Queued events for site my_site
2021-04-23 13:19:41,547 DEBUG scheduler Queued events for site my_site
2021-04-23 13:20:41,904 DEBUG scheduler Queued events for site my_site
2021-04-23 13:21:42,235 DEBUG scheduler Queued events for site my_site
2021-04-23 13:22:42,506 DEBUG scheduler Queued events for site my_site
2021-04-23 13:23:42,746 DEBUG scheduler Queued events for site my_site
2021-04-23 13:24:43,036 DEBUG scheduler Queued events for site my_site
2021-04-23 13:25:43,368 DEBUG scheduler Queued events for site my_site
2021-04-23 13:26:43,668 DEBUG scheduler Queued events for site my_site
2021-04-23 13:27:43,957 DEBUG scheduler Queued events for site my_site
2021-04-23 13:28:44,348 DEBUG scheduler Queued events for site my_site
2021-04-23 13:29:44,651 DEBUG scheduler Queued events for site my_site
2021-04-23 13:30:44,997 DEBUG scheduler Queued events for site my_site
2021-04-23 13:31:45,332 DEBUG scheduler Queued events for site my_site
2021-04-23 13:32:45,664 DEBUG scheduler Queued events for site my_site
2021-04-23 13:33:45,990 DEBUG scheduler Queued events for site my_site
2021-04-23 13:34:46,290 DEBUG scheduler Queued events for site my_site
2021-04-23 13:35:46,554 DEBUG scheduler Queued events for site my_site
2021-04-23 13:36:46,873 DEBUG scheduler Queued events for site my_site
2021-04-23 13:37:47,144 DEBUG scheduler Queued events for site my_site
2021-04-23 13:38:47,404 DEBUG scheduler Queued events for site my_site
2021-04-23 13:39:47,662 DEBUG scheduler Queued events for site my_site
2021-04-23 13:40:47,974 DEBUG scheduler Queued events for site my_site
2021-04-23 13:41:48,218 DEBUG scheduler Queued events for site my_site
2021-04-23 13:42:48,499 DEBUG scheduler Queued events for site my_site
2021-04-23 13:43:48,769 DEBUG scheduler Queued events for site my_site
2021-04-23 13:44:49,043 DEBUG scheduler Queued events for site my_site
2021-04-23 13:45:49,305 DEBUG scheduler Queued events for site my_site
2021-04-23 13:46:49,605 DEBUG scheduler Queued events for site my_site
2021-04-23 13:47:49,982 DEBUG scheduler Queued events for site my_site
2021-04-23 13:48:50,386 DEBUG scheduler Queued events for site my_site
2021-04-23 13:49:50,713 DEBUG scheduler Queued events for site my_site
2021-04-23 13:50:51,005 DEBUG scheduler Queued events for site my_site
2021-04-23 13:51:51,329 DEBUG scheduler Queued events for site my_site
2021-04-23 13:52:51,768 DEBUG scheduler Queued events for site my_site
2021-04-23 13:53:52,089 DEBUG scheduler Queued events for site my_site
2021-04-23 13:54:52,401 DEBUG scheduler Queued events for site my_site
2021-04-23 13:55:52,658 DEBUG scheduler Queued events for site my_site
2021-04-23 13:56:53,013 DEBUG scheduler Queued events for site my_site
2021-04-23 13:57:53,374 DEBUG scheduler Queued events for site my_site
2021-04-23 13:58:53,650 DEBUG scheduler Queued events for site my_site
2021-04-23 13:59:53,902 DEBUG scheduler Queued events for site my_site
2021-04-23 14:00:54,287 DEBUG scheduler Queued events for site my_site
2021-04-23 14:23:30,818 DEBUG scheduler Queued events for site my_site
2021-04-23 14:24:31,186 DEBUG scheduler Queued events for site my_site
2021-04-23 14:25:31,438 DEBUG scheduler Queued events for site my_site
2021-04-23 14:26:31,724 DEBUG scheduler Queued events for site my_site
2021-04-23 14:27:32,080 DEBUG scheduler Queued events for site my_site
2021-04-23 14:28:32,442 DEBUG scheduler Queued events for site my_site
2021-04-23 14:29:32,701 DEBUG scheduler Queued events for site my_site
2021-04-23 14:30:32,971 DEBUG scheduler Queued events for site my_site
2021-04-23 14:31:33,218 DEBUG scheduler Queued events for site my_site
2021-04-23 14:32:34,014 DEBUG scheduler Queued events for site my_site
2021-04-23 14:33:34,300 DEBUG scheduler Queued events for site my_site
2021-04-23 14:34:34,531 DEBUG scheduler Queued events for site my_site
2021-04-23 14:35:34,806 DEBUG scheduler Queued events for site my_site
2021-04-23 14:36:35,141 DEBUG scheduler Queued events for site my_site
2021-04-23 14:37:35,398 DEBUG scheduler Queued events for site my_site
2021-04-23 14:38:35,634 DEBUG scheduler Queued events for site my_site
2021-04-23 14:39:35,869 DEBUG scheduler Queued events for site my_site
2021-04-23 14:40:36,229 DEBUG scheduler Queued events for site my_site
2021-04-23 14:41:36,540 DEBUG scheduler Queued events for site my_site
2021-04-23 14:42:36,789 DEBUG scheduler Queued events for site my_site
2021-04-23 14:43:37,055 DEBUG scheduler Queued events for site my_site
2021-04-23 14:44:37,355 DEBUG scheduler Queued events for site my_site
2021-04-23 14:45:37,633 DEBUG scheduler Queued events for site my_site
2021-04-23 14:46:37,934 DEBUG scheduler Queued events for site my_site
2021-04-23 14:47:38,176 DEBUG scheduler Queued events for site my_site
2021-04-23 14:48:38,520 DEBUG scheduler Queued events for site my_site
2021-04-23 14:49:38,918 DEBUG scheduler Queued events for site my_site
2021-04-23 14:50:39,215 DEBUG scheduler Queued events for site my_site
2021-04-23 14:51:39,464 DEBUG scheduler Queued events for site my_site
2021-04-23 14:52:39,760 DEBUG scheduler Queued events for site my_site
2021-04-23 14:53:40,017 DEBUG scheduler Queued events for site my_site
2021-04-23 14:54:40,256 DEBUG scheduler Queued events for site my_site
2021-04-23 14:55:40,508 DEBUG scheduler Queued events for site my_site
2021-04-23 14:56:40,885 DEBUG scheduler Queued events for site my_site
2021-04-23 14:57:41,130 DEBUG scheduler Queued events for site my_site
2021-04-23 14:58:41,403 DEBUG scheduler Queued events for site my_site
2021-04-23 14:59:41,650 DEBUG scheduler Queued events for site my_site
2021-04-23 15:00:42,066 DEBUG scheduler Queued events for site my_site
2021-04-23 15:01:42,363 DEBUG scheduler Queued events for site my_site
2021-04-23 15:02:42,617 DEBUG scheduler Queued events for site my_site
2021-04-23 15:03:42,847 DEBUG scheduler Queued events for site my_site
2021-04-23 15:04:43,167 DEBUG scheduler Queued events for site my_site
2021-04-23 15:05:43,475 DEBUG scheduler Queued events for site my_site
2021-04-23 15:06:43,810 DEBUG scheduler Queued events for site my_site
2021-04-23 15:07:44,082 DEBUG scheduler Queued events for site my_site
2021-04-23 15:08:44,380 DEBUG scheduler Queued events for site my_site
2021-04-23 15:09:44,640 DEBUG scheduler Queued events for site my_site
2021-04-23 15:10:44,946 DEBUG scheduler Queued events for site my_site
2021-04-23 15:11:45,190 DEBUG scheduler Queued events for site my_site
2021-04-23 15:12:45,494 DEBUG scheduler Queued events for site my_site
2021-04-23 15:13:45,750 DEBUG scheduler Queued events for site my_site
2021-04-23 15:14:46,008 DEBUG scheduler Queued events for site my_site
2021-04-23 15:15:46,291 DEBUG scheduler Queued events for site my_site
2021-04-23 15:16:46,691 DEBUG scheduler Queued events for site my_site
2021-04-23 15:17:47,010 DEBUG scheduler Queued events for site my_site
2021-04-23 15:18:47,324 DEBUG scheduler Queued events for site my_site
2021-04-23 15:19:47,646 DEBUG scheduler Queued events for site my_site
2021-04-23 15:20:47,989 DEBUG scheduler Queued events for site my_site
2021-04-23 15:21:48,313 DEBUG scheduler Queued events for site my_site
2021-04-23 15:22:48,666 DEBUG scheduler Queued events for site my_site
2021-04-23 15:23:48,992 DEBUG scheduler Queued events for site my_site
2021-04-23 15:24:49,620 DEBUG scheduler Queued events for site my_site
2021-04-23 15:25:49,930 DEBUG scheduler Queued events for site my_site
2021-04-23 15:26:50,255 DEBUG scheduler Queued events for site my_site
2021-04-23 15:27:50,520 DEBUG scheduler Queued events for site my_site
2021-04-23 15:28:50,842 DEBUG scheduler Queued events for site my_site
2021-04-23 15:29:51,182 DEBUG scheduler Queued events for site my_site
2021-04-23 15:30:51,580 DEBUG scheduler Queued events for site my_site
2021-04-23 15:31:52,069 DEBUG scheduler Queued events for site my_site
2021-04-23 15:32:52,509 DEBUG scheduler Queued events for site my_site
2021-04-23 15:33:52,841 DEBUG scheduler Queued events for site my_site
2021-04-23 15:34:53,122 DEBUG scheduler Queued events for site my_site
2021-04-23 15:35:53,453 DEBUG scheduler Queued events for site my_site
2021-04-23 15:36:53,870 DEBUG scheduler Queued events for site my_site
2021-04-23 15:37:54,156 DEBUG scheduler Queued events for site my_site
2021-04-23 15:38:54,436 DEBUG scheduler Queued events for site my_site
2021-04-23 15:39:54,732 DEBUG scheduler Queued events for site my_site
2021-04-23 15:40:55,122 DEBUG scheduler Queued events for site my_site
2021-04-23 15:41:55,572 DEBUG scheduler Queued events for site my_site
2021-04-23 15:42:55,860 DEBUG scheduler Queued events for site my_site
2021-04-23 15:43:56,176 DEBUG scheduler Queued events for site my_site
2021-04-23 15:44:56,513 DEBUG scheduler Queued events for site my_site
2021-04-23 15:45:56,825 DEBUG scheduler Queued events for site my_site
2021-04-23 15:46:57,137 DEBUG scheduler Queued events for site my_site
2021-04-23 15:47:57,457 DEBUG scheduler Queued events for site my_site
2021-04-23 15:48:57,764 DEBUG scheduler Queued events for site my_site
2021-04-23 15:49:58,052 DEBUG scheduler Queued events for site my_site
2021-04-23 15:50:58,363 DEBUG scheduler Queued events for site my_site
2021-04-23 15:51:58,655 DEBUG scheduler Queued events for site my_site
2021-04-23 15:52:58,971 DEBUG scheduler Queued events for site my_site
2021-04-23 15:53:59,244 DEBUG scheduler Queued events for site my_site
2021-04-23 15:54:59,502 DEBUG scheduler Queued events for site my_site
2021-04-23 15:55:59,770 DEBUG scheduler Queued events for site my_site
2021-04-23 15:57:00,101 DEBUG scheduler Queued events for site my_site
2021-04-23 15:58:00,436 DEBUG scheduler Queued events for site my_site
2021-04-23 15:59:00,792 DEBUG scheduler Queued events for site my_site
2021-04-23 16:00:01,178 DEBUG scheduler Queued events for site my_site
2021-04-23 16:01:01,501 DEBUG scheduler Queued events for site my_site
2021-04-23 16:02:01,785 DEBUG scheduler Queued events for site my_site
2021-04-23 16:03:02,090 DEBUG scheduler Queued events for site my_site
2021-04-23 16:04:02,380 DEBUG scheduler Queued events for site my_site
2021-04-23 16:05:02,692 DEBUG scheduler Queued events for site my_site
2021-04-23 16:06:02,959 DEBUG scheduler Queued events for site my_site
2021-04-23 16:07:03,250 DEBUG scheduler Queued events for site my_site
2021-04-23 16:08:03,653 DEBUG scheduler Queued events for site my_site
2021-04-23 16:09:04,006 DEBUG scheduler Queued events for site my_site
2021-04-23 16:10:04,341 DEBUG scheduler Queued events for site my_site
2021-04-23 16:11:04,586 DEBUG scheduler Queued events for site my_site
2021-04-23 16:12:04,862 DEBUG scheduler Queued events for site my_site
2021-04-23 16:13:05,215 DEBUG scheduler Queued events for site my_site
2021-04-23 16:14:05,460 DEBUG scheduler Queued events for site my_site
2021-04-23 16:15:05,709 DEBUG scheduler Queued events for site my_site
2021-04-23 16:16:06,202 DEBUG scheduler Queued events for site my_site
2021-04-23 16:17:06,460 DEBUG scheduler Queued events for site my_site
2021-04-23 16:18:06,696 DEBUG scheduler Queued events for site my_site
2021-04-23 16:19:06,937 DEBUG scheduler Queued events for site my_site
2021-04-23 16:20:07,331 DEBUG scheduler Queued events for site my_site
2021-04-23 16:21:08,020 DEBUG scheduler Queued events for site my_site
2021-04-23 16:22:08,255 DEBUG scheduler Queued events for site my_site
2021-04-23 16:23:08,602 DEBUG scheduler Queued events for site my_site
2021-04-23 16:24:08,955 DEBUG scheduler Queued events for site my_site
2021-04-23 16:25:09,313 DEBUG scheduler Queued events for site my_site
2021-04-23 16:26:09,673 DEBUG scheduler Queued events for site my_site
2021-04-23 16:27:10,076 DEBUG scheduler Queued events for site my_site
2021-04-23 16:28:10,473 DEBUG scheduler Queued events for site my_site
2021-04-23 16:29:10,843 DEBUG scheduler Queued events for site my_site
2021-04-23 16:30:11,200 DEBUG scheduler Queued events for site my_site
2021-04-23 16:31:11,548 DEBUG scheduler Queued events for site my_site
2021-04-23 16:32:11,825 DEBUG scheduler Queued events for site my_site
2021-04-23 16:33:12,091 DEBUG scheduler Queued events for site my_site
2021-04-23 16:34:12,403 DEBUG scheduler Queued events for site my_site
2021-04-23 16:35:12,682 DEBUG scheduler Queued events for site my_site
2021-04-23 16:36:12,984 DEBUG scheduler Queued events for site my_site
2021-04-23 16:37:13,233 DEBUG scheduler Queued events for site my_site
2021-04-23 16:38:13,529 DEBUG scheduler Queued events for site my_site
2021-04-23 16:39:13,759 DEBUG scheduler Queued events for site my_site
2021-04-23 16:40:14,057 DEBUG scheduler Queued events for site my_site
2021-04-23 16:41:14,307 DEBUG scheduler Queued events for site my_site
2021-04-23 16:42:14,612 DEBUG scheduler Queued events for site my_site
2021-04-23 16:43:14,848 DEBUG scheduler Queued events for site my_site
2021-04-23 16:44:15,121 DEBUG scheduler Queued events for site my_site
2021-04-23 16:45:15,389 DEBUG scheduler Queued events for site my_site
2021-04-23 16:46:15,706 DEBUG scheduler Queued events for site my_site
2021-04-23 16:47:15,950 DEBUG scheduler Queued events for site my_site
2021-04-23 16:48:16,282 DEBUG scheduler Queued events for site my_site
2021-04-23 16:49:16,545 DEBUG scheduler Queued events for site my_site
2021-04-23 16:50:16,779 DEBUG scheduler Queued events for site my_site
2021-04-23 16:51:17,014 DEBUG scheduler Queued events for site my_site
2021-04-23 16:52:17,338 DEBUG scheduler Queued events for site my_site
2021-04-23 16:53:17,638 DEBUG scheduler Queued events for site my_site
2021-04-23 16:54:17,887 DEBUG scheduler Queued events for site my_site
2021-04-23 16:55:18,149 DEBUG scheduler Queued events for site my_site
2021-04-23 16:56:18,552 DEBUG scheduler Queued events for site my_site
2021-04-23 16:57:18,805 DEBUG scheduler Queued events for site my_site
2021-04-23 16:58:19,080 DEBUG scheduler Queued events for site my_site
2021-04-23 16:59:19,316 DEBUG scheduler Queued events for site my_site
2021-04-23 17:00:19,812 DEBUG scheduler Queued events for site my_site
2021-04-23 17:01:20,097 DEBUG scheduler Queued events for site my_site
2021-04-23 17:02:20,348 DEBUG scheduler Queued events for site my_site
2021-04-23 17:03:20,650 DEBUG scheduler Queued events for site my_site
2021-04-23 17:04:20,915 DEBUG scheduler Queued events for site my_site
2021-04-23 17:05:21,172 DEBUG scheduler Queued events for site my_site
2021-04-23 17:24:13,516 DEBUG scheduler Queued events for site my_site
2021-04-23 17:25:14,526 DEBUG scheduler Queued events for site my_site
2021-04-23 17:26:14,772 DEBUG scheduler Queued events for site my_site
2021-04-23 17:27:15,084 DEBUG scheduler Queued events for site my_site
2021-04-23 17:28:15,380 DEBUG scheduler Queued events for site my_site
2021-04-23 17:29:15,683 DEBUG scheduler Queued events for site my_site
2021-04-23 17:30:15,924 DEBUG scheduler Queued events for site my_site
2021-04-23 17:31:16,251 DEBUG scheduler Queued events for site my_site
2021-04-23 17:32:16,572 DEBUG scheduler Queued events for site my_site
2021-04-23 17:33:16,865 DEBUG scheduler Queued events for site my_site
2021-04-23 17:34:17,097 DEBUG scheduler Queued events for site my_site
2021-04-23 17:35:17,336 DEBUG scheduler Queued events for site my_site
2021-04-23 17:36:17,678 DEBUG scheduler Queued events for site my_site
2021-04-23 17:37:18,046 DEBUG scheduler Queued events for site my_site
2021-04-23 17:38:18,350 DEBUG scheduler Queued events for site my_site
2021-04-23 17:39:18,645 DEBUG scheduler Queued events for site my_site
2021-04-23 17:40:18,918 DEBUG scheduler Queued events for site my_site
2021-04-23 17:41:19,172 DEBUG scheduler Queued events for site my_site
2021-04-23 17:42:19,411 DEBUG scheduler Queued events for site my_site
2021-04-23 17:43:19,658 DEBUG scheduler Queued events for site my_site
2021-04-23 17:44:19,983 DEBUG scheduler Queued events for site my_site
2021-04-23 17:45:20,259 DEBUG scheduler Queued events for site my_site
2021-04-23 17:46:20,531 DEBUG scheduler Queued events for site my_site
2021-04-23 17:47:20,877 DEBUG scheduler Queued events for site my_site
2021-04-23 17:48:21,192 DEBUG scheduler Queued events for site my_site
2021-04-23 17:49:21,480 DEBUG scheduler Queued events for site my_site
2021-04-23 17:50:21,796 DEBUG scheduler Queued events for site my_site
2021-04-23 17:51:22,120 DEBUG scheduler Queued events for site my_site
2021-04-23 17:52:22,394 DEBUG scheduler Queued events for site my_site
2021-04-23 17:53:22,694 DEBUG scheduler Queued events for site my_site
2021-04-23 17:54:22,988 DEBUG scheduler Queued events for site my_site
2021-04-23 17:55:23,255 DEBUG scheduler Queued events for site my_site
2021-04-23 17:56:23,591 DEBUG scheduler Queued events for site my_site
2021-04-23 17:57:23,832 DEBUG scheduler Queued events for site my_site
2021-04-23 17:58:24,237 DEBUG scheduler Queued events for site my_site
2021-04-23 17:59:24,479 DEBUG scheduler Queued events for site my_site
2021-04-23 18:00:24,985 DEBUG scheduler Queued events for site my_site
2021-04-23 18:01:25,242 DEBUG scheduler Queued events for site my_site
2021-04-23 18:02:25,543 DEBUG scheduler Queued events for site my_site
2021-04-23 18:03:25,850 DEBUG scheduler Queued events for site my_site
2021-04-23 18:04:26,174 DEBUG scheduler Queued events for site my_site
2021-04-23 18:05:26,417 DEBUG scheduler Queued events for site my_site
2021-04-23 18:06:26,771 DEBUG scheduler Queued events for site my_site
2021-04-23 18:07:27,022 DEBUG scheduler Queued events for site my_site
2021-04-23 18:08:27,319 DEBUG scheduler Queued events for site my_site
2021-04-23 18:09:27,719 DEBUG scheduler Queued events for site my_site
2021-04-23 18:10:28,040 DEBUG scheduler Queued events for site my_site
2021-04-23 18:11:28,315 DEBUG scheduler Queued events for site my_site
2021-04-23 18:12:28,626 DEBUG scheduler Queued events for site my_site
2021-04-23 18:13:28,908 DEBUG scheduler Queued events for site my_site
2021-04-23 18:44:56,513 DEBUG scheduler Queued events for site my_site
2021-04-23 18:45:56,991 DEBUG scheduler Queued events for site my_site
2021-04-23 18:46:57,518 DEBUG scheduler Queued events for site my_site
2021-04-23 18:47:57,975 DEBUG scheduler Queued events for site my_site
2021-04-23 18:48:58,631 DEBUG scheduler Queued events for site my_site
2021-04-23 18:49:58,982 DEBUG scheduler Queued events for site my_site
2021-04-23 18:50:59,291 DEBUG scheduler Queued events for site my_site
2021-04-23 18:51:59,721 DEBUG scheduler Queued events for site my_site
2021-04-23 18:53:00,136 DEBUG scheduler Queued events for site my_site
2021-04-23 18:54:00,480 DEBUG scheduler Queued events for site my_site
2021-04-23 19:25:11,682 DEBUG scheduler Queued events for site my_site
2021-04-23 19:26:11,936 DEBUG scheduler Queued events for site my_site
2021-04-23 19:27:12,190 DEBUG scheduler Queued events for site my_site
2021-04-23 19:28:12,496 DEBUG scheduler Queued events for site my_site
2021-04-23 19:29:12,749 DEBUG scheduler Queued events for site my_site
2021-04-23 19:30:12,994 DEBUG scheduler Queued events for site my_site
2021-04-23 19:31:13,273 DEBUG scheduler Queued events for site my_site
2021-04-23 19:32:13,576 DEBUG scheduler Queued events for site my_site
2021-04-23 19:33:13,836 DEBUG scheduler Queued events for site my_site
2021-04-23 19:34:14,080 DEBUG scheduler Queued events for site my_site
2021-04-23 19:35:14,308 DEBUG scheduler Queued events for site my_site
2021-04-23 19:36:14,582 DEBUG scheduler Queued events for site my_site
2021-04-23 19:37:14,934 DEBUG scheduler Queued events for site my_site
2021-04-23 19:38:15,184 DEBUG scheduler Queued events for site my_site
2021-04-23 19:39:15,429 DEBUG scheduler Queued events for site my_site
2021-04-23 19:40:16,030 DEBUG scheduler Queued events for site my_site
2021-04-23 20:46:25,379 DEBUG scheduler Queued events for site my_site
2021-04-23 20:47:25,639 DEBUG scheduler Queued events for site my_site
2021-04-23 20:48:25,924 DEBUG scheduler Queued events for site my_site
2021-04-23 20:49:26,278 DEBUG scheduler Queued events for site my_site
2021-04-23 20:50:26,570 DEBUG scheduler Queued events for site my_site
2021-04-23 20:51:27,346 DEBUG scheduler Queued events for site my_site
2021-04-23 20:52:27,678 DEBUG scheduler Queued events for site my_site
2021-04-23 21:40:05,579 DEBUG scheduler Queued events for site my_site
