2021-04-20 22:09:25,988 DEBUG scheduler Queued events for site my_site
2021-04-20 22:10:26,309 DEBUG scheduler Queued events for site my_site
2021-04-20 22:11:26,628 DEBUG scheduler Queued events for site my_site
2021-04-20 22:12:26,892 INFO scheduler Scheduled Job Start: frappe.monitor.flush for meeting.dev
2021-04-20 22:12:27,055 DEBUG scheduler Queued events for site my_site
2021-04-20 22:12:27,109 INFO scheduler Scheduled Job Complete: frappe.monitor.flush for meeting.dev
2021-04-20 22:12:27,189 INFO scheduler Scheduled Job Start: frappe.utils.global_search.sync_global_search for meeting.dev
2021-04-20 22:12:27,343 INFO scheduler Scheduled Job Complete: frappe.utils.global_search.sync_global_search for meeting.dev
2021-04-20 22:12:27,416 INFO scheduler Scheduled Job Start: frappe.integrations.doctype.razorpay_settings.razorpay_settings.capture_payment for meeting.dev
2021-04-20 22:12:27,813 INFO scheduler Scheduled Job Complete: frappe.integrations.doctype.razorpay_settings.razorpay_settings.capture_payment for meeting.dev
2021-04-20 22:12:27,914 INFO scheduler Scheduled Job Start: frappe.email.doctype.email_account.email_account.notify_unreplied for meeting.dev
2021-04-20 22:12:28,224 INFO scheduler Scheduled Job Complete: frappe.email.doctype.email_account.email_account.notify_unreplied for meeting.dev
2021-04-20 22:12:28,301 INFO scheduler Scheduled Job Start: frappe.email.doctype.email_account.email_account.pull for meeting.dev
2021-04-20 22:12:28,632 INFO scheduler Scheduled Job Complete: frappe.email.doctype.email_account.email_account.pull for meeting.dev
2021-04-20 22:12:28,704 INFO scheduler Scheduled Job Start: frappe.email.queue.flush for meeting.dev
2021-04-20 22:12:28,981 INFO scheduler Scheduled Job Complete: frappe.email.queue.flush for meeting.dev
2021-04-20 22:12:29,059 INFO scheduler Scheduled Job Start: frappe.monitor.flush for my_site
2021-04-20 22:12:29,218 INFO scheduler Scheduled Job Complete: frappe.monitor.flush for my_site
2021-04-20 22:12:29,292 INFO scheduler Scheduled Job Start: frappe.utils.global_search.sync_global_search for my_site
2021-04-20 22:12:29,453 INFO scheduler Scheduled Job Complete: frappe.utils.global_search.sync_global_search for my_site
2021-04-20 22:12:29,535 INFO scheduler Scheduled Job Start: frappe.integrations.doctype.razorpay_settings.razorpay_settings.capture_payment for my_site
2021-04-20 22:12:29,937 INFO scheduler Scheduled Job Complete: frappe.integrations.doctype.razorpay_settings.razorpay_settings.capture_payment for my_site
2021-04-20 22:12:30,008 INFO scheduler Scheduled Job Start: frappe.email.doctype.email_account.email_account.notify_unreplied for my_site
2021-04-20 22:12:30,317 INFO scheduler Scheduled Job Complete: frappe.email.doctype.email_account.email_account.notify_unreplied for my_site
2021-04-20 22:12:30,391 INFO scheduler Scheduled Job Start: frappe.email.doctype.email_account.email_account.pull for my_site
2021-04-20 22:12:30,734 INFO scheduler Scheduled Job Complete: frappe.email.doctype.email_account.email_account.pull for my_site
2021-04-20 22:12:30,805 INFO scheduler Scheduled Job Start: frappe.email.queue.flush for my_site
2021-04-20 22:12:31,075 INFO scheduler Scheduled Job Complete: frappe.email.queue.flush for my_site
2021-04-20 22:13:27,398 DEBUG scheduler Queued events for site my_site
2021-04-20 22:14:27,713 DEBUG scheduler Queued events for site my_site
2021-04-20 22:15:27,984 INFO scheduler Scheduled Job Start: frappe.twofactor.delete_all_barcodes_for_users for meeting.dev
2021-04-20 22:15:28,085 DEBUG scheduler Queued events for site my_site
2021-04-20 22:15:28,431 INFO scheduler Scheduled Job Complete: frappe.twofactor.delete_all_barcodes_for_users for meeting.dev
2021-04-20 22:15:28,514 INFO scheduler Scheduled Job Start: frappe.website.doctype.web_page.web_page.check_publish_status for meeting.dev
2021-04-20 22:15:28,974 INFO scheduler Scheduled Job Complete: frappe.website.doctype.web_page.web_page.check_publish_status for meeting.dev
2021-04-20 22:15:29,061 INFO scheduler Scheduled Job Start: frappe.oauth.delete_oauth2_data for meeting.dev
2021-04-20 22:15:29,469 INFO scheduler Scheduled Job Complete: frappe.oauth.delete_oauth2_data for meeting.dev
2021-04-20 22:15:29,562 INFO scheduler Scheduled Job Start: frappe.twofactor.delete_all_barcodes_for_users for my_site
2021-04-20 22:15:29,981 INFO scheduler Scheduled Job Complete: frappe.twofactor.delete_all_barcodes_for_users for my_site
2021-04-20 22:15:30,068 INFO scheduler Scheduled Job Start: frappe.website.doctype.web_page.web_page.check_publish_status for my_site
2021-04-20 22:15:30,538 INFO scheduler Scheduled Job Complete: frappe.website.doctype.web_page.web_page.check_publish_status for my_site
2021-04-20 22:15:30,625 INFO scheduler Scheduled Job Start: frappe.oauth.delete_oauth2_data for my_site
2021-04-20 22:15:31,035 INFO scheduler Scheduled Job Complete: frappe.oauth.delete_oauth2_data for my_site
2021-04-20 22:16:28,382 INFO scheduler Scheduled Job Start: frappe.monitor.flush for meeting.dev
2021-04-20 22:16:28,538 DEBUG scheduler Queued events for site my_site
2021-04-20 22:16:28,569 INFO scheduler Scheduled Job Complete: frappe.monitor.flush for meeting.dev
2021-04-20 22:16:28,641 INFO scheduler Scheduled Job Start: frappe.utils.global_search.sync_global_search for meeting.dev
2021-04-20 22:16:28,796 INFO scheduler Scheduled Job Complete: frappe.utils.global_search.sync_global_search for meeting.dev
2021-04-20 22:16:28,867 INFO scheduler Scheduled Job Start: frappe.integrations.doctype.razorpay_settings.razorpay_settings.capture_payment for meeting.dev
2021-04-20 22:16:29,266 INFO scheduler Scheduled Job Complete: frappe.integrations.doctype.razorpay_settings.razorpay_settings.capture_payment for meeting.dev
2021-04-20 22:16:29,339 INFO scheduler Scheduled Job Start: frappe.email.doctype.email_account.email_account.notify_unreplied for meeting.dev
2021-04-20 22:16:29,656 INFO scheduler Scheduled Job Complete: frappe.email.doctype.email_account.email_account.notify_unreplied for meeting.dev
2021-04-20 22:16:29,729 INFO scheduler Scheduled Job Start: frappe.email.doctype.email_account.email_account.pull for meeting.dev
2021-04-20 22:16:30,049 INFO scheduler Scheduled Job Complete: frappe.email.doctype.email_account.email_account.pull for meeting.dev
2021-04-20 22:16:30,122 INFO scheduler Scheduled Job Start: frappe.email.queue.flush for meeting.dev
2021-04-20 22:16:30,390 INFO scheduler Scheduled Job Complete: frappe.email.queue.flush for meeting.dev
2021-04-20 22:16:30,462 INFO scheduler Scheduled Job Start: frappe.monitor.flush for my_site
2021-04-20 22:16:30,621 INFO scheduler Scheduled Job Complete: frappe.monitor.flush for my_site
2021-04-20 22:16:30,699 INFO scheduler Scheduled Job Start: frappe.utils.global_search.sync_global_search for my_site
2021-04-20 22:16:30,851 INFO scheduler Scheduled Job Complete: frappe.utils.global_search.sync_global_search for my_site
2021-04-20 22:16:30,928 INFO scheduler Scheduled Job Start: frappe.integrations.doctype.razorpay_settings.razorpay_settings.capture_payment for my_site
2021-04-20 22:16:31,313 INFO scheduler Scheduled Job Complete: frappe.integrations.doctype.razorpay_settings.razorpay_settings.capture_payment for my_site
2021-04-20 22:16:31,383 INFO scheduler Scheduled Job Start: frappe.email.doctype.email_account.email_account.notify_unreplied for my_site
2021-04-20 22:16:31,690 INFO scheduler Scheduled Job Complete: frappe.email.doctype.email_account.email_account.notify_unreplied for my_site
2021-04-20 22:16:31,777 INFO scheduler Scheduled Job Start: frappe.email.doctype.email_account.email_account.pull for my_site
2021-04-20 22:16:32,103 INFO scheduler Scheduled Job Complete: frappe.email.doctype.email_account.email_account.pull for my_site
2021-04-20 22:16:32,180 INFO scheduler Scheduled Job Start: frappe.email.queue.flush for my_site
2021-04-20 22:16:32,445 INFO scheduler Scheduled Job Complete: frappe.email.queue.flush for my_site
2021-04-20 22:17:28,894 DEBUG scheduler Queued events for site my_site
2021-04-20 22:18:29,210 DEBUG scheduler Queued events for site my_site
2021-04-20 22:19:29,528 DEBUG scheduler Queued events for site my_site
2021-04-20 22:20:29,790 INFO scheduler Scheduled Job Start: frappe.monitor.flush for meeting.dev
2021-04-20 22:20:29,962 DEBUG scheduler Queued events for site my_site
2021-04-20 22:20:30,004 INFO scheduler Scheduled Job Complete: frappe.monitor.flush for meeting.dev
2021-04-20 22:20:30,078 INFO scheduler Scheduled Job Start: frappe.utils.global_search.sync_global_search for meeting.dev
2021-04-20 22:20:30,233 INFO scheduler Scheduled Job Complete: frappe.utils.global_search.sync_global_search for meeting.dev
2021-04-20 22:20:30,305 INFO scheduler Scheduled Job Start: frappe.integrations.doctype.razorpay_settings.razorpay_settings.capture_payment for meeting.dev
2021-04-20 22:20:30,704 INFO scheduler Scheduled Job Complete: frappe.integrations.doctype.razorpay_settings.razorpay_settings.capture_payment for meeting.dev
2021-04-20 22:20:30,779 INFO scheduler Scheduled Job Start: frappe.email.doctype.email_account.email_account.notify_unreplied for meeting.dev
2021-04-20 22:20:31,089 INFO scheduler Scheduled Job Complete: frappe.email.doctype.email_account.email_account.notify_unreplied for meeting.dev
2021-04-20 22:20:31,162 INFO scheduler Scheduled Job Start: frappe.email.doctype.email_account.email_account.pull for meeting.dev
2021-04-20 22:20:31,479 INFO scheduler Scheduled Job Complete: frappe.email.doctype.email_account.email_account.pull for meeting.dev
2021-04-20 22:20:31,552 INFO scheduler Scheduled Job Start: frappe.email.queue.flush for meeting.dev
2021-04-20 22:20:31,820 INFO scheduler Scheduled Job Complete: frappe.email.queue.flush for meeting.dev
2021-04-20 22:20:31,890 INFO scheduler Scheduled Job Start: frappe.monitor.flush for my_site
2021-04-20 22:20:32,046 INFO scheduler Scheduled Job Complete: frappe.monitor.flush for my_site
2021-04-20 22:20:32,121 INFO scheduler Scheduled Job Start: frappe.utils.global_search.sync_global_search for my_site
2021-04-20 22:20:32,276 INFO scheduler Scheduled Job Complete: frappe.utils.global_search.sync_global_search for my_site
2021-04-20 22:20:32,348 INFO scheduler Scheduled Job Start: frappe.integrations.doctype.razorpay_settings.razorpay_settings.capture_payment for my_site
2021-04-20 22:20:32,745 INFO scheduler Scheduled Job Complete: frappe.integrations.doctype.razorpay_settings.razorpay_settings.capture_payment for my_site
2021-04-20 22:20:32,816 INFO scheduler Scheduled Job Start: frappe.email.doctype.email_account.email_account.notify_unreplied for my_site
2021-04-20 22:20:33,121 INFO scheduler Scheduled Job Complete: frappe.email.doctype.email_account.email_account.notify_unreplied for my_site
2021-04-20 22:20:33,193 INFO scheduler Scheduled Job Start: frappe.email.doctype.email_account.email_account.pull for my_site
2021-04-20 22:20:33,524 INFO scheduler Scheduled Job Complete: frappe.email.doctype.email_account.email_account.pull for my_site
2021-04-20 22:20:33,596 INFO scheduler Scheduled Job Start: frappe.email.queue.flush for my_site
2021-04-20 22:20:33,862 INFO scheduler Scheduled Job Complete: frappe.email.queue.flush for my_site
2021-04-20 22:21:30,306 DEBUG scheduler Queued events for site my_site
2021-04-20 22:22:30,627 DEBUG scheduler Queued events for site my_site
2021-04-20 22:23:30,939 DEBUG scheduler Queued events for site my_site
2021-04-20 22:24:31,205 INFO scheduler Scheduled Job Start: frappe.monitor.flush for meeting.dev
2021-04-20 22:24:31,337 DEBUG scheduler Queued events for site my_site
2021-04-20 22:24:31,389 INFO scheduler Scheduled Job Complete: frappe.monitor.flush for meeting.dev
2021-04-20 22:24:31,469 INFO scheduler Scheduled Job Start: frappe.utils.global_search.sync_global_search for meeting.dev
2021-04-20 22:24:31,630 INFO scheduler Scheduled Job Complete: frappe.utils.global_search.sync_global_search for meeting.dev
2021-04-20 22:24:31,703 INFO scheduler Scheduled Job Start: frappe.integrations.doctype.razorpay_settings.razorpay_settings.capture_payment for meeting.dev
2021-04-20 22:24:32,099 INFO scheduler Scheduled Job Complete: frappe.integrations.doctype.razorpay_settings.razorpay_settings.capture_payment for meeting.dev
2021-04-20 22:24:32,172 INFO scheduler Scheduled Job Start: frappe.email.doctype.email_account.email_account.notify_unreplied for meeting.dev
2021-04-20 22:24:32,484 INFO scheduler Scheduled Job Complete: frappe.email.doctype.email_account.email_account.notify_unreplied for meeting.dev
2021-04-20 22:24:32,561 INFO scheduler Scheduled Job Start: frappe.email.doctype.email_account.email_account.pull for meeting.dev
2021-04-20 22:24:32,881 INFO scheduler Scheduled Job Complete: frappe.email.doctype.email_account.email_account.pull for meeting.dev
2021-04-20 22:24:32,954 INFO scheduler Scheduled Job Start: frappe.email.queue.flush for meeting.dev
2021-04-20 22:24:33,219 INFO scheduler Scheduled Job Complete: frappe.email.queue.flush for meeting.dev
2021-04-20 22:24:33,292 INFO scheduler Scheduled Job Start: frappe.monitor.flush for my_site
2021-04-20 22:24:33,457 INFO scheduler Scheduled Job Complete: frappe.monitor.flush for my_site
2021-04-20 22:24:33,531 INFO scheduler Scheduled Job Start: frappe.utils.global_search.sync_global_search for my_site
2021-04-20 22:24:33,689 INFO scheduler Scheduled Job Complete: frappe.utils.global_search.sync_global_search for my_site
2021-04-20 22:24:33,764 INFO scheduler Scheduled Job Start: frappe.integrations.doctype.razorpay_settings.razorpay_settings.capture_payment for my_site
2021-04-20 22:24:34,154 INFO scheduler Scheduled Job Complete: frappe.integrations.doctype.razorpay_settings.razorpay_settings.capture_payment for my_site
2021-04-20 22:24:34,228 INFO scheduler Scheduled Job Start: frappe.email.doctype.email_account.email_account.notify_unreplied for my_site
2021-04-20 22:24:34,544 INFO scheduler Scheduled Job Complete: frappe.email.doctype.email_account.email_account.notify_unreplied for my_site
2021-04-20 22:24:34,615 INFO scheduler Scheduled Job Start: frappe.email.doctype.email_account.email_account.pull for my_site
2021-04-20 22:24:34,937 INFO scheduler Scheduled Job Complete: frappe.email.doctype.email_account.email_account.pull for my_site
2021-04-20 22:24:35,009 INFO scheduler Scheduled Job Start: frappe.email.queue.flush for my_site
2021-04-20 22:24:35,271 INFO scheduler Scheduled Job Complete: frappe.email.queue.flush for my_site
2021-04-20 22:25:31,686 DEBUG scheduler Queued events for site my_site
2021-04-20 22:26:32,011 DEBUG scheduler Queued events for site my_site
2021-04-20 22:27:32,324 DEBUG scheduler Queued events for site my_site
2021-04-20 22:28:32,590 INFO scheduler Scheduled Job Start: frappe.monitor.flush for meeting.dev
2021-04-20 22:28:32,802 DEBUG scheduler Queued events for site my_site
2021-04-20 22:28:32,831 INFO scheduler Scheduled Job Complete: frappe.monitor.flush for meeting.dev
2021-04-20 22:28:32,902 INFO scheduler Scheduled Job Start: frappe.utils.global_search.sync_global_search for meeting.dev
2021-04-20 22:28:33,057 INFO scheduler Scheduled Job Complete: frappe.utils.global_search.sync_global_search for meeting.dev
2021-04-20 22:28:33,134 INFO scheduler Scheduled Job Start: frappe.integrations.doctype.razorpay_settings.razorpay_settings.capture_payment for meeting.dev
2021-04-20 22:28:33,541 INFO scheduler Scheduled Job Complete: frappe.integrations.doctype.razorpay_settings.razorpay_settings.capture_payment for meeting.dev
2021-04-20 22:28:33,615 INFO scheduler Scheduled Job Start: frappe.email.doctype.email_account.email_account.notify_unreplied for meeting.dev
2021-04-20 22:28:33,919 INFO scheduler Scheduled Job Complete: frappe.email.doctype.email_account.email_account.notify_unreplied for meeting.dev
2021-04-20 22:28:33,991 INFO scheduler Scheduled Job Start: frappe.email.doctype.email_account.email_account.pull for meeting.dev
2021-04-20 22:28:34,311 INFO scheduler Scheduled Job Complete: frappe.email.doctype.email_account.email_account.pull for meeting.dev
2021-04-20 22:28:34,383 INFO scheduler Scheduled Job Start: frappe.email.queue.flush for meeting.dev
2021-04-20 22:28:34,653 INFO scheduler Scheduled Job Complete: frappe.email.queue.flush for meeting.dev
2021-04-20 22:28:34,725 INFO scheduler Scheduled Job Start: frappe.monitor.flush for my_site
2021-04-20 22:28:34,878 INFO scheduler Scheduled Job Complete: frappe.monitor.flush for my_site
2021-04-20 22:28:34,953 INFO scheduler Scheduled Job Start: frappe.utils.global_search.sync_global_search for my_site
2021-04-20 22:28:35,106 INFO scheduler Scheduled Job Complete: frappe.utils.global_search.sync_global_search for my_site
2021-04-20 22:28:35,181 INFO scheduler Scheduled Job Start: frappe.integrations.doctype.razorpay_settings.razorpay_settings.capture_payment for my_site
2021-04-20 22:28:35,573 INFO scheduler Scheduled Job Complete: frappe.integrations.doctype.razorpay_settings.razorpay_settings.capture_payment for my_site
2021-04-20 22:28:35,646 INFO scheduler Scheduled Job Start: frappe.email.doctype.email_account.email_account.notify_unreplied for my_site
2021-04-20 22:28:35,955 INFO scheduler Scheduled Job Complete: frappe.email.doctype.email_account.email_account.notify_unreplied for my_site
2021-04-20 22:28:36,026 INFO scheduler Scheduled Job Start: frappe.email.doctype.email_account.email_account.pull for my_site
2021-04-20 22:28:36,350 INFO scheduler Scheduled Job Complete: frappe.email.doctype.email_account.email_account.pull for my_site
2021-04-20 22:28:36,425 INFO scheduler Scheduled Job Start: frappe.email.queue.flush for my_site
2021-04-20 22:28:36,692 INFO scheduler Scheduled Job Complete: frappe.email.queue.flush for my_site
2021-04-20 22:29:33,148 DEBUG scheduler Queued events for site my_site
2021-04-20 22:30:33,562 INFO scheduler Scheduled Job Start: frappe.twofactor.delete_all_barcodes_for_users for meeting.dev
2021-04-20 22:30:33,652 DEBUG scheduler Queued events for site my_site
2021-04-20 22:30:34,005 INFO scheduler Scheduled Job Complete: frappe.twofactor.delete_all_barcodes_for_users for meeting.dev
2021-04-20 22:30:34,087 INFO scheduler Scheduled Job Start: frappe.website.doctype.web_page.web_page.check_publish_status for meeting.dev
2021-04-20 22:30:34,541 INFO scheduler Scheduled Job Complete: frappe.website.doctype.web_page.web_page.check_publish_status for meeting.dev
2021-04-20 22:30:34,630 INFO scheduler Scheduled Job Start: frappe.oauth.delete_oauth2_data for meeting.dev
2021-04-20 22:30:35,035 INFO scheduler Scheduled Job Complete: frappe.oauth.delete_oauth2_data for meeting.dev
2021-04-20 22:30:35,120 INFO scheduler Scheduled Job Start: frappe.twofactor.delete_all_barcodes_for_users for my_site
2021-04-20 22:30:35,538 INFO scheduler Scheduled Job Complete: frappe.twofactor.delete_all_barcodes_for_users for my_site
2021-04-20 22:30:35,624 INFO scheduler Scheduled Job Start: frappe.website.doctype.web_page.web_page.check_publish_status for my_site
2021-04-20 22:30:36,084 INFO scheduler Scheduled Job Complete: frappe.website.doctype.web_page.web_page.check_publish_status for my_site
2021-04-20 22:30:36,173 INFO scheduler Scheduled Job Start: frappe.oauth.delete_oauth2_data for my_site
2021-04-20 22:30:36,576 INFO scheduler Scheduled Job Complete: frappe.oauth.delete_oauth2_data for my_site
2021-04-20 22:31:34,010 DEBUG scheduler Queued events for site my_site
2021-04-20 22:32:34,280 INFO scheduler Scheduled Job Start: frappe.monitor.flush for meeting.dev
2021-04-20 22:32:34,418 DEBUG scheduler Queued events for site my_site
2021-04-20 22:32:34,451 INFO scheduler Scheduled Job Complete: frappe.monitor.flush for meeting.dev
2021-04-20 22:32:34,523 INFO scheduler Scheduled Job Start: frappe.utils.global_search.sync_global_search for meeting.dev
2021-04-20 22:32:34,682 INFO scheduler Scheduled Job Complete: frappe.utils.global_search.sync_global_search for meeting.dev
2021-04-20 22:32:34,757 INFO scheduler Scheduled Job Start: frappe.integrations.doctype.razorpay_settings.razorpay_settings.capture_payment for meeting.dev
2021-04-20 22:32:35,145 INFO scheduler Scheduled Job Complete: frappe.integrations.doctype.razorpay_settings.razorpay_settings.capture_payment for meeting.dev
2021-04-20 22:32:35,216 INFO scheduler Scheduled Job Start: frappe.email.doctype.email_account.email_account.notify_unreplied for meeting.dev
2021-04-20 22:32:35,526 INFO scheduler Scheduled Job Complete: frappe.email.doctype.email_account.email_account.notify_unreplied for meeting.dev
2021-04-20 22:32:35,599 INFO scheduler Scheduled Job Start: frappe.email.doctype.email_account.email_account.pull for meeting.dev
2021-04-20 22:32:35,922 INFO scheduler Scheduled Job Complete: frappe.email.doctype.email_account.email_account.pull for meeting.dev
2021-04-20 22:32:35,992 INFO scheduler Scheduled Job Start: frappe.email.queue.flush for meeting.dev
2021-04-20 22:32:36,257 INFO scheduler Scheduled Job Complete: frappe.email.queue.flush for meeting.dev
2021-04-20 22:32:36,328 INFO scheduler Scheduled Job Start: frappe.monitor.flush for my_site
2021-04-20 22:32:36,482 INFO scheduler Scheduled Job Complete: frappe.monitor.flush for my_site
2021-04-20 22:32:36,554 INFO scheduler Scheduled Job Start: frappe.utils.global_search.sync_global_search for my_site
2021-04-20 22:32:36,716 INFO scheduler Scheduled Job Complete: frappe.utils.global_search.sync_global_search for my_site
2021-04-20 22:32:36,794 INFO scheduler Scheduled Job Start: frappe.integrations.doctype.razorpay_settings.razorpay_settings.capture_payment for my_site
2021-04-20 22:32:37,183 INFO scheduler Scheduled Job Complete: frappe.integrations.doctype.razorpay_settings.razorpay_settings.capture_payment for my_site
2021-04-20 22:32:37,258 INFO scheduler Scheduled Job Start: frappe.email.doctype.email_account.email_account.notify_unreplied for my_site
2021-04-20 22:32:37,578 INFO scheduler Scheduled Job Complete: frappe.email.doctype.email_account.email_account.notify_unreplied for my_site
2021-04-20 22:32:37,653 INFO scheduler Scheduled Job Start: frappe.email.doctype.email_account.email_account.pull for my_site
2021-04-20 22:32:37,980 INFO scheduler Scheduled Job Complete: frappe.email.doctype.email_account.email_account.pull for my_site
2021-04-20 22:32:38,053 INFO scheduler Scheduled Job Start: frappe.email.queue.flush for my_site
2021-04-20 22:32:38,315 INFO scheduler Scheduled Job Complete: frappe.email.queue.flush for my_site
2021-04-20 22:33:34,763 DEBUG scheduler Queued events for site my_site
2021-04-20 22:34:35,087 DEBUG scheduler Queued events for site my_site
2021-04-20 22:35:35,379 DEBUG scheduler Queued events for site my_site
2021-04-20 22:36:35,650 INFO scheduler Scheduled Job Start: frappe.monitor.flush for meeting.dev
2021-04-20 22:36:35,801 DEBUG scheduler Queued events for site my_site
2021-04-20 22:36:35,829 INFO scheduler Scheduled Job Complete: frappe.monitor.flush for meeting.dev
2021-04-20 22:36:35,909 INFO scheduler Scheduled Job Start: frappe.utils.global_search.sync_global_search for meeting.dev
2021-04-20 22:36:36,067 INFO scheduler Scheduled Job Complete: frappe.utils.global_search.sync_global_search for meeting.dev
2021-04-20 22:36:36,143 INFO scheduler Scheduled Job Start: frappe.integrations.doctype.razorpay_settings.razorpay_settings.capture_payment for meeting.dev
2021-04-20 22:36:36,536 INFO scheduler Scheduled Job Complete: frappe.integrations.doctype.razorpay_settings.razorpay_settings.capture_payment for meeting.dev
2021-04-20 22:36:36,610 INFO scheduler Scheduled Job Start: frappe.email.doctype.email_account.email_account.notify_unreplied for meeting.dev
2021-04-20 22:36:36,914 INFO scheduler Scheduled Job Complete: frappe.email.doctype.email_account.email_account.notify_unreplied for meeting.dev
2021-04-20 22:36:36,988 INFO scheduler Scheduled Job Start: frappe.email.doctype.email_account.email_account.pull for meeting.dev
2021-04-20 22:36:37,316 INFO scheduler Scheduled Job Complete: frappe.email.doctype.email_account.email_account.pull for meeting.dev
2021-04-20 22:36:37,393 INFO scheduler Scheduled Job Start: frappe.email.queue.flush for meeting.dev
2021-04-20 22:36:37,658 INFO scheduler Scheduled Job Complete: frappe.email.queue.flush for meeting.dev
2021-04-20 22:36:37,732 INFO scheduler Scheduled Job Start: frappe.monitor.flush for my_site
2021-04-20 22:36:37,890 INFO scheduler Scheduled Job Complete: frappe.monitor.flush for my_site
2021-04-20 22:36:37,966 INFO scheduler Scheduled Job Start: frappe.utils.global_search.sync_global_search for my_site
2021-04-20 22:36:38,128 INFO scheduler Scheduled Job Complete: frappe.utils.global_search.sync_global_search for my_site
2021-04-20 22:36:38,209 INFO scheduler Scheduled Job Start: frappe.integrations.doctype.razorpay_settings.razorpay_settings.capture_payment for my_site
2021-04-20 22:36:38,613 INFO scheduler Scheduled Job Complete: frappe.integrations.doctype.razorpay_settings.razorpay_settings.capture_payment for my_site
2021-04-20 22:36:38,689 INFO scheduler Scheduled Job Start: frappe.email.doctype.email_account.email_account.notify_unreplied for my_site
2021-04-20 22:36:39,010 INFO scheduler Scheduled Job Complete: frappe.email.doctype.email_account.email_account.notify_unreplied for my_site
2021-04-20 22:36:39,087 INFO scheduler Scheduled Job Start: frappe.email.doctype.email_account.email_account.pull for my_site
2021-04-20 22:36:39,415 INFO scheduler Scheduled Job Complete: frappe.email.doctype.email_account.email_account.pull for my_site
2021-04-20 22:36:39,490 INFO scheduler Scheduled Job Start: frappe.email.queue.flush for my_site
2021-04-20 22:36:39,763 INFO scheduler Scheduled Job Complete: frappe.email.queue.flush for my_site
2021-04-20 22:37:36,144 DEBUG scheduler Queued events for site my_site
2021-04-20 22:38:36,458 DEBUG scheduler Queued events for site my_site
2021-04-20 22:39:36,770 DEBUG scheduler Queued events for site my_site
2021-04-20 22:40:37,042 INFO scheduler Scheduled Job Start: frappe.monitor.flush for meeting.dev
2021-04-20 22:40:37,179 DEBUG scheduler Queued events for site my_site
2021-04-20 22:40:37,212 INFO scheduler Scheduled Job Complete: frappe.monitor.flush for meeting.dev
2021-04-20 22:40:37,285 INFO scheduler Scheduled Job Start: frappe.utils.global_search.sync_global_search for meeting.dev
2021-04-20 22:40:37,439 INFO scheduler Scheduled Job Complete: frappe.utils.global_search.sync_global_search for meeting.dev
2021-04-20 22:40:37,512 INFO scheduler Scheduled Job Start: frappe.integrations.doctype.razorpay_settings.razorpay_settings.capture_payment for meeting.dev
2021-04-20 22:40:37,922 INFO scheduler Scheduled Job Complete: frappe.integrations.doctype.razorpay_settings.razorpay_settings.capture_payment for meeting.dev
2021-04-20 22:40:37,994 INFO scheduler Scheduled Job Start: frappe.email.doctype.email_account.email_account.notify_unreplied for meeting.dev
2021-04-20 22:40:38,300 INFO scheduler Scheduled Job Complete: frappe.email.doctype.email_account.email_account.notify_unreplied for meeting.dev
2021-04-20 22:40:38,371 INFO scheduler Scheduled Job Start: frappe.email.doctype.email_account.email_account.pull for meeting.dev
2021-04-20 22:40:38,694 INFO scheduler Scheduled Job Complete: frappe.email.doctype.email_account.email_account.pull for meeting.dev
2021-04-20 22:40:38,768 INFO scheduler Scheduled Job Start: frappe.email.queue.flush for meeting.dev
2021-04-20 22:40:39,034 INFO scheduler Scheduled Job Complete: frappe.email.queue.flush for meeting.dev
2021-04-20 22:40:39,104 INFO scheduler Scheduled Job Start: frappe.monitor.flush for my_site
2021-04-20 22:40:39,261 INFO scheduler Scheduled Job Complete: frappe.monitor.flush for my_site
2021-04-20 22:40:39,335 INFO scheduler Scheduled Job Start: frappe.utils.global_search.sync_global_search for my_site
2021-04-20 22:40:39,489 INFO scheduler Scheduled Job Complete: frappe.utils.global_search.sync_global_search for my_site
2021-04-20 22:40:39,568 INFO scheduler Scheduled Job Start: frappe.integrations.doctype.razorpay_settings.razorpay_settings.capture_payment for my_site
2021-04-20 22:40:39,971 INFO scheduler Scheduled Job Complete: frappe.integrations.doctype.razorpay_settings.razorpay_settings.capture_payment for my_site
2021-04-20 22:40:40,045 INFO scheduler Scheduled Job Start: frappe.email.doctype.email_account.email_account.notify_unreplied for my_site
2021-04-20 22:40:40,371 INFO scheduler Scheduled Job Complete: frappe.email.doctype.email_account.email_account.notify_unreplied for my_site
2021-04-20 22:40:40,442 INFO scheduler Scheduled Job Start: frappe.email.doctype.email_account.email_account.pull for my_site
2021-04-20 22:40:40,764 INFO scheduler Scheduled Job Complete: frappe.email.doctype.email_account.email_account.pull for my_site
2021-04-20 22:40:40,833 INFO scheduler Scheduled Job Start: frappe.email.queue.flush for my_site
2021-04-20 22:40:41,101 INFO scheduler Scheduled Job Complete: frappe.email.queue.flush for my_site
2021-04-20 22:41:37,524 DEBUG scheduler Queued events for site my_site
2021-04-20 22:42:37,839 DEBUG scheduler Queued events for site my_site
2021-04-20 22:43:38,159 DEBUG scheduler Queued events for site my_site
2021-04-20 22:44:38,450 INFO scheduler Scheduled Job Start: frappe.monitor.flush for meeting.dev
2021-04-20 22:44:38,626 DEBUG scheduler Queued events for site my_site
2021-04-20 22:44:38,663 INFO scheduler Scheduled Job Complete: frappe.monitor.flush for meeting.dev
2021-04-20 22:44:38,739 INFO scheduler Scheduled Job Start: frappe.utils.global_search.sync_global_search for meeting.dev
2021-04-20 22:44:38,899 INFO scheduler Scheduled Job Complete: frappe.utils.global_search.sync_global_search for meeting.dev
2021-04-20 22:44:38,978 INFO scheduler Scheduled Job Start: frappe.integrations.doctype.razorpay_settings.razorpay_settings.capture_payment for meeting.dev
2021-04-20 22:44:39,378 INFO scheduler Scheduled Job Complete: frappe.integrations.doctype.razorpay_settings.razorpay_settings.capture_payment for meeting.dev
2021-04-20 22:44:39,456 INFO scheduler Scheduled Job Start: frappe.email.doctype.email_account.email_account.notify_unreplied for meeting.dev
2021-04-20 22:44:39,764 INFO scheduler Scheduled Job Complete: frappe.email.doctype.email_account.email_account.notify_unreplied for meeting.dev
2021-04-20 22:44:39,838 INFO scheduler Scheduled Job Start: frappe.email.doctype.email_account.email_account.pull for meeting.dev
2021-04-20 22:44:40,162 INFO scheduler Scheduled Job Complete: frappe.email.doctype.email_account.email_account.pull for meeting.dev
2021-04-20 22:44:40,234 INFO scheduler Scheduled Job Start: frappe.email.queue.flush for meeting.dev
2021-04-20 22:44:40,499 INFO scheduler Scheduled Job Complete: frappe.email.queue.flush for meeting.dev
2021-04-20 22:44:40,576 INFO scheduler Scheduled Job Start: frappe.monitor.flush for my_site
2021-04-20 22:44:40,731 INFO scheduler Scheduled Job Complete: frappe.monitor.flush for my_site
2021-04-20 22:44:40,806 INFO scheduler Scheduled Job Start: frappe.utils.global_search.sync_global_search for my_site
2021-04-20 22:44:40,961 INFO scheduler Scheduled Job Complete: frappe.utils.global_search.sync_global_search for my_site
2021-04-20 22:44:41,035 INFO scheduler Scheduled Job Start: frappe.integrations.doctype.razorpay_settings.razorpay_settings.capture_payment for my_site
2021-04-20 22:44:41,422 INFO scheduler Scheduled Job Complete: frappe.integrations.doctype.razorpay_settings.razorpay_settings.capture_payment for my_site
2021-04-20 22:44:41,493 INFO scheduler Scheduled Job Start: frappe.email.doctype.email_account.email_account.notify_unreplied for my_site
2021-04-20 22:44:41,808 INFO scheduler Scheduled Job Complete: frappe.email.doctype.email_account.email_account.notify_unreplied for my_site
2021-04-20 22:44:41,884 INFO scheduler Scheduled Job Start: frappe.email.doctype.email_account.email_account.pull for my_site
2021-04-20 22:44:42,208 INFO scheduler Scheduled Job Complete: frappe.email.doctype.email_account.email_account.pull for my_site
2021-04-20 22:44:42,281 INFO scheduler Scheduled Job Start: frappe.email.queue.flush for my_site
2021-04-20 22:44:42,547 INFO scheduler Scheduled Job Complete: frappe.email.queue.flush for my_site
2021-04-20 22:45:38,917 INFO scheduler Scheduled Job Start: frappe.twofactor.delete_all_barcodes_for_users for meeting.dev
2021-04-20 22:45:39,018 DEBUG scheduler Queued events for site my_site
2021-04-20 22:45:39,357 INFO scheduler Scheduled Job Complete: frappe.twofactor.delete_all_barcodes_for_users for meeting.dev
2021-04-20 22:45:39,442 INFO scheduler Scheduled Job Start: frappe.website.doctype.web_page.web_page.check_publish_status for meeting.dev
2021-04-20 22:45:39,906 INFO scheduler Scheduled Job Complete: frappe.website.doctype.web_page.web_page.check_publish_status for meeting.dev
2021-04-20 22:45:39,995 INFO scheduler Scheduled Job Start: frappe.oauth.delete_oauth2_data for meeting.dev
2021-04-20 22:45:40,402 INFO scheduler Scheduled Job Complete: frappe.oauth.delete_oauth2_data for meeting.dev
2021-04-20 22:45:40,487 INFO scheduler Scheduled Job Start: frappe.twofactor.delete_all_barcodes_for_users for my_site
2021-04-20 22:45:40,926 INFO scheduler Scheduled Job Complete: frappe.twofactor.delete_all_barcodes_for_users for my_site
2021-04-20 22:45:41,016 INFO scheduler Scheduled Job Start: frappe.website.doctype.web_page.web_page.check_publish_status for my_site
2021-04-20 22:45:41,483 INFO scheduler Scheduled Job Complete: frappe.website.doctype.web_page.web_page.check_publish_status for my_site
2021-04-20 22:45:41,570 INFO scheduler Scheduled Job Start: frappe.oauth.delete_oauth2_data for my_site
2021-04-20 22:45:41,981 INFO scheduler Scheduled Job Complete: frappe.oauth.delete_oauth2_data for my_site
2021-04-20 22:46:39,369 DEBUG scheduler Queued events for site my_site
2021-04-20 22:47:39,686 DEBUG scheduler Queued events for site my_site
2021-04-20 22:48:39,951 INFO scheduler Scheduled Job Start: frappe.monitor.flush for meeting.dev
2021-04-20 22:48:40,160 DEBUG scheduler Queued events for site my_site
2021-04-20 22:48:40,185 INFO scheduler Scheduled Job Complete: frappe.monitor.flush for meeting.dev
2021-04-20 22:48:40,260 INFO scheduler Scheduled Job Start: frappe.utils.global_search.sync_global_search for meeting.dev
2021-04-20 22:48:40,417 INFO scheduler Scheduled Job Complete: frappe.utils.global_search.sync_global_search for meeting.dev
2021-04-20 22:48:40,492 INFO scheduler Scheduled Job Start: frappe.integrations.doctype.razorpay_settings.razorpay_settings.capture_payment for meeting.dev
2021-04-20 22:48:40,886 INFO scheduler Scheduled Job Complete: frappe.integrations.doctype.razorpay_settings.razorpay_settings.capture_payment for meeting.dev
2021-04-20 22:48:40,959 INFO scheduler Scheduled Job Start: frappe.email.doctype.email_account.email_account.notify_unreplied for meeting.dev
2021-04-20 22:48:41,268 INFO scheduler Scheduled Job Complete: frappe.email.doctype.email_account.email_account.notify_unreplied for meeting.dev
2021-04-20 22:48:41,339 INFO scheduler Scheduled Job Start: frappe.email.doctype.email_account.email_account.pull for meeting.dev
2021-04-20 22:48:41,665 INFO scheduler Scheduled Job Complete: frappe.email.doctype.email_account.email_account.pull for meeting.dev
2021-04-20 22:48:41,737 INFO scheduler Scheduled Job Start: frappe.email.queue.flush for meeting.dev
2021-04-20 22:48:42,001 INFO scheduler Scheduled Job Complete: frappe.email.queue.flush for meeting.dev
2021-04-20 22:48:42,072 INFO scheduler Scheduled Job Start: frappe.monitor.flush for my_site
2021-04-20 22:48:42,225 INFO scheduler Scheduled Job Complete: frappe.monitor.flush for my_site
2021-04-20 22:48:42,305 INFO scheduler Scheduled Job Start: frappe.utils.global_search.sync_global_search for my_site
2021-04-20 22:48:42,463 INFO scheduler Scheduled Job Complete: frappe.utils.global_search.sync_global_search for my_site
2021-04-20 22:48:42,543 INFO scheduler Scheduled Job Start: frappe.integrations.doctype.razorpay_settings.razorpay_settings.capture_payment for my_site
2021-04-20 22:48:42,932 INFO scheduler Scheduled Job Complete: frappe.integrations.doctype.razorpay_settings.razorpay_settings.capture_payment for my_site
2021-04-20 22:48:43,004 INFO scheduler Scheduled Job Start: frappe.email.doctype.email_account.email_account.notify_unreplied for my_site
2021-04-20 22:48:43,313 INFO scheduler Scheduled Job Complete: frappe.email.doctype.email_account.email_account.notify_unreplied for my_site
2021-04-20 22:48:43,388 INFO scheduler Scheduled Job Start: frappe.email.doctype.email_account.email_account.pull for my_site
2021-04-20 22:48:43,723 INFO scheduler Scheduled Job Complete: frappe.email.doctype.email_account.email_account.pull for my_site
2021-04-20 22:48:43,797 INFO scheduler Scheduled Job Start: frappe.email.queue.flush for my_site
2021-04-20 22:48:44,065 INFO scheduler Scheduled Job Complete: frappe.email.queue.flush for my_site
2021-04-20 22:49:40,501 DEBUG scheduler Queued events for site my_site
2021-04-20 22:50:40,820 DEBUG scheduler Queued events for site my_site
2021-04-20 22:51:41,137 DEBUG scheduler Queued events for site my_site
2021-04-20 22:52:41,400 INFO scheduler Scheduled Job Start: frappe.monitor.flush for meeting.dev
2021-04-20 22:52:41,544 DEBUG scheduler Queued events for site my_site
2021-04-20 22:52:41,584 INFO scheduler Scheduled Job Complete: frappe.monitor.flush for meeting.dev
2021-04-20 22:52:41,655 INFO scheduler Scheduled Job Start: frappe.utils.global_search.sync_global_search for meeting.dev
2021-04-20 22:52:41,816 INFO scheduler Scheduled Job Complete: frappe.utils.global_search.sync_global_search for meeting.dev
2021-04-20 22:52:41,890 INFO scheduler Scheduled Job Start: frappe.integrations.doctype.razorpay_settings.razorpay_settings.capture_payment for meeting.dev
2021-04-20 22:52:42,281 INFO scheduler Scheduled Job Complete: frappe.integrations.doctype.razorpay_settings.razorpay_settings.capture_payment for meeting.dev
2021-04-20 22:52:42,356 INFO scheduler Scheduled Job Start: frappe.email.doctype.email_account.email_account.notify_unreplied for meeting.dev
2021-04-20 22:52:42,668 INFO scheduler Scheduled Job Complete: frappe.email.doctype.email_account.email_account.notify_unreplied for meeting.dev
2021-04-20 22:52:42,745 INFO scheduler Scheduled Job Start: frappe.email.doctype.email_account.email_account.pull for meeting.dev
2021-04-20 22:52:43,072 INFO scheduler Scheduled Job Complete: frappe.email.doctype.email_account.email_account.pull for meeting.dev
2021-04-20 22:52:43,144 INFO scheduler Scheduled Job Start: frappe.email.queue.flush for meeting.dev
2021-04-20 22:52:43,409 INFO scheduler Scheduled Job Complete: frappe.email.queue.flush for meeting.dev
2021-04-20 22:52:43,484 INFO scheduler Scheduled Job Start: frappe.monitor.flush for my_site
2021-04-20 22:52:43,637 INFO scheduler Scheduled Job Complete: frappe.monitor.flush for my_site
2021-04-20 22:52:43,716 INFO scheduler Scheduled Job Start: frappe.utils.global_search.sync_global_search for my_site
2021-04-20 22:52:43,876 INFO scheduler Scheduled Job Complete: frappe.utils.global_search.sync_global_search for my_site
2021-04-20 22:52:43,954 INFO scheduler Scheduled Job Start: frappe.integrations.doctype.razorpay_settings.razorpay_settings.capture_payment for my_site
2021-04-20 22:52:44,345 INFO scheduler Scheduled Job Complete: frappe.integrations.doctype.razorpay_settings.razorpay_settings.capture_payment for my_site
2021-04-20 22:52:44,420 INFO scheduler Scheduled Job Start: frappe.email.doctype.email_account.email_account.notify_unreplied for my_site
2021-04-20 22:52:44,731 INFO scheduler Scheduled Job Complete: frappe.email.doctype.email_account.email_account.notify_unreplied for my_site
2021-04-20 22:52:44,803 INFO scheduler Scheduled Job Start: frappe.email.doctype.email_account.email_account.pull for my_site
2021-04-20 22:52:45,120 INFO scheduler Scheduled Job Complete: frappe.email.doctype.email_account.email_account.pull for my_site
2021-04-20 22:52:45,192 INFO scheduler Scheduled Job Start: frappe.email.queue.flush for my_site
2021-04-20 22:52:45,456 INFO scheduler Scheduled Job Complete: frappe.email.queue.flush for my_site
2021-04-20 22:53:41,889 DEBUG scheduler Queued events for site my_site
2021-04-20 22:54:42,197 DEBUG scheduler Queued events for site my_site
2021-04-20 22:55:42,513 DEBUG scheduler Queued events for site my_site
2021-04-20 22:56:42,799 INFO scheduler Scheduled Job Start: frappe.monitor.flush for meeting.dev
2021-04-20 22:56:43,019 DEBUG scheduler Queued events for site my_site
2021-04-20 22:56:43,045 INFO scheduler Scheduled Job Complete: frappe.monitor.flush for meeting.dev
2021-04-20 22:56:43,124 INFO scheduler Scheduled Job Start: frappe.utils.global_search.sync_global_search for meeting.dev
2021-04-20 22:56:43,279 INFO scheduler Scheduled Job Complete: frappe.utils.global_search.sync_global_search for meeting.dev
2021-04-20 22:56:43,350 INFO scheduler Scheduled Job Start: frappe.integrations.doctype.razorpay_settings.razorpay_settings.capture_payment for meeting.dev
2021-04-20 22:56:43,755 INFO scheduler Scheduled Job Complete: frappe.integrations.doctype.razorpay_settings.razorpay_settings.capture_payment for meeting.dev
2021-04-20 22:56:43,826 INFO scheduler Scheduled Job Start: frappe.email.doctype.email_account.email_account.notify_unreplied for meeting.dev
2021-04-20 22:56:44,132 INFO scheduler Scheduled Job Complete: frappe.email.doctype.email_account.email_account.notify_unreplied for meeting.dev
2021-04-20 22:56:44,204 INFO scheduler Scheduled Job Start: frappe.email.doctype.email_account.email_account.pull for meeting.dev
2021-04-20 22:56:44,531 INFO scheduler Scheduled Job Complete: frappe.email.doctype.email_account.email_account.pull for meeting.dev
2021-04-20 22:56:44,602 INFO scheduler Scheduled Job Start: frappe.email.queue.flush for meeting.dev
2021-04-20 22:56:44,866 INFO scheduler Scheduled Job Complete: frappe.email.queue.flush for meeting.dev
2021-04-20 22:56:44,942 INFO scheduler Scheduled Job Start: frappe.monitor.flush for my_site
2021-04-20 22:56:45,098 INFO scheduler Scheduled Job Complete: frappe.monitor.flush for my_site
2021-04-20 22:56:45,169 INFO scheduler Scheduled Job Start: frappe.utils.global_search.sync_global_search for my_site
2021-04-20 22:56:45,342 INFO scheduler Scheduled Job Complete: frappe.utils.global_search.sync_global_search for my_site
2021-04-20 22:56:45,421 INFO scheduler Scheduled Job Start: frappe.integrations.doctype.razorpay_settings.razorpay_settings.capture_payment for my_site
2021-04-20 22:56:45,826 INFO scheduler Scheduled Job Complete: frappe.integrations.doctype.razorpay_settings.razorpay_settings.capture_payment for my_site
2021-04-20 22:56:45,896 INFO scheduler Scheduled Job Start: frappe.email.doctype.email_account.email_account.notify_unreplied for my_site
2021-04-20 22:56:46,208 INFO scheduler Scheduled Job Complete: frappe.email.doctype.email_account.email_account.notify_unreplied for my_site
2021-04-20 22:56:46,278 INFO scheduler Scheduled Job Start: frappe.email.doctype.email_account.email_account.pull for my_site
2021-04-20 22:56:46,600 INFO scheduler Scheduled Job Complete: frappe.email.doctype.email_account.email_account.pull for my_site
2021-04-20 22:56:46,682 INFO scheduler Scheduled Job Start: frappe.email.queue.flush for my_site
2021-04-20 22:56:46,950 INFO scheduler Scheduled Job Complete: frappe.email.queue.flush for my_site
2021-04-20 22:57:43,373 DEBUG scheduler Queued events for site my_site
2021-04-20 22:58:43,707 DEBUG scheduler Queued events for site my_site
2021-04-20 22:59:44,026 DEBUG scheduler Queued events for site my_site
2021-04-20 23:00:44,294 INFO scheduler Scheduled Job Start: frappe.email.doctype.newsletter.newsletter.send_scheduled_email for meeting.dev
2021-04-20 23:00:44,798 DEBUG scheduler Queued events for site my_site
2021-04-20 23:00:44,924 INFO scheduler Scheduled Job Complete: frappe.email.doctype.newsletter.newsletter.send_scheduled_email for meeting.dev
2021-04-20 23:00:45,011 INFO scheduler Scheduled Job Start: frappe.integrations.doctype.google_calendar.google_calendar.sync for meeting.dev
2021-04-20 23:00:45,597 INFO scheduler Scheduled Job Complete: frappe.integrations.doctype.google_calendar.google_calendar.sync for meeting.dev
2021-04-20 23:00:45,686 INFO scheduler Scheduled Job Start: frappe.desk.form.document_follow.send_hourly_updates for meeting.dev
2021-04-20 23:00:46,082 INFO scheduler Scheduled Job Complete: frappe.desk.form.document_follow.send_hourly_updates for meeting.dev
2021-04-20 23:00:46,193 INFO scheduler Scheduled Job Start: frappe.deferred_insert.save_to_db for meeting.dev
2021-04-20 23:00:46,599 INFO scheduler Scheduled Job Complete: frappe.deferred_insert.save_to_db for meeting.dev
2021-04-20 23:00:46,690 INFO scheduler Scheduled Job Start: frappe.desk.page.backups.backups.delete_downloadable_backups for meeting.dev
2021-04-20 23:00:47,104 INFO scheduler Scheduled Job Complete: frappe.desk.page.backups.backups.delete_downloadable_backups for meeting.dev
2021-04-20 23:00:47,192 INFO scheduler Scheduled Job Start: frappe.utils.error.collect_error_snapshots for meeting.dev
2021-04-20 23:00:47,585 INFO scheduler Scheduled Job Complete: frappe.utils.error.collect_error_snapshots for meeting.dev
2021-04-20 23:00:47,680 INFO scheduler Scheduled Job Start: frappe.model.utils.user_settings.sync_user_settings for meeting.dev
2021-04-20 23:00:48,076 INFO scheduler Scheduled Job Complete: frappe.model.utils.user_settings.sync_user_settings for meeting.dev
2021-04-20 23:00:48,165 INFO scheduler Scheduled Job Start: frappe.model.utils.link_count.update_link_count for meeting.dev
2021-04-20 23:00:48,589 INFO scheduler Scheduled Job Complete: frappe.model.utils.link_count.update_link_count for meeting.dev
2021-04-20 23:00:48,679 INFO scheduler Scheduled Job Start: frappe.monitor.flush for meeting.dev
2021-04-20 23:00:48,835 INFO scheduler Scheduled Job Complete: frappe.monitor.flush for meeting.dev
2021-04-20 23:00:48,909 INFO scheduler Scheduled Job Start: frappe.utils.global_search.sync_global_search for meeting.dev
2021-04-20 23:00:49,064 INFO scheduler Scheduled Job Complete: frappe.utils.global_search.sync_global_search for meeting.dev
2021-04-20 23:00:49,138 INFO scheduler Scheduled Job Start: frappe.integrations.doctype.razorpay_settings.razorpay_settings.capture_payment for meeting.dev
2021-04-20 23:00:49,542 INFO scheduler Scheduled Job Complete: frappe.integrations.doctype.razorpay_settings.razorpay_settings.capture_payment for meeting.dev
2021-04-20 23:00:49,613 INFO scheduler Scheduled Job Start: frappe.email.doctype.email_account.email_account.notify_unreplied for meeting.dev
2021-04-20 23:00:49,935 INFO scheduler Scheduled Job Complete: frappe.email.doctype.email_account.email_account.notify_unreplied for meeting.dev
2021-04-20 23:00:50,008 INFO scheduler Scheduled Job Start: frappe.email.doctype.email_account.email_account.pull for meeting.dev
2021-04-20 23:00:50,342 INFO scheduler Scheduled Job Complete: frappe.email.doctype.email_account.email_account.pull for meeting.dev
2021-04-20 23:00:50,420 INFO scheduler Scheduled Job Start: frappe.email.queue.flush for meeting.dev
2021-04-20 23:00:50,695 INFO scheduler Scheduled Job Complete: frappe.email.queue.flush for meeting.dev
2021-04-20 23:00:50,768 INFO scheduler Scheduled Job Start: frappe.twofactor.delete_all_barcodes_for_users for meeting.dev
2021-04-20 23:00:51,181 INFO scheduler Scheduled Job Complete: frappe.twofactor.delete_all_barcodes_for_users for meeting.dev
2021-04-20 23:00:51,266 INFO scheduler Scheduled Job Start: frappe.website.doctype.web_page.web_page.check_publish_status for meeting.dev
2021-04-20 23:00:51,748 INFO scheduler Scheduled Job Complete: frappe.website.doctype.web_page.web_page.check_publish_status for meeting.dev
2021-04-20 23:00:51,837 INFO scheduler Scheduled Job Start: frappe.oauth.delete_oauth2_data for meeting.dev
2021-04-20 23:00:52,344 INFO scheduler Scheduled Job Complete: frappe.oauth.delete_oauth2_data for meeting.dev
2021-04-20 23:00:52,434 INFO scheduler Scheduled Job Start: frappe.email.doctype.newsletter.newsletter.send_scheduled_email for my_site
2021-04-20 23:00:52,983 INFO scheduler Scheduled Job Complete: frappe.email.doctype.newsletter.newsletter.send_scheduled_email for my_site
2021-04-20 23:00:53,069 INFO scheduler Scheduled Job Start: frappe.integrations.doctype.google_calendar.google_calendar.sync for my_site
2021-04-20 23:00:53,725 INFO scheduler Scheduled Job Complete: frappe.integrations.doctype.google_calendar.google_calendar.sync for my_site
2021-04-20 23:00:53,824 INFO scheduler Scheduled Job Start: frappe.desk.form.document_follow.send_hourly_updates for my_site
2021-04-20 23:00:54,301 INFO scheduler Scheduled Job Complete: frappe.desk.form.document_follow.send_hourly_updates for my_site
2021-04-20 23:00:54,398 INFO scheduler Scheduled Job Start: frappe.deferred_insert.save_to_db for my_site
2021-04-20 23:00:54,796 INFO scheduler Scheduled Job Complete: frappe.deferred_insert.save_to_db for my_site
2021-04-20 23:00:54,903 INFO scheduler Scheduled Job Start: frappe.desk.page.backups.backups.delete_downloadable_backups for my_site
2021-04-20 23:00:55,341 INFO scheduler Scheduled Job Complete: frappe.desk.page.backups.backups.delete_downloadable_backups for my_site
2021-04-20 23:00:55,432 INFO scheduler Scheduled Job Start: frappe.utils.error.collect_error_snapshots for my_site
2021-04-20 23:00:55,866 INFO scheduler Scheduled Job Complete: frappe.utils.error.collect_error_snapshots for my_site
2021-04-20 23:00:55,968 INFO scheduler Scheduled Job Start: frappe.model.utils.user_settings.sync_user_settings for my_site
2021-04-20 23:00:56,384 INFO scheduler Scheduled Job Complete: frappe.model.utils.user_settings.sync_user_settings for my_site
2021-04-20 23:00:56,473 INFO scheduler Scheduled Job Start: frappe.model.utils.link_count.update_link_count for my_site
2021-04-20 23:00:56,900 INFO scheduler Scheduled Job Complete: frappe.model.utils.link_count.update_link_count for my_site
2021-04-20 23:00:56,986 INFO scheduler Scheduled Job Start: frappe.monitor.flush for my_site
2021-04-20 23:00:57,144 INFO scheduler Scheduled Job Complete: frappe.monitor.flush for my_site
2021-04-20 23:00:57,221 INFO scheduler Scheduled Job Start: frappe.utils.global_search.sync_global_search for my_site
2021-04-20 23:00:57,388 INFO scheduler Scheduled Job Complete: frappe.utils.global_search.sync_global_search for my_site
2021-04-20 23:00:57,472 INFO scheduler Scheduled Job Start: frappe.integrations.doctype.razorpay_settings.razorpay_settings.capture_payment for my_site
2021-04-20 23:00:57,948 INFO scheduler Scheduled Job Complete: frappe.integrations.doctype.razorpay_settings.razorpay_settings.capture_payment for my_site
2021-04-20 23:00:58,022 INFO scheduler Scheduled Job Start: frappe.email.doctype.email_account.email_account.notify_unreplied for my_site
2021-04-20 23:00:58,335 INFO scheduler Scheduled Job Complete: frappe.email.doctype.email_account.email_account.notify_unreplied for my_site
2021-04-20 23:00:58,411 INFO scheduler Scheduled Job Start: frappe.email.doctype.email_account.email_account.pull for my_site
2021-04-20 23:00:58,742 INFO scheduler Scheduled Job Complete: frappe.email.doctype.email_account.email_account.pull for my_site
2021-04-20 23:00:58,812 INFO scheduler Scheduled Job Start: frappe.email.queue.flush for my_site
2021-04-20 23:00:59,089 INFO scheduler Scheduled Job Complete: frappe.email.queue.flush for my_site
2021-04-20 23:00:59,161 INFO scheduler Scheduled Job Start: frappe.twofactor.delete_all_barcodes_for_users for my_site
2021-04-20 23:00:59,590 INFO scheduler Scheduled Job Complete: frappe.twofactor.delete_all_barcodes_for_users for my_site
2021-04-20 23:00:59,677 INFO scheduler Scheduled Job Start: frappe.website.doctype.web_page.web_page.check_publish_status for my_site
2021-04-20 23:01:00,166 INFO scheduler Scheduled Job Complete: frappe.website.doctype.web_page.web_page.check_publish_status for my_site
2021-04-20 23:01:00,254 INFO scheduler Scheduled Job Start: frappe.oauth.delete_oauth2_data for my_site
2021-04-20 23:01:00,702 INFO scheduler Scheduled Job Complete: frappe.oauth.delete_oauth2_data for my_site
2021-04-20 23:01:45,145 DEBUG scheduler Queued events for site my_site
2021-04-20 23:02:45,504 DEBUG scheduler Queued events for site my_site
2021-04-20 23:03:45,901 DEBUG scheduler Queued events for site my_site
2021-04-20 23:04:46,169 INFO scheduler Scheduled Job Start: frappe.monitor.flush for meeting.dev
2021-04-20 23:04:46,366 DEBUG scheduler Queued events for site my_site
2021-04-20 23:04:46,393 INFO scheduler Scheduled Job Complete: frappe.monitor.flush for meeting.dev
2021-04-20 23:04:46,465 INFO scheduler Scheduled Job Start: frappe.utils.global_search.sync_global_search for meeting.dev
2021-04-20 23:04:46,632 INFO scheduler Scheduled Job Complete: frappe.utils.global_search.sync_global_search for meeting.dev
2021-04-20 23:04:46,706 INFO scheduler Scheduled Job Start: frappe.integrations.doctype.razorpay_settings.razorpay_settings.capture_payment for meeting.dev
2021-04-20 23:04:47,113 INFO scheduler Scheduled Job Complete: frappe.integrations.doctype.razorpay_settings.razorpay_settings.capture_payment for meeting.dev
2021-04-20 23:04:47,184 INFO scheduler Scheduled Job Start: frappe.email.doctype.email_account.email_account.notify_unreplied for meeting.dev
2021-04-20 23:04:47,490 INFO scheduler Scheduled Job Complete: frappe.email.doctype.email_account.email_account.notify_unreplied for meeting.dev
2021-04-20 23:04:47,561 INFO scheduler Scheduled Job Start: frappe.email.doctype.email_account.email_account.pull for meeting.dev
2021-04-20 23:04:47,886 INFO scheduler Scheduled Job Complete: frappe.email.doctype.email_account.email_account.pull for meeting.dev
2021-04-20 23:04:47,956 INFO scheduler Scheduled Job Start: frappe.email.queue.flush for meeting.dev
2021-04-20 23:04:48,221 INFO scheduler Scheduled Job Complete: frappe.email.queue.flush for meeting.dev
2021-04-20 23:04:48,291 INFO scheduler Scheduled Job Start: frappe.monitor.flush for my_site
2021-04-20 23:04:48,447 INFO scheduler Scheduled Job Complete: frappe.monitor.flush for my_site
2021-04-20 23:04:48,520 INFO scheduler Scheduled Job Start: frappe.utils.global_search.sync_global_search for my_site
2021-04-20 23:04:48,677 INFO scheduler Scheduled Job Complete: frappe.utils.global_search.sync_global_search for my_site
2021-04-20 23:04:48,751 INFO scheduler Scheduled Job Start: frappe.integrations.doctype.razorpay_settings.razorpay_settings.capture_payment for my_site
2021-04-20 23:04:49,159 INFO scheduler Scheduled Job Complete: frappe.integrations.doctype.razorpay_settings.razorpay_settings.capture_payment for my_site
2021-04-20 23:04:49,229 INFO scheduler Scheduled Job Start: frappe.email.doctype.email_account.email_account.notify_unreplied for my_site
2021-04-20 23:04:49,553 INFO scheduler Scheduled Job Complete: frappe.email.doctype.email_account.email_account.notify_unreplied for my_site
2021-04-20 23:04:49,626 INFO scheduler Scheduled Job Start: frappe.email.doctype.email_account.email_account.pull for my_site
2021-04-20 23:04:49,963 INFO scheduler Scheduled Job Complete: frappe.email.doctype.email_account.email_account.pull for my_site
2021-04-20 23:04:50,040 INFO scheduler Scheduled Job Start: frappe.email.queue.flush for my_site
2021-04-20 23:04:50,308 INFO scheduler Scheduled Job Complete: frappe.email.queue.flush for my_site
2021-04-20 23:05:46,709 DEBUG scheduler Queued events for site my_site
2021-04-20 23:06:47,132 DEBUG scheduler Queued events for site my_site
2021-04-20 23:07:47,446 DEBUG scheduler Queued events for site my_site
2021-04-20 23:08:47,731 INFO scheduler Scheduled Job Start: frappe.monitor.flush for meeting.dev
2021-04-20 23:08:47,875 DEBUG scheduler Queued events for site my_site
2021-04-20 23:08:47,913 INFO scheduler Scheduled Job Complete: frappe.monitor.flush for meeting.dev
2021-04-20 23:08:47,984 INFO scheduler Scheduled Job Start: frappe.utils.global_search.sync_global_search for meeting.dev
2021-04-20 23:08:48,140 INFO scheduler Scheduled Job Complete: frappe.utils.global_search.sync_global_search for meeting.dev
2021-04-20 23:08:48,218 INFO scheduler Scheduled Job Start: frappe.integrations.doctype.razorpay_settings.razorpay_settings.capture_payment for meeting.dev
2021-04-20 23:08:48,625 INFO scheduler Scheduled Job Complete: frappe.integrations.doctype.razorpay_settings.razorpay_settings.capture_payment for meeting.dev
2021-04-20 23:08:48,705 INFO scheduler Scheduled Job Start: frappe.email.doctype.email_account.email_account.notify_unreplied for meeting.dev
2021-04-20 23:08:49,018 INFO scheduler Scheduled Job Complete: frappe.email.doctype.email_account.email_account.notify_unreplied for meeting.dev
2021-04-20 23:08:49,093 INFO scheduler Scheduled Job Start: frappe.email.doctype.email_account.email_account.pull for meeting.dev
2021-04-20 23:08:49,420 INFO scheduler Scheduled Job Complete: frappe.email.doctype.email_account.email_account.pull for meeting.dev
2021-04-20 23:08:49,493 INFO scheduler Scheduled Job Start: frappe.email.queue.flush for meeting.dev
2021-04-20 23:08:49,758 INFO scheduler Scheduled Job Complete: frappe.email.queue.flush for meeting.dev
2021-04-20 23:08:49,829 INFO scheduler Scheduled Job Start: frappe.monitor.flush for my_site
2021-04-20 23:08:49,984 INFO scheduler Scheduled Job Complete: frappe.monitor.flush for my_site
2021-04-20 23:08:50,059 INFO scheduler Scheduled Job Start: frappe.utils.global_search.sync_global_search for my_site
2021-04-20 23:08:50,215 INFO scheduler Scheduled Job Complete: frappe.utils.global_search.sync_global_search for my_site
2021-04-20 23:08:50,288 INFO scheduler Scheduled Job Start: frappe.integrations.doctype.razorpay_settings.razorpay_settings.capture_payment for my_site
2021-04-20 23:08:50,688 INFO scheduler Scheduled Job Complete: frappe.integrations.doctype.razorpay_settings.razorpay_settings.capture_payment for my_site
2021-04-20 23:08:50,758 INFO scheduler Scheduled Job Start: frappe.email.doctype.email_account.email_account.notify_unreplied for my_site
2021-04-20 23:08:51,064 INFO scheduler Scheduled Job Complete: frappe.email.doctype.email_account.email_account.notify_unreplied for my_site
2021-04-20 23:08:51,139 INFO scheduler Scheduled Job Start: frappe.email.doctype.email_account.email_account.pull for my_site
2021-04-20 23:08:51,455 INFO scheduler Scheduled Job Complete: frappe.email.doctype.email_account.email_account.pull for my_site
2021-04-20 23:08:51,528 INFO scheduler Scheduled Job Start: frappe.email.queue.flush for my_site
2021-04-20 23:08:51,796 INFO scheduler Scheduled Job Complete: frappe.email.queue.flush for my_site
2021-04-20 23:09:48,226 DEBUG scheduler Queued events for site my_site
2021-04-20 23:10:48,542 DEBUG scheduler Queued events for site my_site
2021-04-20 23:11:48,852 DEBUG scheduler Queued events for site my_site
2021-04-20 23:12:49,122 INFO scheduler Scheduled Job Start: frappe.monitor.flush for meeting.dev
2021-04-20 23:12:49,275 DEBUG scheduler Queued events for site my_site
2021-04-20 23:12:49,308 INFO scheduler Scheduled Job Complete: frappe.monitor.flush for meeting.dev
2021-04-20 23:12:49,380 INFO scheduler Scheduled Job Start: frappe.utils.global_search.sync_global_search for meeting.dev
2021-04-20 23:12:49,533 INFO scheduler Scheduled Job Complete: frappe.utils.global_search.sync_global_search for meeting.dev
2021-04-20 23:12:49,605 INFO scheduler Scheduled Job Start: frappe.integrations.doctype.razorpay_settings.razorpay_settings.capture_payment for meeting.dev
2021-04-20 23:12:49,996 INFO scheduler Scheduled Job Complete: frappe.integrations.doctype.razorpay_settings.razorpay_settings.capture_payment for meeting.dev
2021-04-20 23:12:50,067 INFO scheduler Scheduled Job Start: frappe.email.doctype.email_account.email_account.notify_unreplied for meeting.dev
2021-04-20 23:12:50,377 INFO scheduler Scheduled Job Complete: frappe.email.doctype.email_account.email_account.notify_unreplied for meeting.dev
2021-04-20 23:12:50,450 INFO scheduler Scheduled Job Start: frappe.email.doctype.email_account.email_account.pull for meeting.dev
2021-04-20 23:12:50,771 INFO scheduler Scheduled Job Complete: frappe.email.doctype.email_account.email_account.pull for meeting.dev
2021-04-20 23:12:50,842 INFO scheduler Scheduled Job Start: frappe.email.queue.flush for meeting.dev
2021-04-20 23:12:51,103 INFO scheduler Scheduled Job Complete: frappe.email.queue.flush for meeting.dev
2021-04-20 23:12:51,174 INFO scheduler Scheduled Job Start: frappe.monitor.flush for my_site
2021-04-20 23:12:51,327 INFO scheduler Scheduled Job Complete: frappe.monitor.flush for my_site
2021-04-20 23:12:51,398 INFO scheduler Scheduled Job Start: frappe.utils.global_search.sync_global_search for my_site
2021-04-20 23:12:51,552 INFO scheduler Scheduled Job Complete: frappe.utils.global_search.sync_global_search for my_site
2021-04-20 23:12:51,628 INFO scheduler Scheduled Job Start: frappe.integrations.doctype.razorpay_settings.razorpay_settings.capture_payment for my_site
2021-04-20 23:12:52,022 INFO scheduler Scheduled Job Complete: frappe.integrations.doctype.razorpay_settings.razorpay_settings.capture_payment for my_site
2021-04-20 23:12:52,095 INFO scheduler Scheduled Job Start: frappe.email.doctype.email_account.email_account.notify_unreplied for my_site
2021-04-20 23:12:52,403 INFO scheduler Scheduled Job Complete: frappe.email.doctype.email_account.email_account.notify_unreplied for my_site
2021-04-20 23:12:52,474 INFO scheduler Scheduled Job Start: frappe.email.doctype.email_account.email_account.pull for my_site
2021-04-20 23:12:52,794 INFO scheduler Scheduled Job Complete: frappe.email.doctype.email_account.email_account.pull for my_site
2021-04-20 23:12:52,865 INFO scheduler Scheduled Job Start: frappe.email.queue.flush for my_site
2021-04-20 23:12:53,137 INFO scheduler Scheduled Job Complete: frappe.email.queue.flush for my_site
2021-04-20 23:13:49,619 DEBUG scheduler Queued events for site my_site
2021-04-20 23:14:49,935 DEBUG scheduler Queued events for site my_site
2021-04-20 23:15:50,268 INFO scheduler Scheduled Job Start: frappe.twofactor.delete_all_barcodes_for_users for meeting.dev
2021-04-20 23:15:50,405 DEBUG scheduler Queued events for site my_site
2021-04-20 23:15:50,779 INFO scheduler Scheduled Job Complete: frappe.twofactor.delete_all_barcodes_for_users for meeting.dev
2021-04-20 23:15:50,867 INFO scheduler Scheduled Job Start: frappe.website.doctype.web_page.web_page.check_publish_status for meeting.dev
2021-04-20 23:15:51,365 INFO scheduler Scheduled Job Complete: frappe.website.doctype.web_page.web_page.check_publish_status for meeting.dev
2021-04-20 23:15:51,456 INFO scheduler Scheduled Job Start: frappe.oauth.delete_oauth2_data for meeting.dev
2021-04-20 23:15:51,897 INFO scheduler Scheduled Job Complete: frappe.oauth.delete_oauth2_data for meeting.dev
2021-04-20 23:15:51,987 INFO scheduler Scheduled Job Start: frappe.twofactor.delete_all_barcodes_for_users for my_site
2021-04-20 23:15:52,427 INFO scheduler Scheduled Job Complete: frappe.twofactor.delete_all_barcodes_for_users for my_site
2021-04-20 23:15:52,513 INFO scheduler Scheduled Job Start: frappe.website.doctype.web_page.web_page.check_publish_status for my_site
2021-04-20 23:15:53,001 INFO scheduler Scheduled Job Complete: frappe.website.doctype.web_page.web_page.check_publish_status for my_site
2021-04-20 23:15:53,098 INFO scheduler Scheduled Job Start: frappe.oauth.delete_oauth2_data for my_site
2021-04-20 23:15:53,518 INFO scheduler Scheduled Job Complete: frappe.oauth.delete_oauth2_data for my_site
2021-04-20 23:16:50,697 INFO scheduler Scheduled Job Start: frappe.monitor.flush for meeting.dev
2021-04-20 23:16:50,928 DEBUG scheduler Queued events for site my_site
2021-04-20 23:16:50,931 INFO scheduler Scheduled Job Complete: frappe.monitor.flush for meeting.dev
2021-04-20 23:16:51,009 INFO scheduler Scheduled Job Start: frappe.utils.global_search.sync_global_search for meeting.dev
2021-04-20 23:16:51,182 INFO scheduler Scheduled Job Complete: frappe.utils.global_search.sync_global_search for meeting.dev
2021-04-20 23:16:51,255 INFO scheduler Scheduled Job Start: frappe.integrations.doctype.razorpay_settings.razorpay_settings.capture_payment for meeting.dev
2021-04-20 23:16:51,666 INFO scheduler Scheduled Job Complete: frappe.integrations.doctype.razorpay_settings.razorpay_settings.capture_payment for meeting.dev
2021-04-20 23:16:51,742 INFO scheduler Scheduled Job Start: frappe.email.doctype.email_account.email_account.notify_unreplied for meeting.dev
2021-04-20 23:16:52,063 INFO scheduler Scheduled Job Complete: frappe.email.doctype.email_account.email_account.notify_unreplied for meeting.dev
2021-04-20 23:16:52,142 INFO scheduler Scheduled Job Start: frappe.email.doctype.email_account.email_account.pull for meeting.dev
2021-04-20 23:16:52,464 INFO scheduler Scheduled Job Complete: frappe.email.doctype.email_account.email_account.pull for meeting.dev
2021-04-20 23:16:52,542 INFO scheduler Scheduled Job Start: frappe.email.queue.flush for meeting.dev
2021-04-20 23:16:52,808 INFO scheduler Scheduled Job Complete: frappe.email.queue.flush for meeting.dev
2021-04-20 23:16:52,880 INFO scheduler Scheduled Job Start: frappe.monitor.flush for my_site
2021-04-20 23:16:53,052 INFO scheduler Scheduled Job Complete: frappe.monitor.flush for my_site
2021-04-20 23:16:53,127 INFO scheduler Scheduled Job Start: frappe.utils.global_search.sync_global_search for my_site
2021-04-20 23:16:53,280 INFO scheduler Scheduled Job Complete: frappe.utils.global_search.sync_global_search for my_site
2021-04-20 23:16:53,356 INFO scheduler Scheduled Job Start: frappe.integrations.doctype.razorpay_settings.razorpay_settings.capture_payment for my_site
2021-04-20 23:16:53,772 INFO scheduler Scheduled Job Complete: frappe.integrations.doctype.razorpay_settings.razorpay_settings.capture_payment for my_site
2021-04-20 23:16:53,857 INFO scheduler Scheduled Job Start: frappe.email.doctype.email_account.email_account.notify_unreplied for my_site
2021-04-20 23:16:54,202 INFO scheduler Scheduled Job Complete: frappe.email.doctype.email_account.email_account.notify_unreplied for my_site
2021-04-20 23:16:54,275 INFO scheduler Scheduled Job Start: frappe.email.doctype.email_account.email_account.pull for my_site
2021-04-20 23:16:54,622 INFO scheduler Scheduled Job Complete: frappe.email.doctype.email_account.email_account.pull for my_site
2021-04-20 23:16:54,696 INFO scheduler Scheduled Job Start: frappe.email.queue.flush for my_site
2021-04-20 23:16:54,977 INFO scheduler Scheduled Job Complete: frappe.email.queue.flush for my_site
2021-04-20 23:17:51,289 DEBUG scheduler Queued events for site my_site
2021-04-20 23:18:51,830 DEBUG scheduler Queued events for site my_site
2021-04-20 23:19:52,172 DEBUG scheduler Queued events for site my_site
2021-04-20 23:20:52,445 INFO scheduler Scheduled Job Start: frappe.monitor.flush for meeting.dev
2021-04-20 23:20:52,596 DEBUG scheduler Queued events for site my_site
2021-04-20 23:20:52,621 INFO scheduler Scheduled Job Complete: frappe.monitor.flush for meeting.dev
2021-04-20 23:20:52,695 INFO scheduler Scheduled Job Start: frappe.utils.global_search.sync_global_search for meeting.dev
2021-04-20 23:20:52,860 INFO scheduler Scheduled Job Complete: frappe.utils.global_search.sync_global_search for meeting.dev
2021-04-20 23:20:52,936 INFO scheduler Scheduled Job Start: frappe.integrations.doctype.razorpay_settings.razorpay_settings.capture_payment for meeting.dev
2021-04-20 23:20:53,333 INFO scheduler Scheduled Job Complete: frappe.integrations.doctype.razorpay_settings.razorpay_settings.capture_payment for meeting.dev
2021-04-20 23:20:53,409 INFO scheduler Scheduled Job Start: frappe.email.doctype.email_account.email_account.notify_unreplied for meeting.dev
2021-04-20 23:20:53,722 INFO scheduler Scheduled Job Complete: frappe.email.doctype.email_account.email_account.notify_unreplied for meeting.dev
2021-04-20 23:20:53,806 INFO scheduler Scheduled Job Start: frappe.email.doctype.email_account.email_account.pull for meeting.dev
2021-04-20 23:20:54,142 INFO scheduler Scheduled Job Complete: frappe.email.doctype.email_account.email_account.pull for meeting.dev
2021-04-20 23:20:54,217 INFO scheduler Scheduled Job Start: frappe.email.queue.flush for meeting.dev
2021-04-20 23:20:54,493 INFO scheduler Scheduled Job Complete: frappe.email.queue.flush for meeting.dev
2021-04-20 23:20:54,562 INFO scheduler Scheduled Job Start: frappe.monitor.flush for my_site
2021-04-20 23:20:54,718 INFO scheduler Scheduled Job Complete: frappe.monitor.flush for my_site
2021-04-20 23:20:54,794 INFO scheduler Scheduled Job Start: frappe.utils.global_search.sync_global_search for my_site
2021-04-20 23:20:54,954 INFO scheduler Scheduled Job Complete: frappe.utils.global_search.sync_global_search for my_site
2021-04-20 23:20:55,033 INFO scheduler Scheduled Job Start: frappe.integrations.doctype.razorpay_settings.razorpay_settings.capture_payment for my_site
2021-04-20 23:20:55,432 INFO scheduler Scheduled Job Complete: frappe.integrations.doctype.razorpay_settings.razorpay_settings.capture_payment for my_site
2021-04-20 23:20:55,505 INFO scheduler Scheduled Job Start: frappe.email.doctype.email_account.email_account.notify_unreplied for my_site
2021-04-20 23:20:55,821 INFO scheduler Scheduled Job Complete: frappe.email.doctype.email_account.email_account.notify_unreplied for my_site
2021-04-20 23:20:55,901 INFO scheduler Scheduled Job Start: frappe.email.doctype.email_account.email_account.pull for my_site
2021-04-20 23:20:56,225 INFO scheduler Scheduled Job Complete: frappe.email.doctype.email_account.email_account.pull for my_site
2021-04-20 23:20:56,295 INFO scheduler Scheduled Job Start: frappe.email.queue.flush for my_site
2021-04-20 23:20:56,559 INFO scheduler Scheduled Job Complete: frappe.email.queue.flush for my_site
2021-04-20 23:21:52,945 DEBUG scheduler Queued events for site my_site
2021-04-20 23:22:53,249 DEBUG scheduler Queued events for site my_site
2021-04-20 23:23:53,688 DEBUG scheduler Queued events for site my_site
2021-04-20 23:24:54,016 INFO scheduler Scheduled Job Start: frappe.monitor.flush for meeting.dev
2021-04-20 23:24:54,153 DEBUG scheduler Queued events for site my_site
2021-04-20 23:24:54,291 INFO scheduler Scheduled Job Complete: frappe.monitor.flush for meeting.dev
2021-04-20 23:24:54,368 INFO scheduler Scheduled Job Start: frappe.utils.global_search.sync_global_search for meeting.dev
2021-04-20 23:24:54,539 INFO scheduler Scheduled Job Complete: frappe.utils.global_search.sync_global_search for meeting.dev
2021-04-20 23:24:54,618 INFO scheduler Scheduled Job Start: frappe.integrations.doctype.razorpay_settings.razorpay_settings.capture_payment for meeting.dev
2021-04-20 23:24:55,141 INFO scheduler Scheduled Job Complete: frappe.integrations.doctype.razorpay_settings.razorpay_settings.capture_payment for meeting.dev
2021-04-20 23:24:55,239 INFO scheduler Scheduled Job Start: frappe.email.doctype.email_account.email_account.notify_unreplied for meeting.dev
2021-04-20 23:24:55,577 INFO scheduler Scheduled Job Complete: frappe.email.doctype.email_account.email_account.notify_unreplied for meeting.dev
2021-04-20 23:24:55,649 INFO scheduler Scheduled Job Start: frappe.email.doctype.email_account.email_account.pull for meeting.dev
2021-04-20 23:24:55,983 INFO scheduler Scheduled Job Complete: frappe.email.doctype.email_account.email_account.pull for meeting.dev
2021-04-20 23:24:56,057 INFO scheduler Scheduled Job Start: frappe.email.queue.flush for meeting.dev
2021-04-20 23:24:56,329 INFO scheduler Scheduled Job Complete: frappe.email.queue.flush for meeting.dev
2021-04-20 23:24:56,423 INFO scheduler Scheduled Job Start: frappe.monitor.flush for my_site
2021-04-20 23:24:56,591 INFO scheduler Scheduled Job Complete: frappe.monitor.flush for my_site
2021-04-20 23:24:56,671 INFO scheduler Scheduled Job Start: frappe.utils.global_search.sync_global_search for my_site
2021-04-20 23:24:56,853 INFO scheduler Scheduled Job Complete: frappe.utils.global_search.sync_global_search for my_site
2021-04-20 23:24:56,940 INFO scheduler Scheduled Job Start: frappe.integrations.doctype.razorpay_settings.razorpay_settings.capture_payment for my_site
2021-04-20 23:24:57,338 INFO scheduler Scheduled Job Complete: frappe.integrations.doctype.razorpay_settings.razorpay_settings.capture_payment for my_site
2021-04-20 23:24:57,418 INFO scheduler Scheduled Job Start: frappe.email.doctype.email_account.email_account.notify_unreplied for my_site
2021-04-20 23:24:57,737 INFO scheduler Scheduled Job Complete: frappe.email.doctype.email_account.email_account.notify_unreplied for my_site
2021-04-20 23:24:57,812 INFO scheduler Scheduled Job Start: frappe.email.doctype.email_account.email_account.pull for my_site
2021-04-20 23:24:58,180 INFO scheduler Scheduled Job Complete: frappe.email.doctype.email_account.email_account.pull for my_site
2021-04-20 23:24:58,254 INFO scheduler Scheduled Job Start: frappe.email.queue.flush for my_site
2021-04-20 23:24:58,526 INFO scheduler Scheduled Job Complete: frappe.email.queue.flush for my_site
2021-04-20 23:25:54,511 DEBUG scheduler Queued events for site my_site
2021-04-20 23:26:54,834 DEBUG scheduler Queued events for site my_site
2021-04-20 23:27:55,155 DEBUG scheduler Queued events for site my_site
2021-04-20 23:28:55,465 INFO scheduler Scheduled Job Start: frappe.monitor.flush for meeting.dev
2021-04-20 23:28:55,756 INFO scheduler Scheduled Job Complete: frappe.monitor.flush for meeting.dev
2021-04-20 23:28:55,762 DEBUG scheduler Queued events for site my_site
2021-04-20 23:28:55,868 INFO scheduler Scheduled Job Start: frappe.utils.global_search.sync_global_search for meeting.dev
2021-04-20 23:28:56,078 INFO scheduler Scheduled Job Complete: frappe.utils.global_search.sync_global_search for meeting.dev
2021-04-20 23:28:56,182 INFO scheduler Scheduled Job Start: frappe.integrations.doctype.razorpay_settings.razorpay_settings.capture_payment for meeting.dev
2021-04-20 23:28:56,658 INFO scheduler Scheduled Job Complete: frappe.integrations.doctype.razorpay_settings.razorpay_settings.capture_payment for meeting.dev
2021-04-20 23:28:56,734 INFO scheduler Scheduled Job Start: frappe.email.doctype.email_account.email_account.notify_unreplied for meeting.dev
2021-04-20 23:28:57,051 INFO scheduler Scheduled Job Complete: frappe.email.doctype.email_account.email_account.notify_unreplied for meeting.dev
2021-04-20 23:28:57,130 INFO scheduler Scheduled Job Start: frappe.email.doctype.email_account.email_account.pull for meeting.dev
2021-04-20 23:28:57,468 INFO scheduler Scheduled Job Complete: frappe.email.doctype.email_account.email_account.pull for meeting.dev
2021-04-20 23:28:57,543 INFO scheduler Scheduled Job Start: frappe.email.queue.flush for meeting.dev
2021-04-20 23:28:57,818 INFO scheduler Scheduled Job Complete: frappe.email.queue.flush for meeting.dev
2021-04-20 23:28:57,890 INFO scheduler Scheduled Job Start: frappe.monitor.flush for my_site
2021-04-20 23:28:58,049 INFO scheduler Scheduled Job Complete: frappe.monitor.flush for my_site
2021-04-20 23:28:58,134 INFO scheduler Scheduled Job Start: frappe.utils.global_search.sync_global_search for my_site
2021-04-20 23:28:58,292 INFO scheduler Scheduled Job Complete: frappe.utils.global_search.sync_global_search for my_site
2021-04-20 23:28:58,369 INFO scheduler Scheduled Job Start: frappe.integrations.doctype.razorpay_settings.razorpay_settings.capture_payment for my_site
2021-04-20 23:28:58,801 INFO scheduler Scheduled Job Complete: frappe.integrations.doctype.razorpay_settings.razorpay_settings.capture_payment for my_site
2021-04-20 23:28:58,875 INFO scheduler Scheduled Job Start: frappe.email.doctype.email_account.email_account.notify_unreplied for my_site
2021-04-20 23:28:59,206 INFO scheduler Scheduled Job Complete: frappe.email.doctype.email_account.email_account.notify_unreplied for my_site
2021-04-20 23:28:59,278 INFO scheduler Scheduled Job Start: frappe.email.doctype.email_account.email_account.pull for my_site
2021-04-20 23:28:59,626 INFO scheduler Scheduled Job Complete: frappe.email.doctype.email_account.email_account.pull for my_site
2021-04-20 23:28:59,702 INFO scheduler Scheduled Job Start: frappe.email.queue.flush for my_site
2021-04-20 23:28:59,975 INFO scheduler Scheduled Job Complete: frappe.email.queue.flush for my_site
2021-04-20 23:29:56,112 DEBUG scheduler Queued events for site my_site
2021-04-20 23:30:56,383 INFO scheduler Scheduled Job Start: frappe.twofactor.delete_all_barcodes_for_users for meeting.dev
2021-04-20 23:30:56,476 DEBUG scheduler Queued events for site my_site
2021-04-20 23:30:56,825 INFO scheduler Scheduled Job Complete: frappe.twofactor.delete_all_barcodes_for_users for meeting.dev
2021-04-20 23:30:56,917 INFO scheduler Scheduled Job Start: frappe.website.doctype.web_page.web_page.check_publish_status for meeting.dev
2021-04-20 23:30:57,403 INFO scheduler Scheduled Job Complete: frappe.website.doctype.web_page.web_page.check_publish_status for meeting.dev
2021-04-20 23:30:57,492 INFO scheduler Scheduled Job Start: frappe.oauth.delete_oauth2_data for meeting.dev
2021-04-20 23:30:57,912 INFO scheduler Scheduled Job Complete: frappe.oauth.delete_oauth2_data for meeting.dev
2021-04-20 23:30:58,007 INFO scheduler Scheduled Job Start: frappe.twofactor.delete_all_barcodes_for_users for my_site
2021-04-20 23:30:58,429 INFO scheduler Scheduled Job Complete: frappe.twofactor.delete_all_barcodes_for_users for my_site
2021-04-20 23:30:58,519 INFO scheduler Scheduled Job Start: frappe.website.doctype.web_page.web_page.check_publish_status for my_site
2021-04-20 23:30:58,988 INFO scheduler Scheduled Job Complete: frappe.website.doctype.web_page.web_page.check_publish_status for my_site
2021-04-20 23:30:59,073 INFO scheduler Scheduled Job Start: frappe.oauth.delete_oauth2_data for my_site
2021-04-20 23:30:59,483 INFO scheduler Scheduled Job Complete: frappe.oauth.delete_oauth2_data for my_site
2021-04-20 23:31:56,885 DEBUG scheduler Queued events for site my_site
2021-04-20 23:32:57,207 INFO scheduler Scheduled Job Start: frappe.monitor.flush for meeting.dev
2021-04-20 23:32:57,436 DEBUG scheduler Queued events for site my_site
2021-04-20 23:32:57,474 INFO scheduler Scheduled Job Complete: frappe.monitor.flush for meeting.dev
2021-04-20 23:32:57,547 INFO scheduler Scheduled Job Start: frappe.utils.global_search.sync_global_search for meeting.dev
2021-04-20 23:32:57,714 INFO scheduler Scheduled Job Complete: frappe.utils.global_search.sync_global_search for meeting.dev
2021-04-20 23:32:57,795 INFO scheduler Scheduled Job Start: frappe.integrations.doctype.razorpay_settings.razorpay_settings.capture_payment for meeting.dev
2021-04-20 23:32:58,227 INFO scheduler Scheduled Job Complete: frappe.integrations.doctype.razorpay_settings.razorpay_settings.capture_payment for meeting.dev
2021-04-20 23:32:58,305 INFO scheduler Scheduled Job Start: frappe.email.doctype.email_account.email_account.notify_unreplied for meeting.dev
2021-04-20 23:32:58,715 INFO scheduler Scheduled Job Complete: frappe.email.doctype.email_account.email_account.notify_unreplied for meeting.dev
2021-04-20 23:32:58,806 INFO scheduler Scheduled Job Start: frappe.email.doctype.email_account.email_account.pull for meeting.dev
2021-04-20 23:32:59,173 INFO scheduler Scheduled Job Complete: frappe.email.doctype.email_account.email_account.pull for meeting.dev
2021-04-20 23:32:59,264 INFO scheduler Scheduled Job Start: frappe.email.queue.flush for meeting.dev
2021-04-20 23:32:59,552 INFO scheduler Scheduled Job Complete: frappe.email.queue.flush for meeting.dev
2021-04-20 23:32:59,627 INFO scheduler Scheduled Job Start: frappe.monitor.flush for my_site
2021-04-20 23:32:59,800 INFO scheduler Scheduled Job Complete: frappe.monitor.flush for my_site
2021-04-20 23:32:59,883 INFO scheduler Scheduled Job Start: frappe.utils.global_search.sync_global_search for my_site
2021-04-20 23:33:00,046 INFO scheduler Scheduled Job Complete: frappe.utils.global_search.sync_global_search for my_site
2021-04-20 23:33:00,130 INFO scheduler Scheduled Job Start: frappe.integrations.doctype.razorpay_settings.razorpay_settings.capture_payment for my_site
2021-04-20 23:33:00,551 INFO scheduler Scheduled Job Complete: frappe.integrations.doctype.razorpay_settings.razorpay_settings.capture_payment for my_site
2021-04-20 23:33:00,634 INFO scheduler Scheduled Job Start: frappe.email.doctype.email_account.email_account.notify_unreplied for my_site
2021-04-20 23:33:00,969 INFO scheduler Scheduled Job Complete: frappe.email.doctype.email_account.email_account.notify_unreplied for my_site
2021-04-20 23:33:01,047 INFO scheduler Scheduled Job Start: frappe.email.doctype.email_account.email_account.pull for my_site
2021-04-20 23:33:01,387 INFO scheduler Scheduled Job Complete: frappe.email.doctype.email_account.email_account.pull for my_site
2021-04-20 23:33:01,463 INFO scheduler Scheduled Job Start: frappe.email.queue.flush for my_site
2021-04-20 23:33:01,752 INFO scheduler Scheduled Job Complete: frappe.email.queue.flush for my_site
2021-04-20 23:33:57,782 DEBUG scheduler Queued events for site my_site
2021-04-20 23:34:58,150 DEBUG scheduler Queued events for site my_site
2021-04-20 23:35:58,486 DEBUG scheduler Queued events for site my_site
2021-04-20 23:36:58,756 INFO scheduler Scheduled Job Start: frappe.monitor.flush for meeting.dev
2021-04-20 23:36:58,932 DEBUG scheduler Queued events for site my_site
2021-04-20 23:36:58,964 INFO scheduler Scheduled Job Complete: frappe.monitor.flush for meeting.dev
2021-04-20 23:36:59,039 INFO scheduler Scheduled Job Start: frappe.utils.global_search.sync_global_search for meeting.dev
2021-04-20 23:36:59,195 INFO scheduler Scheduled Job Complete: frappe.utils.global_search.sync_global_search for meeting.dev
2021-04-20 23:36:59,285 INFO scheduler Scheduled Job Start: frappe.integrations.doctype.razorpay_settings.razorpay_settings.capture_payment for meeting.dev
2021-04-20 23:36:59,749 INFO scheduler Scheduled Job Complete: frappe.integrations.doctype.razorpay_settings.razorpay_settings.capture_payment for meeting.dev
2021-04-20 23:36:59,918 INFO scheduler Scheduled Job Start: frappe.email.doctype.email_account.email_account.notify_unreplied for meeting.dev
2021-04-20 23:37:00,457 INFO scheduler Scheduled Job Complete: frappe.email.doctype.email_account.email_account.notify_unreplied for meeting.dev
2021-04-20 23:37:00,533 INFO scheduler Scheduled Job Start: frappe.email.doctype.email_account.email_account.pull for meeting.dev
2021-04-20 23:37:00,882 INFO scheduler Scheduled Job Complete: frappe.email.doctype.email_account.email_account.pull for meeting.dev
2021-04-20 23:37:00,962 INFO scheduler Scheduled Job Start: frappe.email.queue.flush for meeting.dev
2021-04-20 23:37:01,237 INFO scheduler Scheduled Job Complete: frappe.email.queue.flush for meeting.dev
2021-04-20 23:37:01,308 INFO scheduler Scheduled Job Start: frappe.monitor.flush for my_site
2021-04-20 23:37:01,516 INFO scheduler Scheduled Job Complete: frappe.monitor.flush for my_site
2021-04-20 23:37:01,596 INFO scheduler Scheduled Job Start: frappe.utils.global_search.sync_global_search for my_site
2021-04-20 23:37:01,834 INFO scheduler Scheduled Job Complete: frappe.utils.global_search.sync_global_search for my_site
2021-04-20 23:37:01,946 INFO scheduler Scheduled Job Start: frappe.integrations.doctype.razorpay_settings.razorpay_settings.capture_payment for my_site
2021-04-20 23:37:02,431 INFO scheduler Scheduled Job Complete: frappe.integrations.doctype.razorpay_settings.razorpay_settings.capture_payment for my_site
2021-04-20 23:37:02,513 INFO scheduler Scheduled Job Start: frappe.email.doctype.email_account.email_account.notify_unreplied for my_site
2021-04-20 23:37:02,855 INFO scheduler Scheduled Job Complete: frappe.email.doctype.email_account.email_account.notify_unreplied for my_site
2021-04-20 23:37:02,935 INFO scheduler Scheduled Job Start: frappe.email.doctype.email_account.email_account.pull for my_site
2021-04-20 23:37:03,262 INFO scheduler Scheduled Job Complete: frappe.email.doctype.email_account.email_account.pull for my_site
2021-04-20 23:37:03,340 INFO scheduler Scheduled Job Start: frappe.email.queue.flush for my_site
2021-04-20 23:37:03,778 INFO scheduler Scheduled Job Complete: frappe.email.queue.flush for my_site
2021-04-20 23:37:59,297 DEBUG scheduler Queued events for site my_site
2021-04-20 23:38:59,690 DEBUG scheduler Queued events for site my_site
2021-04-20 23:40:00,113 DEBUG scheduler Queued events for site my_site
2021-04-20 23:40:00,154 INFO scheduler Scheduled Job Start: frappe.monitor.flush for my_site
2021-04-20 23:40:00,321 INFO scheduler Scheduled Job Complete: frappe.monitor.flush for my_site
2021-04-20 23:40:00,401 INFO scheduler Scheduled Job Start: frappe.utils.global_search.sync_global_search for my_site
2021-04-20 23:40:00,567 INFO scheduler Scheduled Job Complete: frappe.utils.global_search.sync_global_search for my_site
2021-04-20 23:40:00,643 INFO scheduler Scheduled Job Start: frappe.integrations.doctype.razorpay_settings.razorpay_settings.capture_payment for my_site
2021-04-20 23:40:01,113 INFO scheduler Scheduled Job Complete: frappe.integrations.doctype.razorpay_settings.razorpay_settings.capture_payment for my_site
2021-04-20 23:40:01,193 INFO scheduler Scheduled Job Start: frappe.email.doctype.email_account.email_account.notify_unreplied for my_site
2021-04-20 23:40:01,549 INFO scheduler Scheduled Job Complete: frappe.email.doctype.email_account.email_account.notify_unreplied for my_site
2021-04-20 23:40:01,622 INFO scheduler Scheduled Job Start: frappe.email.doctype.email_account.email_account.pull for my_site
2021-04-20 23:40:01,970 INFO scheduler Scheduled Job Complete: frappe.email.doctype.email_account.email_account.pull for my_site
2021-04-20 23:40:02,056 INFO scheduler Scheduled Job Start: frappe.email.queue.flush for my_site
2021-04-20 23:40:02,430 INFO scheduler Scheduled Job Complete: frappe.email.queue.flush for my_site
2021-04-20 23:41:00,422 INFO scheduler Scheduled Job Start: frappe.monitor.flush for meeting.dev
2021-04-20 23:41:00,550 DEBUG scheduler Queued events for site my_site
2021-04-20 23:41:00,614 INFO scheduler Scheduled Job Complete: frappe.monitor.flush for meeting.dev
2021-04-20 23:41:00,718 INFO scheduler Scheduled Job Start: frappe.utils.global_search.sync_global_search for meeting.dev
2021-04-20 23:41:00,913 INFO scheduler Scheduled Job Complete: frappe.utils.global_search.sync_global_search for meeting.dev
2021-04-20 23:41:00,999 INFO scheduler Scheduled Job Start: frappe.integrations.doctype.razorpay_settings.razorpay_settings.capture_payment for meeting.dev
2021-04-20 23:41:01,445 INFO scheduler Scheduled Job Complete: frappe.integrations.doctype.razorpay_settings.razorpay_settings.capture_payment for meeting.dev
2021-04-20 23:41:01,521 INFO scheduler Scheduled Job Start: frappe.email.doctype.email_account.email_account.notify_unreplied for meeting.dev
2021-04-20 23:41:01,899 INFO scheduler Scheduled Job Complete: frappe.email.doctype.email_account.email_account.notify_unreplied for meeting.dev
2021-04-20 23:41:01,999 INFO scheduler Scheduled Job Start: frappe.email.doctype.email_account.email_account.pull for meeting.dev
2021-04-20 23:41:02,339 INFO scheduler Scheduled Job Complete: frappe.email.doctype.email_account.email_account.pull for meeting.dev
2021-04-20 23:41:02,415 INFO scheduler Scheduled Job Start: frappe.email.queue.flush for meeting.dev
2021-04-20 23:41:02,690 INFO scheduler Scheduled Job Complete: frappe.email.queue.flush for meeting.dev
2021-04-20 23:42:00,885 DEBUG scheduler Queued events for site my_site
2021-04-20 23:43:01,215 DEBUG scheduler Queued events for site my_site
2021-04-20 23:44:01,496 INFO scheduler Scheduled Job Start: frappe.monitor.flush for meeting.dev
2021-04-20 23:44:01,684 DEBUG scheduler Queued events for site my_site
2021-04-20 23:44:01,729 INFO scheduler Scheduled Job Complete: frappe.monitor.flush for meeting.dev
2021-04-20 23:44:01,806 INFO scheduler Scheduled Job Start: frappe.utils.global_search.sync_global_search for meeting.dev
2021-04-20 23:44:01,985 INFO scheduler Scheduled Job Complete: frappe.utils.global_search.sync_global_search for meeting.dev
2021-04-20 23:44:02,065 INFO scheduler Scheduled Job Start: frappe.integrations.doctype.razorpay_settings.razorpay_settings.capture_payment for meeting.dev
2021-04-20 23:44:02,488 INFO scheduler Scheduled Job Complete: frappe.integrations.doctype.razorpay_settings.razorpay_settings.capture_payment for meeting.dev
2021-04-20 23:44:02,577 INFO scheduler Scheduled Job Start: frappe.email.doctype.email_account.email_account.notify_unreplied for meeting.dev
2021-04-20 23:44:02,931 INFO scheduler Scheduled Job Complete: frappe.email.doctype.email_account.email_account.notify_unreplied for meeting.dev
2021-04-20 23:44:03,017 INFO scheduler Scheduled Job Start: frappe.email.doctype.email_account.email_account.pull for meeting.dev
2021-04-20 23:44:03,378 INFO scheduler Scheduled Job Complete: frappe.email.doctype.email_account.email_account.pull for meeting.dev
2021-04-20 23:44:03,452 INFO scheduler Scheduled Job Start: frappe.email.queue.flush for meeting.dev
2021-04-20 23:44:03,794 INFO scheduler Scheduled Job Complete: frappe.email.queue.flush for meeting.dev
2021-04-20 23:44:03,868 INFO scheduler Scheduled Job Start: frappe.monitor.flush for my_site
2021-04-20 23:44:04,067 INFO scheduler Scheduled Job Complete: frappe.monitor.flush for my_site
2021-04-20 23:44:04,142 INFO scheduler Scheduled Job Start: frappe.utils.global_search.sync_global_search for my_site
2021-04-20 23:44:04,341 INFO scheduler Scheduled Job Complete: frappe.utils.global_search.sync_global_search for my_site
2021-04-20 23:44:04,440 INFO scheduler Scheduled Job Start: frappe.integrations.doctype.razorpay_settings.razorpay_settings.capture_payment for my_site
2021-04-20 23:44:04,954 INFO scheduler Scheduled Job Complete: frappe.integrations.doctype.razorpay_settings.razorpay_settings.capture_payment for my_site
2021-04-20 23:44:05,039 INFO scheduler Scheduled Job Start: frappe.email.doctype.email_account.email_account.notify_unreplied for my_site
2021-04-20 23:44:05,378 INFO scheduler Scheduled Job Complete: frappe.email.doctype.email_account.email_account.notify_unreplied for my_site
2021-04-20 23:44:05,458 INFO scheduler Scheduled Job Start: frappe.email.doctype.email_account.email_account.pull for my_site
2021-04-20 23:44:05,790 INFO scheduler Scheduled Job Complete: frappe.email.doctype.email_account.email_account.pull for my_site
2021-04-20 23:44:05,861 INFO scheduler Scheduled Job Start: frappe.email.queue.flush for my_site
2021-04-20 23:44:06,130 INFO scheduler Scheduled Job Complete: frappe.email.queue.flush for my_site
2021-04-21 22:19:32,216 INFO scheduler Scheduled Job Start: frappe.integrations.doctype.google_drive.google_drive.daily_backup for meeting.dev
2021-04-21 22:19:32,248 INFO scheduler Scheduled Job Start: frappe.core.doctype.log_settings.log_settings.run_log_clean_up for meeting.dev
2021-04-21 22:19:32,880 DEBUG scheduler Queued events for site meeting.dev
2021-04-21 22:19:33,101 INFO scheduler Scheduled Job Complete: frappe.core.doctype.log_settings.log_settings.run_log_clean_up for meeting.dev
2021-04-21 22:19:33,244 INFO scheduler Scheduled Job Start: frappe.core.doctype.prepared_report.prepared_report.delete_expired_prepared_reports for meeting.dev
2021-04-21 22:19:33,284 INFO scheduler Scheduled Job Complete: frappe.integrations.doctype.google_drive.google_drive.daily_backup for meeting.dev
2021-04-21 22:19:33,454 INFO scheduler Scheduled Job Start: frappe.integrations.doctype.s3_backup_settings.s3_backup_settings.take_backups_daily for meeting.dev
2021-04-21 22:19:34,143 INFO scheduler Scheduled Job Complete: frappe.core.doctype.prepared_report.prepared_report.delete_expired_prepared_reports for meeting.dev
2021-04-21 22:19:34,227 INFO scheduler Scheduled Job Complete: frappe.integrations.doctype.s3_backup_settings.s3_backup_settings.take_backups_daily for meeting.dev
2021-04-21 22:19:34,278 INFO scheduler Scheduled Job Start: frappe.email.doctype.unhandled_email.unhandled_email.remove_old_unhandled_emails for meeting.dev
2021-04-21 22:19:34,370 INFO scheduler Scheduled Job Start: frappe.utils.change_log.check_for_update for meeting.dev
2021-04-21 22:19:35,056 DEBUG scheduler Queued events for site my_site
2021-04-21 22:19:35,073 INFO scheduler Scheduled Job Complete: frappe.email.doctype.unhandled_email.unhandled_email.remove_old_unhandled_emails for meeting.dev
2021-04-21 22:19:35,185 INFO scheduler Scheduled Job Start: frappe.automation.doctype.auto_repeat.auto_repeat.set_auto_repeat_as_completed for meeting.dev
2021-04-21 22:19:35,704 INFO scheduler Scheduled Job Complete: frappe.automation.doctype.auto_repeat.auto_repeat.set_auto_repeat_as_completed for meeting.dev
2021-04-21 22:19:35,795 INFO scheduler Scheduled Job Start: frappe.automation.doctype.auto_repeat.auto_repeat.make_auto_repeat_entry for meeting.dev
2021-04-21 22:19:36,226 INFO scheduler Scheduled Job Complete: frappe.automation.doctype.auto_repeat.auto_repeat.make_auto_repeat_entry for meeting.dev
2021-04-21 22:19:36,309 INFO scheduler Scheduled Job Start: frappe.integrations.doctype.google_contacts.google_contacts.sync for meeting.dev
2021-04-21 22:19:36,890 INFO scheduler Scheduled Job Complete: frappe.integrations.doctype.google_contacts.google_contacts.sync for meeting.dev
2021-04-21 22:19:36,984 INFO scheduler Scheduled Job Start: frappe.social.doctype.energy_point_settings.energy_point_settings.allocate_review_points for meeting.dev
2021-04-21 22:19:37,369 INFO scheduler Scheduled Job Complete: frappe.social.doctype.energy_point_settings.energy_point_settings.allocate_review_points for meeting.dev
2021-04-21 22:19:37,454 INFO scheduler Scheduled Job Start: frappe.desk.form.document_follow.send_daily_updates for meeting.dev
2021-04-21 22:19:37,951 INFO scheduler Scheduled Job Complete: frappe.desk.form.document_follow.send_daily_updates for meeting.dev
2021-04-21 22:19:38,079 INFO scheduler Scheduled Job Start: frappe.website.doctype.personal_data_deletion_request.personal_data_deletion_request.remove_unverified_record for meeting.dev
2021-04-21 22:19:38,555 INFO scheduler Scheduled Job Failed: frappe.utils.change_log.check_for_update for meeting.dev
2021-04-21 22:19:38,587 INFO scheduler Scheduled Job Complete: frappe.website.doctype.personal_data_deletion_request.personal_data_deletion_request.remove_unverified_record for meeting.dev
2021-04-21 22:19:38,671 INFO scheduler Scheduled Job Start: frappe.integrations.doctype.dropbox_settings.dropbox_settings.take_backups_daily for meeting.dev
2021-04-21 22:19:38,689 INFO scheduler Scheduled Job Start: frappe.email.doctype.auto_email_report.auto_email_report.send_daily for meeting.dev
2021-04-21 22:19:39,466 INFO scheduler Scheduled Job Complete: frappe.integrations.doctype.dropbox_settings.dropbox_settings.take_backups_daily for meeting.dev
2021-04-21 22:19:39,566 INFO scheduler Scheduled Job Start: frappe.integrations.doctype.google_drive.google_drive.daily_backup for my_site
2021-04-21 22:19:39,997 INFO scheduler Scheduled Job Complete: frappe.email.doctype.auto_email_report.auto_email_report.send_daily for meeting.dev
2021-04-21 22:19:40,102 INFO scheduler Scheduled Job Start: frappe.utils.scheduler.restrict_scheduler_events_if_dormant for meeting.dev
2021-04-21 22:19:40,579 INFO scheduler Scheduled Job Complete: frappe.integrations.doctype.google_drive.google_drive.daily_backup for my_site
2021-04-21 22:19:40,605 INFO scheduler Scheduled Job Failed: frappe.utils.scheduler.restrict_scheduler_events_if_dormant for meeting.dev
2021-04-21 22:19:40,675 INFO scheduler Scheduled Job Start: frappe.integrations.doctype.s3_backup_settings.s3_backup_settings.take_backups_daily for my_site
2021-04-21 22:19:40,716 INFO scheduler Scheduled Job Start: frappe.realtime.remove_old_task_logs for meeting.dev
2021-04-21 22:19:41,150 INFO scheduler Scheduled Job Complete: frappe.realtime.remove_old_task_logs for meeting.dev
2021-04-21 22:19:41,157 INFO scheduler Scheduled Job Complete: frappe.integrations.doctype.s3_backup_settings.s3_backup_settings.take_backups_daily for my_site
2021-04-21 22:19:41,242 INFO scheduler Scheduled Job Start: frappe.email.doctype.notification.notification.trigger_daily_alerts for meeting.dev
2021-04-21 22:19:41,251 INFO scheduler Scheduled Job Start: frappe.utils.change_log.check_for_update for my_site
2021-04-21 22:19:41,744 INFO scheduler Scheduled Job Complete: frappe.email.doctype.notification.notification.trigger_daily_alerts for meeting.dev
2021-04-21 22:19:41,832 INFO scheduler Scheduled Job Start: frappe.sessions.clear_expired_sessions for meeting.dev
2021-04-21 22:19:42,356 INFO scheduler Scheduled Job Complete: frappe.sessions.clear_expired_sessions for meeting.dev
2021-04-21 22:19:42,440 INFO scheduler Scheduled Job Start: frappe.desk.doctype.event.event.send_event_digest for meeting.dev
2021-04-21 22:19:42,947 INFO scheduler Scheduled Job Complete: frappe.desk.doctype.event.event.send_event_digest for meeting.dev
2021-04-21 22:19:43,055 INFO scheduler Scheduled Job Start: frappe.core.doctype.error_log.error_log.set_old_logs_as_seen for meeting.dev
2021-04-21 22:19:43,083 INFO scheduler Scheduled Job Failed: frappe.utils.change_log.check_for_update for my_site
2021-04-21 22:19:43,221 INFO scheduler Scheduled Job Start: frappe.integrations.doctype.dropbox_settings.dropbox_settings.take_backups_daily for my_site
2021-04-21 22:19:43,695 INFO scheduler Scheduled Job Complete: frappe.core.doctype.error_log.error_log.set_old_logs_as_seen for meeting.dev
2021-04-21 22:19:43,902 INFO scheduler Scheduled Job Start: frappe.desk.notifications.clear_notifications for meeting.dev
2021-04-21 22:19:44,323 INFO scheduler Scheduled Job Complete: frappe.integrations.doctype.dropbox_settings.dropbox_settings.take_backups_daily for my_site
2021-04-21 22:19:44,448 INFO scheduler Scheduled Job Complete: frappe.desk.notifications.clear_notifications for meeting.dev
2021-04-21 22:19:44,566 INFO scheduler Scheduled Job Start: frappe.email.queue.set_expiry_for_email_queue for meeting.dev
2021-04-21 22:19:45,226 INFO scheduler Scheduled Job Complete: frappe.email.queue.set_expiry_for_email_queue for meeting.dev
2021-04-21 22:19:45,369 INFO scheduler Scheduled Job Start: frappe.email.doctype.newsletter.newsletter.send_scheduled_email for meeting.dev
2021-04-21 22:19:46,330 INFO scheduler Scheduled Job Complete: frappe.email.doctype.newsletter.newsletter.send_scheduled_email for meeting.dev
2021-04-21 22:19:46,475 INFO scheduler Scheduled Job Start: frappe.integrations.doctype.google_calendar.google_calendar.sync for meeting.dev
2021-04-21 22:19:47,623 INFO scheduler Scheduled Job Complete: frappe.integrations.doctype.google_calendar.google_calendar.sync for meeting.dev
2021-04-21 22:19:47,737 INFO scheduler Scheduled Job Start: frappe.desk.form.document_follow.send_hourly_updates for meeting.dev
2021-04-21 22:19:48,213 INFO scheduler Scheduled Job Complete: frappe.desk.form.document_follow.send_hourly_updates for meeting.dev
2021-04-21 22:19:48,323 INFO scheduler Scheduled Job Start: frappe.deferred_insert.save_to_db for meeting.dev
2021-04-21 22:19:48,800 INFO scheduler Scheduled Job Complete: frappe.deferred_insert.save_to_db for meeting.dev
2021-04-21 22:19:48,893 INFO scheduler Scheduled Job Start: frappe.desk.page.backups.backups.delete_downloadable_backups for meeting.dev
