2021-04-23 11:39:08,859 DEBUG scheduler Queued events for site meeting.dev
2021-04-23 11:40:09,120 DEBUG scheduler Queued events for site meeting.dev
2021-04-23 11:40:09,154 INFO scheduler Scheduled Job Start: frappe.monitor.flush for meeting.dev
2021-04-23 11:40:09,310 INFO scheduler Scheduled Job Complete: frappe.monitor.flush for meeting.dev
2021-04-23 11:40:09,382 INFO scheduler Scheduled Job Start: frappe.utils.global_search.sync_global_search for meeting.dev
2021-04-23 11:40:09,537 INFO scheduler Scheduled Job Complete: frappe.utils.global_search.sync_global_search for meeting.dev
2021-04-23 11:40:09,611 INFO scheduler Scheduled Job Start: frappe.integrations.doctype.razorpay_settings.razorpay_settings.capture_payment for meeting.dev
2021-04-23 11:40:09,991 INFO scheduler Scheduled Job Complete: frappe.integrations.doctype.razorpay_settings.razorpay_settings.capture_payment for meeting.dev
2021-04-23 11:40:10,060 INFO scheduler Scheduled Job Start: frappe.email.doctype.email_account.email_account.notify_unreplied for meeting.dev
2021-04-23 11:40:10,364 INFO scheduler Scheduled Job Complete: frappe.email.doctype.email_account.email_account.notify_unreplied for meeting.dev
2021-04-23 11:40:10,438 INFO scheduler Scheduled Job Start: frappe.email.doctype.email_account.email_account.pull for meeting.dev
2021-04-23 11:40:10,781 INFO scheduler Scheduled Job Complete: frappe.email.doctype.email_account.email_account.pull for meeting.dev
2021-04-23 11:40:10,854 INFO scheduler Scheduled Job Start: frappe.email.queue.flush for meeting.dev
2021-04-23 11:40:11,138 INFO scheduler Scheduled Job Complete: frappe.email.queue.flush for meeting.dev
2021-04-23 11:41:09,381 DEBUG scheduler Queued events for site meeting.dev
2021-04-23 11:42:09,610 DEBUG scheduler Queued events for site meeting.dev
2021-04-23 11:43:09,845 DEBUG scheduler Queued events for site meeting.dev
2021-04-23 11:44:10,123 DEBUG scheduler Queued events for site meeting.dev
2021-04-23 11:44:10,168 INFO scheduler Scheduled Job Start: frappe.monitor.flush for meeting.dev
2021-04-23 11:44:10,326 INFO scheduler Scheduled Job Complete: frappe.monitor.flush for meeting.dev
2021-04-23 11:44:10,399 INFO scheduler Scheduled Job Start: frappe.utils.global_search.sync_global_search for meeting.dev
2021-04-23 11:44:10,551 INFO scheduler Scheduled Job Complete: frappe.utils.global_search.sync_global_search for meeting.dev
2021-04-23 11:44:10,626 INFO scheduler Scheduled Job Start: frappe.integrations.doctype.razorpay_settings.razorpay_settings.capture_payment for meeting.dev
2021-04-23 11:44:11,017 INFO scheduler Scheduled Job Complete: frappe.integrations.doctype.razorpay_settings.razorpay_settings.capture_payment for meeting.dev
2021-04-23 11:44:11,087 INFO scheduler Scheduled Job Start: frappe.email.doctype.email_account.email_account.notify_unreplied for meeting.dev
2021-04-23 11:44:11,394 INFO scheduler Scheduled Job Complete: frappe.email.doctype.email_account.email_account.notify_unreplied for meeting.dev
2021-04-23 11:44:11,465 INFO scheduler Scheduled Job Start: frappe.email.doctype.email_account.email_account.pull for meeting.dev
2021-04-23 11:44:11,781 INFO scheduler Scheduled Job Complete: frappe.email.doctype.email_account.email_account.pull for meeting.dev
2021-04-23 11:44:11,852 INFO scheduler Scheduled Job Start: frappe.email.queue.flush for meeting.dev
2021-04-23 11:44:12,114 INFO scheduler Scheduled Job Complete: frappe.email.queue.flush for meeting.dev
2021-04-23 11:45:10,411 DEBUG scheduler Queued events for site meeting.dev
2021-04-23 11:45:10,470 INFO scheduler Scheduled Job Start: frappe.twofactor.delete_all_barcodes_for_users for meeting.dev
2021-04-23 11:45:10,887 INFO scheduler Scheduled Job Complete: frappe.twofactor.delete_all_barcodes_for_users for meeting.dev
2021-04-23 11:45:10,971 INFO scheduler Scheduled Job Start: frappe.website.doctype.web_page.web_page.check_publish_status for meeting.dev
2021-04-23 11:45:11,421 INFO scheduler Scheduled Job Complete: frappe.website.doctype.web_page.web_page.check_publish_status for meeting.dev
2021-04-23 11:45:11,506 INFO scheduler Scheduled Job Start: frappe.oauth.delete_oauth2_data for meeting.dev
2021-04-23 11:45:11,906 INFO scheduler Scheduled Job Complete: frappe.oauth.delete_oauth2_data for meeting.dev
2021-04-23 11:46:10,667 DEBUG scheduler Queued events for site meeting.dev
2021-04-23 11:47:10,932 DEBUG scheduler Queued events for site meeting.dev
2021-04-23 11:48:11,208 DEBUG scheduler Queued events for site meeting.dev
2021-04-23 11:48:11,242 INFO scheduler Scheduled Job Start: frappe.monitor.flush for meeting.dev
2021-04-23 11:48:11,509 INFO scheduler Scheduled Job Complete: frappe.monitor.flush for meeting.dev
2021-04-23 11:48:11,618 INFO scheduler Scheduled Job Start: frappe.utils.global_search.sync_global_search for meeting.dev
2021-04-23 11:48:11,809 INFO scheduler Scheduled Job Complete: frappe.utils.global_search.sync_global_search for meeting.dev
2021-04-23 11:48:11,882 INFO scheduler Scheduled Job Start: frappe.integrations.doctype.razorpay_settings.razorpay_settings.capture_payment for meeting.dev
2021-04-23 11:48:12,266 INFO scheduler Scheduled Job Complete: frappe.integrations.doctype.razorpay_settings.razorpay_settings.capture_payment for meeting.dev
2021-04-23 11:48:12,335 INFO scheduler Scheduled Job Start: frappe.email.doctype.email_account.email_account.notify_unreplied for meeting.dev
2021-04-23 11:48:12,642 INFO scheduler Scheduled Job Complete: frappe.email.doctype.email_account.email_account.notify_unreplied for meeting.dev
2021-04-23 11:48:12,712 INFO scheduler Scheduled Job Start: frappe.email.doctype.email_account.email_account.pull for meeting.dev
2021-04-23 11:48:13,025 INFO scheduler Scheduled Job Complete: frappe.email.doctype.email_account.email_account.pull for meeting.dev
2021-04-23 11:48:13,097 INFO scheduler Scheduled Job Start: frappe.email.queue.flush for meeting.dev
2021-04-23 11:48:13,356 INFO scheduler Scheduled Job Complete: frappe.email.queue.flush for meeting.dev
2021-04-23 11:49:11,460 DEBUG scheduler Queued events for site meeting.dev
2021-04-23 11:50:11,690 DEBUG scheduler Queued events for site meeting.dev
2021-04-23 11:51:11,939 DEBUG scheduler Queued events for site meeting.dev
2021-04-23 11:52:12,261 DEBUG scheduler Queued events for site meeting.dev
2021-04-23 11:52:12,292 INFO scheduler Scheduled Job Start: frappe.monitor.flush for meeting.dev
2021-04-23 11:52:12,448 INFO scheduler Scheduled Job Complete: frappe.monitor.flush for meeting.dev
2021-04-23 11:52:12,520 INFO scheduler Scheduled Job Start: frappe.utils.global_search.sync_global_search for meeting.dev
2021-04-23 11:52:12,687 INFO scheduler Scheduled Job Complete: frappe.utils.global_search.sync_global_search for meeting.dev
2021-04-23 11:52:12,759 INFO scheduler Scheduled Job Start: frappe.integrations.doctype.razorpay_settings.razorpay_settings.capture_payment for meeting.dev
2021-04-23 11:52:13,147 INFO scheduler Scheduled Job Complete: frappe.integrations.doctype.razorpay_settings.razorpay_settings.capture_payment for meeting.dev
2021-04-23 11:52:13,217 INFO scheduler Scheduled Job Start: frappe.email.doctype.email_account.email_account.notify_unreplied for meeting.dev
2021-04-23 11:52:13,521 INFO scheduler Scheduled Job Complete: frappe.email.doctype.email_account.email_account.notify_unreplied for meeting.dev
2021-04-23 11:52:13,593 INFO scheduler Scheduled Job Start: frappe.email.doctype.email_account.email_account.pull for meeting.dev
2021-04-23 11:52:13,939 INFO scheduler Scheduled Job Complete: frappe.email.doctype.email_account.email_account.pull for meeting.dev
2021-04-23 11:52:14,017 INFO scheduler Scheduled Job Start: frappe.email.queue.flush for meeting.dev
2021-04-23 11:52:14,279 INFO scheduler Scheduled Job Complete: frappe.email.queue.flush for meeting.dev
2021-04-23 11:53:12,518 DEBUG scheduler Queued events for site meeting.dev
2021-04-23 11:54:12,771 DEBUG scheduler Queued events for site meeting.dev
2021-04-23 11:55:13,014 DEBUG scheduler Queued events for site meeting.dev
2021-04-23 11:56:13,323 DEBUG scheduler Queued events for site meeting.dev
2021-04-23 11:56:13,378 INFO scheduler Scheduled Job Start: frappe.monitor.flush for meeting.dev
2021-04-23 11:56:13,621 INFO scheduler Scheduled Job Complete: frappe.monitor.flush for meeting.dev
2021-04-23 11:56:13,746 INFO scheduler Scheduled Job Start: frappe.utils.global_search.sync_global_search for meeting.dev
2021-04-23 11:56:13,978 INFO scheduler Scheduled Job Complete: frappe.utils.global_search.sync_global_search for meeting.dev
2021-04-23 11:56:14,068 INFO scheduler Scheduled Job Start: frappe.integrations.doctype.razorpay_settings.razorpay_settings.capture_payment for meeting.dev
2021-04-23 11:56:14,664 INFO scheduler Scheduled Job Complete: frappe.integrations.doctype.razorpay_settings.razorpay_settings.capture_payment for meeting.dev
2021-04-23 11:56:14,752 INFO scheduler Scheduled Job Start: frappe.email.doctype.email_account.email_account.notify_unreplied for meeting.dev
2021-04-23 11:56:15,201 INFO scheduler Scheduled Job Complete: frappe.email.doctype.email_account.email_account.notify_unreplied for meeting.dev
2021-04-23 11:56:15,317 INFO scheduler Scheduled Job Start: frappe.email.doctype.email_account.email_account.pull for meeting.dev
2021-04-23 11:56:15,643 INFO scheduler Scheduled Job Complete: frappe.email.doctype.email_account.email_account.pull for meeting.dev
2021-04-23 11:56:15,717 INFO scheduler Scheduled Job Start: frappe.email.queue.flush for meeting.dev
2021-04-23 11:56:15,994 INFO scheduler Scheduled Job Complete: frappe.email.queue.flush for meeting.dev
2021-04-23 11:57:13,664 DEBUG scheduler Queued events for site meeting.dev
2021-04-23 11:58:14,007 DEBUG scheduler Queued events for site meeting.dev
2021-04-23 11:59:14,338 DEBUG scheduler Queued events for site meeting.dev
2021-04-23 12:00:14,665 INFO scheduler Scheduled Job Start: frappe.email.doctype.newsletter.newsletter.send_scheduled_email for meeting.dev
2021-04-23 12:00:14,789 DEBUG scheduler Queued events for site meeting.dev
2021-04-23 12:00:15,352 INFO scheduler Scheduled Job Complete: frappe.email.doctype.newsletter.newsletter.send_scheduled_email for meeting.dev
2021-04-23 12:00:15,472 INFO scheduler Scheduled Job Start: frappe.integrations.doctype.google_calendar.google_calendar.sync for meeting.dev
2021-04-23 12:00:16,268 INFO scheduler Scheduled Job Complete: frappe.integrations.doctype.google_calendar.google_calendar.sync for meeting.dev
2021-04-23 12:00:16,386 INFO scheduler Scheduled Job Start: frappe.desk.form.document_follow.send_hourly_updates for meeting.dev
2021-04-23 12:00:16,969 INFO scheduler Scheduled Job Complete: frappe.desk.form.document_follow.send_hourly_updates for meeting.dev
2021-04-23 12:00:17,085 INFO scheduler Scheduled Job Start: frappe.deferred_insert.save_to_db for meeting.dev
2021-04-23 12:00:17,602 INFO scheduler Scheduled Job Complete: frappe.deferred_insert.save_to_db for meeting.dev
2021-04-23 12:00:17,725 INFO scheduler Scheduled Job Start: frappe.desk.page.backups.backups.delete_downloadable_backups for meeting.dev
2021-04-23 12:00:18,281 INFO scheduler Scheduled Job Complete: frappe.desk.page.backups.backups.delete_downloadable_backups for meeting.dev
2021-04-23 12:00:18,399 INFO scheduler Scheduled Job Start: frappe.utils.error.collect_error_snapshots for meeting.dev
2021-04-23 12:00:18,941 INFO scheduler Scheduled Job Complete: frappe.utils.error.collect_error_snapshots for meeting.dev
2021-04-23 12:00:19,070 INFO scheduler Scheduled Job Start: frappe.model.utils.user_settings.sync_user_settings for meeting.dev
2021-04-23 12:00:19,578 INFO scheduler Scheduled Job Complete: frappe.model.utils.user_settings.sync_user_settings for meeting.dev
2021-04-23 12:00:19,703 INFO scheduler Scheduled Job Start: frappe.model.utils.link_count.update_link_count for meeting.dev
2021-04-23 12:00:20,225 INFO scheduler Scheduled Job Complete: frappe.model.utils.link_count.update_link_count for meeting.dev
2021-04-23 12:00:20,331 INFO scheduler Scheduled Job Start: frappe.monitor.flush for meeting.dev
2021-04-23 12:00:20,513 INFO scheduler Scheduled Job Complete: frappe.monitor.flush for meeting.dev
2021-04-23 12:00:20,603 INFO scheduler Scheduled Job Start: frappe.utils.global_search.sync_global_search for meeting.dev
2021-04-23 12:00:20,783 INFO scheduler Scheduled Job Complete: frappe.utils.global_search.sync_global_search for meeting.dev
2021-04-23 12:00:20,890 INFO scheduler Scheduled Job Start: frappe.integrations.doctype.razorpay_settings.razorpay_settings.capture_payment for meeting.dev
2021-04-23 12:00:21,458 INFO scheduler Scheduled Job Complete: frappe.integrations.doctype.razorpay_settings.razorpay_settings.capture_payment for meeting.dev
2021-04-23 12:00:21,562 INFO scheduler Scheduled Job Start: frappe.email.doctype.email_account.email_account.notify_unreplied for meeting.dev
2021-04-23 12:00:22,014 INFO scheduler Scheduled Job Complete: frappe.email.doctype.email_account.email_account.notify_unreplied for meeting.dev
2021-04-23 12:00:22,121 INFO scheduler Scheduled Job Start: frappe.email.doctype.email_account.email_account.pull for meeting.dev
2021-04-23 12:00:22,575 INFO scheduler Scheduled Job Complete: frappe.email.doctype.email_account.email_account.pull for meeting.dev
2021-04-23 12:00:22,719 INFO scheduler Scheduled Job Start: frappe.email.queue.flush for meeting.dev
2021-04-23 12:00:23,141 INFO scheduler Scheduled Job Complete: frappe.email.queue.flush for meeting.dev
2021-04-23 12:00:23,242 INFO scheduler Scheduled Job Start: frappe.twofactor.delete_all_barcodes_for_users for meeting.dev
2021-04-23 12:00:23,812 INFO scheduler Scheduled Job Complete: frappe.twofactor.delete_all_barcodes_for_users for meeting.dev
2021-04-23 12:00:23,945 INFO scheduler Scheduled Job Start: frappe.website.doctype.web_page.web_page.check_publish_status for meeting.dev
2021-04-23 12:00:24,626 INFO scheduler Scheduled Job Complete: frappe.website.doctype.web_page.web_page.check_publish_status for meeting.dev
2021-04-23 12:00:24,752 INFO scheduler Scheduled Job Start: frappe.oauth.delete_oauth2_data for meeting.dev
2021-04-23 12:00:25,335 INFO scheduler Scheduled Job Complete: frappe.oauth.delete_oauth2_data for meeting.dev
2021-04-23 12:01:15,106 DEBUG scheduler Queued events for site meeting.dev
2021-04-23 12:02:15,431 DEBUG scheduler Queued events for site meeting.dev
2021-04-23 12:03:15,729 DEBUG scheduler Queued events for site meeting.dev
2021-04-23 12:04:16,095 DEBUG scheduler Queued events for site meeting.dev
2021-04-23 12:04:16,135 INFO scheduler Scheduled Job Start: frappe.monitor.flush for meeting.dev
2021-04-23 12:04:16,372 INFO scheduler Scheduled Job Complete: frappe.monitor.flush for meeting.dev
2021-04-23 12:04:16,478 INFO scheduler Scheduled Job Start: frappe.utils.global_search.sync_global_search for meeting.dev
2021-04-23 12:04:16,722 INFO scheduler Scheduled Job Complete: frappe.utils.global_search.sync_global_search for meeting.dev
2021-04-23 12:04:16,823 INFO scheduler Scheduled Job Start: frappe.integrations.doctype.razorpay_settings.razorpay_settings.capture_payment for meeting.dev
2021-04-23 12:04:17,406 INFO scheduler Scheduled Job Complete: frappe.integrations.doctype.razorpay_settings.razorpay_settings.capture_payment for meeting.dev
2021-04-23 12:04:17,527 INFO scheduler Scheduled Job Start: frappe.email.doctype.email_account.email_account.notify_unreplied for meeting.dev
2021-04-23 12:04:18,046 INFO scheduler Scheduled Job Complete: frappe.email.doctype.email_account.email_account.notify_unreplied for meeting.dev
2021-04-23 12:04:18,178 INFO scheduler Scheduled Job Start: frappe.email.doctype.email_account.email_account.pull for meeting.dev
2021-04-23 12:04:18,655 INFO scheduler Scheduled Job Complete: frappe.email.doctype.email_account.email_account.pull for meeting.dev
2021-04-23 12:04:18,771 INFO scheduler Scheduled Job Start: frappe.email.queue.flush for meeting.dev
2021-04-23 12:04:19,165 INFO scheduler Scheduled Job Complete: frappe.email.queue.flush for meeting.dev
2021-04-23 12:05:16,592 DEBUG scheduler Queued events for site meeting.dev
2021-04-23 12:06:16,911 DEBUG scheduler Queued events for site meeting.dev
2021-04-23 12:07:17,228 DEBUG scheduler Queued events for site meeting.dev
2021-04-23 12:08:17,582 DEBUG scheduler Queued events for site meeting.dev
2021-04-23 12:08:17,625 INFO scheduler Scheduled Job Start: frappe.monitor.flush for meeting.dev
2021-04-23 12:08:17,886 INFO scheduler Scheduled Job Complete: frappe.monitor.flush for meeting.dev
2021-04-23 12:08:17,990 INFO scheduler Scheduled Job Start: frappe.utils.global_search.sync_global_search for meeting.dev
2021-04-23 12:08:18,214 INFO scheduler Scheduled Job Complete: frappe.utils.global_search.sync_global_search for meeting.dev
2021-04-23 12:08:18,326 INFO scheduler Scheduled Job Start: frappe.integrations.doctype.razorpay_settings.razorpay_settings.capture_payment for meeting.dev
2021-04-23 12:08:18,907 INFO scheduler Scheduled Job Complete: frappe.integrations.doctype.razorpay_settings.razorpay_settings.capture_payment for meeting.dev
2021-04-23 12:08:19,013 INFO scheduler Scheduled Job Start: frappe.email.doctype.email_account.email_account.notify_unreplied for meeting.dev
2021-04-23 12:08:19,426 INFO scheduler Scheduled Job Complete: frappe.email.doctype.email_account.email_account.notify_unreplied for meeting.dev
2021-04-23 12:08:19,526 INFO scheduler Scheduled Job Start: frappe.email.doctype.email_account.email_account.pull for meeting.dev
2021-04-23 12:08:19,977 INFO scheduler Scheduled Job Complete: frappe.email.doctype.email_account.email_account.pull for meeting.dev
2021-04-23 12:08:20,094 INFO scheduler Scheduled Job Start: frappe.email.queue.flush for meeting.dev
2021-04-23 12:08:20,496 INFO scheduler Scheduled Job Complete: frappe.email.queue.flush for meeting.dev
2021-04-23 12:09:17,915 DEBUG scheduler Queued events for site meeting.dev
2021-04-23 12:10:18,204 DEBUG scheduler Queued events for site meeting.dev
2021-04-23 12:11:18,495 DEBUG scheduler Queued events for site meeting.dev
2021-04-23 12:12:18,870 DEBUG scheduler Queued events for site meeting.dev
2021-04-23 12:12:18,924 INFO scheduler Scheduled Job Start: frappe.monitor.flush for meeting.dev
2021-04-23 12:12:19,196 INFO scheduler Scheduled Job Complete: frappe.monitor.flush for meeting.dev
2021-04-23 12:12:19,326 INFO scheduler Scheduled Job Start: frappe.utils.global_search.sync_global_search for meeting.dev
2021-04-23 12:12:19,623 INFO scheduler Scheduled Job Complete: frappe.utils.global_search.sync_global_search for meeting.dev
2021-04-23 12:12:19,793 INFO scheduler Scheduled Job Start: frappe.integrations.doctype.razorpay_settings.razorpay_settings.capture_payment for meeting.dev
2021-04-23 12:12:20,436 INFO scheduler Scheduled Job Complete: frappe.integrations.doctype.razorpay_settings.razorpay_settings.capture_payment for meeting.dev
2021-04-23 12:12:20,569 INFO scheduler Scheduled Job Start: frappe.email.doctype.email_account.email_account.notify_unreplied for meeting.dev
2021-04-23 12:12:21,115 INFO scheduler Scheduled Job Complete: frappe.email.doctype.email_account.email_account.notify_unreplied for meeting.dev
2021-04-23 12:12:21,245 INFO scheduler Scheduled Job Start: frappe.email.doctype.email_account.email_account.pull for meeting.dev
2021-04-23 12:12:21,830 INFO scheduler Scheduled Job Complete: frappe.email.doctype.email_account.email_account.pull for meeting.dev
2021-04-23 12:12:21,980 INFO scheduler Scheduled Job Start: frappe.email.queue.flush for meeting.dev
2021-04-23 12:12:22,481 INFO scheduler Scheduled Job Complete: frappe.email.queue.flush for meeting.dev
2021-04-23 12:13:19,284 DEBUG scheduler Queued events for site meeting.dev
2021-04-23 12:14:19,551 DEBUG scheduler Queued events for site meeting.dev
2021-04-23 12:15:19,803 DEBUG scheduler Queued events for site meeting.dev
2021-04-23 12:15:19,861 INFO scheduler Scheduled Job Start: frappe.twofactor.delete_all_barcodes_for_users for meeting.dev
2021-04-23 12:15:20,315 INFO scheduler Scheduled Job Complete: frappe.twofactor.delete_all_barcodes_for_users for meeting.dev
2021-04-23 12:15:20,403 INFO scheduler Scheduled Job Start: frappe.website.doctype.web_page.web_page.check_publish_status for meeting.dev
2021-04-23 12:15:20,972 INFO scheduler Scheduled Job Complete: frappe.website.doctype.web_page.web_page.check_publish_status for meeting.dev
2021-04-23 12:15:21,062 INFO scheduler Scheduled Job Start: frappe.oauth.delete_oauth2_data for meeting.dev
2021-04-23 12:15:21,553 INFO scheduler Scheduled Job Complete: frappe.oauth.delete_oauth2_data for meeting.dev
2021-04-23 12:16:20,101 DEBUG scheduler Queued events for site meeting.dev
2021-04-23 12:16:20,149 INFO scheduler Scheduled Job Start: frappe.monitor.flush for meeting.dev
2021-04-23 12:16:20,305 INFO scheduler Scheduled Job Complete: frappe.monitor.flush for meeting.dev
2021-04-23 12:16:20,378 INFO scheduler Scheduled Job Start: frappe.utils.global_search.sync_global_search for meeting.dev
2021-04-23 12:16:20,530 INFO scheduler Scheduled Job Complete: frappe.utils.global_search.sync_global_search for meeting.dev
2021-04-23 12:16:20,612 INFO scheduler Scheduled Job Start: frappe.integrations.doctype.razorpay_settings.razorpay_settings.capture_payment for meeting.dev
2021-04-23 12:16:21,008 INFO scheduler Scheduled Job Complete: frappe.integrations.doctype.razorpay_settings.razorpay_settings.capture_payment for meeting.dev
2021-04-23 12:16:21,080 INFO scheduler Scheduled Job Start: frappe.email.doctype.email_account.email_account.notify_unreplied for meeting.dev
2021-04-23 12:16:21,388 INFO scheduler Scheduled Job Complete: frappe.email.doctype.email_account.email_account.notify_unreplied for meeting.dev
2021-04-23 12:16:21,460 INFO scheduler Scheduled Job Start: frappe.email.doctype.email_account.email_account.pull for meeting.dev
2021-04-23 12:16:21,771 INFO scheduler Scheduled Job Complete: frappe.email.doctype.email_account.email_account.pull for meeting.dev
2021-04-23 12:16:21,843 INFO scheduler Scheduled Job Start: frappe.email.queue.flush for meeting.dev
2021-04-23 12:16:22,115 INFO scheduler Scheduled Job Complete: frappe.email.queue.flush for meeting.dev
2021-04-23 12:17:20,371 DEBUG scheduler Queued events for site meeting.dev
2021-04-23 12:18:20,607 DEBUG scheduler Queued events for site meeting.dev
2021-04-23 12:19:20,840 DEBUG scheduler Queued events for site meeting.dev
2021-04-23 12:20:21,163 DEBUG scheduler Queued events for site meeting.dev
2021-04-23 12:20:21,200 INFO scheduler Scheduled Job Start: frappe.monitor.flush for meeting.dev
2021-04-23 12:20:21,382 INFO scheduler Scheduled Job Complete: frappe.monitor.flush for meeting.dev
2021-04-23 12:20:21,454 INFO scheduler Scheduled Job Start: frappe.utils.global_search.sync_global_search for meeting.dev
2021-04-23 12:20:21,630 INFO scheduler Scheduled Job Complete: frappe.utils.global_search.sync_global_search for meeting.dev
2021-04-23 12:20:21,706 INFO scheduler Scheduled Job Start: frappe.integrations.doctype.razorpay_settings.razorpay_settings.capture_payment for meeting.dev
2021-04-23 12:20:22,135 INFO scheduler Scheduled Job Complete: frappe.integrations.doctype.razorpay_settings.razorpay_settings.capture_payment for meeting.dev
2021-04-23 12:20:22,212 INFO scheduler Scheduled Job Start: frappe.email.doctype.email_account.email_account.notify_unreplied for meeting.dev
2021-04-23 12:20:22,540 INFO scheduler Scheduled Job Complete: frappe.email.doctype.email_account.email_account.notify_unreplied for meeting.dev
2021-04-23 12:20:22,613 INFO scheduler Scheduled Job Start: frappe.email.doctype.email_account.email_account.pull for meeting.dev
2021-04-23 12:20:22,957 INFO scheduler Scheduled Job Complete: frappe.email.doctype.email_account.email_account.pull for meeting.dev
2021-04-23 12:20:23,033 INFO scheduler Scheduled Job Start: frappe.email.queue.flush for meeting.dev
2021-04-23 12:20:23,360 INFO scheduler Scheduled Job Complete: frappe.email.queue.flush for meeting.dev
2021-04-23 12:21:21,475 DEBUG scheduler Queued events for site meeting.dev
2021-04-23 12:22:21,787 DEBUG scheduler Queued events for site meeting.dev
2021-04-23 12:23:22,063 DEBUG scheduler Queued events for site meeting.dev
2021-04-23 12:24:22,339 DEBUG scheduler Queued events for site meeting.dev
2021-04-23 12:24:22,388 INFO scheduler Scheduled Job Start: frappe.monitor.flush for meeting.dev
2021-04-23 12:24:22,543 INFO scheduler Scheduled Job Complete: frappe.monitor.flush for meeting.dev
2021-04-23 12:24:22,616 INFO scheduler Scheduled Job Start: frappe.utils.global_search.sync_global_search for meeting.dev
2021-04-23 12:24:22,772 INFO scheduler Scheduled Job Complete: frappe.utils.global_search.sync_global_search for meeting.dev
2021-04-23 12:24:22,847 INFO scheduler Scheduled Job Start: frappe.integrations.doctype.razorpay_settings.razorpay_settings.capture_payment for meeting.dev
2021-04-23 12:24:23,250 INFO scheduler Scheduled Job Complete: frappe.integrations.doctype.razorpay_settings.razorpay_settings.capture_payment for meeting.dev
2021-04-23 12:24:23,322 INFO scheduler Scheduled Job Start: frappe.email.doctype.email_account.email_account.notify_unreplied for meeting.dev
2021-04-23 12:24:23,636 INFO scheduler Scheduled Job Complete: frappe.email.doctype.email_account.email_account.notify_unreplied for meeting.dev
2021-04-23 12:24:23,709 INFO scheduler Scheduled Job Start: frappe.email.doctype.email_account.email_account.pull for meeting.dev
2021-04-23 12:24:24,033 INFO scheduler Scheduled Job Complete: frappe.email.doctype.email_account.email_account.pull for meeting.dev
2021-04-23 12:24:24,107 INFO scheduler Scheduled Job Start: frappe.email.queue.flush for meeting.dev
2021-04-23 12:24:24,379 INFO scheduler Scheduled Job Complete: frappe.email.queue.flush for meeting.dev
2021-04-23 12:25:22,625 DEBUG scheduler Queued events for site meeting.dev
2021-04-23 12:26:22,857 DEBUG scheduler Queued events for site meeting.dev
2021-04-23 12:27:23,097 DEBUG scheduler Queued events for site meeting.dev
2021-04-23 12:28:23,389 DEBUG scheduler Queued events for site meeting.dev
2021-04-23 12:28:23,428 INFO scheduler Scheduled Job Start: frappe.monitor.flush for meeting.dev
2021-04-23 12:28:23,589 INFO scheduler Scheduled Job Complete: frappe.monitor.flush for meeting.dev
2021-04-23 12:28:23,659 INFO scheduler Scheduled Job Start: frappe.utils.global_search.sync_global_search for meeting.dev
2021-04-23 12:28:23,811 INFO scheduler Scheduled Job Complete: frappe.utils.global_search.sync_global_search for meeting.dev
2021-04-23 12:28:23,886 INFO scheduler Scheduled Job Start: frappe.integrations.doctype.razorpay_settings.razorpay_settings.capture_payment for meeting.dev
2021-04-23 12:28:24,267 INFO scheduler Scheduled Job Complete: frappe.integrations.doctype.razorpay_settings.razorpay_settings.capture_payment for meeting.dev
2021-04-23 12:28:24,337 INFO scheduler Scheduled Job Start: frappe.email.doctype.email_account.email_account.notify_unreplied for meeting.dev
2021-04-23 12:28:24,651 INFO scheduler Scheduled Job Complete: frappe.email.doctype.email_account.email_account.notify_unreplied for meeting.dev
2021-04-23 12:28:24,722 INFO scheduler Scheduled Job Start: frappe.email.doctype.email_account.email_account.pull for meeting.dev
2021-04-23 12:28:25,041 INFO scheduler Scheduled Job Complete: frappe.email.doctype.email_account.email_account.pull for meeting.dev
2021-04-23 12:28:25,110 INFO scheduler Scheduled Job Start: frappe.email.queue.flush for meeting.dev
2021-04-23 12:28:25,373 INFO scheduler Scheduled Job Complete: frappe.email.queue.flush for meeting.dev
2021-04-23 12:29:23,667 DEBUG scheduler Queued events for site meeting.dev
2021-04-23 12:30:23,884 DEBUG scheduler Queued events for site meeting.dev
2021-04-23 12:30:23,942 INFO scheduler Scheduled Job Start: frappe.twofactor.delete_all_barcodes_for_users for meeting.dev
2021-04-23 12:30:24,356 INFO scheduler Scheduled Job Complete: frappe.twofactor.delete_all_barcodes_for_users for meeting.dev
2021-04-23 12:30:24,436 INFO scheduler Scheduled Job Start: frappe.website.doctype.web_page.web_page.check_publish_status for meeting.dev
2021-04-23 12:30:24,886 INFO scheduler Scheduled Job Complete: frappe.website.doctype.web_page.web_page.check_publish_status for meeting.dev
2021-04-23 12:30:24,969 INFO scheduler Scheduled Job Start: frappe.oauth.delete_oauth2_data for meeting.dev
2021-04-23 12:30:25,362 INFO scheduler Scheduled Job Complete: frappe.oauth.delete_oauth2_data for meeting.dev
2021-04-23 12:31:24,137 DEBUG scheduler Queued events for site meeting.dev
2021-04-23 12:32:24,403 DEBUG scheduler Queued events for site meeting.dev
2021-04-23 12:32:24,435 INFO scheduler Scheduled Job Start: frappe.monitor.flush for meeting.dev
2021-04-23 12:32:24,590 INFO scheduler Scheduled Job Complete: frappe.monitor.flush for meeting.dev
2021-04-23 12:32:24,664 INFO scheduler Scheduled Job Start: frappe.utils.global_search.sync_global_search for meeting.dev
2021-04-23 12:32:24,815 INFO scheduler Scheduled Job Complete: frappe.utils.global_search.sync_global_search for meeting.dev
2021-04-23 12:32:24,885 INFO scheduler Scheduled Job Start: frappe.integrations.doctype.razorpay_settings.razorpay_settings.capture_payment for meeting.dev
2021-04-23 12:32:25,263 INFO scheduler Scheduled Job Complete: frappe.integrations.doctype.razorpay_settings.razorpay_settings.capture_payment for meeting.dev
2021-04-23 12:32:25,333 INFO scheduler Scheduled Job Start: frappe.email.doctype.email_account.email_account.notify_unreplied for meeting.dev
2021-04-23 12:32:25,639 INFO scheduler Scheduled Job Complete: frappe.email.doctype.email_account.email_account.notify_unreplied for meeting.dev
2021-04-23 12:32:25,711 INFO scheduler Scheduled Job Start: frappe.email.doctype.email_account.email_account.pull for meeting.dev
2021-04-23 12:32:26,026 INFO scheduler Scheduled Job Complete: frappe.email.doctype.email_account.email_account.pull for meeting.dev
2021-04-23 12:32:26,096 INFO scheduler Scheduled Job Start: frappe.email.queue.flush for meeting.dev
2021-04-23 12:32:26,356 INFO scheduler Scheduled Job Complete: frappe.email.queue.flush for meeting.dev
2021-04-23 12:33:24,697 DEBUG scheduler Queued events for site meeting.dev
2021-04-23 12:34:24,960 DEBUG scheduler Queued events for site meeting.dev
2021-04-23 12:35:25,228 DEBUG scheduler Queued events for site meeting.dev
2021-04-23 12:36:25,500 DEBUG scheduler Queued events for site meeting.dev
2021-04-23 12:36:25,536 INFO scheduler Scheduled Job Start: frappe.monitor.flush for meeting.dev
2021-04-23 12:36:25,698 INFO scheduler Scheduled Job Complete: frappe.monitor.flush for meeting.dev
2021-04-23 12:36:25,769 INFO scheduler Scheduled Job Start: frappe.utils.global_search.sync_global_search for meeting.dev
2021-04-23 12:36:25,932 INFO scheduler Scheduled Job Complete: frappe.utils.global_search.sync_global_search for meeting.dev
2021-04-23 12:36:26,007 INFO scheduler Scheduled Job Start: frappe.integrations.doctype.razorpay_settings.razorpay_settings.capture_payment for meeting.dev
2021-04-23 12:36:26,385 INFO scheduler Scheduled Job Complete: frappe.integrations.doctype.razorpay_settings.razorpay_settings.capture_payment for meeting.dev
2021-04-23 12:36:26,456 INFO scheduler Scheduled Job Start: frappe.email.doctype.email_account.email_account.notify_unreplied for meeting.dev
2021-04-23 12:36:26,771 INFO scheduler Scheduled Job Complete: frappe.email.doctype.email_account.email_account.notify_unreplied for meeting.dev
2021-04-23 12:36:26,844 INFO scheduler Scheduled Job Start: frappe.email.doctype.email_account.email_account.pull for meeting.dev
2021-04-23 12:36:27,171 INFO scheduler Scheduled Job Complete: frappe.email.doctype.email_account.email_account.pull for meeting.dev
2021-04-23 12:36:27,245 INFO scheduler Scheduled Job Start: frappe.email.queue.flush for meeting.dev
2021-04-23 12:36:27,508 INFO scheduler Scheduled Job Complete: frappe.email.queue.flush for meeting.dev
2021-04-23 12:37:25,830 DEBUG scheduler Queued events for site meeting.dev
2021-04-23 12:38:26,060 DEBUG scheduler Queued events for site meeting.dev
2021-04-23 12:39:26,328 DEBUG scheduler Queued events for site meeting.dev
2021-04-23 12:40:26,668 DEBUG scheduler Queued events for site meeting.dev
2021-04-23 12:40:26,725 INFO scheduler Scheduled Job Start: frappe.monitor.flush for meeting.dev
2021-04-23 12:40:26,932 INFO scheduler Scheduled Job Complete: frappe.monitor.flush for meeting.dev
2021-04-23 12:40:27,018 INFO scheduler Scheduled Job Start: frappe.utils.global_search.sync_global_search for meeting.dev
2021-04-23 12:40:27,213 INFO scheduler Scheduled Job Complete: frappe.utils.global_search.sync_global_search for meeting.dev
2021-04-23 12:40:27,304 INFO scheduler Scheduled Job Start: frappe.integrations.doctype.razorpay_settings.razorpay_settings.capture_payment for meeting.dev
2021-04-23 12:40:27,781 INFO scheduler Scheduled Job Complete: frappe.integrations.doctype.razorpay_settings.razorpay_settings.capture_payment for meeting.dev
2021-04-23 12:40:27,871 INFO scheduler Scheduled Job Start: frappe.email.doctype.email_account.email_account.notify_unreplied for meeting.dev
2021-04-23 12:40:28,236 INFO scheduler Scheduled Job Complete: frappe.email.doctype.email_account.email_account.notify_unreplied for meeting.dev
2021-04-23 12:40:28,324 INFO scheduler Scheduled Job Start: frappe.email.doctype.email_account.email_account.pull for meeting.dev
2021-04-23 12:40:28,707 INFO scheduler Scheduled Job Complete: frappe.email.doctype.email_account.email_account.pull for meeting.dev
2021-04-23 12:40:28,798 INFO scheduler Scheduled Job Start: frappe.email.queue.flush for meeting.dev
2021-04-23 12:40:29,124 INFO scheduler Scheduled Job Complete: frappe.email.queue.flush for meeting.dev
2021-04-23 12:41:26,998 DEBUG scheduler Queued events for site meeting.dev
2021-04-23 12:42:27,250 DEBUG scheduler Queued events for site meeting.dev
2021-04-23 12:43:27,496 DEBUG scheduler Queued events for site meeting.dev
2021-04-23 12:44:27,922 DEBUG scheduler Queued events for site meeting.dev
2021-04-23 12:44:27,953 INFO scheduler Scheduled Job Start: frappe.monitor.flush for meeting.dev
2021-04-23 12:44:28,210 INFO scheduler Scheduled Job Complete: frappe.monitor.flush for meeting.dev
2021-04-23 12:44:28,318 INFO scheduler Scheduled Job Start: frappe.utils.global_search.sync_global_search for meeting.dev
2021-04-23 12:44:28,519 INFO scheduler Scheduled Job Complete: frappe.utils.global_search.sync_global_search for meeting.dev
2021-04-23 12:44:28,610 INFO scheduler Scheduled Job Start: frappe.integrations.doctype.razorpay_settings.razorpay_settings.capture_payment for meeting.dev
2021-04-23 12:44:29,085 INFO scheduler Scheduled Job Complete: frappe.integrations.doctype.razorpay_settings.razorpay_settings.capture_payment for meeting.dev
2021-04-23 12:44:29,177 INFO scheduler Scheduled Job Start: frappe.email.doctype.email_account.email_account.notify_unreplied for meeting.dev
2021-04-23 12:44:29,591 INFO scheduler Scheduled Job Complete: frappe.email.doctype.email_account.email_account.notify_unreplied for meeting.dev
2021-04-23 12:44:29,699 INFO scheduler Scheduled Job Start: frappe.email.doctype.email_account.email_account.pull for meeting.dev
2021-04-23 12:44:30,125 INFO scheduler Scheduled Job Complete: frappe.email.doctype.email_account.email_account.pull for meeting.dev
2021-04-23 12:44:30,232 INFO scheduler Scheduled Job Start: frappe.email.queue.flush for meeting.dev
2021-04-23 12:44:30,605 INFO scheduler Scheduled Job Complete: frappe.email.queue.flush for meeting.dev
2021-04-23 12:45:28,291 DEBUG scheduler Queued events for site meeting.dev
2021-04-23 12:45:28,369 INFO scheduler Scheduled Job Start: frappe.twofactor.delete_all_barcodes_for_users for meeting.dev
2021-04-23 12:45:28,889 INFO scheduler Scheduled Job Complete: frappe.twofactor.delete_all_barcodes_for_users for meeting.dev
2021-04-23 12:45:29,027 INFO scheduler Scheduled Job Start: frappe.website.doctype.web_page.web_page.check_publish_status for meeting.dev
2021-04-23 12:45:29,849 INFO scheduler Scheduled Job Complete: frappe.website.doctype.web_page.web_page.check_publish_status for meeting.dev
2021-04-23 12:45:29,962 INFO scheduler Scheduled Job Start: frappe.oauth.delete_oauth2_data for meeting.dev
2021-04-23 12:45:30,590 INFO scheduler Scheduled Job Complete: frappe.oauth.delete_oauth2_data for meeting.dev
2021-04-23 12:46:28,601 DEBUG scheduler Queued events for site meeting.dev
2021-04-23 12:47:29,512 DEBUG scheduler Queued events for site meeting.dev
2021-04-23 12:48:29,866 DEBUG scheduler Queued events for site meeting.dev
2021-04-23 12:48:29,916 INFO scheduler Scheduled Job Start: frappe.monitor.flush for meeting.dev
2021-04-23 12:48:30,113 INFO scheduler Scheduled Job Complete: frappe.monitor.flush for meeting.dev
2021-04-23 12:48:30,223 INFO scheduler Scheduled Job Start: frappe.utils.global_search.sync_global_search for meeting.dev
2021-04-23 12:48:30,429 INFO scheduler Scheduled Job Complete: frappe.utils.global_search.sync_global_search for meeting.dev
2021-04-23 12:48:30,526 INFO scheduler Scheduled Job Start: frappe.integrations.doctype.razorpay_settings.razorpay_settings.capture_payment for meeting.dev
2021-04-23 12:48:30,997 INFO scheduler Scheduled Job Complete: frappe.integrations.doctype.razorpay_settings.razorpay_settings.capture_payment for meeting.dev
2021-04-23 12:48:31,087 INFO scheduler Scheduled Job Start: frappe.email.doctype.email_account.email_account.notify_unreplied for meeting.dev
2021-04-23 12:48:31,463 INFO scheduler Scheduled Job Complete: frappe.email.doctype.email_account.email_account.notify_unreplied for meeting.dev
2021-04-23 12:48:31,581 INFO scheduler Scheduled Job Start: frappe.email.doctype.email_account.email_account.pull for meeting.dev
2021-04-23 12:48:31,984 INFO scheduler Scheduled Job Complete: frappe.email.doctype.email_account.email_account.pull for meeting.dev
2021-04-23 12:48:32,072 INFO scheduler Scheduled Job Start: frappe.email.queue.flush for meeting.dev
2021-04-23 12:48:32,398 INFO scheduler Scheduled Job Complete: frappe.email.queue.flush for meeting.dev
2021-04-23 12:49:30,189 DEBUG scheduler Queued events for site meeting.dev
2021-04-23 12:50:30,497 DEBUG scheduler Queued events for site meeting.dev
2021-04-23 12:51:31,467 DEBUG scheduler Queued events for site meeting.dev
2021-04-23 12:52:31,738 DEBUG scheduler Queued events for site meeting.dev
2021-04-23 12:52:31,768 INFO scheduler Scheduled Job Start: frappe.monitor.flush for meeting.dev
2021-04-23 12:52:31,939 INFO scheduler Scheduled Job Complete: frappe.monitor.flush for meeting.dev
2021-04-23 12:52:32,013 INFO scheduler Scheduled Job Start: frappe.utils.global_search.sync_global_search for meeting.dev
2021-04-23 12:52:32,194 INFO scheduler Scheduled Job Complete: frappe.utils.global_search.sync_global_search for meeting.dev
2021-04-23 12:52:32,270 INFO scheduler Scheduled Job Start: frappe.integrations.doctype.razorpay_settings.razorpay_settings.capture_payment for meeting.dev
2021-04-23 12:52:32,665 INFO scheduler Scheduled Job Complete: frappe.integrations.doctype.razorpay_settings.razorpay_settings.capture_payment for meeting.dev
2021-04-23 12:52:32,739 INFO scheduler Scheduled Job Start: frappe.email.doctype.email_account.email_account.notify_unreplied for meeting.dev
2021-04-23 12:52:33,075 INFO scheduler Scheduled Job Complete: frappe.email.doctype.email_account.email_account.notify_unreplied for meeting.dev
2021-04-23 12:52:33,161 INFO scheduler Scheduled Job Start: frappe.email.doctype.email_account.email_account.pull for meeting.dev
2021-04-23 12:52:33,549 INFO scheduler Scheduled Job Complete: frappe.email.doctype.email_account.email_account.pull for meeting.dev
2021-04-23 12:52:33,621 INFO scheduler Scheduled Job Start: frappe.email.queue.flush for meeting.dev
2021-04-23 12:52:33,975 INFO scheduler Scheduled Job Complete: frappe.email.queue.flush for meeting.dev
2021-04-23 12:53:31,991 DEBUG scheduler Queued events for site meeting.dev
2021-04-23 12:54:32,289 DEBUG scheduler Queued events for site meeting.dev
2021-04-23 12:55:32,582 DEBUG scheduler Queued events for site meeting.dev
2021-04-23 12:56:32,853 DEBUG scheduler Queued events for site meeting.dev
2021-04-23 12:56:32,888 INFO scheduler Scheduled Job Start: frappe.monitor.flush for meeting.dev
2021-04-23 12:56:33,053 INFO scheduler Scheduled Job Complete: frappe.monitor.flush for meeting.dev
2021-04-23 12:56:33,141 INFO scheduler Scheduled Job Start: frappe.utils.global_search.sync_global_search for meeting.dev
2021-04-23 12:56:33,304 INFO scheduler Scheduled Job Complete: frappe.utils.global_search.sync_global_search for meeting.dev
2021-04-23 12:56:33,388 INFO scheduler Scheduled Job Start: frappe.integrations.doctype.razorpay_settings.razorpay_settings.capture_payment for meeting.dev
2021-04-23 12:56:33,792 INFO scheduler Scheduled Job Complete: frappe.integrations.doctype.razorpay_settings.razorpay_settings.capture_payment for meeting.dev
2021-04-23 12:56:33,875 INFO scheduler Scheduled Job Start: frappe.email.doctype.email_account.email_account.notify_unreplied for meeting.dev
2021-04-23 12:56:34,223 INFO scheduler Scheduled Job Complete: frappe.email.doctype.email_account.email_account.notify_unreplied for meeting.dev
2021-04-23 12:56:34,296 INFO scheduler Scheduled Job Start: frappe.email.doctype.email_account.email_account.pull for meeting.dev
2021-04-23 12:56:34,655 INFO scheduler Scheduled Job Complete: frappe.email.doctype.email_account.email_account.pull for meeting.dev
2021-04-23 12:56:34,726 INFO scheduler Scheduled Job Start: frappe.email.queue.flush for meeting.dev
2021-04-23 12:56:35,002 INFO scheduler Scheduled Job Complete: frappe.email.queue.flush for meeting.dev
2021-04-23 12:57:33,119 DEBUG scheduler Queued events for site meeting.dev
2021-04-23 12:58:33,378 DEBUG scheduler Queued events for site meeting.dev
2021-04-23 12:59:33,665 DEBUG scheduler Queued events for site meeting.dev
2021-04-23 13:00:33,973 INFO scheduler Scheduled Job Start: frappe.email.doctype.newsletter.newsletter.send_scheduled_email for meeting.dev
2021-04-23 13:00:34,071 DEBUG scheduler Queued events for site meeting.dev
2021-04-23 13:00:34,297 INFO scheduler Scheduled Job Start: frappe.integrations.doctype.google_drive.google_drive.daily_backup for my_site
2021-04-23 13:00:34,618 INFO scheduler Scheduled Job Complete: frappe.email.doctype.newsletter.newsletter.send_scheduled_email for meeting.dev
2021-04-23 13:00:34,721 INFO scheduler Scheduled Job Start: frappe.integrations.doctype.google_calendar.google_calendar.sync for meeting.dev
2021-04-23 13:00:35,244 INFO scheduler Scheduled Job Complete: frappe.integrations.doctype.google_drive.google_drive.daily_backup for my_site
2021-04-23 13:00:35,366 INFO scheduler Scheduled Job Start: frappe.integrations.doctype.s3_backup_settings.s3_backup_settings.take_backups_daily for my_site
2021-04-23 13:00:35,535 INFO scheduler Scheduled Job Complete: frappe.integrations.doctype.google_calendar.google_calendar.sync for meeting.dev
2021-04-23 13:00:35,628 INFO scheduler Scheduled Job Start: frappe.desk.form.document_follow.send_hourly_updates for meeting.dev
2021-04-23 13:00:35,926 INFO scheduler Scheduled Job Complete: frappe.integrations.doctype.s3_backup_settings.s3_backup_settings.take_backups_daily for my_site
2021-04-23 13:00:36,014 INFO scheduler Scheduled Job Start: frappe.utils.change_log.check_for_update for my_site
2021-04-23 13:00:36,088 INFO scheduler Scheduled Job Complete: frappe.desk.form.document_follow.send_hourly_updates for meeting.dev
2021-04-23 13:00:36,179 INFO scheduler Scheduled Job Start: frappe.deferred_insert.save_to_db for meeting.dev
2021-04-23 13:00:36,657 INFO scheduler Scheduled Job Complete: frappe.deferred_insert.save_to_db for meeting.dev
2021-04-23 13:00:36,749 INFO scheduler Scheduled Job Start: frappe.desk.page.backups.backups.delete_downloadable_backups for meeting.dev
2021-04-23 13:00:37,149 INFO scheduler Scheduled Job Complete: frappe.desk.page.backups.backups.delete_downloadable_backups for meeting.dev
2021-04-23 13:00:37,232 INFO scheduler Scheduled Job Start: frappe.utils.error.collect_error_snapshots for meeting.dev
2021-04-23 13:00:37,620 INFO scheduler Scheduled Job Complete: frappe.utils.error.collect_error_snapshots for meeting.dev
2021-04-23 13:00:37,706 INFO scheduler Scheduled Job Start: frappe.model.utils.user_settings.sync_user_settings for meeting.dev
2021-04-23 13:00:38,087 INFO scheduler Scheduled Job Complete: frappe.model.utils.user_settings.sync_user_settings for meeting.dev
2021-04-23 13:00:38,177 INFO scheduler Scheduled Job Start: frappe.model.utils.link_count.update_link_count for meeting.dev
2021-04-23 13:00:38,569 INFO scheduler Scheduled Job Complete: frappe.model.utils.link_count.update_link_count for meeting.dev
2021-04-23 13:00:38,653 INFO scheduler Scheduled Job Start: frappe.monitor.flush for meeting.dev
2021-04-23 13:00:38,806 INFO scheduler Scheduled Job Complete: frappe.monitor.flush for meeting.dev
2021-04-23 13:00:38,877 INFO scheduler Scheduled Job Start: frappe.utils.global_search.sync_global_search for meeting.dev
2021-04-23 13:00:39,030 INFO scheduler Scheduled Job Complete: frappe.utils.global_search.sync_global_search for meeting.dev
2021-04-23 13:00:39,105 INFO scheduler Scheduled Job Start: frappe.integrations.doctype.razorpay_settings.razorpay_settings.capture_payment for meeting.dev
2021-04-23 13:00:39,511 INFO scheduler Scheduled Job Complete: frappe.integrations.doctype.razorpay_settings.razorpay_settings.capture_payment for meeting.dev
2021-04-23 13:00:39,587 INFO scheduler Scheduled Job Start: frappe.email.doctype.email_account.email_account.notify_unreplied for meeting.dev
2021-04-23 13:00:39,587 INFO scheduler Scheduled Job Failed: frappe.utils.change_log.check_for_update for my_site
2021-04-23 13:00:39,684 INFO scheduler Scheduled Job Start: frappe.integrations.doctype.dropbox_settings.dropbox_settings.take_backups_daily for my_site
2021-04-23 13:00:39,943 INFO scheduler Scheduled Job Complete: frappe.email.doctype.email_account.email_account.notify_unreplied for meeting.dev
2021-04-23 13:00:40,023 INFO scheduler Scheduled Job Start: frappe.email.doctype.email_account.email_account.pull for meeting.dev
2021-04-23 13:00:40,395 INFO scheduler Scheduled Job Complete: frappe.integrations.doctype.dropbox_settings.dropbox_settings.take_backups_daily for my_site
2021-04-23 13:00:40,411 INFO scheduler Scheduled Job Complete: frappe.email.doctype.email_account.email_account.pull for meeting.dev
2021-04-23 13:00:40,481 INFO scheduler Scheduled Job Start: frappe.email.queue.flush for meeting.dev
2021-04-23 13:00:40,741 INFO scheduler Scheduled Job Complete: frappe.email.queue.flush for meeting.dev
2021-04-23 13:00:40,811 INFO scheduler Scheduled Job Start: frappe.twofactor.delete_all_barcodes_for_users for meeting.dev
2021-04-23 13:00:41,225 INFO scheduler Scheduled Job Complete: frappe.twofactor.delete_all_barcodes_for_users for meeting.dev
2021-04-23 13:00:41,311 INFO scheduler Scheduled Job Start: frappe.website.doctype.web_page.web_page.check_publish_status for meeting.dev
2021-04-23 13:00:41,770 INFO scheduler Scheduled Job Complete: frappe.website.doctype.web_page.web_page.check_publish_status for meeting.dev
2021-04-23 13:00:41,857 INFO scheduler Scheduled Job Start: frappe.oauth.delete_oauth2_data for meeting.dev
2021-04-23 13:00:42,311 INFO scheduler Scheduled Job Complete: frappe.oauth.delete_oauth2_data for meeting.dev
2021-04-23 13:00:42,393 INFO scheduler Scheduled Job Start: frappe.core.doctype.log_settings.log_settings.run_log_clean_up for my_site
2021-04-23 13:00:42,839 INFO scheduler Scheduled Job Complete: frappe.core.doctype.log_settings.log_settings.run_log_clean_up for my_site
2021-04-23 13:00:42,923 INFO scheduler Scheduled Job Start: frappe.core.doctype.prepared_report.prepared_report.delete_expired_prepared_reports for my_site
2021-04-23 13:00:43,367 INFO scheduler Scheduled Job Complete: frappe.core.doctype.prepared_report.prepared_report.delete_expired_prepared_reports for my_site
2021-04-23 13:00:43,459 INFO scheduler Scheduled Job Start: frappe.email.doctype.unhandled_email.unhandled_email.remove_old_unhandled_emails for my_site
2021-04-23 13:00:43,844 INFO scheduler Scheduled Job Complete: frappe.email.doctype.unhandled_email.unhandled_email.remove_old_unhandled_emails for my_site
2021-04-23 13:00:43,928 INFO scheduler Scheduled Job Start: frappe.automation.doctype.auto_repeat.auto_repeat.set_auto_repeat_as_completed for my_site
2021-04-23 13:00:44,367 INFO scheduler Scheduled Job Complete: frappe.automation.doctype.auto_repeat.auto_repeat.set_auto_repeat_as_completed for my_site
2021-04-23 13:00:44,460 INFO scheduler Scheduled Job Start: frappe.automation.doctype.auto_repeat.auto_repeat.make_auto_repeat_entry for my_site
2021-04-23 13:00:44,881 INFO scheduler Scheduled Job Complete: frappe.automation.doctype.auto_repeat.auto_repeat.make_auto_repeat_entry for my_site
2021-04-23 13:00:44,967 INFO scheduler Scheduled Job Start: frappe.integrations.doctype.google_contacts.google_contacts.sync for my_site
2021-04-23 13:00:45,545 INFO scheduler Scheduled Job Complete: frappe.integrations.doctype.google_contacts.google_contacts.sync for my_site
2021-04-23 13:00:45,631 INFO scheduler Scheduled Job Start: frappe.social.doctype.energy_point_settings.energy_point_settings.allocate_review_points for my_site
2021-04-23 13:00:46,009 INFO scheduler Scheduled Job Complete: frappe.social.doctype.energy_point_settings.energy_point_settings.allocate_review_points for my_site
2021-04-23 13:00:46,099 INFO scheduler Scheduled Job Start: frappe.desk.form.document_follow.send_daily_updates for my_site
2021-04-23 13:00:46,482 INFO scheduler Scheduled Job Complete: frappe.desk.form.document_follow.send_daily_updates for my_site
2021-04-23 13:00:46,565 INFO scheduler Scheduled Job Start: frappe.website.doctype.personal_data_deletion_request.personal_data_deletion_request.remove_unverified_record for my_site
2021-04-23 13:00:46,942 INFO scheduler Scheduled Job Complete: frappe.website.doctype.personal_data_deletion_request.personal_data_deletion_request.remove_unverified_record for my_site
2021-04-23 13:00:47,028 INFO scheduler Scheduled Job Start: frappe.email.doctype.auto_email_report.auto_email_report.send_daily for my_site
2021-04-23 13:00:48,135 INFO scheduler Scheduled Job Complete: frappe.email.doctype.auto_email_report.auto_email_report.send_daily for my_site
2021-04-23 13:00:48,226 INFO scheduler Scheduled Job Start: frappe.utils.scheduler.restrict_scheduler_events_if_dormant for my_site
2021-04-23 13:00:48,607 INFO scheduler Scheduled Job Failed: frappe.utils.scheduler.restrict_scheduler_events_if_dormant for my_site
2021-04-23 13:00:48,693 INFO scheduler Scheduled Job Start: frappe.realtime.remove_old_task_logs for my_site
2021-04-23 13:00:49,072 INFO scheduler Scheduled Job Complete: frappe.realtime.remove_old_task_logs for my_site
2021-04-23 13:00:49,158 INFO scheduler Scheduled Job Start: frappe.email.doctype.notification.notification.trigger_daily_alerts for my_site
2021-04-23 13:00:49,555 INFO scheduler Scheduled Job Complete: frappe.email.doctype.notification.notification.trigger_daily_alerts for my_site
2021-04-23 13:00:49,637 INFO scheduler Scheduled Job Start: frappe.sessions.clear_expired_sessions for my_site
2021-04-23 13:00:50,025 INFO scheduler Scheduled Job Complete: frappe.sessions.clear_expired_sessions for my_site
2021-04-23 13:00:50,116 INFO scheduler Scheduled Job Start: frappe.desk.doctype.event.event.send_event_digest for my_site
2021-04-23 13:00:50,530 INFO scheduler Scheduled Job Complete: frappe.desk.doctype.event.event.send_event_digest for my_site
2021-04-23 13:00:50,621 INFO scheduler Scheduled Job Start: frappe.core.doctype.error_log.error_log.set_old_logs_as_seen for my_site
2021-04-23 13:00:51,000 INFO scheduler Scheduled Job Complete: frappe.core.doctype.error_log.error_log.set_old_logs_as_seen for my_site
2021-04-23 13:00:51,085 INFO scheduler Scheduled Job Start: frappe.desk.notifications.clear_notifications for my_site
2021-04-23 13:00:51,463 INFO scheduler Scheduled Job Complete: frappe.desk.notifications.clear_notifications for my_site
2021-04-23 13:00:51,549 INFO scheduler Scheduled Job Start: frappe.email.queue.set_expiry_for_email_queue for my_site
2021-04-23 13:00:51,943 INFO scheduler Scheduled Job Complete: frappe.email.queue.set_expiry_for_email_queue for my_site
2021-04-23 13:00:52,029 INFO scheduler Scheduled Job Start: frappe.email.doctype.newsletter.newsletter.send_scheduled_email for my_site
2021-04-23 13:00:52,477 INFO scheduler Scheduled Job Complete: frappe.email.doctype.newsletter.newsletter.send_scheduled_email for my_site
2021-04-23 13:00:52,562 INFO scheduler Scheduled Job Start: frappe.integrations.doctype.google_calendar.google_calendar.sync for my_site
2021-04-23 13:00:53,335 INFO scheduler Scheduled Job Complete: frappe.integrations.doctype.google_calendar.google_calendar.sync for my_site
2021-04-23 13:00:53,445 INFO scheduler Scheduled Job Start: frappe.desk.form.document_follow.send_hourly_updates for my_site
2021-04-23 13:00:53,965 INFO scheduler Scheduled Job Complete: frappe.desk.form.document_follow.send_hourly_updates for my_site
2021-04-23 13:00:54,053 INFO scheduler Scheduled Job Start: frappe.deferred_insert.save_to_db for my_site
2021-04-23 13:00:54,477 INFO scheduler Scheduled Job Complete: frappe.deferred_insert.save_to_db for my_site
2021-04-23 13:00:54,603 INFO scheduler Scheduled Job Start: frappe.desk.page.backups.backups.delete_downloadable_backups for my_site
2021-04-23 13:00:55,084 INFO scheduler Scheduled Job Complete: frappe.desk.page.backups.backups.delete_downloadable_backups for my_site
2021-04-23 13:00:55,172 INFO scheduler Scheduled Job Start: frappe.utils.error.collect_error_snapshots for my_site
2021-04-23 13:00:55,581 INFO scheduler Scheduled Job Complete: frappe.utils.error.collect_error_snapshots for my_site
2021-04-23 13:00:55,704 INFO scheduler Scheduled Job Start: frappe.model.utils.user_settings.sync_user_settings for my_site
2021-04-23 13:00:56,176 INFO scheduler Scheduled Job Complete: frappe.model.utils.user_settings.sync_user_settings for my_site
2021-04-23 13:00:56,263 INFO scheduler Scheduled Job Start: frappe.model.utils.link_count.update_link_count for my_site
2021-04-23 13:00:56,660 INFO scheduler Scheduled Job Complete: frappe.model.utils.link_count.update_link_count for my_site
2021-04-23 13:00:56,787 INFO scheduler Scheduled Job Start: frappe.monitor.flush for my_site
2021-04-23 13:00:56,983 INFO scheduler Scheduled Job Complete: frappe.monitor.flush for my_site
2021-04-23 13:00:57,065 INFO scheduler Scheduled Job Start: frappe.utils.global_search.sync_global_search for my_site
2021-04-23 13:00:57,259 INFO scheduler Scheduled Job Complete: frappe.utils.global_search.sync_global_search for my_site
2021-04-23 13:00:57,334 INFO scheduler Scheduled Job Start: frappe.integrations.doctype.razorpay_settings.razorpay_settings.capture_payment for my_site
2021-04-23 13:00:57,778 INFO scheduler Scheduled Job Complete: frappe.integrations.doctype.razorpay_settings.razorpay_settings.capture_payment for my_site
2021-04-23 13:00:57,873 INFO scheduler Scheduled Job Start: frappe.email.doctype.email_account.email_account.notify_unreplied for my_site
2021-04-23 13:00:58,227 INFO scheduler Scheduled Job Complete: frappe.email.doctype.email_account.email_account.notify_unreplied for my_site
2021-04-23 13:00:58,338 INFO scheduler Scheduled Job Start: frappe.email.doctype.email_account.email_account.pull for my_site
2021-04-23 13:00:58,764 INFO scheduler Scheduled Job Complete: frappe.email.doctype.email_account.email_account.pull for my_site
2021-04-23 13:00:58,840 INFO scheduler Scheduled Job Start: frappe.email.queue.flush for my_site
2021-04-23 13:00:59,160 INFO scheduler Scheduled Job Complete: frappe.email.queue.flush for my_site
2021-04-23 13:00:59,235 INFO scheduler Scheduled Job Start: frappe.twofactor.delete_all_barcodes_for_users for my_site
2021-04-23 13:00:59,715 INFO scheduler Scheduled Job Complete: frappe.twofactor.delete_all_barcodes_for_users for my_site
2021-04-23 13:00:59,838 INFO scheduler Scheduled Job Start: frappe.website.doctype.web_page.web_page.check_publish_status for my_site
2021-04-23 13:01:00,319 INFO scheduler Scheduled Job Complete: frappe.website.doctype.web_page.web_page.check_publish_status for my_site
2021-04-23 13:01:00,413 INFO scheduler Scheduled Job Start: frappe.oauth.delete_oauth2_data for my_site
2021-04-23 13:01:00,819 INFO scheduler Scheduled Job Complete: frappe.oauth.delete_oauth2_data for my_site
2021-04-23 13:01:35,484 DEBUG scheduler Queued events for site meeting.dev
2021-04-23 13:02:35,728 DEBUG scheduler Queued events for site meeting.dev
2021-04-23 13:03:36,074 DEBUG scheduler Queued events for site meeting.dev
2021-04-23 13:04:36,383 DEBUG scheduler Queued events for site meeting.dev
2021-04-23 13:04:36,413 INFO scheduler Scheduled Job Start: frappe.monitor.flush for meeting.dev
2021-04-23 13:04:36,608 INFO scheduler Scheduled Job Complete: frappe.monitor.flush for meeting.dev
2021-04-23 13:04:36,701 INFO scheduler Scheduled Job Start: frappe.utils.global_search.sync_global_search for meeting.dev
2021-04-23 13:04:36,886 INFO scheduler Scheduled Job Complete: frappe.utils.global_search.sync_global_search for meeting.dev
2021-04-23 13:04:36,990 INFO scheduler Scheduled Job Start: frappe.integrations.doctype.razorpay_settings.razorpay_settings.capture_payment for meeting.dev
2021-04-23 13:04:37,494 INFO scheduler Scheduled Job Complete: frappe.integrations.doctype.razorpay_settings.razorpay_settings.capture_payment for meeting.dev
2021-04-23 13:04:37,581 INFO scheduler Scheduled Job Start: frappe.email.doctype.email_account.email_account.notify_unreplied for meeting.dev
2021-04-23 13:04:37,961 INFO scheduler Scheduled Job Complete: frappe.email.doctype.email_account.email_account.notify_unreplied for meeting.dev
2021-04-23 13:04:38,047 INFO scheduler Scheduled Job Start: frappe.email.doctype.email_account.email_account.pull for meeting.dev
2021-04-23 13:04:38,418 INFO scheduler Scheduled Job Complete: frappe.email.doctype.email_account.email_account.pull for meeting.dev
2021-04-23 13:04:38,507 INFO scheduler Scheduled Job Start: frappe.email.queue.flush for meeting.dev
2021-04-23 13:04:38,827 INFO scheduler Scheduled Job Complete: frappe.email.queue.flush for meeting.dev
2021-04-23 13:05:36,660 DEBUG scheduler Queued events for site meeting.dev
2021-04-23 13:06:36,943 DEBUG scheduler Queued events for site meeting.dev
2021-04-23 13:07:37,208 DEBUG scheduler Queued events for site meeting.dev
2021-04-23 13:08:37,625 DEBUG scheduler Queued events for site meeting.dev
2021-04-23 13:08:37,661 INFO scheduler Scheduled Job Start: frappe.monitor.flush for meeting.dev
2021-04-23 13:08:37,874 INFO scheduler Scheduled Job Complete: frappe.monitor.flush for meeting.dev
2021-04-23 13:08:37,989 INFO scheduler Scheduled Job Start: frappe.utils.global_search.sync_global_search for meeting.dev
2021-04-23 13:08:38,288 INFO scheduler Scheduled Job Complete: frappe.utils.global_search.sync_global_search for meeting.dev
2021-04-23 13:08:38,396 INFO scheduler Scheduled Job Start: frappe.integrations.doctype.razorpay_settings.razorpay_settings.capture_payment for meeting.dev
2021-04-23 13:08:39,162 INFO scheduler Scheduled Job Complete: frappe.integrations.doctype.razorpay_settings.razorpay_settings.capture_payment for meeting.dev
2021-04-23 13:08:39,279 INFO scheduler Scheduled Job Start: frappe.email.doctype.email_account.email_account.notify_unreplied for meeting.dev
2021-04-23 13:08:39,791 INFO scheduler Scheduled Job Complete: frappe.email.doctype.email_account.email_account.notify_unreplied for meeting.dev
2021-04-23 13:08:39,950 INFO scheduler Scheduled Job Start: frappe.email.doctype.email_account.email_account.pull for meeting.dev
2021-04-23 13:08:40,446 INFO scheduler Scheduled Job Complete: frappe.email.doctype.email_account.email_account.pull for meeting.dev
2021-04-23 13:08:40,580 INFO scheduler Scheduled Job Start: frappe.email.queue.flush for meeting.dev
2021-04-23 13:08:40,922 INFO scheduler Scheduled Job Complete: frappe.email.queue.flush for meeting.dev
2021-04-23 13:09:38,036 DEBUG scheduler Queued events for site meeting.dev
2021-04-23 13:10:38,308 DEBUG scheduler Queued events for site meeting.dev
2021-04-23 13:11:38,647 DEBUG scheduler Queued events for site meeting.dev
2021-04-23 13:12:39,087 DEBUG scheduler Queued events for site meeting.dev
2021-04-23 13:12:39,119 INFO scheduler Scheduled Job Start: frappe.monitor.flush for meeting.dev
2021-04-23 13:12:39,340 INFO scheduler Scheduled Job Complete: frappe.monitor.flush for meeting.dev
2021-04-23 13:12:39,458 INFO scheduler Scheduled Job Start: frappe.utils.global_search.sync_global_search for meeting.dev
2021-04-23 13:12:39,695 INFO scheduler Scheduled Job Complete: frappe.utils.global_search.sync_global_search for meeting.dev
2021-04-23 13:12:39,789 INFO scheduler Scheduled Job Start: frappe.integrations.doctype.razorpay_settings.razorpay_settings.capture_payment for meeting.dev
2021-04-23 13:12:40,407 INFO scheduler Scheduled Job Complete: frappe.integrations.doctype.razorpay_settings.razorpay_settings.capture_payment for meeting.dev
2021-04-23 13:12:40,495 INFO scheduler Scheduled Job Start: frappe.email.doctype.email_account.email_account.notify_unreplied for meeting.dev
2021-04-23 13:12:40,895 INFO scheduler Scheduled Job Complete: frappe.email.doctype.email_account.email_account.notify_unreplied for meeting.dev
2021-04-23 13:12:41,005 INFO scheduler Scheduled Job Start: frappe.email.doctype.email_account.email_account.pull for meeting.dev
2021-04-23 13:12:41,467 INFO scheduler Scheduled Job Complete: frappe.email.doctype.email_account.email_account.pull for meeting.dev
2021-04-23 13:12:41,555 INFO scheduler Scheduled Job Start: frappe.email.queue.flush for meeting.dev
2021-04-23 13:12:41,909 INFO scheduler Scheduled Job Complete: frappe.email.queue.flush for meeting.dev
2021-04-23 13:13:39,487 DEBUG scheduler Queued events for site meeting.dev
2021-04-23 13:14:39,816 DEBUG scheduler Queued events for site meeting.dev
2021-04-23 13:15:40,273 DEBUG scheduler Queued events for site meeting.dev
2021-04-23 13:15:40,365 INFO scheduler Scheduled Job Start: frappe.twofactor.delete_all_barcodes_for_users for meeting.dev
2021-04-23 13:15:41,417 INFO scheduler Scheduled Job Complete: frappe.twofactor.delete_all_barcodes_for_users for meeting.dev
2021-04-23 13:15:41,648 INFO scheduler Scheduled Job Start: frappe.website.doctype.web_page.web_page.check_publish_status for meeting.dev
2021-04-23 13:15:42,879 INFO scheduler Scheduled Job Complete: frappe.website.doctype.web_page.web_page.check_publish_status for meeting.dev
2021-04-23 13:15:43,004 INFO scheduler Scheduled Job Start: frappe.oauth.delete_oauth2_data for meeting.dev
2021-04-23 13:15:43,730 INFO scheduler Scheduled Job Complete: frappe.oauth.delete_oauth2_data for meeting.dev
2021-04-23 13:16:40,652 DEBUG scheduler Queued events for site meeting.dev
2021-04-23 13:16:40,701 INFO scheduler Scheduled Job Start: frappe.monitor.flush for meeting.dev
2021-04-23 13:16:40,892 INFO scheduler Scheduled Job Complete: frappe.monitor.flush for meeting.dev
2021-04-23 13:16:40,983 INFO scheduler Scheduled Job Start: frappe.utils.global_search.sync_global_search for meeting.dev
2021-04-23 13:16:41,168 INFO scheduler Scheduled Job Complete: frappe.utils.global_search.sync_global_search for meeting.dev
2021-04-23 13:16:41,256 INFO scheduler Scheduled Job Start: frappe.integrations.doctype.razorpay_settings.razorpay_settings.capture_payment for meeting.dev
2021-04-23 13:16:41,739 INFO scheduler Scheduled Job Complete: frappe.integrations.doctype.razorpay_settings.razorpay_settings.capture_payment for meeting.dev
2021-04-23 13:16:41,827 INFO scheduler Scheduled Job Start: frappe.email.doctype.email_account.email_account.notify_unreplied for meeting.dev
2021-04-23 13:16:42,206 INFO scheduler Scheduled Job Complete: frappe.email.doctype.email_account.email_account.notify_unreplied for meeting.dev
2021-04-23 13:16:42,293 INFO scheduler Scheduled Job Start: frappe.email.doctype.email_account.email_account.pull for meeting.dev
2021-04-23 13:16:42,706 INFO scheduler Scheduled Job Complete: frappe.email.doctype.email_account.email_account.pull for meeting.dev
2021-04-23 13:16:42,800 INFO scheduler Scheduled Job Start: frappe.email.queue.flush for meeting.dev
2021-04-23 13:16:43,117 INFO scheduler Scheduled Job Complete: frappe.email.queue.flush for meeting.dev
2021-04-23 13:17:40,957 DEBUG scheduler Queued events for site meeting.dev
2021-04-23 13:18:41,238 DEBUG scheduler Queued events for site meeting.dev
2021-04-23 13:19:41,507 DEBUG scheduler Queued events for site meeting.dev
2021-04-23 13:20:41,838 DEBUG scheduler Queued events for site meeting.dev
2021-04-23 13:20:41,887 INFO scheduler Scheduled Job Start: frappe.monitor.flush for meeting.dev
2021-04-23 13:20:42,107 INFO scheduler Scheduled Job Complete: frappe.monitor.flush for meeting.dev
2021-04-23 13:20:42,259 INFO scheduler Scheduled Job Start: frappe.utils.global_search.sync_global_search for meeting.dev
2021-04-23 13:20:42,549 INFO scheduler Scheduled Job Complete: frappe.utils.global_search.sync_global_search for meeting.dev
2021-04-23 13:20:42,670 INFO scheduler Scheduled Job Start: frappe.integrations.doctype.razorpay_settings.razorpay_settings.capture_payment for meeting.dev
2021-04-23 13:20:43,309 INFO scheduler Scheduled Job Complete: frappe.integrations.doctype.razorpay_settings.razorpay_settings.capture_payment for meeting.dev
2021-04-23 13:20:43,444 INFO scheduler Scheduled Job Start: frappe.email.doctype.email_account.email_account.notify_unreplied for meeting.dev
2021-04-23 13:20:43,836 INFO scheduler Scheduled Job Complete: frappe.email.doctype.email_account.email_account.notify_unreplied for meeting.dev
2021-04-23 13:20:43,975 INFO scheduler Scheduled Job Start: frappe.email.doctype.email_account.email_account.pull for meeting.dev
2021-04-23 13:20:44,587 INFO scheduler Scheduled Job Complete: frappe.email.doctype.email_account.email_account.pull for meeting.dev
2021-04-23 13:20:44,757 INFO scheduler Scheduled Job Start: frappe.email.queue.flush for meeting.dev
2021-04-23 13:20:45,135 INFO scheduler Scheduled Job Complete: frappe.email.queue.flush for meeting.dev
2021-04-23 13:21:42,193 DEBUG scheduler Queued events for site meeting.dev
2021-04-23 13:22:42,463 DEBUG scheduler Queued events for site meeting.dev
2021-04-23 13:23:42,711 DEBUG scheduler Queued events for site meeting.dev
2021-04-23 13:24:42,997 DEBUG scheduler Queued events for site meeting.dev
2021-04-23 13:24:43,032 INFO scheduler Scheduled Job Start: frappe.monitor.flush for meeting.dev
2021-04-23 13:24:43,207 INFO scheduler Scheduled Job Complete: frappe.monitor.flush for meeting.dev
2021-04-23 13:24:43,280 INFO scheduler Scheduled Job Start: frappe.utils.global_search.sync_global_search for meeting.dev
2021-04-23 13:24:43,442 INFO scheduler Scheduled Job Complete: frappe.utils.global_search.sync_global_search for meeting.dev
2021-04-23 13:24:43,532 INFO scheduler Scheduled Job Start: frappe.integrations.doctype.razorpay_settings.razorpay_settings.capture_payment for meeting.dev
2021-04-23 13:24:44,007 INFO scheduler Scheduled Job Complete: frappe.integrations.doctype.razorpay_settings.razorpay_settings.capture_payment for meeting.dev
2021-04-23 13:24:44,099 INFO scheduler Scheduled Job Start: frappe.email.doctype.email_account.email_account.notify_unreplied for meeting.dev
2021-04-23 13:24:44,531 INFO scheduler Scheduled Job Complete: frappe.email.doctype.email_account.email_account.notify_unreplied for meeting.dev
2021-04-23 13:24:44,664 INFO scheduler Scheduled Job Start: frappe.email.doctype.email_account.email_account.pull for meeting.dev
2021-04-23 13:24:45,259 INFO scheduler Scheduled Job Complete: frappe.email.doctype.email_account.email_account.pull for meeting.dev
2021-04-23 13:24:45,358 INFO scheduler Scheduled Job Start: frappe.email.queue.flush for meeting.dev
2021-04-23 13:24:45,740 INFO scheduler Scheduled Job Complete: frappe.email.queue.flush for meeting.dev
2021-04-23 13:25:43,311 DEBUG scheduler Queued events for site meeting.dev
2021-04-23 13:26:43,619 DEBUG scheduler Queued events for site meeting.dev
2021-04-23 13:27:43,909 DEBUG scheduler Queued events for site meeting.dev
2021-04-23 13:28:44,283 DEBUG scheduler Queued events for site meeting.dev
2021-04-23 13:28:44,325 INFO scheduler Scheduled Job Start: frappe.monitor.flush for meeting.dev
2021-04-23 13:28:44,553 INFO scheduler Scheduled Job Complete: frappe.monitor.flush for meeting.dev
2021-04-23 13:28:44,657 INFO scheduler Scheduled Job Start: frappe.utils.global_search.sync_global_search for meeting.dev
2021-04-23 13:28:44,861 INFO scheduler Scheduled Job Complete: frappe.utils.global_search.sync_global_search for meeting.dev
2021-04-23 13:28:44,963 INFO scheduler Scheduled Job Start: frappe.integrations.doctype.razorpay_settings.razorpay_settings.capture_payment for meeting.dev
2021-04-23 13:28:45,497 INFO scheduler Scheduled Job Complete: frappe.integrations.doctype.razorpay_settings.razorpay_settings.capture_payment for meeting.dev
2021-04-23 13:28:45,583 INFO scheduler Scheduled Job Start: frappe.email.doctype.email_account.email_account.notify_unreplied for meeting.dev
2021-04-23 13:28:45,936 INFO scheduler Scheduled Job Complete: frappe.email.doctype.email_account.email_account.notify_unreplied for meeting.dev
2021-04-23 13:28:46,043 INFO scheduler Scheduled Job Start: frappe.email.doctype.email_account.email_account.pull for meeting.dev
2021-04-23 13:28:46,506 INFO scheduler Scheduled Job Complete: frappe.email.doctype.email_account.email_account.pull for meeting.dev
2021-04-23 13:28:46,613 INFO scheduler Scheduled Job Start: frappe.email.queue.flush for meeting.dev
2021-04-23 13:28:46,990 INFO scheduler Scheduled Job Complete: frappe.email.queue.flush for meeting.dev
2021-04-23 13:29:44,604 DEBUG scheduler Queued events for site meeting.dev
2021-04-23 13:30:44,937 DEBUG scheduler Queued events for site meeting.dev
2021-04-23 13:30:45,015 INFO scheduler Scheduled Job Start: frappe.twofactor.delete_all_barcodes_for_users for meeting.dev
2021-04-23 13:30:45,641 INFO scheduler Scheduled Job Complete: frappe.twofactor.delete_all_barcodes_for_users for meeting.dev
2021-04-23 13:30:45,768 INFO scheduler Scheduled Job Start: frappe.website.doctype.web_page.web_page.check_publish_status for meeting.dev
2021-04-23 13:30:46,429 INFO scheduler Scheduled Job Complete: frappe.website.doctype.web_page.web_page.check_publish_status for meeting.dev
2021-04-23 13:30:46,553 INFO scheduler Scheduled Job Start: frappe.oauth.delete_oauth2_data for meeting.dev
2021-04-23 13:30:47,126 INFO scheduler Scheduled Job Complete: frappe.oauth.delete_oauth2_data for meeting.dev
2021-04-23 13:31:45,276 DEBUG scheduler Queued events for site meeting.dev
2021-04-23 13:32:45,612 DEBUG scheduler Queued events for site meeting.dev
2021-04-23 13:32:45,648 INFO scheduler Scheduled Job Start: frappe.monitor.flush for meeting.dev
2021-04-23 13:32:45,844 INFO scheduler Scheduled Job Complete: frappe.monitor.flush for meeting.dev
2021-04-23 13:32:45,924 INFO scheduler Scheduled Job Start: frappe.utils.global_search.sync_global_search for meeting.dev
2021-04-23 13:32:46,101 INFO scheduler Scheduled Job Complete: frappe.utils.global_search.sync_global_search for meeting.dev
2021-04-23 13:32:46,185 INFO scheduler Scheduled Job Start: frappe.integrations.doctype.razorpay_settings.razorpay_settings.capture_payment for meeting.dev
2021-04-23 13:32:46,641 INFO scheduler Scheduled Job Complete: frappe.integrations.doctype.razorpay_settings.razorpay_settings.capture_payment for meeting.dev
2021-04-23 13:32:46,722 INFO scheduler Scheduled Job Start: frappe.email.doctype.email_account.email_account.notify_unreplied for meeting.dev
2021-04-23 13:32:47,088 INFO scheduler Scheduled Job Complete: frappe.email.doctype.email_account.email_account.notify_unreplied for meeting.dev
2021-04-23 13:32:47,182 INFO scheduler Scheduled Job Start: frappe.email.doctype.email_account.email_account.pull for meeting.dev
2021-04-23 13:32:47,560 INFO scheduler Scheduled Job Complete: frappe.email.doctype.email_account.email_account.pull for meeting.dev
2021-04-23 13:32:47,648 INFO scheduler Scheduled Job Start: frappe.email.queue.flush for meeting.dev
2021-04-23 13:32:47,969 INFO scheduler Scheduled Job Complete: frappe.email.queue.flush for meeting.dev
2021-04-23 13:33:45,944 DEBUG scheduler Queued events for site meeting.dev
2021-04-23 13:34:46,237 DEBUG scheduler Queued events for site meeting.dev
2021-04-23 13:35:46,520 DEBUG scheduler Queued events for site meeting.dev
2021-04-23 13:36:46,830 DEBUG scheduler Queued events for site meeting.dev
2021-04-23 13:36:46,867 INFO scheduler Scheduled Job Start: frappe.monitor.flush for meeting.dev
2021-04-23 13:36:47,037 INFO scheduler Scheduled Job Complete: frappe.monitor.flush for meeting.dev
2021-04-23 13:36:47,115 INFO scheduler Scheduled Job Start: frappe.utils.global_search.sync_global_search for meeting.dev
2021-04-23 13:36:47,295 INFO scheduler Scheduled Job Complete: frappe.utils.global_search.sync_global_search for meeting.dev
2021-04-23 13:36:47,370 INFO scheduler Scheduled Job Start: frappe.integrations.doctype.razorpay_settings.razorpay_settings.capture_payment for meeting.dev
2021-04-23 13:36:47,826 INFO scheduler Scheduled Job Complete: frappe.integrations.doctype.razorpay_settings.razorpay_settings.capture_payment for meeting.dev
2021-04-23 13:36:47,897 INFO scheduler Scheduled Job Start: frappe.email.doctype.email_account.email_account.notify_unreplied for meeting.dev
2021-04-23 13:36:48,217 INFO scheduler Scheduled Job Complete: frappe.email.doctype.email_account.email_account.notify_unreplied for meeting.dev
2021-04-23 13:36:48,291 INFO scheduler Scheduled Job Start: frappe.email.doctype.email_account.email_account.pull for meeting.dev
2021-04-23 13:36:48,631 INFO scheduler Scheduled Job Complete: frappe.email.doctype.email_account.email_account.pull for meeting.dev
2021-04-23 13:36:48,704 INFO scheduler Scheduled Job Start: frappe.email.queue.flush for meeting.dev
2021-04-23 13:36:48,992 INFO scheduler Scheduled Job Complete: frappe.email.queue.flush for meeting.dev
2021-04-23 13:37:47,103 DEBUG scheduler Queued events for site meeting.dev
2021-04-23 13:38:47,337 DEBUG scheduler Queued events for site meeting.dev
2021-04-23 13:39:47,622 DEBUG scheduler Queued events for site meeting.dev
2021-04-23 13:40:47,898 DEBUG scheduler Queued events for site meeting.dev
2021-04-23 13:40:47,963 INFO scheduler Scheduled Job Start: frappe.monitor.flush for meeting.dev
2021-04-23 13:40:48,195 INFO scheduler Scheduled Job Complete: frappe.monitor.flush for meeting.dev
2021-04-23 13:40:48,276 INFO scheduler Scheduled Job Start: frappe.utils.global_search.sync_global_search for meeting.dev
2021-04-23 13:40:48,481 INFO scheduler Scheduled Job Complete: frappe.utils.global_search.sync_global_search for meeting.dev
2021-04-23 13:40:48,571 INFO scheduler Scheduled Job Start: frappe.integrations.doctype.razorpay_settings.razorpay_settings.capture_payment for meeting.dev
2021-04-23 13:40:48,986 INFO scheduler Scheduled Job Complete: frappe.integrations.doctype.razorpay_settings.razorpay_settings.capture_payment for meeting.dev
2021-04-23 13:40:49,058 INFO scheduler Scheduled Job Start: frappe.email.doctype.email_account.email_account.notify_unreplied for meeting.dev
2021-04-23 13:40:49,402 INFO scheduler Scheduled Job Complete: frappe.email.doctype.email_account.email_account.notify_unreplied for meeting.dev
2021-04-23 13:40:49,481 INFO scheduler Scheduled Job Start: frappe.email.doctype.email_account.email_account.pull for meeting.dev
2021-04-23 13:40:49,924 INFO scheduler Scheduled Job Complete: frappe.email.doctype.email_account.email_account.pull for meeting.dev
2021-04-23 13:40:50,034 INFO scheduler Scheduled Job Start: frappe.email.queue.flush for meeting.dev
2021-04-23 13:40:50,331 INFO scheduler Scheduled Job Complete: frappe.email.queue.flush for meeting.dev
2021-04-23 13:41:48,182 DEBUG scheduler Queued events for site meeting.dev
2021-04-23 13:42:48,459 DEBUG scheduler Queued events for site meeting.dev
2021-04-23 13:43:48,731 DEBUG scheduler Queued events for site meeting.dev
2021-04-23 13:44:49,005 DEBUG scheduler Queued events for site meeting.dev
2021-04-23 13:44:49,038 INFO scheduler Scheduled Job Start: frappe.monitor.flush for meeting.dev
2021-04-23 13:44:49,204 INFO scheduler Scheduled Job Complete: frappe.monitor.flush for meeting.dev
2021-04-23 13:44:49,296 INFO scheduler Scheduled Job Start: frappe.utils.global_search.sync_global_search for meeting.dev
2021-04-23 13:44:49,465 INFO scheduler Scheduled Job Complete: frappe.utils.global_search.sync_global_search for meeting.dev
2021-04-23 13:44:49,548 INFO scheduler Scheduled Job Start: frappe.integrations.doctype.razorpay_settings.razorpay_settings.capture_payment for meeting.dev
2021-04-23 13:44:49,962 INFO scheduler Scheduled Job Complete: frappe.integrations.doctype.razorpay_settings.razorpay_settings.capture_payment for meeting.dev
2021-04-23 13:44:50,037 INFO scheduler Scheduled Job Start: frappe.email.doctype.email_account.email_account.notify_unreplied for meeting.dev
2021-04-23 13:44:50,356 INFO scheduler Scheduled Job Complete: frappe.email.doctype.email_account.email_account.notify_unreplied for meeting.dev
2021-04-23 13:44:50,431 INFO scheduler Scheduled Job Start: frappe.email.doctype.email_account.email_account.pull for meeting.dev
2021-04-23 13:44:50,780 INFO scheduler Scheduled Job Complete: frappe.email.doctype.email_account.email_account.pull for meeting.dev
2021-04-23 13:44:50,882 INFO scheduler Scheduled Job Start: frappe.email.queue.flush for meeting.dev
2021-04-23 13:44:51,208 INFO scheduler Scheduled Job Complete: frappe.email.queue.flush for meeting.dev
2021-04-23 13:45:49,268 DEBUG scheduler Queued events for site meeting.dev
2021-04-23 13:45:49,325 INFO scheduler Scheduled Job Start: frappe.twofactor.delete_all_barcodes_for_users for meeting.dev
2021-04-23 13:45:49,755 INFO scheduler Scheduled Job Complete: frappe.twofactor.delete_all_barcodes_for_users for meeting.dev
2021-04-23 13:45:49,836 INFO scheduler Scheduled Job Start: frappe.website.doctype.web_page.web_page.check_publish_status for meeting.dev
2021-04-23 13:45:50,293 INFO scheduler Scheduled Job Complete: frappe.website.doctype.web_page.web_page.check_publish_status for meeting.dev
2021-04-23 13:45:50,384 INFO scheduler Scheduled Job Start: frappe.oauth.delete_oauth2_data for meeting.dev
2021-04-23 13:45:50,802 INFO scheduler Scheduled Job Complete: frappe.oauth.delete_oauth2_data for meeting.dev
2021-04-23 13:46:49,560 DEBUG scheduler Queued events for site meeting.dev
2021-04-23 13:47:49,917 DEBUG scheduler Queued events for site meeting.dev
2021-04-23 13:48:50,304 DEBUG scheduler Queued events for site meeting.dev
2021-04-23 13:48:50,354 INFO scheduler Scheduled Job Start: frappe.monitor.flush for meeting.dev
2021-04-23 13:48:50,592 INFO scheduler Scheduled Job Complete: frappe.monitor.flush for meeting.dev
2021-04-23 13:48:50,696 INFO scheduler Scheduled Job Start: frappe.utils.global_search.sync_global_search for meeting.dev
2021-04-23 13:48:50,903 INFO scheduler Scheduled Job Complete: frappe.utils.global_search.sync_global_search for meeting.dev
2021-04-23 13:48:51,017 INFO scheduler Scheduled Job Start: frappe.integrations.doctype.razorpay_settings.razorpay_settings.capture_payment for meeting.dev
2021-04-23 13:48:51,591 INFO scheduler Scheduled Job Complete: frappe.integrations.doctype.razorpay_settings.razorpay_settings.capture_payment for meeting.dev
2021-04-23 13:48:51,698 INFO scheduler Scheduled Job Start: frappe.email.doctype.email_account.email_account.notify_unreplied for meeting.dev
2021-04-23 13:48:52,177 INFO scheduler Scheduled Job Complete: frappe.email.doctype.email_account.email_account.notify_unreplied for meeting.dev
2021-04-23 13:48:52,285 INFO scheduler Scheduled Job Start: frappe.email.doctype.email_account.email_account.pull for meeting.dev
2021-04-23 13:48:52,832 INFO scheduler Scheduled Job Complete: frappe.email.doctype.email_account.email_account.pull for meeting.dev
2021-04-23 13:48:52,971 INFO scheduler Scheduled Job Start: frappe.email.queue.flush for meeting.dev
2021-04-23 13:48:53,482 INFO scheduler Scheduled Job Complete: frappe.email.queue.flush for meeting.dev
2021-04-23 13:49:50,660 DEBUG scheduler Queued events for site meeting.dev
2021-04-23 13:50:50,966 DEBUG scheduler Queued events for site meeting.dev
2021-04-23 13:51:51,284 DEBUG scheduler Queued events for site meeting.dev
2021-04-23 13:52:51,695 DEBUG scheduler Queued events for site meeting.dev
2021-04-23 13:52:51,743 INFO scheduler Scheduled Job Start: frappe.monitor.flush for meeting.dev
2021-04-23 13:52:51,983 INFO scheduler Scheduled Job Complete: frappe.monitor.flush for meeting.dev
2021-04-23 13:52:52,098 INFO scheduler Scheduled Job Start: frappe.utils.global_search.sync_global_search for meeting.dev
2021-04-23 13:52:52,343 INFO scheduler Scheduled Job Complete: frappe.utils.global_search.sync_global_search for meeting.dev
2021-04-23 13:52:52,449 INFO scheduler Scheduled Job Start: frappe.integrations.doctype.razorpay_settings.razorpay_settings.capture_payment for meeting.dev
2021-04-23 13:52:52,978 INFO scheduler Scheduled Job Complete: frappe.integrations.doctype.razorpay_settings.razorpay_settings.capture_payment for meeting.dev
2021-04-23 13:52:53,081 INFO scheduler Scheduled Job Start: frappe.email.doctype.email_account.email_account.notify_unreplied for meeting.dev
2021-04-23 13:52:53,513 INFO scheduler Scheduled Job Complete: frappe.email.doctype.email_account.email_account.notify_unreplied for meeting.dev
2021-04-23 13:52:53,617 INFO scheduler Scheduled Job Start: frappe.email.doctype.email_account.email_account.pull for meeting.dev
2021-04-23 13:52:54,078 INFO scheduler Scheduled Job Complete: frappe.email.doctype.email_account.email_account.pull for meeting.dev
2021-04-23 13:52:54,190 INFO scheduler Scheduled Job Start: frappe.email.queue.flush for meeting.dev
2021-04-23 13:52:54,586 INFO scheduler Scheduled Job Complete: frappe.email.queue.flush for meeting.dev
2021-04-23 13:53:52,041 DEBUG scheduler Queued events for site meeting.dev
2021-04-23 13:54:52,352 DEBUG scheduler Queued events for site meeting.dev
2021-04-23 13:55:52,619 DEBUG scheduler Queued events for site meeting.dev
2021-04-23 13:56:52,958 DEBUG scheduler Queued events for site meeting.dev
2021-04-23 13:56:53,015 INFO scheduler Scheduled Job Start: frappe.monitor.flush for meeting.dev
2021-04-23 13:56:53,238 INFO scheduler Scheduled Job Complete: frappe.monitor.flush for meeting.dev
2021-04-23 13:56:53,347 INFO scheduler Scheduled Job Start: frappe.utils.global_search.sync_global_search for meeting.dev
2021-04-23 13:56:53,582 INFO scheduler Scheduled Job Complete: frappe.utils.global_search.sync_global_search for meeting.dev
2021-04-23 13:56:53,683 INFO scheduler Scheduled Job Start: frappe.integrations.doctype.razorpay_settings.razorpay_settings.capture_payment for meeting.dev
2021-04-23 13:56:54,174 INFO scheduler Scheduled Job Complete: frappe.integrations.doctype.razorpay_settings.razorpay_settings.capture_payment for meeting.dev
2021-04-23 13:56:54,268 INFO scheduler Scheduled Job Start: frappe.email.doctype.email_account.email_account.notify_unreplied for meeting.dev
2021-04-23 13:56:54,733 INFO scheduler Scheduled Job Complete: frappe.email.doctype.email_account.email_account.notify_unreplied for meeting.dev
2021-04-23 13:56:54,835 INFO scheduler Scheduled Job Start: frappe.email.doctype.email_account.email_account.pull for meeting.dev
2021-04-23 13:56:55,285 INFO scheduler Scheduled Job Complete: frappe.email.doctype.email_account.email_account.pull for meeting.dev
2021-04-23 13:56:55,384 INFO scheduler Scheduled Job Start: frappe.email.queue.flush for meeting.dev
2021-04-23 13:56:55,766 INFO scheduler Scheduled Job Complete: frappe.email.queue.flush for meeting.dev
2021-04-23 13:57:53,309 DEBUG scheduler Queued events for site meeting.dev
2021-04-23 13:58:53,596 DEBUG scheduler Queued events for site meeting.dev
2021-04-23 13:59:53,863 DEBUG scheduler Queued events for site meeting.dev
2021-04-23 14:00:54,169 INFO scheduler Scheduled Job Start: frappe.email.doctype.newsletter.newsletter.send_scheduled_email for meeting.dev
2021-04-23 14:00:54,250 DEBUG scheduler Queued events for site meeting.dev
2021-04-23 14:00:54,670 INFO scheduler Scheduled Job Complete: frappe.email.doctype.newsletter.newsletter.send_scheduled_email for meeting.dev
2021-04-23 14:00:54,767 INFO scheduler Scheduled Job Start: frappe.integrations.doctype.google_calendar.google_calendar.sync for meeting.dev
2021-04-23 14:00:55,353 INFO scheduler Scheduled Job Complete: frappe.integrations.doctype.google_calendar.google_calendar.sync for meeting.dev
2021-04-23 14:00:55,449 INFO scheduler Scheduled Job Start: frappe.desk.form.document_follow.send_hourly_updates for meeting.dev
2021-04-23 14:00:55,907 INFO scheduler Scheduled Job Complete: frappe.desk.form.document_follow.send_hourly_updates for meeting.dev
2021-04-23 14:00:56,013 INFO scheduler Scheduled Job Start: frappe.deferred_insert.save_to_db for meeting.dev
2021-04-23 14:00:56,492 INFO scheduler Scheduled Job Complete: frappe.deferred_insert.save_to_db for meeting.dev
2021-04-23 14:00:56,584 INFO scheduler Scheduled Job Start: frappe.desk.page.backups.backups.delete_downloadable_backups for meeting.dev
2021-04-23 14:00:57,019 INFO scheduler Scheduled Job Complete: frappe.desk.page.backups.backups.delete_downloadable_backups for meeting.dev
2021-04-23 14:00:57,134 INFO scheduler Scheduled Job Start: frappe.utils.error.collect_error_snapshots for meeting.dev
2021-04-23 14:00:57,658 INFO scheduler Scheduled Job Complete: frappe.utils.error.collect_error_snapshots for meeting.dev
2021-04-23 14:00:57,756 INFO scheduler Scheduled Job Start: frappe.model.utils.user_settings.sync_user_settings for meeting.dev
2021-04-23 14:00:58,263 INFO scheduler Scheduled Job Complete: frappe.model.utils.user_settings.sync_user_settings for meeting.dev
2021-04-23 14:00:58,392 INFO scheduler Scheduled Job Start: frappe.model.utils.link_count.update_link_count for meeting.dev
2021-04-23 14:00:58,992 INFO scheduler Scheduled Job Complete: frappe.model.utils.link_count.update_link_count for meeting.dev
2021-04-23 14:00:59,111 INFO scheduler Scheduled Job Start: frappe.monitor.flush for meeting.dev
2021-04-23 14:00:59,387 INFO scheduler Scheduled Job Complete: frappe.monitor.flush for meeting.dev
2021-04-23 14:00:59,545 INFO scheduler Scheduled Job Start: frappe.utils.global_search.sync_global_search for meeting.dev
2021-04-23 14:00:59,832 INFO scheduler Scheduled Job Complete: frappe.utils.global_search.sync_global_search for meeting.dev
2021-04-23 14:00:59,911 INFO scheduler Scheduled Job Start: frappe.integrations.doctype.razorpay_settings.razorpay_settings.capture_payment for meeting.dev
2021-04-23 14:01:00,371 INFO scheduler Scheduled Job Complete: frappe.integrations.doctype.razorpay_settings.razorpay_settings.capture_payment for meeting.dev
2021-04-23 14:01:00,442 INFO scheduler Scheduled Job Start: frappe.email.doctype.email_account.email_account.notify_unreplied for meeting.dev
2021-04-23 14:01:00,815 INFO scheduler Scheduled Job Complete: frappe.email.doctype.email_account.email_account.notify_unreplied for meeting.dev
2021-04-23 14:01:00,925 INFO scheduler Scheduled Job Start: frappe.email.doctype.email_account.email_account.pull for meeting.dev
2021-04-23 14:01:01,396 INFO scheduler Scheduled Job Complete: frappe.email.doctype.email_account.email_account.pull for meeting.dev
2021-04-23 14:01:01,471 INFO scheduler Scheduled Job Start: frappe.email.queue.flush for meeting.dev
2021-04-23 14:01:01,785 INFO scheduler Scheduled Job Complete: frappe.email.queue.flush for meeting.dev
2021-04-23 14:01:01,879 INFO scheduler Scheduled Job Start: frappe.twofactor.delete_all_barcodes_for_users for meeting.dev
2021-04-23 14:01:02,468 INFO scheduler Scheduled Job Complete: frappe.twofactor.delete_all_barcodes_for_users for meeting.dev
2021-04-23 14:01:02,552 INFO scheduler Scheduled Job Start: frappe.website.doctype.web_page.web_page.check_publish_status for meeting.dev
2021-04-23 14:01:03,279 INFO scheduler Scheduled Job Complete: frappe.website.doctype.web_page.web_page.check_publish_status for meeting.dev
2021-04-23 14:01:03,441 INFO scheduler Scheduled Job Start: frappe.oauth.delete_oauth2_data for meeting.dev
2021-04-23 14:01:04,093 INFO scheduler Scheduled Job Complete: frappe.oauth.delete_oauth2_data for meeting.dev
2021-04-23 14:23:30,746 INFO scheduler Scheduled Job Start: frappe.monitor.flush for meeting.dev
2021-04-23 14:23:30,753 DEBUG scheduler Queued events for site meeting.dev
2021-04-23 14:23:30,959 INFO scheduler Scheduled Job Complete: frappe.monitor.flush for meeting.dev
2021-04-23 14:23:31,039 INFO scheduler Scheduled Job Start: frappe.utils.global_search.sync_global_search for meeting.dev
2021-04-23 14:23:31,199 INFO scheduler Scheduled Job Complete: frappe.utils.global_search.sync_global_search for meeting.dev
2021-04-23 14:23:31,282 INFO scheduler Scheduled Job Start: frappe.integrations.doctype.razorpay_settings.razorpay_settings.capture_payment for meeting.dev
2021-04-23 14:23:31,697 INFO scheduler Scheduled Job Complete: frappe.integrations.doctype.razorpay_settings.razorpay_settings.capture_payment for meeting.dev
2021-04-23 14:23:31,790 INFO scheduler Scheduled Job Start: frappe.email.doctype.email_account.email_account.notify_unreplied for meeting.dev
2021-04-23 14:23:32,268 INFO scheduler Scheduled Job Complete: frappe.email.doctype.email_account.email_account.notify_unreplied for meeting.dev
2021-04-23 14:23:32,341 INFO scheduler Scheduled Job Start: frappe.email.doctype.email_account.email_account.pull for meeting.dev
2021-04-23 14:23:32,694 INFO scheduler Scheduled Job Complete: frappe.email.doctype.email_account.email_account.pull for meeting.dev
2021-04-23 14:23:32,765 INFO scheduler Scheduled Job Start: frappe.email.queue.flush for meeting.dev
2021-04-23 14:23:33,033 INFO scheduler Scheduled Job Complete: frappe.email.queue.flush for meeting.dev
2021-04-23 14:23:33,108 INFO scheduler Scheduled Job Start: frappe.twofactor.delete_all_barcodes_for_users for meeting.dev
2021-04-23 14:23:33,550 INFO scheduler Scheduled Job Complete: frappe.twofactor.delete_all_barcodes_for_users for meeting.dev
2021-04-23 14:23:33,642 INFO scheduler Scheduled Job Start: frappe.website.doctype.web_page.web_page.check_publish_status for meeting.dev
2021-04-23 14:23:34,105 INFO scheduler Scheduled Job Complete: frappe.website.doctype.web_page.web_page.check_publish_status for meeting.dev
2021-04-23 14:23:34,198 INFO scheduler Scheduled Job Start: frappe.oauth.delete_oauth2_data for meeting.dev
2021-04-23 14:23:34,644 INFO scheduler Scheduled Job Complete: frappe.oauth.delete_oauth2_data for meeting.dev
2021-04-23 14:24:31,148 DEBUG scheduler Queued events for site meeting.dev
2021-04-23 14:24:31,177 INFO scheduler Scheduled Job Start: frappe.monitor.flush for meeting.dev
2021-04-23 14:24:31,351 INFO scheduler Scheduled Job Complete: frappe.monitor.flush for meeting.dev
2021-04-23 14:24:31,432 INFO scheduler Scheduled Job Start: frappe.utils.global_search.sync_global_search for meeting.dev
2021-04-23 14:24:31,598 INFO scheduler Scheduled Job Complete: frappe.utils.global_search.sync_global_search for meeting.dev
2021-04-23 14:24:31,675 INFO scheduler Scheduled Job Start: frappe.integrations.doctype.razorpay_settings.razorpay_settings.capture_payment for meeting.dev
2021-04-23 14:24:32,061 INFO scheduler Scheduled Job Complete: frappe.integrations.doctype.razorpay_settings.razorpay_settings.capture_payment for meeting.dev
2021-04-23 14:24:32,133 INFO scheduler Scheduled Job Start: frappe.email.doctype.email_account.email_account.notify_unreplied for meeting.dev
2021-04-23 14:24:32,444 INFO scheduler Scheduled Job Complete: frappe.email.doctype.email_account.email_account.notify_unreplied for meeting.dev
2021-04-23 14:24:32,516 INFO scheduler Scheduled Job Start: frappe.email.doctype.email_account.email_account.pull for meeting.dev
2021-04-23 14:24:32,841 INFO scheduler Scheduled Job Complete: frappe.email.doctype.email_account.email_account.pull for meeting.dev
2021-04-23 14:24:32,912 INFO scheduler Scheduled Job Start: frappe.email.queue.flush for meeting.dev
2021-04-23 14:24:33,185 INFO scheduler Scheduled Job Complete: frappe.email.queue.flush for meeting.dev
2021-04-23 14:25:31,404 DEBUG scheduler Queued events for site meeting.dev
2021-04-23 14:26:31,690 DEBUG scheduler Queued events for site meeting.dev
2021-04-23 14:27:32,036 DEBUG scheduler Queued events for site meeting.dev
2021-04-23 14:28:32,381 DEBUG scheduler Queued events for site meeting.dev
2021-04-23 14:28:32,415 INFO scheduler Scheduled Job Start: frappe.monitor.flush for meeting.dev
2021-04-23 14:28:32,600 INFO scheduler Scheduled Job Complete: frappe.monitor.flush for meeting.dev
2021-04-23 14:28:32,714 INFO scheduler Scheduled Job Start: frappe.utils.global_search.sync_global_search for meeting.dev
2021-04-23 14:28:32,965 INFO scheduler Scheduled Job Complete: frappe.utils.global_search.sync_global_search for meeting.dev
2021-04-23 14:28:33,067 INFO scheduler Scheduled Job Start: frappe.integrations.doctype.razorpay_settings.razorpay_settings.capture_payment for meeting.dev
2021-04-23 14:28:33,465 INFO scheduler Scheduled Job Complete: frappe.integrations.doctype.razorpay_settings.razorpay_settings.capture_payment for meeting.dev
2021-04-23 14:28:33,578 INFO scheduler Scheduled Job Start: frappe.email.doctype.email_account.email_account.notify_unreplied for meeting.dev
2021-04-23 14:28:33,927 INFO scheduler Scheduled Job Complete: frappe.email.doctype.email_account.email_account.notify_unreplied for meeting.dev
2021-04-23 14:28:33,999 INFO scheduler Scheduled Job Start: frappe.email.doctype.email_account.email_account.pull for meeting.dev
2021-04-23 14:28:34,316 INFO scheduler Scheduled Job Complete: frappe.email.doctype.email_account.email_account.pull for meeting.dev
2021-04-23 14:28:34,387 INFO scheduler Scheduled Job Start: frappe.email.queue.flush for meeting.dev
2021-04-23 14:28:34,648 INFO scheduler Scheduled Job Complete: frappe.email.queue.flush for meeting.dev
2021-04-23 14:29:32,668 DEBUG scheduler Queued events for site meeting.dev
2021-04-23 14:30:32,933 DEBUG scheduler Queued events for site meeting.dev
2021-04-23 14:30:32,985 INFO scheduler Scheduled Job Start: frappe.twofactor.delete_all_barcodes_for_users for meeting.dev
2021-04-23 14:30:33,406 INFO scheduler Scheduled Job Complete: frappe.twofactor.delete_all_barcodes_for_users for meeting.dev
2021-04-23 14:30:33,501 INFO scheduler Scheduled Job Start: frappe.website.doctype.web_page.web_page.check_publish_status for meeting.dev
2021-04-23 14:30:33,998 INFO scheduler Scheduled Job Complete: frappe.website.doctype.web_page.web_page.check_publish_status for meeting.dev
2021-04-23 14:30:34,089 INFO scheduler Scheduled Job Start: frappe.oauth.delete_oauth2_data for meeting.dev
2021-04-23 14:30:34,559 INFO scheduler Scheduled Job Complete: frappe.oauth.delete_oauth2_data for meeting.dev
2021-04-23 14:31:33,185 DEBUG scheduler Queued events for site meeting.dev
2021-04-23 14:32:33,978 DEBUG scheduler Queued events for site meeting.dev
2021-04-23 14:32:34,009 INFO scheduler Scheduled Job Start: frappe.monitor.flush for meeting.dev
2021-04-23 14:32:34,176 INFO scheduler Scheduled Job Complete: frappe.monitor.flush for meeting.dev
2021-04-23 14:32:34,247 INFO scheduler Scheduled Job Start: frappe.utils.global_search.sync_global_search for meeting.dev
2021-04-23 14:32:34,400 INFO scheduler Scheduled Job Complete: frappe.utils.global_search.sync_global_search for meeting.dev
2021-04-23 14:32:34,472 INFO scheduler Scheduled Job Start: frappe.integrations.doctype.razorpay_settings.razorpay_settings.capture_payment for meeting.dev
2021-04-23 14:32:34,863 INFO scheduler Scheduled Job Complete: frappe.integrations.doctype.razorpay_settings.razorpay_settings.capture_payment for meeting.dev
2021-04-23 14:32:34,939 INFO scheduler Scheduled Job Start: frappe.email.doctype.email_account.email_account.notify_unreplied for meeting.dev
2021-04-23 14:32:35,249 INFO scheduler Scheduled Job Complete: frappe.email.doctype.email_account.email_account.notify_unreplied for meeting.dev
2021-04-23 14:32:35,319 INFO scheduler Scheduled Job Start: frappe.email.doctype.email_account.email_account.pull for meeting.dev
2021-04-23 14:32:35,632 INFO scheduler Scheduled Job Complete: frappe.email.doctype.email_account.email_account.pull for meeting.dev
2021-04-23 14:32:35,704 INFO scheduler Scheduled Job Start: frappe.email.queue.flush for meeting.dev
2021-04-23 14:32:35,971 INFO scheduler Scheduled Job Complete: frappe.email.queue.flush for meeting.dev
2021-04-23 14:33:34,259 DEBUG scheduler Queued events for site meeting.dev
2021-04-23 14:34:34,498 DEBUG scheduler Queued events for site meeting.dev
2021-04-23 14:35:34,753 DEBUG scheduler Queued events for site meeting.dev
2021-04-23 14:36:35,080 DEBUG scheduler Queued events for site meeting.dev
2021-04-23 14:36:35,122 INFO scheduler Scheduled Job Start: frappe.monitor.flush for meeting.dev
2021-04-23 14:36:35,314 INFO scheduler Scheduled Job Complete: frappe.monitor.flush for meeting.dev
2021-04-23 14:36:35,391 INFO scheduler Scheduled Job Start: frappe.utils.global_search.sync_global_search for meeting.dev
2021-04-23 14:36:35,565 INFO scheduler Scheduled Job Complete: frappe.utils.global_search.sync_global_search for meeting.dev
2021-04-23 14:36:35,658 INFO scheduler Scheduled Job Start: frappe.integrations.doctype.razorpay_settings.razorpay_settings.capture_payment for meeting.dev
2021-04-23 14:36:36,172 INFO scheduler Scheduled Job Complete: frappe.integrations.doctype.razorpay_settings.razorpay_settings.capture_payment for meeting.dev
2021-04-23 14:36:36,266 INFO scheduler Scheduled Job Start: frappe.email.doctype.email_account.email_account.notify_unreplied for meeting.dev
2021-04-23 14:36:36,601 INFO scheduler Scheduled Job Complete: frappe.email.doctype.email_account.email_account.notify_unreplied for meeting.dev
2021-04-23 14:36:36,711 INFO scheduler Scheduled Job Start: frappe.email.doctype.email_account.email_account.pull for meeting.dev
2021-04-23 14:36:37,070 INFO scheduler Scheduled Job Complete: frappe.email.doctype.email_account.email_account.pull for meeting.dev
2021-04-23 14:36:37,145 INFO scheduler Scheduled Job Start: frappe.email.queue.flush for meeting.dev
2021-04-23 14:36:37,416 INFO scheduler Scheduled Job Complete: frappe.email.queue.flush for meeting.dev
2021-04-23 14:37:35,362 DEBUG scheduler Queued events for site meeting.dev
2021-04-23 14:38:35,602 DEBUG scheduler Queued events for site meeting.dev
2021-04-23 14:39:35,835 DEBUG scheduler Queued events for site meeting.dev
2021-04-23 14:40:36,191 DEBUG scheduler Queued events for site meeting.dev
2021-04-23 14:40:36,222 INFO scheduler Scheduled Job Start: frappe.monitor.flush for meeting.dev
2021-04-23 14:40:36,396 INFO scheduler Scheduled Job Complete: frappe.monitor.flush for meeting.dev
2021-04-23 14:40:36,470 INFO scheduler Scheduled Job Start: frappe.utils.global_search.sync_global_search for meeting.dev
2021-04-23 14:41:36,492 DEBUG scheduler Queued events for site meeting.dev
