2021-04-23 18:00:30,692 INFO scheduler Scheduled Job Complete: frappe.utils.global_search.sync_global_search for meeting.dev
2021-04-23 18:00:30,765 INFO scheduler Scheduled Job Start: frappe.integrations.doctype.razorpay_settings.razorpay_settings.capture_payment for meeting.dev
2021-04-23 18:00:31,149 INFO scheduler Scheduled Job Complete: frappe.integrations.doctype.razorpay_settings.razorpay_settings.capture_payment for meeting.dev
2021-04-23 18:00:31,226 INFO scheduler Scheduled Job Start: frappe.email.doctype.email_account.email_account.notify_unreplied for meeting.dev
2021-04-23 18:00:31,545 INFO scheduler Scheduled Job Complete: frappe.email.doctype.email_account.email_account.notify_unreplied for meeting.dev
2021-04-23 18:00:31,618 INFO scheduler Scheduled Job Start: frappe.email.doctype.email_account.email_account.pull for meeting.dev
2021-04-23 18:00:31,937 INFO scheduler Scheduled Job Complete: frappe.email.doctype.email_account.email_account.pull for meeting.dev
2021-04-23 18:00:32,007 INFO scheduler Scheduled Job Start: frappe.email.queue.flush for meeting.dev
2021-04-23 18:00:32,421 INFO scheduler Scheduled Job Complete: frappe.email.queue.flush for meeting.dev
2021-04-23 18:00:32,577 INFO scheduler Scheduled Job Start: frappe.twofactor.delete_all_barcodes_for_users for meeting.dev
2021-04-23 18:00:33,175 INFO scheduler Scheduled Job Complete: frappe.twofactor.delete_all_barcodes_for_users for meeting.dev
2021-04-23 18:00:33,316 INFO scheduler Scheduled Job Start: frappe.website.doctype.web_page.web_page.check_publish_status for meeting.dev
2021-04-23 18:00:33,977 INFO scheduler Scheduled Job Complete: frappe.website.doctype.web_page.web_page.check_publish_status for meeting.dev
2021-04-23 18:00:34,099 INFO scheduler Scheduled Job Start: frappe.oauth.delete_oauth2_data for meeting.dev
2021-04-23 18:00:34,694 INFO scheduler Scheduled Job Complete: frappe.oauth.delete_oauth2_data for meeting.dev
