2021-04-21 22:19:49,316 INFO scheduler Scheduled Job Complete: frappe.desk.page.backups.backups.delete_downloadable_backups for meeting.dev
2021-04-21 22:19:49,412 INFO scheduler Scheduled Job Start: frappe.utils.error.collect_error_snapshots for meeting.dev
2021-04-21 22:19:50,040 INFO scheduler Scheduled Job Complete: frappe.utils.error.collect_error_snapshots for meeting.dev
2021-04-21 22:19:50,135 INFO scheduler Scheduled Job Start: frappe.model.utils.user_settings.sync_user_settings for meeting.dev
2021-04-21 22:19:50,544 INFO scheduler Scheduled Job Complete: frappe.model.utils.user_settings.sync_user_settings for meeting.dev
2021-04-21 22:19:50,640 INFO scheduler Scheduled Job Start: frappe.model.utils.link_count.update_link_count for meeting.dev
2021-04-21 22:19:51,083 INFO scheduler Scheduled Job Complete: frappe.model.utils.link_count.update_link_count for meeting.dev
2021-04-21 22:19:51,176 INFO scheduler Scheduled Job Start: frappe.monitor.flush for meeting.dev
2021-04-21 22:19:51,338 INFO scheduler Scheduled Job Complete: frappe.monitor.flush for meeting.dev
2021-04-21 22:19:51,417 INFO scheduler Scheduled Job Start: frappe.utils.global_search.sync_global_search for meeting.dev
2021-04-21 22:19:51,587 INFO scheduler Scheduled Job Complete: frappe.utils.global_search.sync_global_search for meeting.dev
2021-04-21 22:19:51,670 INFO scheduler Scheduled Job Start: frappe.integrations.doctype.razorpay_settings.razorpay_settings.capture_payment for meeting.dev
2021-04-21 22:19:52,359 INFO scheduler Scheduled Job Complete: frappe.integrations.doctype.razorpay_settings.razorpay_settings.capture_payment for meeting.dev
2021-04-21 22:19:52,431 INFO scheduler Scheduled Job Start: frappe.email.doctype.email_account.email_account.notify_unreplied for meeting.dev
2021-04-21 22:19:52,858 INFO scheduler Scheduled Job Complete: frappe.email.doctype.email_account.email_account.notify_unreplied for meeting.dev
2021-04-21 22:19:52,928 INFO scheduler Scheduled Job Start: frappe.email.doctype.email_account.email_account.pull for meeting.dev
2021-04-21 22:19:53,261 INFO scheduler Scheduled Job Complete: frappe.email.doctype.email_account.email_account.pull for meeting.dev
2021-04-21 22:19:53,332 INFO scheduler Scheduled Job Start: frappe.email.queue.flush for meeting.dev
2021-04-21 22:19:53,603 INFO scheduler Scheduled Job Complete: frappe.email.queue.flush for meeting.dev
2021-04-21 22:19:53,682 INFO scheduler Scheduled Job Start: frappe.twofactor.delete_all_barcodes_for_users for meeting.dev
2021-04-21 22:19:54,091 INFO scheduler Scheduled Job Complete: frappe.twofactor.delete_all_barcodes_for_users for meeting.dev
2021-04-21 22:19:54,180 INFO scheduler Scheduled Job Start: frappe.website.doctype.web_page.web_page.check_publish_status for meeting.dev
2021-04-21 22:19:54,699 INFO scheduler Scheduled Job Complete: frappe.website.doctype.web_page.web_page.check_publish_status for meeting.dev
2021-04-21 22:19:54,791 INFO scheduler Scheduled Job Start: frappe.oauth.delete_oauth2_data for meeting.dev
2021-04-21 22:19:55,252 INFO scheduler Scheduled Job Complete: frappe.oauth.delete_oauth2_data for meeting.dev
2021-04-21 22:19:55,340 INFO scheduler Scheduled Job Start: frappe.core.doctype.log_settings.log_settings.run_log_clean_up for my_site
2021-04-21 22:19:55,785 INFO scheduler Scheduled Job Complete: frappe.core.doctype.log_settings.log_settings.run_log_clean_up for my_site
2021-04-21 22:19:55,872 INFO scheduler Scheduled Job Start: frappe.core.doctype.prepared_report.prepared_report.delete_expired_prepared_reports for my_site
2021-04-21 22:19:56,312 INFO scheduler Scheduled Job Complete: frappe.core.doctype.prepared_report.prepared_report.delete_expired_prepared_reports for my_site
2021-04-21 22:19:56,397 INFO scheduler Scheduled Job Start: frappe.email.doctype.unhandled_email.unhandled_email.remove_old_unhandled_emails for my_site
2021-04-21 22:19:56,800 INFO scheduler Scheduled Job Complete: frappe.email.doctype.unhandled_email.unhandled_email.remove_old_unhandled_emails for my_site
2021-04-21 22:19:56,902 INFO scheduler Scheduled Job Start: frappe.automation.doctype.auto_repeat.auto_repeat.set_auto_repeat_as_completed for my_site
2021-04-21 22:19:57,350 INFO scheduler Scheduled Job Complete: frappe.automation.doctype.auto_repeat.auto_repeat.set_auto_repeat_as_completed for my_site
2021-04-21 22:19:57,442 INFO scheduler Scheduled Job Start: frappe.automation.doctype.auto_repeat.auto_repeat.make_auto_repeat_entry for my_site
2021-04-21 22:19:57,912 INFO scheduler Scheduled Job Complete: frappe.automation.doctype.auto_repeat.auto_repeat.make_auto_repeat_entry for my_site
2021-04-21 22:19:58,002 INFO scheduler Scheduled Job Start: frappe.integrations.doctype.google_contacts.google_contacts.sync for my_site
2021-04-21 22:19:58,613 INFO scheduler Scheduled Job Complete: frappe.integrations.doctype.google_contacts.google_contacts.sync for my_site
2021-04-21 22:19:58,701 INFO scheduler Scheduled Job Start: frappe.social.doctype.energy_point_settings.energy_point_settings.allocate_review_points for my_site
2021-04-21 22:19:59,082 INFO scheduler Scheduled Job Complete: frappe.social.doctype.energy_point_settings.energy_point_settings.allocate_review_points for my_site
2021-04-21 22:19:59,240 INFO scheduler Scheduled Job Start: frappe.desk.form.document_follow.send_daily_updates for my_site
2021-04-21 22:19:59,997 INFO scheduler Scheduled Job Complete: frappe.desk.form.document_follow.send_daily_updates for my_site
2021-04-21 22:20:00,127 INFO scheduler Scheduled Job Start: frappe.website.doctype.personal_data_deletion_request.personal_data_deletion_request.remove_unverified_record for my_site
2021-04-21 22:20:00,571 INFO scheduler Scheduled Job Complete: frappe.website.doctype.personal_data_deletion_request.personal_data_deletion_request.remove_unverified_record for my_site
2021-04-21 22:20:00,716 INFO scheduler Scheduled Job Start: frappe.email.doctype.auto_email_report.auto_email_report.send_daily for my_site
2021-04-21 22:20:02,107 INFO scheduler Scheduled Job Complete: frappe.email.doctype.auto_email_report.auto_email_report.send_daily for my_site
2021-04-21 22:20:02,239 INFO scheduler Scheduled Job Start: frappe.utils.scheduler.restrict_scheduler_events_if_dormant for my_site
2021-04-21 22:20:02,933 INFO scheduler Scheduled Job Failed: frappe.utils.scheduler.restrict_scheduler_events_if_dormant for my_site
2021-04-21 22:20:03,093 INFO scheduler Scheduled Job Start: frappe.realtime.remove_old_task_logs for my_site
2021-04-21 22:20:03,788 INFO scheduler Scheduled Job Complete: frappe.realtime.remove_old_task_logs for my_site
2021-04-21 22:20:03,953 INFO scheduler Scheduled Job Start: frappe.email.doctype.notification.notification.trigger_daily_alerts for my_site
2021-04-21 22:20:04,539 INFO scheduler Scheduled Job Complete: frappe.email.doctype.notification.notification.trigger_daily_alerts for my_site
2021-04-21 22:20:04,652 INFO scheduler Scheduled Job Start: frappe.sessions.clear_expired_sessions for my_site
2021-04-21 22:20:05,303 INFO scheduler Scheduled Job Complete: frappe.sessions.clear_expired_sessions for my_site
2021-04-21 22:20:05,462 INFO scheduler Scheduled Job Start: frappe.desk.doctype.event.event.send_event_digest for my_site
2021-04-21 22:20:06,392 INFO scheduler Scheduled Job Complete: frappe.desk.doctype.event.event.send_event_digest for my_site
2021-04-21 22:20:06,557 INFO scheduler Scheduled Job Start: frappe.core.doctype.error_log.error_log.set_old_logs_as_seen for my_site
2021-04-21 22:20:07,242 INFO scheduler Scheduled Job Complete: frappe.core.doctype.error_log.error_log.set_old_logs_as_seen for my_site
2021-04-21 22:20:07,355 INFO scheduler Scheduled Job Start: frappe.desk.notifications.clear_notifications for my_site
2021-04-21 22:20:07,856 INFO scheduler Scheduled Job Complete: frappe.desk.notifications.clear_notifications for my_site
2021-04-21 22:20:07,959 INFO scheduler Scheduled Job Start: frappe.email.queue.set_expiry_for_email_queue for my_site
2021-04-21 22:20:08,416 INFO scheduler Scheduled Job Complete: frappe.email.queue.set_expiry_for_email_queue for my_site
2021-04-21 22:20:08,504 INFO scheduler Scheduled Job Start: frappe.email.doctype.newsletter.newsletter.send_scheduled_email for my_site
2021-04-21 22:20:09,138 INFO scheduler Scheduled Job Complete: frappe.email.doctype.newsletter.newsletter.send_scheduled_email for my_site
2021-04-21 22:20:09,236 INFO scheduler Scheduled Job Start: frappe.integrations.doctype.google_calendar.google_calendar.sync for my_site
2021-04-21 22:20:09,870 INFO scheduler Scheduled Job Complete: frappe.integrations.doctype.google_calendar.google_calendar.sync for my_site
2021-04-21 22:20:09,987 INFO scheduler Scheduled Job Start: frappe.desk.form.document_follow.send_hourly_updates for my_site
2021-04-21 22:20:10,389 INFO scheduler Scheduled Job Complete: frappe.desk.form.document_follow.send_hourly_updates for my_site
2021-04-21 22:20:10,513 INFO scheduler Scheduled Job Start: frappe.deferred_insert.save_to_db for my_site
2021-04-21 22:20:10,962 INFO scheduler Scheduled Job Complete: frappe.deferred_insert.save_to_db for my_site
2021-04-21 22:20:11,049 INFO scheduler Scheduled Job Start: frappe.desk.page.backups.backups.delete_downloadable_backups for my_site
2021-04-21 22:20:11,459 INFO scheduler Scheduled Job Complete: frappe.desk.page.backups.backups.delete_downloadable_backups for my_site
2021-04-21 22:20:11,544 INFO scheduler Scheduled Job Start: frappe.utils.error.collect_error_snapshots for my_site
2021-04-21 22:20:11,931 INFO scheduler Scheduled Job Complete: frappe.utils.error.collect_error_snapshots for my_site
2021-04-21 22:20:12,018 INFO scheduler Scheduled Job Start: frappe.model.utils.user_settings.sync_user_settings for my_site
2021-04-21 22:20:12,413 INFO scheduler Scheduled Job Complete: frappe.model.utils.user_settings.sync_user_settings for my_site
2021-04-21 22:20:12,509 INFO scheduler Scheduled Job Start: frappe.model.utils.link_count.update_link_count for my_site
2021-04-21 22:20:12,901 INFO scheduler Scheduled Job Complete: frappe.model.utils.link_count.update_link_count for my_site
2021-04-21 22:20:12,985 INFO scheduler Scheduled Job Start: frappe.monitor.flush for my_site
2021-04-21 22:20:13,143 INFO scheduler Scheduled Job Complete: frappe.monitor.flush for my_site
2021-04-21 22:20:13,224 INFO scheduler Scheduled Job Start: frappe.utils.global_search.sync_global_search for my_site
2021-04-21 22:20:13,384 INFO scheduler Scheduled Job Complete: frappe.utils.global_search.sync_global_search for my_site
2021-04-21 22:20:13,459 INFO scheduler Scheduled Job Start: frappe.integrations.doctype.razorpay_settings.razorpay_settings.capture_payment for my_site
2021-04-21 22:20:14,086 INFO scheduler Scheduled Job Complete: frappe.integrations.doctype.razorpay_settings.razorpay_settings.capture_payment for my_site
2021-04-21 22:20:14,160 INFO scheduler Scheduled Job Start: frappe.email.doctype.email_account.email_account.notify_unreplied for my_site
2021-04-21 22:20:14,605 INFO scheduler Scheduled Job Complete: frappe.email.doctype.email_account.email_account.notify_unreplied for my_site
2021-04-21 22:20:14,693 INFO scheduler Scheduled Job Start: frappe.email.doctype.email_account.email_account.pull for my_site
2021-04-21 22:20:15,072 INFO scheduler Scheduled Job Complete: frappe.email.doctype.email_account.email_account.pull for my_site
2021-04-21 22:20:15,151 INFO scheduler Scheduled Job Start: frappe.email.queue.flush for my_site
2021-04-21 22:20:15,414 INFO scheduler Scheduled Job Complete: frappe.email.queue.flush for my_site
2021-04-21 22:20:15,484 INFO scheduler Scheduled Job Start: frappe.twofactor.delete_all_barcodes_for_users for my_site
2021-04-21 22:20:15,894 INFO scheduler Scheduled Job Complete: frappe.twofactor.delete_all_barcodes_for_users for my_site
2021-04-21 22:20:15,974 INFO scheduler Scheduled Job Start: frappe.website.doctype.web_page.web_page.check_publish_status for my_site
2021-04-21 22:20:16,471 INFO scheduler Scheduled Job Complete: frappe.website.doctype.web_page.web_page.check_publish_status for my_site
2021-04-21 22:20:16,563 INFO scheduler Scheduled Job Start: frappe.oauth.delete_oauth2_data for my_site
2021-04-21 22:20:17,020 INFO scheduler Scheduled Job Complete: frappe.oauth.delete_oauth2_data for my_site
