2021-04-22 18:52:50,563 INFO scheduler Scheduled Job Complete: frappe.integrations.doctype.razorpay_settings.razorpay_settings.capture_payment for meeting.dev
2021-04-22 18:52:50,639 INFO scheduler Scheduled Job Start: frappe.email.doctype.email_account.email_account.notify_unreplied for meeting.dev
2021-04-22 18:52:51,040 INFO scheduler Scheduled Job Complete: frappe.email.doctype.email_account.email_account.notify_unreplied for meeting.dev
2021-04-22 18:52:51,125 INFO scheduler Scheduled Job Start: frappe.email.doctype.email_account.email_account.pull for meeting.dev
2021-04-22 18:52:51,566 INFO scheduler Scheduled Job Complete: frappe.email.doctype.email_account.email_account.pull for meeting.dev
2021-04-22 18:52:51,644 INFO scheduler Scheduled Job Start: frappe.email.queue.flush for meeting.dev
2021-04-22 18:52:51,914 INFO scheduler Scheduled Job Complete: frappe.email.queue.flush for meeting.dev
