2021-04-21 23:17:00,860 INFO scheduler Scheduled Job Complete: frappe.email.doctype.email_account.email_account.notify_unreplied for my_site
2021-04-21 23:17:00,934 INFO scheduler Scheduled Job Start: frappe.email.doctype.email_account.email_account.pull for my_site
2021-04-21 23:17:01,251 INFO scheduler Scheduled Job Complete: frappe.email.doctype.email_account.email_account.pull for my_site
2021-04-21 23:17:01,321 INFO scheduler Scheduled Job Start: frappe.email.queue.flush for my_site
2021-04-21 23:17:01,593 INFO scheduler Scheduled Job Complete: frappe.email.queue.flush for my_site
