2021-04-16 14:17:54,345 DEBUG scheduler Queued events for site my_site
2021-04-16 14:18:54,496 DEBUG scheduler Queued events for site my_site
2021-04-16 14:19:54,677 DEBUG scheduler Queued events for site my_site
2021-04-16 14:20:54,901 DEBUG scheduler Queued events for site my_site
2021-04-16 14:20:54,932 INFO scheduler Scheduled Job Start: frappe.monitor.flush for my_site
2021-04-16 14:20:55,094 INFO scheduler Scheduled Job Complete: frappe.monitor.flush for my_site
2021-04-16 14:20:55,168 INFO scheduler Scheduled Job Start: frappe.utils.global_search.sync_global_search for my_site
2021-04-16 14:20:55,322 INFO scheduler Scheduled Job Complete: frappe.utils.global_search.sync_global_search for my_site
2021-04-16 14:20:55,402 INFO scheduler Scheduled Job Start: frappe.integrations.doctype.razorpay_settings.razorpay_settings.capture_payment for my_site
2021-04-16 14:20:55,810 INFO scheduler Scheduled Job Complete: frappe.integrations.doctype.razorpay_settings.razorpay_settings.capture_payment for my_site
2021-04-16 14:20:55,886 INFO scheduler Scheduled Job Start: frappe.email.doctype.email_account.email_account.notify_unreplied for my_site
2021-04-16 14:20:56,195 INFO scheduler Scheduled Job Complete: frappe.email.doctype.email_account.email_account.notify_unreplied for my_site
2021-04-16 14:20:56,263 INFO scheduler Scheduled Job Start: frappe.email.doctype.email_account.email_account.pull for my_site
2021-04-16 14:20:56,719 INFO scheduler Scheduled Job Complete: frappe.email.doctype.email_account.email_account.pull for my_site
2021-04-16 14:20:56,843 INFO scheduler Scheduled Job Start: frappe.email.queue.flush for my_site
2021-04-16 14:20:57,265 INFO scheduler Scheduled Job Complete: frappe.email.queue.flush for my_site
2021-04-16 14:21:55,080 DEBUG scheduler Queued events for site my_site
2021-04-16 14:22:55,285 DEBUG scheduler Queued events for site my_site
2021-04-16 14:23:55,449 DEBUG scheduler Queued events for site my_site
2021-04-16 14:24:55,727 DEBUG scheduler Queued events for site my_site
2021-04-16 14:24:55,768 INFO scheduler Scheduled Job Start: frappe.monitor.flush for my_site
2021-04-16 14:24:55,976 INFO scheduler Scheduled Job Complete: frappe.monitor.flush for my_site
2021-04-16 14:24:56,103 INFO scheduler Scheduled Job Start: frappe.utils.global_search.sync_global_search for my_site
2021-04-16 14:24:56,323 INFO scheduler Scheduled Job Complete: frappe.utils.global_search.sync_global_search for my_site
2021-04-16 14:24:56,410 INFO scheduler Scheduled Job Start: frappe.integrations.doctype.razorpay_settings.razorpay_settings.capture_payment for my_site
2021-04-16 14:24:56,937 INFO scheduler Scheduled Job Complete: frappe.integrations.doctype.razorpay_settings.razorpay_settings.capture_payment for my_site
2021-04-16 14:24:57,011 INFO scheduler Scheduled Job Start: frappe.email.doctype.email_account.email_account.notify_unreplied for my_site
2021-04-16 14:24:57,342 INFO scheduler Scheduled Job Complete: frappe.email.doctype.email_account.email_account.notify_unreplied for my_site
2021-04-16 14:24:57,414 INFO scheduler Scheduled Job Start: frappe.email.doctype.email_account.email_account.pull for my_site
2021-04-16 14:24:57,816 INFO scheduler Scheduled Job Complete: frappe.email.doctype.email_account.email_account.pull for my_site
2021-04-16 14:24:57,898 INFO scheduler Scheduled Job Start: frappe.email.queue.flush for my_site
2021-04-16 14:24:58,198 INFO scheduler Scheduled Job Complete: frappe.email.queue.flush for my_site
2021-04-16 14:25:55,918 DEBUG scheduler Queued events for site my_site
2021-04-16 14:26:56,074 DEBUG scheduler Queued events for site my_site
2021-04-16 14:27:56,231 DEBUG scheduler Queued events for site my_site
2021-04-16 14:28:56,425 DEBUG scheduler Queued events for site my_site
2021-04-16 14:28:56,461 INFO scheduler Scheduled Job Start: frappe.monitor.flush for my_site
2021-04-16 14:28:56,631 INFO scheduler Scheduled Job Complete: frappe.monitor.flush for my_site
2021-04-16 14:28:56,705 INFO scheduler Scheduled Job Start: frappe.utils.global_search.sync_global_search for my_site
2021-04-16 14:28:56,869 INFO scheduler Scheduled Job Complete: frappe.utils.global_search.sync_global_search for my_site
2021-04-16 14:28:56,944 INFO scheduler Scheduled Job Start: frappe.integrations.doctype.razorpay_settings.razorpay_settings.capture_payment for my_site
2021-04-16 14:28:57,371 INFO scheduler Scheduled Job Complete: frappe.integrations.doctype.razorpay_settings.razorpay_settings.capture_payment for my_site
2021-04-16 14:28:57,444 INFO scheduler Scheduled Job Start: frappe.email.doctype.email_account.email_account.notify_unreplied for my_site
2021-04-16 14:28:57,749 INFO scheduler Scheduled Job Complete: frappe.email.doctype.email_account.email_account.notify_unreplied for my_site
2021-04-16 14:28:57,818 INFO scheduler Scheduled Job Start: frappe.email.doctype.email_account.email_account.pull for my_site
2021-04-16 14:28:58,134 INFO scheduler Scheduled Job Complete: frappe.email.doctype.email_account.email_account.pull for my_site
2021-04-16 14:28:58,210 INFO scheduler Scheduled Job Start: frappe.email.queue.flush for my_site
2021-04-16 14:28:58,493 INFO scheduler Scheduled Job Complete: frappe.email.queue.flush for my_site
2021-04-16 14:29:56,631 DEBUG scheduler Queued events for site my_site
2021-04-16 14:30:56,808 DEBUG scheduler Queued events for site my_site
2021-04-16 14:30:56,863 INFO scheduler Scheduled Job Start: frappe.twofactor.delete_all_barcodes_for_users for my_site
2021-04-16 14:30:57,246 INFO scheduler Scheduled Job Complete: frappe.twofactor.delete_all_barcodes_for_users for my_site
2021-04-16 14:30:57,351 INFO scheduler Scheduled Job Start: frappe.website.doctype.web_page.web_page.check_publish_status for my_site
2021-04-16 14:30:57,820 INFO scheduler Scheduled Job Complete: frappe.website.doctype.web_page.web_page.check_publish_status for my_site
2021-04-16 14:30:57,928 INFO scheduler Scheduled Job Start: frappe.oauth.delete_oauth2_data for my_site
2021-04-16 14:30:58,379 INFO scheduler Scheduled Job Complete: frappe.oauth.delete_oauth2_data for my_site
2021-04-16 14:31:57,012 DEBUG scheduler Queued events for site my_site
2021-04-16 14:32:57,225 DEBUG scheduler Queued events for site my_site
2021-04-16 14:32:57,270 INFO scheduler Scheduled Job Start: frappe.monitor.flush for my_site
2021-04-16 14:32:57,468 INFO scheduler Scheduled Job Complete: frappe.monitor.flush for my_site
2021-04-16 14:32:57,564 INFO scheduler Scheduled Job Start: frappe.utils.global_search.sync_global_search for my_site
2021-04-16 14:32:57,750 INFO scheduler Scheduled Job Complete: frappe.utils.global_search.sync_global_search for my_site
2021-04-16 14:32:57,878 INFO scheduler Scheduled Job Start: frappe.integrations.doctype.razorpay_settings.razorpay_settings.capture_payment for my_site
2021-04-16 14:32:58,372 INFO scheduler Scheduled Job Complete: frappe.integrations.doctype.razorpay_settings.razorpay_settings.capture_payment for my_site
2021-04-16 14:32:58,454 INFO scheduler Scheduled Job Start: frappe.email.doctype.email_account.email_account.notify_unreplied for my_site
2021-04-16 14:32:58,811 INFO scheduler Scheduled Job Complete: frappe.email.doctype.email_account.email_account.notify_unreplied for my_site
2021-04-16 14:32:58,891 INFO scheduler Scheduled Job Start: frappe.email.doctype.email_account.email_account.pull for my_site
2021-04-16 14:32:59,270 INFO scheduler Scheduled Job Complete: frappe.email.doctype.email_account.email_account.pull for my_site
2021-04-16 14:32:59,349 INFO scheduler Scheduled Job Start: frappe.email.queue.flush for my_site
2021-04-16 14:32:59,682 INFO scheduler Scheduled Job Complete: frappe.email.queue.flush for my_site
2021-04-16 14:33:57,423 DEBUG scheduler Queued events for site my_site
2021-04-16 14:34:57,647 DEBUG scheduler Queued events for site my_site
2021-04-16 14:35:57,861 DEBUG scheduler Queued events for site my_site
2021-04-16 14:36:58,074 DEBUG scheduler Queued events for site my_site
2021-04-16 14:36:58,117 INFO scheduler Scheduled Job Start: frappe.monitor.flush for my_site
2021-04-16 14:36:58,302 INFO scheduler Scheduled Job Complete: frappe.monitor.flush for my_site
2021-04-16 14:36:58,383 INFO scheduler Scheduled Job Start: frappe.utils.global_search.sync_global_search for my_site
2021-04-16 14:36:58,573 INFO scheduler Scheduled Job Complete: frappe.utils.global_search.sync_global_search for my_site
2021-04-16 14:36:58,656 INFO scheduler Scheduled Job Start: frappe.integrations.doctype.razorpay_settings.razorpay_settings.capture_payment for my_site
2021-04-16 14:36:59,119 INFO scheduler Scheduled Job Complete: frappe.integrations.doctype.razorpay_settings.razorpay_settings.capture_payment for my_site
2021-04-16 14:36:59,198 INFO scheduler Scheduled Job Start: frappe.email.doctype.email_account.email_account.notify_unreplied for my_site
2021-04-16 14:36:59,557 INFO scheduler Scheduled Job Complete: frappe.email.doctype.email_account.email_account.notify_unreplied for my_site
2021-04-16 14:36:59,635 INFO scheduler Scheduled Job Start: frappe.email.doctype.email_account.email_account.pull for my_site
2021-04-16 14:37:00,002 INFO scheduler Scheduled Job Complete: frappe.email.doctype.email_account.email_account.pull for my_site
2021-04-16 14:37:00,091 INFO scheduler Scheduled Job Start: frappe.email.queue.flush for my_site
2021-04-16 14:37:00,404 INFO scheduler Scheduled Job Complete: frappe.email.queue.flush for my_site
2021-04-16 14:37:58,259 DEBUG scheduler Queued events for site my_site
2021-04-16 14:38:58,437 DEBUG scheduler Queued events for site my_site
2021-04-16 14:39:58,605 DEBUG scheduler Queued events for site my_site
2021-04-16 14:40:58,819 DEBUG scheduler Queued events for site my_site
2021-04-16 14:40:58,866 INFO scheduler Scheduled Job Start: frappe.monitor.flush for my_site
2021-04-16 14:40:59,069 INFO scheduler Scheduled Job Complete: frappe.monitor.flush for my_site
2021-04-16 14:40:59,150 INFO scheduler Scheduled Job Start: frappe.utils.global_search.sync_global_search for my_site
2021-04-16 14:40:59,349 INFO scheduler Scheduled Job Complete: frappe.utils.global_search.sync_global_search for my_site
2021-04-16 14:40:59,438 INFO scheduler Scheduled Job Start: frappe.integrations.doctype.razorpay_settings.razorpay_settings.capture_payment for my_site
2021-04-16 14:40:59,932 INFO scheduler Scheduled Job Complete: frappe.integrations.doctype.razorpay_settings.razorpay_settings.capture_payment for my_site
2021-04-16 14:41:00,023 INFO scheduler Scheduled Job Start: frappe.email.doctype.email_account.email_account.notify_unreplied for my_site
2021-04-16 14:41:00,554 INFO scheduler Scheduled Job Complete: frappe.email.doctype.email_account.email_account.notify_unreplied for my_site
2021-04-16 14:41:00,702 INFO scheduler Scheduled Job Start: frappe.email.doctype.email_account.email_account.pull for my_site
2021-04-16 14:41:01,151 INFO scheduler Scheduled Job Complete: frappe.email.doctype.email_account.email_account.pull for my_site
2021-04-16 14:41:01,240 INFO scheduler Scheduled Job Start: frappe.email.queue.flush for my_site
2021-04-16 14:41:01,586 INFO scheduler Scheduled Job Complete: frappe.email.queue.flush for my_site
2021-04-16 14:41:59,008 DEBUG scheduler Queued events for site my_site
2021-04-16 14:42:59,208 DEBUG scheduler Queued events for site my_site
2021-04-16 14:43:59,455 DEBUG scheduler Queued events for site my_site
2021-04-16 14:44:59,655 DEBUG scheduler Queued events for site my_site
2021-04-16 14:44:59,696 INFO scheduler Scheduled Job Start: frappe.monitor.flush for my_site
2021-04-16 14:44:59,851 INFO scheduler Scheduled Job Complete: frappe.monitor.flush for my_site
2021-04-16 14:44:59,922 INFO scheduler Scheduled Job Start: frappe.utils.global_search.sync_global_search for my_site
2021-04-16 14:45:00,091 INFO scheduler Scheduled Job Complete: frappe.utils.global_search.sync_global_search for my_site
2021-04-16 14:45:00,193 INFO scheduler Scheduled Job Start: frappe.integrations.doctype.razorpay_settings.razorpay_settings.capture_payment for my_site
2021-04-16 14:45:00,629 INFO scheduler Scheduled Job Complete: frappe.integrations.doctype.razorpay_settings.razorpay_settings.capture_payment for my_site
2021-04-16 14:45:00,698 INFO scheduler Scheduled Job Start: frappe.email.doctype.email_account.email_account.notify_unreplied for my_site
2021-04-16 14:45:00,991 INFO scheduler Scheduled Job Complete: frappe.email.doctype.email_account.email_account.notify_unreplied for my_site
2021-04-16 14:45:01,064 INFO scheduler Scheduled Job Start: frappe.email.doctype.email_account.email_account.pull for my_site
2021-04-16 14:45:01,387 INFO scheduler Scheduled Job Complete: frappe.email.doctype.email_account.email_account.pull for my_site
2021-04-16 14:45:01,460 INFO scheduler Scheduled Job Start: frappe.email.queue.flush for my_site
2021-04-16 14:45:01,840 INFO scheduler Scheduled Job Complete: frappe.email.queue.flush for my_site
2021-04-16 14:45:59,990 DEBUG scheduler Queued events for site my_site
2021-04-16 14:46:00,113 INFO scheduler Scheduled Job Start: frappe.twofactor.delete_all_barcodes_for_users for my_site
2021-04-16 14:46:00,747 INFO scheduler Scheduled Job Complete: frappe.twofactor.delete_all_barcodes_for_users for my_site
2021-04-16 14:46:00,848 INFO scheduler Scheduled Job Start: frappe.website.doctype.web_page.web_page.check_publish_status for my_site
2021-04-16 14:46:01,385 INFO scheduler Scheduled Job Complete: frappe.website.doctype.web_page.web_page.check_publish_status for my_site
2021-04-16 14:46:01,488 INFO scheduler Scheduled Job Start: frappe.oauth.delete_oauth2_data for my_site
2021-04-16 14:46:01,978 INFO scheduler Scheduled Job Complete: frappe.oauth.delete_oauth2_data for my_site
2021-04-16 14:47:00,263 DEBUG scheduler Queued events for site my_site
2021-04-16 14:48:00,442 DEBUG scheduler Queued events for site my_site
2021-04-16 14:48:00,477 INFO scheduler Scheduled Job Start: frappe.monitor.flush for my_site
2021-04-16 14:48:00,631 INFO scheduler Scheduled Job Complete: frappe.monitor.flush for my_site
2021-04-16 14:48:00,702 INFO scheduler Scheduled Job Start: frappe.utils.global_search.sync_global_search for my_site
2021-04-16 14:48:00,852 INFO scheduler Scheduled Job Complete: frappe.utils.global_search.sync_global_search for my_site
2021-04-16 14:48:00,927 INFO scheduler Scheduled Job Start: frappe.integrations.doctype.razorpay_settings.razorpay_settings.capture_payment for my_site
2021-04-16 14:48:01,354 INFO scheduler Scheduled Job Complete: frappe.integrations.doctype.razorpay_settings.razorpay_settings.capture_payment for my_site
2021-04-16 14:48:01,442 INFO scheduler Scheduled Job Start: frappe.email.doctype.email_account.email_account.notify_unreplied for my_site
2021-04-16 14:48:01,833 INFO scheduler Scheduled Job Complete: frappe.email.doctype.email_account.email_account.notify_unreplied for my_site
2021-04-16 14:48:01,901 INFO scheduler Scheduled Job Start: frappe.email.doctype.email_account.email_account.pull for my_site
2021-04-16 14:48:02,209 INFO scheduler Scheduled Job Complete: frappe.email.doctype.email_account.email_account.pull for my_site
2021-04-16 14:48:02,280 INFO scheduler Scheduled Job Start: frappe.email.queue.flush for my_site
2021-04-16 14:48:02,579 INFO scheduler Scheduled Job Complete: frappe.email.queue.flush for my_site
2021-04-16 14:49:00,642 DEBUG scheduler Queued events for site my_site
2021-04-16 14:50:00,849 DEBUG scheduler Queued events for site my_site
2021-04-16 14:51:01,046 DEBUG scheduler Queued events for site my_site
2021-04-16 14:52:01,242 DEBUG scheduler Queued events for site my_site
2021-04-16 14:52:01,282 INFO scheduler Scheduled Job Start: frappe.monitor.flush for my_site
2021-04-16 14:52:01,463 INFO scheduler Scheduled Job Complete: frappe.monitor.flush for my_site
2021-04-16 14:52:01,541 INFO scheduler Scheduled Job Start: frappe.utils.global_search.sync_global_search for my_site
2021-04-16 14:52:01,710 INFO scheduler Scheduled Job Complete: frappe.utils.global_search.sync_global_search for my_site
2021-04-16 14:52:01,807 INFO scheduler Scheduled Job Start: frappe.integrations.doctype.razorpay_settings.razorpay_settings.capture_payment for my_site
2021-04-16 14:52:02,331 INFO scheduler Scheduled Job Complete: frappe.integrations.doctype.razorpay_settings.razorpay_settings.capture_payment for my_site
2021-04-16 14:52:02,407 INFO scheduler Scheduled Job Start: frappe.email.doctype.email_account.email_account.notify_unreplied for my_site
2021-04-16 14:52:02,732 INFO scheduler Scheduled Job Complete: frappe.email.doctype.email_account.email_account.notify_unreplied for my_site
2021-04-16 14:52:02,810 INFO scheduler Scheduled Job Start: frappe.email.doctype.email_account.email_account.pull for my_site
2021-04-16 14:52:03,161 INFO scheduler Scheduled Job Complete: frappe.email.doctype.email_account.email_account.pull for my_site
2021-04-16 14:52:03,258 INFO scheduler Scheduled Job Start: frappe.email.queue.flush for my_site
2021-04-16 14:52:03,691 INFO scheduler Scheduled Job Complete: frappe.email.queue.flush for my_site
2021-04-16 14:53:01,512 DEBUG scheduler Queued events for site my_site
2021-04-16 14:54:01,766 DEBUG scheduler Queued events for site my_site
2021-04-16 14:55:01,918 DEBUG scheduler Queued events for site my_site
2021-04-16 14:56:02,097 DEBUG scheduler Queued events for site my_site
2021-04-16 14:56:02,135 INFO scheduler Scheduled Job Start: frappe.monitor.flush for my_site
2021-04-16 14:56:02,294 INFO scheduler Scheduled Job Complete: frappe.monitor.flush for my_site
2021-04-16 14:56:02,365 INFO scheduler Scheduled Job Start: frappe.utils.global_search.sync_global_search for my_site
2021-04-16 14:56:02,530 INFO scheduler Scheduled Job Complete: frappe.utils.global_search.sync_global_search for my_site
2021-04-16 14:56:02,605 INFO scheduler Scheduled Job Start: frappe.integrations.doctype.razorpay_settings.razorpay_settings.capture_payment for my_site
2021-04-16 14:56:02,997 INFO scheduler Scheduled Job Complete: frappe.integrations.doctype.razorpay_settings.razorpay_settings.capture_payment for my_site
2021-04-16 14:56:03,065 INFO scheduler Scheduled Job Start: frappe.email.doctype.email_account.email_account.notify_unreplied for my_site
2021-04-16 14:56:03,533 INFO scheduler Scheduled Job Complete: frappe.email.doctype.email_account.email_account.notify_unreplied for my_site
2021-04-16 14:56:03,635 INFO scheduler Scheduled Job Start: frappe.email.doctype.email_account.email_account.pull for my_site
2021-04-16 14:56:03,979 INFO scheduler Scheduled Job Complete: frappe.email.doctype.email_account.email_account.pull for my_site
2021-04-16 14:56:04,057 INFO scheduler Scheduled Job Start: frappe.email.queue.flush for my_site
2021-04-16 14:56:04,343 INFO scheduler Scheduled Job Complete: frappe.email.queue.flush for my_site
2021-04-16 14:57:02,394 DEBUG scheduler Queued events for site my_site
2021-04-16 14:58:02,550 DEBUG scheduler Queued events for site my_site
2021-04-16 14:59:02,705 DEBUG scheduler Queued events for site my_site
2021-04-16 15:00:02,911 INFO scheduler Scheduled Job Start: frappe.email.doctype.newsletter.newsletter.send_scheduled_email for my_site
2021-04-16 15:00:02,976 DEBUG scheduler Queued events for site my_site
2021-04-16 15:00:03,351 INFO scheduler Scheduled Job Complete: frappe.email.doctype.newsletter.newsletter.send_scheduled_email for my_site
2021-04-16 15:00:03,442 INFO scheduler Scheduled Job Start: frappe.integrations.doctype.google_calendar.google_calendar.sync for my_site
2021-04-16 15:00:03,980 INFO scheduler Scheduled Job Complete: frappe.integrations.doctype.google_calendar.google_calendar.sync for my_site
2021-04-16 15:00:04,069 INFO scheduler Scheduled Job Start: frappe.desk.form.document_follow.send_hourly_updates for my_site
2021-04-16 15:00:04,523 INFO scheduler Scheduled Job Complete: frappe.desk.form.document_follow.send_hourly_updates for my_site
2021-04-16 15:00:04,612 INFO scheduler Scheduled Job Start: frappe.deferred_insert.save_to_db for my_site
2021-04-16 15:00:04,961 INFO scheduler Scheduled Job Complete: frappe.deferred_insert.save_to_db for my_site
2021-04-16 15:00:05,046 INFO scheduler Scheduled Job Start: frappe.desk.page.backups.backups.delete_downloadable_backups for my_site
2021-04-16 15:00:05,399 INFO scheduler Scheduled Job Complete: frappe.desk.page.backups.backups.delete_downloadable_backups for my_site
2021-04-16 15:00:05,491 INFO scheduler Scheduled Job Start: frappe.utils.error.collect_error_snapshots for my_site
2021-04-16 15:00:05,919 INFO scheduler Scheduled Job Complete: frappe.utils.error.collect_error_snapshots for my_site
2021-04-16 15:00:06,008 INFO scheduler Scheduled Job Start: frappe.model.utils.user_settings.sync_user_settings for my_site
2021-04-16 15:00:06,379 INFO scheduler Scheduled Job Complete: frappe.model.utils.user_settings.sync_user_settings for my_site
2021-04-16 15:00:06,469 INFO scheduler Scheduled Job Start: frappe.model.utils.link_count.update_link_count for my_site
2021-04-16 15:00:06,828 INFO scheduler Scheduled Job Complete: frappe.model.utils.link_count.update_link_count for my_site
2021-04-16 15:00:06,914 INFO scheduler Scheduled Job Start: frappe.monitor.flush for my_site
2021-04-16 15:00:07,075 INFO scheduler Scheduled Job Complete: frappe.monitor.flush for my_site
2021-04-16 15:00:07,154 INFO scheduler Scheduled Job Start: frappe.utils.global_search.sync_global_search for my_site
2021-04-16 15:00:07,323 INFO scheduler Scheduled Job Complete: frappe.utils.global_search.sync_global_search for my_site
2021-04-16 15:00:07,401 INFO scheduler Scheduled Job Start: frappe.integrations.doctype.razorpay_settings.razorpay_settings.capture_payment for my_site
2021-04-16 15:00:07,851 INFO scheduler Scheduled Job Complete: frappe.integrations.doctype.razorpay_settings.razorpay_settings.capture_payment for my_site
2021-04-16 15:00:07,949 INFO scheduler Scheduled Job Start: frappe.email.doctype.email_account.email_account.notify_unreplied for my_site
2021-04-16 15:00:08,257 INFO scheduler Scheduled Job Complete: frappe.email.doctype.email_account.email_account.notify_unreplied for my_site
2021-04-16 15:00:08,331 INFO scheduler Scheduled Job Start: frappe.email.doctype.email_account.email_account.pull for my_site
2021-04-16 15:00:08,648 INFO scheduler Scheduled Job Complete: frappe.email.doctype.email_account.email_account.pull for my_site
2021-04-16 15:00:08,723 INFO scheduler Scheduled Job Start: frappe.email.queue.flush for my_site
2021-04-16 15:00:08,999 INFO scheduler Scheduled Job Complete: frappe.email.queue.flush for my_site
2021-04-16 15:00:09,071 INFO scheduler Scheduled Job Start: frappe.twofactor.delete_all_barcodes_for_users for my_site
2021-04-16 15:00:09,476 INFO scheduler Scheduled Job Complete: frappe.twofactor.delete_all_barcodes_for_users for my_site
2021-04-16 15:00:09,587 INFO scheduler Scheduled Job Start: frappe.website.doctype.web_page.web_page.check_publish_status for my_site
2021-04-16 15:00:10,234 INFO scheduler Scheduled Job Complete: frappe.website.doctype.web_page.web_page.check_publish_status for my_site
2021-04-16 15:00:10,320 INFO scheduler Scheduled Job Start: frappe.oauth.delete_oauth2_data for my_site
2021-04-16 15:00:10,710 INFO scheduler Scheduled Job Complete: frappe.oauth.delete_oauth2_data for my_site
2021-04-16 15:01:03,183 DEBUG scheduler Queued events for site my_site
2021-04-16 15:02:03,365 DEBUG scheduler Queued events for site my_site
2021-04-16 15:03:03,523 DEBUG scheduler Queued events for site my_site
2021-04-16 15:04:03,952 DEBUG scheduler Queued events for site my_site
2021-04-16 15:04:04,082 INFO scheduler Scheduled Job Start: frappe.monitor.flush for my_site
2021-04-16 15:04:04,560 INFO scheduler Scheduled Job Complete: frappe.monitor.flush for my_site
2021-04-16 15:04:04,666 INFO scheduler Scheduled Job Start: frappe.utils.global_search.sync_global_search for my_site
2021-04-16 15:04:04,999 INFO scheduler Scheduled Job Complete: frappe.utils.global_search.sync_global_search for my_site
2021-04-16 15:04:05,146 INFO scheduler Scheduled Job Start: frappe.integrations.doctype.razorpay_settings.razorpay_settings.capture_payment for my_site
2021-04-16 15:04:06,131 INFO scheduler Scheduled Job Complete: frappe.integrations.doctype.razorpay_settings.razorpay_settings.capture_payment for my_site
2021-04-16 15:04:06,237 INFO scheduler Scheduled Job Start: frappe.email.doctype.email_account.email_account.notify_unreplied for my_site
2021-04-16 15:04:06,827 INFO scheduler Scheduled Job Complete: frappe.email.doctype.email_account.email_account.notify_unreplied for my_site
2021-04-16 15:04:06,957 INFO scheduler Scheduled Job Start: frappe.email.doctype.email_account.email_account.pull for my_site
2021-04-16 15:04:07,592 INFO scheduler Scheduled Job Complete: frappe.email.doctype.email_account.email_account.pull for my_site
2021-04-16 15:04:07,720 INFO scheduler Scheduled Job Start: frappe.email.queue.flush for my_site
2021-04-16 15:04:08,279 INFO scheduler Scheduled Job Complete: frappe.email.queue.flush for my_site
2021-04-16 15:05:04,166 DEBUG scheduler Queued events for site my_site
2021-04-16 15:06:04,322 DEBUG scheduler Queued events for site my_site
2021-04-16 15:07:04,562 DEBUG scheduler Queued events for site my_site
2021-04-16 15:08:04,849 DEBUG scheduler Queued events for site my_site
2021-04-16 15:08:04,892 INFO scheduler Scheduled Job Start: frappe.monitor.flush for my_site
2021-04-16 15:08:05,148 INFO scheduler Scheduled Job Complete: frappe.monitor.flush for my_site
2021-04-16 15:08:05,230 INFO scheduler Scheduled Job Start: frappe.utils.global_search.sync_global_search for my_site
2021-04-16 15:08:05,409 INFO scheduler Scheduled Job Complete: frappe.utils.global_search.sync_global_search for my_site
2021-04-16 15:08:05,482 INFO scheduler Scheduled Job Start: frappe.integrations.doctype.razorpay_settings.razorpay_settings.capture_payment for my_site
2021-04-16 15:08:05,957 INFO scheduler Scheduled Job Complete: frappe.integrations.doctype.razorpay_settings.razorpay_settings.capture_payment for my_site
2021-04-16 15:08:06,029 INFO scheduler Scheduled Job Start: frappe.email.doctype.email_account.email_account.notify_unreplied for my_site
2021-04-16 15:08:06,341 INFO scheduler Scheduled Job Complete: frappe.email.doctype.email_account.email_account.notify_unreplied for my_site
2021-04-16 15:08:06,415 INFO scheduler Scheduled Job Start: frappe.email.doctype.email_account.email_account.pull for my_site
2021-04-16 15:08:06,743 INFO scheduler Scheduled Job Complete: frappe.email.doctype.email_account.email_account.pull for my_site
2021-04-16 15:08:06,812 INFO scheduler Scheduled Job Start: frappe.email.queue.flush for my_site
2021-04-16 15:08:07,089 INFO scheduler Scheduled Job Complete: frappe.email.queue.flush for my_site
2021-04-16 15:09:05,028 DEBUG scheduler Queued events for site my_site
2021-04-16 15:10:05,205 DEBUG scheduler Queued events for site my_site
2021-04-16 15:11:05,482 DEBUG scheduler Queued events for site my_site
2021-04-16 15:12:05,663 DEBUG scheduler Queued events for site my_site
2021-04-16 15:12:05,697 INFO scheduler Scheduled Job Start: frappe.monitor.flush for my_site
2021-04-16 15:12:05,847 INFO scheduler Scheduled Job Complete: frappe.monitor.flush for my_site
2021-04-16 15:12:05,916 INFO scheduler Scheduled Job Start: frappe.utils.global_search.sync_global_search for my_site
2021-04-16 15:12:06,065 INFO scheduler Scheduled Job Complete: frappe.utils.global_search.sync_global_search for my_site
2021-04-16 15:12:06,136 INFO scheduler Scheduled Job Start: frappe.integrations.doctype.razorpay_settings.razorpay_settings.capture_payment for my_site
2021-04-16 15:12:06,513 INFO scheduler Scheduled Job Complete: frappe.integrations.doctype.razorpay_settings.razorpay_settings.capture_payment for my_site
2021-04-16 15:12:06,581 INFO scheduler Scheduled Job Start: frappe.email.doctype.email_account.email_account.notify_unreplied for my_site
2021-04-16 15:12:06,874 INFO scheduler Scheduled Job Complete: frappe.email.doctype.email_account.email_account.notify_unreplied for my_site
2021-04-16 15:12:06,943 INFO scheduler Scheduled Job Start: frappe.email.doctype.email_account.email_account.pull for my_site
2021-04-16 15:12:07,240 INFO scheduler Scheduled Job Complete: frappe.email.doctype.email_account.email_account.pull for my_site
2021-04-16 15:12:07,307 INFO scheduler Scheduled Job Start: frappe.email.queue.flush for my_site
2021-04-16 15:12:07,567 INFO scheduler Scheduled Job Complete: frappe.email.queue.flush for my_site
2021-04-16 15:13:05,832 DEBUG scheduler Queued events for site my_site
2021-04-16 15:14:06,007 DEBUG scheduler Queued events for site my_site
2021-04-16 15:15:06,195 DEBUG scheduler Queued events for site my_site
2021-04-16 15:15:06,264 INFO scheduler Scheduled Job Start: frappe.twofactor.delete_all_barcodes_for_users for my_site
2021-04-16 15:15:06,707 INFO scheduler Scheduled Job Complete: frappe.twofactor.delete_all_barcodes_for_users for my_site
2021-04-16 15:15:06,792 INFO scheduler Scheduled Job Start: frappe.website.doctype.web_page.web_page.check_publish_status for my_site
2021-04-16 15:15:07,239 INFO scheduler Scheduled Job Complete: frappe.website.doctype.web_page.web_page.check_publish_status for my_site
2021-04-16 15:15:07,321 INFO scheduler Scheduled Job Start: frappe.oauth.delete_oauth2_data for my_site
2021-04-16 15:15:07,708 INFO scheduler Scheduled Job Complete: frappe.oauth.delete_oauth2_data for my_site
2021-04-16 15:16:06,393 DEBUG scheduler Queued events for site my_site
2021-04-16 15:16:06,425 INFO scheduler Scheduled Job Start: frappe.monitor.flush for my_site
2021-04-16 15:16:06,582 INFO scheduler Scheduled Job Complete: frappe.monitor.flush for my_site
2021-04-16 15:16:06,648 INFO scheduler Scheduled Job Start: frappe.utils.global_search.sync_global_search for my_site
2021-04-16 15:16:06,798 INFO scheduler Scheduled Job Complete: frappe.utils.global_search.sync_global_search for my_site
2021-04-16 15:16:06,870 INFO scheduler Scheduled Job Start: frappe.integrations.doctype.razorpay_settings.razorpay_settings.capture_payment for my_site
2021-04-16 15:16:07,253 INFO scheduler Scheduled Job Complete: frappe.integrations.doctype.razorpay_settings.razorpay_settings.capture_payment for my_site
2021-04-16 15:16:07,321 INFO scheduler Scheduled Job Start: frappe.email.doctype.email_account.email_account.notify_unreplied for my_site
2021-04-16 15:16:07,616 INFO scheduler Scheduled Job Complete: frappe.email.doctype.email_account.email_account.notify_unreplied for my_site
2021-04-16 15:16:07,685 INFO scheduler Scheduled Job Start: frappe.email.doctype.email_account.email_account.pull for my_site
2021-04-16 15:16:07,997 INFO scheduler Scheduled Job Complete: frappe.email.doctype.email_account.email_account.pull for my_site
2021-04-16 15:16:08,064 INFO scheduler Scheduled Job Start: frappe.email.queue.flush for my_site
2021-04-16 15:16:08,318 INFO scheduler Scheduled Job Complete: frappe.email.queue.flush for my_site
2021-04-16 15:17:06,583 DEBUG scheduler Queued events for site my_site
2021-04-16 15:18:06,751 DEBUG scheduler Queued events for site my_site
2021-04-16 15:19:06,920 DEBUG scheduler Queued events for site my_site
2021-04-16 15:20:07,102 DEBUG scheduler Queued events for site my_site
2021-04-16 15:20:07,132 INFO scheduler Scheduled Job Start: frappe.monitor.flush for my_site
2021-04-16 15:20:07,286 INFO scheduler Scheduled Job Complete: frappe.monitor.flush for my_site
2021-04-16 15:20:07,359 INFO scheduler Scheduled Job Start: frappe.utils.global_search.sync_global_search for my_site
2021-04-16 15:20:07,516 INFO scheduler Scheduled Job Complete: frappe.utils.global_search.sync_global_search for my_site
2021-04-16 15:20:07,591 INFO scheduler Scheduled Job Start: frappe.integrations.doctype.razorpay_settings.razorpay_settings.capture_payment for my_site
2021-04-16 15:20:07,976 INFO scheduler Scheduled Job Complete: frappe.integrations.doctype.razorpay_settings.razorpay_settings.capture_payment for my_site
2021-04-16 15:20:08,044 INFO scheduler Scheduled Job Start: frappe.email.doctype.email_account.email_account.notify_unreplied for my_site
2021-04-16 15:20:08,332 INFO scheduler Scheduled Job Complete: frappe.email.doctype.email_account.email_account.notify_unreplied for my_site
2021-04-16 15:20:08,400 INFO scheduler Scheduled Job Start: frappe.email.doctype.email_account.email_account.pull for my_site
2021-04-16 15:20:08,697 INFO scheduler Scheduled Job Complete: frappe.email.doctype.email_account.email_account.pull for my_site
2021-04-16 15:20:08,764 INFO scheduler Scheduled Job Start: frappe.email.queue.flush for my_site
2021-04-16 15:20:09,024 INFO scheduler Scheduled Job Complete: frappe.email.queue.flush for my_site
2021-04-16 15:21:07,283 DEBUG scheduler Queued events for site my_site
2021-04-16 15:22:07,487 DEBUG scheduler Queued events for site my_site
2021-04-16 15:23:07,666 DEBUG scheduler Queued events for site my_site
2021-04-16 15:24:07,890 DEBUG scheduler Queued events for site my_site
2021-04-16 15:24:07,936 INFO scheduler Scheduled Job Start: frappe.monitor.flush for my_site
2021-04-16 15:24:08,116 INFO scheduler Scheduled Job Complete: frappe.monitor.flush for my_site
2021-04-16 15:24:08,200 INFO scheduler Scheduled Job Start: frappe.utils.global_search.sync_global_search for my_site
2021-04-16 15:24:08,407 INFO scheduler Scheduled Job Complete: frappe.utils.global_search.sync_global_search for my_site
2021-04-16 15:24:08,505 INFO scheduler Scheduled Job Start: frappe.integrations.doctype.razorpay_settings.razorpay_settings.capture_payment for my_site
2021-04-16 15:24:09,034 INFO scheduler Scheduled Job Complete: frappe.integrations.doctype.razorpay_settings.razorpay_settings.capture_payment for my_site
2021-04-16 15:24:09,135 INFO scheduler Scheduled Job Start: frappe.email.doctype.email_account.email_account.notify_unreplied for my_site
2021-04-16 15:24:09,685 INFO scheduler Scheduled Job Complete: frappe.email.doctype.email_account.email_account.notify_unreplied for my_site
2021-04-16 15:24:09,767 INFO scheduler Scheduled Job Start: frappe.email.doctype.email_account.email_account.pull for my_site
2021-04-16 15:24:10,111 INFO scheduler Scheduled Job Complete: frappe.email.doctype.email_account.email_account.pull for my_site
2021-04-16 15:24:10,190 INFO scheduler Scheduled Job Start: frappe.email.queue.flush for my_site
2021-04-16 15:24:10,555 INFO scheduler Scheduled Job Complete: frappe.email.queue.flush for my_site
2021-04-16 15:25:08,125 DEBUG scheduler Queued events for site my_site
2021-04-16 15:26:08,276 DEBUG scheduler Queued events for site my_site
2021-04-16 15:27:08,438 DEBUG scheduler Queued events for site my_site
2021-04-16 15:28:08,629 DEBUG scheduler Queued events for site my_site
2021-04-16 15:28:08,693 INFO scheduler Scheduled Job Start: frappe.monitor.flush for my_site
2021-04-16 15:28:08,922 INFO scheduler Scheduled Job Complete: frappe.monitor.flush for my_site
2021-04-16 15:28:09,000 INFO scheduler Scheduled Job Start: frappe.utils.global_search.sync_global_search for my_site
2021-04-16 15:28:09,174 INFO scheduler Scheduled Job Complete: frappe.utils.global_search.sync_global_search for my_site
2021-04-16 15:28:09,262 INFO scheduler Scheduled Job Start: frappe.integrations.doctype.razorpay_settings.razorpay_settings.capture_payment for my_site
2021-04-16 15:28:09,758 INFO scheduler Scheduled Job Complete: frappe.integrations.doctype.razorpay_settings.razorpay_settings.capture_payment for my_site
2021-04-16 15:28:09,827 INFO scheduler Scheduled Job Start: frappe.email.doctype.email_account.email_account.notify_unreplied for my_site
2021-04-16 15:28:10,196 INFO scheduler Scheduled Job Complete: frappe.email.doctype.email_account.email_account.notify_unreplied for my_site
2021-04-16 15:28:10,267 INFO scheduler Scheduled Job Start: frappe.email.doctype.email_account.email_account.pull for my_site
2021-04-16 15:28:10,583 INFO scheduler Scheduled Job Complete: frappe.email.doctype.email_account.email_account.pull for my_site
2021-04-16 15:28:10,668 INFO scheduler Scheduled Job Start: frappe.email.queue.flush for my_site
2021-04-16 15:28:10,932 INFO scheduler Scheduled Job Complete: frappe.email.queue.flush for my_site
2021-04-16 15:29:08,798 DEBUG scheduler Queued events for site my_site
2021-04-16 15:30:08,967 DEBUG scheduler Queued events for site my_site
2021-04-16 15:30:09,032 INFO scheduler Scheduled Job Start: frappe.twofactor.delete_all_barcodes_for_users for my_site
2021-04-16 15:30:09,443 INFO scheduler Scheduled Job Complete: frappe.twofactor.delete_all_barcodes_for_users for my_site
2021-04-16 15:30:09,526 INFO scheduler Scheduled Job Start: frappe.website.doctype.web_page.web_page.check_publish_status for my_site
2021-04-16 15:30:10,022 INFO scheduler Scheduled Job Complete: frappe.website.doctype.web_page.web_page.check_publish_status for my_site
2021-04-16 15:30:10,144 INFO scheduler Scheduled Job Start: frappe.oauth.delete_oauth2_data for my_site
2021-04-16 15:30:10,674 INFO scheduler Scheduled Job Complete: frappe.oauth.delete_oauth2_data for my_site
2021-04-16 15:31:09,166 DEBUG scheduler Queued events for site my_site
2021-04-16 15:32:09,373 DEBUG scheduler Queued events for site my_site
2021-04-16 15:32:09,407 INFO scheduler Scheduled Job Start: frappe.monitor.flush for my_site
2021-04-16 15:32:09,594 INFO scheduler Scheduled Job Complete: frappe.monitor.flush for my_site
2021-04-16 15:32:09,676 INFO scheduler Scheduled Job Start: frappe.utils.global_search.sync_global_search for my_site
2021-04-16 15:32:09,860 INFO scheduler Scheduled Job Complete: frappe.utils.global_search.sync_global_search for my_site
2021-04-16 15:32:09,950 INFO scheduler Scheduled Job Start: frappe.integrations.doctype.razorpay_settings.razorpay_settings.capture_payment for my_site
2021-04-16 15:32:10,431 INFO scheduler Scheduled Job Complete: frappe.integrations.doctype.razorpay_settings.razorpay_settings.capture_payment for my_site
2021-04-16 15:32:10,516 INFO scheduler Scheduled Job Start: frappe.email.doctype.email_account.email_account.notify_unreplied for my_site
2021-04-16 15:32:10,870 INFO scheduler Scheduled Job Complete: frappe.email.doctype.email_account.email_account.notify_unreplied for my_site
2021-04-16 15:32:10,951 INFO scheduler Scheduled Job Start: frappe.email.doctype.email_account.email_account.pull for my_site
2021-04-16 15:32:11,310 INFO scheduler Scheduled Job Complete: frappe.email.doctype.email_account.email_account.pull for my_site
2021-04-16 15:32:11,393 INFO scheduler Scheduled Job Start: frappe.email.queue.flush for my_site
2021-04-16 15:32:11,739 INFO scheduler Scheduled Job Complete: frappe.email.queue.flush for my_site
2021-04-16 15:33:09,618 DEBUG scheduler Queued events for site my_site
2021-04-16 15:34:09,808 DEBUG scheduler Queued events for site my_site
2021-04-16 15:35:10,011 DEBUG scheduler Queued events for site my_site
2021-04-16 15:36:10,217 DEBUG scheduler Queued events for site my_site
2021-04-16 15:36:10,282 INFO scheduler Scheduled Job Start: frappe.monitor.flush for my_site
2021-04-16 15:36:10,462 INFO scheduler Scheduled Job Complete: frappe.monitor.flush for my_site
2021-04-16 15:36:10,560 INFO scheduler Scheduled Job Start: frappe.utils.global_search.sync_global_search for my_site
2021-04-16 15:36:10,803 INFO scheduler Scheduled Job Complete: frappe.utils.global_search.sync_global_search for my_site
2021-04-16 15:36:10,896 INFO scheduler Scheduled Job Start: frappe.integrations.doctype.razorpay_settings.razorpay_settings.capture_payment for my_site
2021-04-16 15:36:11,376 INFO scheduler Scheduled Job Complete: frappe.integrations.doctype.razorpay_settings.razorpay_settings.capture_payment for my_site
2021-04-16 15:36:11,484 INFO scheduler Scheduled Job Start: frappe.email.doctype.email_account.email_account.notify_unreplied for my_site
2021-04-16 15:36:11,968 INFO scheduler Scheduled Job Complete: frappe.email.doctype.email_account.email_account.notify_unreplied for my_site
2021-04-16 15:36:12,101 INFO scheduler Scheduled Job Start: frappe.email.doctype.email_account.email_account.pull for my_site
2021-04-16 15:36:12,548 INFO scheduler Scheduled Job Complete: frappe.email.doctype.email_account.email_account.pull for my_site
2021-04-16 15:36:12,641 INFO scheduler Scheduled Job Start: frappe.email.queue.flush for my_site
2021-04-16 15:36:12,908 INFO scheduler Scheduled Job Complete: frappe.email.queue.flush for my_site
2021-04-16 15:37:10,392 DEBUG scheduler Queued events for site my_site
2021-04-16 15:38:10,557 DEBUG scheduler Queued events for site my_site
2021-04-16 15:39:10,714 DEBUG scheduler Queued events for site my_site
2021-04-16 15:40:11,009 DEBUG scheduler Queued events for site my_site
2021-04-16 15:40:11,067 INFO scheduler Scheduled Job Start: frappe.monitor.flush for my_site
2021-04-16 15:40:11,381 INFO scheduler Scheduled Job Complete: frappe.monitor.flush for my_site
2021-04-16 15:40:11,543 INFO scheduler Scheduled Job Start: frappe.utils.global_search.sync_global_search for my_site
2021-04-16 15:40:11,843 INFO scheduler Scheduled Job Complete: frappe.utils.global_search.sync_global_search for my_site
2021-04-16 15:40:11,949 INFO scheduler Scheduled Job Start: frappe.integrations.doctype.razorpay_settings.razorpay_settings.capture_payment for my_site
2021-04-16 15:40:12,491 INFO scheduler Scheduled Job Complete: frappe.integrations.doctype.razorpay_settings.razorpay_settings.capture_payment for my_site
2021-04-16 15:40:12,593 INFO scheduler Scheduled Job Start: frappe.email.doctype.email_account.email_account.notify_unreplied for my_site
2021-04-16 15:40:12,975 INFO scheduler Scheduled Job Complete: frappe.email.doctype.email_account.email_account.notify_unreplied for my_site
2021-04-16 15:40:13,083 INFO scheduler Scheduled Job Start: frappe.email.doctype.email_account.email_account.pull for my_site
2021-04-16 15:40:13,524 INFO scheduler Scheduled Job Complete: frappe.email.doctype.email_account.email_account.pull for my_site
2021-04-16 15:40:13,605 INFO scheduler Scheduled Job Start: frappe.email.queue.flush for my_site
2021-04-16 15:40:13,983 INFO scheduler Scheduled Job Complete: frappe.email.queue.flush for my_site
2021-04-16 15:41:11,216 DEBUG scheduler Queued events for site my_site
2021-04-16 15:42:11,401 DEBUG scheduler Queued events for site my_site
2021-04-16 15:43:11,594 DEBUG scheduler Queued events for site my_site
2021-04-16 15:44:11,808 DEBUG scheduler Queued events for site my_site
2021-04-16 15:44:11,845 INFO scheduler Scheduled Job Start: frappe.monitor.flush for my_site
2021-04-16 15:44:12,000 INFO scheduler Scheduled Job Complete: frappe.monitor.flush for my_site
2021-04-16 15:44:12,071 INFO scheduler Scheduled Job Start: frappe.utils.global_search.sync_global_search for my_site
2021-04-16 15:44:12,226 INFO scheduler Scheduled Job Complete: frappe.utils.global_search.sync_global_search for my_site
2021-04-16 15:44:12,298 INFO scheduler Scheduled Job Start: frappe.integrations.doctype.razorpay_settings.razorpay_settings.capture_payment for my_site
2021-04-16 15:44:12,923 INFO scheduler Scheduled Job Complete: frappe.integrations.doctype.razorpay_settings.razorpay_settings.capture_payment for my_site
2021-04-16 15:44:13,017 INFO scheduler Scheduled Job Start: frappe.email.doctype.email_account.email_account.notify_unreplied for my_site
2021-04-16 15:44:13,479 INFO scheduler Scheduled Job Complete: frappe.email.doctype.email_account.email_account.notify_unreplied for my_site
2021-04-16 15:44:13,598 INFO scheduler Scheduled Job Start: frappe.email.doctype.email_account.email_account.pull for my_site
2021-04-16 15:44:13,919 INFO scheduler Scheduled Job Complete: frappe.email.doctype.email_account.email_account.pull for my_site
2021-04-16 15:44:13,989 INFO scheduler Scheduled Job Start: frappe.email.queue.flush for my_site
2021-04-16 15:44:14,276 INFO scheduler Scheduled Job Complete: frappe.email.queue.flush for my_site
2021-04-16 15:45:11,998 DEBUG scheduler Queued events for site my_site
2021-04-16 15:45:12,052 INFO scheduler Scheduled Job Start: frappe.twofactor.delete_all_barcodes_for_users for my_site
2021-04-16 15:45:12,534 INFO scheduler Scheduled Job Complete: frappe.twofactor.delete_all_barcodes_for_users for my_site
2021-04-16 15:45:12,626 INFO scheduler Scheduled Job Start: frappe.website.doctype.web_page.web_page.check_publish_status for my_site
2021-04-16 15:45:13,088 INFO scheduler Scheduled Job Complete: frappe.website.doctype.web_page.web_page.check_publish_status for my_site
2021-04-16 15:45:13,171 INFO scheduler Scheduled Job Start: frappe.oauth.delete_oauth2_data for my_site
2021-04-16 15:45:13,566 INFO scheduler Scheduled Job Complete: frappe.oauth.delete_oauth2_data for my_site
2021-04-16 15:46:12,193 DEBUG scheduler Queued events for site my_site
2021-04-16 15:47:12,421 DEBUG scheduler Queued events for site my_site
2021-04-16 15:48:12,614 DEBUG scheduler Queued events for site my_site
2021-04-16 15:48:12,647 INFO scheduler Scheduled Job Start: frappe.monitor.flush for my_site
2021-04-16 15:48:12,807 INFO scheduler Scheduled Job Complete: frappe.monitor.flush for my_site
2021-04-16 15:48:12,882 INFO scheduler Scheduled Job Start: frappe.utils.global_search.sync_global_search for my_site
2021-04-16 15:48:13,046 INFO scheduler Scheduled Job Complete: frappe.utils.global_search.sync_global_search for my_site
2021-04-16 15:48:13,120 INFO scheduler Scheduled Job Start: frappe.integrations.doctype.razorpay_settings.razorpay_settings.capture_payment for my_site
2021-04-16 15:48:13,520 INFO scheduler Scheduled Job Complete: frappe.integrations.doctype.razorpay_settings.razorpay_settings.capture_payment for my_site
2021-04-16 15:48:13,594 INFO scheduler Scheduled Job Start: frappe.email.doctype.email_account.email_account.notify_unreplied for my_site
2021-04-16 15:48:13,908 INFO scheduler Scheduled Job Complete: frappe.email.doctype.email_account.email_account.notify_unreplied for my_site
2021-04-16 15:48:13,977 INFO scheduler Scheduled Job Start: frappe.email.doctype.email_account.email_account.pull for my_site
2021-04-16 15:48:14,336 INFO scheduler Scheduled Job Complete: frappe.email.doctype.email_account.email_account.pull for my_site
2021-04-16 15:48:14,462 INFO scheduler Scheduled Job Start: frappe.email.queue.flush for my_site
2021-04-16 15:48:14,783 INFO scheduler Scheduled Job Complete: frappe.email.queue.flush for my_site
2021-04-16 15:49:12,800 DEBUG scheduler Queued events for site my_site
2021-04-16 15:50:12,970 DEBUG scheduler Queued events for site my_site
2021-04-16 15:53:13,781 DEBUG scheduler Queued events for site my_site
2021-04-16 15:53:13,832 INFO scheduler Scheduled Job Start: frappe.monitor.flush for my_site
2021-04-16 15:53:13,996 INFO scheduler Scheduled Job Complete: frappe.monitor.flush for my_site
2021-04-16 15:53:14,067 INFO scheduler Scheduled Job Start: frappe.utils.global_search.sync_global_search for my_site
2021-04-16 15:53:14,219 INFO scheduler Scheduled Job Complete: frappe.utils.global_search.sync_global_search for my_site
2021-04-16 15:53:14,289 INFO scheduler Scheduled Job Start: frappe.integrations.doctype.razorpay_settings.razorpay_settings.capture_payment for my_site
2021-04-16 15:53:14,684 INFO scheduler Scheduled Job Complete: frappe.integrations.doctype.razorpay_settings.razorpay_settings.capture_payment for my_site
2021-04-16 15:53:14,750 INFO scheduler Scheduled Job Start: frappe.email.doctype.email_account.email_account.notify_unreplied for my_site
2021-04-16 15:53:15,049 INFO scheduler Scheduled Job Complete: frappe.email.doctype.email_account.email_account.notify_unreplied for my_site
2021-04-16 15:53:15,119 INFO scheduler Scheduled Job Start: frappe.email.doctype.email_account.email_account.pull for my_site
2021-04-16 15:53:15,420 INFO scheduler Scheduled Job Complete: frappe.email.doctype.email_account.email_account.pull for my_site
2021-04-16 15:53:15,490 INFO scheduler Scheduled Job Start: frappe.email.queue.flush for my_site
2021-04-16 15:53:15,835 INFO scheduler Scheduled Job Complete: frappe.email.queue.flush for my_site
2021-04-16 15:54:13,964 DEBUG scheduler Queued events for site my_site
2021-04-16 15:55:14,115 DEBUG scheduler Queued events for site my_site
2021-04-16 15:56:14,309 DEBUG scheduler Queued events for site my_site
2021-04-16 15:56:14,354 INFO scheduler Scheduled Job Start: frappe.monitor.flush for my_site
2021-04-16 15:56:14,555 INFO scheduler Scheduled Job Complete: frappe.monitor.flush for my_site
2021-04-16 15:56:14,652 INFO scheduler Scheduled Job Start: frappe.utils.global_search.sync_global_search for my_site
2021-04-16 15:56:14,830 INFO scheduler Scheduled Job Complete: frappe.utils.global_search.sync_global_search for my_site
2021-04-16 15:56:14,904 INFO scheduler Scheduled Job Start: frappe.integrations.doctype.razorpay_settings.razorpay_settings.capture_payment for my_site
2021-04-16 15:56:15,309 INFO scheduler Scheduled Job Complete: frappe.integrations.doctype.razorpay_settings.razorpay_settings.capture_payment for my_site
2021-04-16 15:56:15,376 INFO scheduler Scheduled Job Start: frappe.email.doctype.email_account.email_account.notify_unreplied for my_site
2021-04-16 15:56:15,686 INFO scheduler Scheduled Job Complete: frappe.email.doctype.email_account.email_account.notify_unreplied for my_site
2021-04-16 15:56:15,757 INFO scheduler Scheduled Job Start: frappe.email.doctype.email_account.email_account.pull for my_site
2021-04-16 15:56:16,061 INFO scheduler Scheduled Job Complete: frappe.email.doctype.email_account.email_account.pull for my_site
2021-04-16 15:56:16,136 INFO scheduler Scheduled Job Start: frappe.email.queue.flush for my_site
2021-04-16 15:56:16,397 INFO scheduler Scheduled Job Complete: frappe.email.queue.flush for my_site
2021-04-16 15:57:14,484 DEBUG scheduler Queued events for site my_site
2021-04-16 15:58:14,643 DEBUG scheduler Queued events for site my_site
2021-04-16 15:59:14,798 DEBUG scheduler Queued events for site my_site
2021-04-16 16:00:15,003 INFO scheduler Scheduled Job Start: frappe.email.doctype.newsletter.newsletter.send_scheduled_email for my_site
2021-04-16 16:00:15,077 DEBUG scheduler Queued events for site my_site
2021-04-16 16:00:15,514 INFO scheduler Scheduled Job Complete: frappe.email.doctype.newsletter.newsletter.send_scheduled_email for my_site
2021-04-16 16:00:15,596 INFO scheduler Scheduled Job Start: frappe.integrations.doctype.google_calendar.google_calendar.sync for my_site
2021-04-16 16:00:16,115 INFO scheduler Scheduled Job Complete: frappe.integrations.doctype.google_calendar.google_calendar.sync for my_site
2021-04-16 16:00:16,199 INFO scheduler Scheduled Job Start: frappe.desk.form.document_follow.send_hourly_updates for my_site
2021-04-16 16:00:16,542 INFO scheduler Scheduled Job Complete: frappe.desk.form.document_follow.send_hourly_updates for my_site
2021-04-16 16:00:16,630 INFO scheduler Scheduled Job Start: frappe.deferred_insert.save_to_db for my_site
2021-04-16 16:00:16,994 INFO scheduler Scheduled Job Complete: frappe.deferred_insert.save_to_db for my_site
2021-04-16 16:00:17,074 INFO scheduler Scheduled Job Start: frappe.desk.page.backups.backups.delete_downloadable_backups for my_site
2021-04-16 16:00:17,449 INFO scheduler Scheduled Job Complete: frappe.desk.page.backups.backups.delete_downloadable_backups for my_site
2021-04-16 16:00:17,535 INFO scheduler Scheduled Job Start: frappe.utils.error.collect_error_snapshots for my_site
2021-04-16 16:00:17,892 INFO scheduler Scheduled Job Complete: frappe.utils.error.collect_error_snapshots for my_site
2021-04-16 16:00:17,978 INFO scheduler Scheduled Job Start: frappe.model.utils.user_settings.sync_user_settings for my_site
2021-04-16 16:00:18,319 INFO scheduler Scheduled Job Complete: frappe.model.utils.user_settings.sync_user_settings for my_site
2021-04-16 16:00:18,410 INFO scheduler Scheduled Job Start: frappe.model.utils.link_count.update_link_count for my_site
2021-04-16 16:00:18,765 INFO scheduler Scheduled Job Complete: frappe.model.utils.link_count.update_link_count for my_site
2021-04-16 16:00:18,852 INFO scheduler Scheduled Job Start: frappe.monitor.flush for my_site
2021-04-16 16:00:19,004 INFO scheduler Scheduled Job Complete: frappe.monitor.flush for my_site
2021-04-16 16:00:19,078 INFO scheduler Scheduled Job Start: frappe.utils.global_search.sync_global_search for my_site
2021-04-16 16:00:19,232 INFO scheduler Scheduled Job Complete: frappe.utils.global_search.sync_global_search for my_site
2021-04-16 16:00:19,304 INFO scheduler Scheduled Job Start: frappe.integrations.doctype.razorpay_settings.razorpay_settings.capture_payment for my_site
2021-04-16 16:00:19,697 INFO scheduler Scheduled Job Complete: frappe.integrations.doctype.razorpay_settings.razorpay_settings.capture_payment for my_site
2021-04-16 16:00:19,763 INFO scheduler Scheduled Job Start: frappe.email.doctype.email_account.email_account.notify_unreplied for my_site
2021-04-16 16:00:20,053 INFO scheduler Scheduled Job Complete: frappe.email.doctype.email_account.email_account.notify_unreplied for my_site
2021-04-16 16:00:20,121 INFO scheduler Scheduled Job Start: frappe.email.doctype.email_account.email_account.pull for my_site
2021-04-16 16:00:20,436 INFO scheduler Scheduled Job Complete: frappe.email.doctype.email_account.email_account.pull for my_site
2021-04-16 16:00:20,505 INFO scheduler Scheduled Job Start: frappe.email.queue.flush for my_site
2021-04-16 16:00:20,770 INFO scheduler Scheduled Job Complete: frappe.email.queue.flush for my_site
2021-04-16 16:00:20,844 INFO scheduler Scheduled Job Start: frappe.twofactor.delete_all_barcodes_for_users for my_site
2021-04-16 16:00:21,198 INFO scheduler Scheduled Job Complete: frappe.twofactor.delete_all_barcodes_for_users for my_site
2021-04-16 16:00:21,277 INFO scheduler Scheduled Job Start: frappe.website.doctype.web_page.web_page.check_publish_status for my_site
2021-04-16 16:00:21,710 INFO scheduler Scheduled Job Complete: frappe.website.doctype.web_page.web_page.check_publish_status for my_site
2021-04-16 16:00:21,791 INFO scheduler Scheduled Job Start: frappe.oauth.delete_oauth2_data for my_site
2021-04-16 16:00:22,158 INFO scheduler Scheduled Job Complete: frappe.oauth.delete_oauth2_data for my_site
2021-04-16 16:01:15,395 DEBUG scheduler Queued events for site my_site
2021-04-16 16:02:15,600 DEBUG scheduler Queued events for site my_site
2021-04-16 16:03:15,874 DEBUG scheduler Queued events for site my_site
2021-04-18 13:47:40,307 INFO scheduler Scheduled Job Start: frappe.integrations.doctype.google_drive.google_drive.weekly_backup for my_site
2021-04-18 13:47:40,399 INFO scheduler Scheduled Job Start: frappe.core.doctype.log_settings.log_settings.run_log_clean_up for my_site
2021-04-18 13:47:41,204 DEBUG scheduler Queued events for site my_site
2021-04-18 13:47:41,234 INFO scheduler Scheduled Job Complete: frappe.core.doctype.log_settings.log_settings.run_log_clean_up for my_site
2021-04-18 13:47:41,291 INFO scheduler Scheduled Job Complete: frappe.integrations.doctype.google_drive.google_drive.weekly_backup for my_site
2021-04-18 13:47:41,347 INFO scheduler Scheduled Job Start: frappe.core.doctype.prepared_report.prepared_report.delete_expired_prepared_reports for my_site
2021-04-18 13:47:41,390 INFO scheduler Scheduled Job Start: frappe.social.doctype.energy_point_log.energy_point_log.send_weekly_summary for my_site
2021-04-18 13:47:41,870 INFO scheduler Scheduled Job Complete: frappe.social.doctype.energy_point_log.energy_point_log.send_weekly_summary for my_site
2021-04-18 13:47:41,888 INFO scheduler Scheduled Job Complete: frappe.core.doctype.prepared_report.prepared_report.delete_expired_prepared_reports for my_site
2021-04-18 13:47:42,083 INFO scheduler Scheduled Job Start: frappe.desk.form.document_follow.send_weekly_updates for my_site
2021-04-18 13:47:42,090 INFO scheduler Scheduled Job Start: frappe.email.doctype.unhandled_email.unhandled_email.remove_old_unhandled_emails for my_site
2021-04-18 13:47:42,826 INFO scheduler Scheduled Job Complete: frappe.desk.form.document_follow.send_weekly_updates for my_site
2021-04-18 13:47:42,935 INFO scheduler Scheduled Job Complete: frappe.email.doctype.unhandled_email.unhandled_email.remove_old_unhandled_emails for my_site
2021-04-18 13:47:43,026 INFO scheduler Scheduled Job Start: frappe.desk.doctype.route_history.route_history.flush_old_route_records for my_site
2021-04-18 13:47:43,099 INFO scheduler Scheduled Job Start: frappe.automation.doctype.auto_repeat.auto_repeat.set_auto_repeat_as_completed for my_site
2021-04-18 13:47:43,674 INFO scheduler Scheduled Job Complete: frappe.desk.doctype.route_history.route_history.flush_old_route_records for my_site
2021-04-18 13:47:43,754 INFO scheduler Scheduled Job Complete: frappe.automation.doctype.auto_repeat.auto_repeat.set_auto_repeat_as_completed for my_site
2021-04-18 13:47:43,786 INFO scheduler Scheduled Job Start: frappe.integrations.doctype.s3_backup_settings.s3_backup_settings.take_backups_weekly for my_site
2021-04-18 13:47:43,876 INFO scheduler Scheduled Job Start: frappe.automation.doctype.auto_repeat.auto_repeat.make_auto_repeat_entry for my_site
2021-04-18 13:47:44,554 INFO scheduler Scheduled Job Complete: frappe.integrations.doctype.s3_backup_settings.s3_backup_settings.take_backups_weekly for my_site
2021-04-18 13:47:44,672 INFO scheduler Scheduled Job Complete: frappe.automation.doctype.auto_repeat.auto_repeat.make_auto_repeat_entry for my_site
2021-04-18 13:47:44,725 INFO scheduler Scheduled Job Start: frappe.integrations.doctype.dropbox_settings.dropbox_settings.take_backups_weekly for my_site
2021-04-18 13:47:44,838 INFO scheduler Scheduled Job Start: frappe.integrations.doctype.google_contacts.google_contacts.sync for my_site
2021-04-18 13:47:45,693 INFO scheduler Scheduled Job Complete: frappe.integrations.doctype.google_contacts.google_contacts.sync for my_site
2021-04-18 13:47:45,698 INFO scheduler Scheduled Job Complete: frappe.integrations.doctype.dropbox_settings.dropbox_settings.take_backups_weekly for my_site
2021-04-18 13:47:45,788 INFO scheduler Scheduled Job Start: frappe.social.doctype.energy_point_settings.energy_point_settings.allocate_review_points for my_site
2021-04-18 13:47:45,799 INFO scheduler Scheduled Job Start: frappe.integrations.doctype.google_drive.google_drive.daily_backup for my_site
2021-04-18 13:47:46,329 INFO scheduler Scheduled Job Complete: frappe.social.doctype.energy_point_settings.energy_point_settings.allocate_review_points for my_site
2021-04-18 13:47:46,460 INFO scheduler Scheduled Job Start: frappe.desk.form.document_follow.send_daily_updates for my_site
2021-04-18 13:47:46,652 INFO scheduler Scheduled Job Complete: frappe.integrations.doctype.google_drive.google_drive.daily_backup for my_site
2021-04-18 13:47:46,760 INFO scheduler Scheduled Job Start: frappe.integrations.doctype.s3_backup_settings.s3_backup_settings.take_backups_daily for my_site
2021-04-18 13:47:47,002 INFO scheduler Scheduled Job Complete: frappe.desk.form.document_follow.send_daily_updates for my_site
2021-04-18 13:47:47,095 INFO scheduler Scheduled Job Start: frappe.website.doctype.personal_data_deletion_request.personal_data_deletion_request.remove_unverified_record for my_site
2021-04-18 13:47:47,315 INFO scheduler Scheduled Job Complete: frappe.integrations.doctype.s3_backup_settings.s3_backup_settings.take_backups_daily for my_site
2021-04-18 13:47:47,421 INFO scheduler Scheduled Job Start: frappe.utils.change_log.check_for_update for my_site
2021-04-18 13:47:47,676 INFO scheduler Scheduled Job Complete: frappe.website.doctype.personal_data_deletion_request.personal_data_deletion_request.remove_unverified_record for my_site
2021-04-18 13:47:47,773 INFO scheduler Scheduled Job Start: frappe.email.doctype.auto_email_report.auto_email_report.send_daily for my_site
2021-04-18 13:47:48,772 INFO scheduler Scheduled Job Complete: frappe.email.doctype.auto_email_report.auto_email_report.send_daily for my_site
2021-04-18 13:47:48,858 INFO scheduler Scheduled Job Start: frappe.utils.scheduler.restrict_scheduler_events_if_dormant for my_site
2021-04-18 13:47:49,269 INFO scheduler Scheduled Job Failed: frappe.utils.scheduler.restrict_scheduler_events_if_dormant for my_site
2021-04-18 13:47:49,355 INFO scheduler Scheduled Job Failed: frappe.utils.change_log.check_for_update for my_site
2021-04-18 13:47:49,416 INFO scheduler Scheduled Job Start: frappe.realtime.remove_old_task_logs for my_site
2021-04-18 13:47:49,488 INFO scheduler Scheduled Job Start: frappe.integrations.doctype.dropbox_settings.dropbox_settings.take_backups_daily for my_site
2021-04-18 13:47:49,838 INFO scheduler Scheduled Job Complete: frappe.realtime.remove_old_task_logs for my_site
2021-04-18 13:47:49,941 INFO scheduler Scheduled Job Start: frappe.email.doctype.notification.notification.trigger_daily_alerts for my_site
2021-04-18 13:47:50,135 INFO scheduler Scheduled Job Complete: frappe.integrations.doctype.dropbox_settings.dropbox_settings.take_backups_daily for my_site
2021-04-18 13:47:50,366 INFO scheduler Scheduled Job Complete: frappe.email.doctype.notification.notification.trigger_daily_alerts for my_site
2021-04-18 13:47:50,472 INFO scheduler Scheduled Job Start: frappe.sessions.clear_expired_sessions for my_site
2021-04-18 13:47:50,867 INFO scheduler Scheduled Job Complete: frappe.sessions.clear_expired_sessions for my_site
2021-04-18 13:47:50,957 INFO scheduler Scheduled Job Start: frappe.desk.doctype.event.event.send_event_digest for my_site
2021-04-18 13:47:51,324 INFO scheduler Scheduled Job Complete: frappe.desk.doctype.event.event.send_event_digest for my_site
2021-04-18 13:47:51,408 INFO scheduler Scheduled Job Start: frappe.core.doctype.error_log.error_log.set_old_logs_as_seen for my_site
2021-04-18 13:47:51,801 INFO scheduler Scheduled Job Complete: frappe.core.doctype.error_log.error_log.set_old_logs_as_seen for my_site
2021-04-18 13:47:51,882 INFO scheduler Scheduled Job Start: frappe.desk.notifications.clear_notifications for my_site
2021-04-18 13:47:52,245 INFO scheduler Scheduled Job Complete: frappe.desk.notifications.clear_notifications for my_site
2021-04-18 13:47:52,333 INFO scheduler Scheduled Job Start: frappe.email.queue.set_expiry_for_email_queue for my_site
2021-04-18 13:47:52,706 INFO scheduler Scheduled Job Complete: frappe.email.queue.set_expiry_for_email_queue for my_site
2021-04-18 13:47:52,792 INFO scheduler Scheduled Job Start: frappe.email.doctype.newsletter.newsletter.send_scheduled_email for my_site
2021-04-18 13:47:53,250 INFO scheduler Scheduled Job Complete: frappe.email.doctype.newsletter.newsletter.send_scheduled_email for my_site
2021-04-18 13:47:53,334 INFO scheduler Scheduled Job Start: frappe.integrations.doctype.google_calendar.google_calendar.sync for my_site
2021-04-18 13:47:53,858 INFO scheduler Scheduled Job Complete: frappe.integrations.doctype.google_calendar.google_calendar.sync for my_site
2021-04-18 13:47:53,947 INFO scheduler Scheduled Job Start: frappe.desk.form.document_follow.send_hourly_updates for my_site
2021-04-18 13:47:54,309 INFO scheduler Scheduled Job Complete: frappe.desk.form.document_follow.send_hourly_updates for my_site
2021-04-18 13:47:54,390 INFO scheduler Scheduled Job Start: frappe.deferred_insert.save_to_db for my_site
2021-04-18 13:47:54,735 INFO scheduler Scheduled Job Complete: frappe.deferred_insert.save_to_db for my_site
2021-04-18 13:47:54,820 INFO scheduler Scheduled Job Start: frappe.desk.page.backups.backups.delete_downloadable_backups for my_site
2021-04-18 13:47:55,169 INFO scheduler Scheduled Job Complete: frappe.desk.page.backups.backups.delete_downloadable_backups for my_site
2021-04-18 13:47:55,267 INFO scheduler Scheduled Job Start: frappe.utils.error.collect_error_snapshots for my_site
2021-04-18 13:47:55,787 INFO scheduler Scheduled Job Complete: frappe.utils.error.collect_error_snapshots for my_site
2021-04-18 13:47:55,872 INFO scheduler Scheduled Job Start: frappe.model.utils.user_settings.sync_user_settings for my_site
2021-04-18 13:47:56,234 INFO scheduler Scheduled Job Complete: frappe.model.utils.user_settings.sync_user_settings for my_site
2021-04-18 13:47:56,316 INFO scheduler Scheduled Job Start: frappe.model.utils.link_count.update_link_count for my_site
2021-04-18 13:47:56,671 INFO scheduler Scheduled Job Complete: frappe.model.utils.link_count.update_link_count for my_site
2021-04-18 13:47:56,756 INFO scheduler Scheduled Job Start: frappe.monitor.flush for my_site
2021-04-18 13:47:56,908 INFO scheduler Scheduled Job Complete: frappe.monitor.flush for my_site
2021-04-18 13:47:56,978 INFO scheduler Scheduled Job Start: frappe.utils.global_search.sync_global_search for my_site
2021-04-18 13:47:57,135 INFO scheduler Scheduled Job Complete: frappe.utils.global_search.sync_global_search for my_site
2021-04-18 13:47:57,205 INFO scheduler Scheduled Job Start: frappe.integrations.doctype.razorpay_settings.razorpay_settings.capture_payment for my_site
2021-04-18 13:47:57,632 INFO scheduler Scheduled Job Complete: frappe.integrations.doctype.razorpay_settings.razorpay_settings.capture_payment for my_site
2021-04-18 13:47:57,699 INFO scheduler Scheduled Job Start: frappe.email.doctype.email_account.email_account.notify_unreplied for my_site
2021-04-18 13:47:58,036 INFO scheduler Scheduled Job Complete: frappe.email.doctype.email_account.email_account.notify_unreplied for my_site
2021-04-18 13:47:58,103 INFO scheduler Scheduled Job Start: frappe.email.doctype.email_account.email_account.pull for my_site
2021-04-18 13:47:58,404 INFO scheduler Scheduled Job Complete: frappe.email.doctype.email_account.email_account.pull for my_site
2021-04-18 13:47:58,476 INFO scheduler Scheduled Job Start: frappe.email.queue.flush for my_site
2021-04-18 13:47:58,733 INFO scheduler Scheduled Job Complete: frappe.email.queue.flush for my_site
2021-04-18 13:47:58,802 INFO scheduler Scheduled Job Start: frappe.twofactor.delete_all_barcodes_for_users for my_site
2021-04-18 13:47:59,156 INFO scheduler Scheduled Job Complete: frappe.twofactor.delete_all_barcodes_for_users for my_site
2021-04-18 13:47:59,250 INFO scheduler Scheduled Job Start: frappe.website.doctype.web_page.web_page.check_publish_status for my_site
2021-04-18 13:47:59,693 INFO scheduler Scheduled Job Complete: frappe.website.doctype.web_page.web_page.check_publish_status for my_site
2021-04-18 13:47:59,778 INFO scheduler Scheduled Job Start: frappe.oauth.delete_oauth2_data for my_site
2021-04-18 13:48:00,171 INFO scheduler Scheduled Job Complete: frappe.oauth.delete_oauth2_data for my_site
2021-04-18 13:48:41,427 DEBUG scheduler Queued events for site my_site
2021-04-18 13:48:41,455 INFO scheduler Scheduled Job Start: frappe.monitor.flush for my_site
2021-04-18 13:48:41,605 INFO scheduler Scheduled Job Complete: frappe.monitor.flush for my_site
2021-04-18 13:48:41,674 INFO scheduler Scheduled Job Start: frappe.utils.global_search.sync_global_search for my_site
2021-04-18 13:48:41,829 INFO scheduler Scheduled Job Complete: frappe.utils.global_search.sync_global_search for my_site
2021-04-18 13:48:41,896 INFO scheduler Scheduled Job Start: frappe.integrations.doctype.razorpay_settings.razorpay_settings.capture_payment for my_site
2021-04-18 13:48:42,440 INFO scheduler Scheduled Job Complete: frappe.integrations.doctype.razorpay_settings.razorpay_settings.capture_payment for my_site
2021-04-18 13:48:42,508 INFO scheduler Scheduled Job Start: frappe.email.doctype.email_account.email_account.notify_unreplied for my_site
2021-04-18 13:48:42,823 INFO scheduler Scheduled Job Complete: frappe.email.doctype.email_account.email_account.notify_unreplied for my_site
2021-04-18 13:48:42,895 INFO scheduler Scheduled Job Start: frappe.email.doctype.email_account.email_account.pull for my_site
2021-04-18 13:48:43,207 INFO scheduler Scheduled Job Complete: frappe.email.doctype.email_account.email_account.pull for my_site
2021-04-18 13:48:43,281 INFO scheduler Scheduled Job Start: frappe.email.queue.flush for my_site
2021-04-18 13:48:43,544 INFO scheduler Scheduled Job Complete: frappe.email.queue.flush for my_site
2021-04-18 14:19:44,244 INFO scheduler Scheduled Job Start: frappe.email.doctype.newsletter.newsletter.send_scheduled_email for my_site
2021-04-18 14:19:44,317 DEBUG scheduler Queued events for site my_site
2021-04-18 14:19:44,735 INFO scheduler Scheduled Job Complete: frappe.email.doctype.newsletter.newsletter.send_scheduled_email for my_site
2021-04-18 14:19:44,838 INFO scheduler Scheduled Job Start: frappe.integrations.doctype.google_calendar.google_calendar.sync for my_site
2021-04-18 14:19:45,434 INFO scheduler Scheduled Job Complete: frappe.integrations.doctype.google_calendar.google_calendar.sync for my_site
2021-04-18 14:19:45,551 INFO scheduler Scheduled Job Start: frappe.desk.form.document_follow.send_hourly_updates for my_site
2021-04-18 14:19:46,112 INFO scheduler Scheduled Job Complete: frappe.desk.form.document_follow.send_hourly_updates for my_site
2021-04-18 14:19:46,195 INFO scheduler Scheduled Job Start: frappe.deferred_insert.save_to_db for my_site
2021-04-18 14:19:46,543 INFO scheduler Scheduled Job Complete: frappe.deferred_insert.save_to_db for my_site
2021-04-18 14:19:46,626 INFO scheduler Scheduled Job Start: frappe.desk.page.backups.backups.delete_downloadable_backups for my_site
2021-04-18 14:19:46,984 INFO scheduler Scheduled Job Complete: frappe.desk.page.backups.backups.delete_downloadable_backups for my_site
2021-04-18 14:19:47,125 INFO scheduler Scheduled Job Start: frappe.utils.error.collect_error_snapshots for my_site
2021-04-18 14:19:47,475 INFO scheduler Scheduled Job Complete: frappe.utils.error.collect_error_snapshots for my_site
2021-04-18 14:19:47,558 INFO scheduler Scheduled Job Start: frappe.model.utils.user_settings.sync_user_settings for my_site
2021-04-18 14:19:48,003 INFO scheduler Scheduled Job Complete: frappe.model.utils.user_settings.sync_user_settings for my_site
2021-04-18 14:19:48,093 INFO scheduler Scheduled Job Start: frappe.model.utils.link_count.update_link_count for my_site
2021-04-18 14:19:48,456 INFO scheduler Scheduled Job Complete: frappe.model.utils.link_count.update_link_count for my_site
2021-04-18 14:19:48,538 INFO scheduler Scheduled Job Start: frappe.monitor.flush for my_site
2021-04-18 14:19:48,694 INFO scheduler Scheduled Job Complete: frappe.monitor.flush for my_site
2021-04-18 14:19:48,763 INFO scheduler Scheduled Job Start: frappe.utils.global_search.sync_global_search for my_site
2021-04-18 14:19:48,930 INFO scheduler Scheduled Job Complete: frappe.utils.global_search.sync_global_search for my_site
2021-04-18 14:19:49,003 INFO scheduler Scheduled Job Start: frappe.integrations.doctype.razorpay_settings.razorpay_settings.capture_payment for my_site
2021-04-18 14:19:49,401 INFO scheduler Scheduled Job Complete: frappe.integrations.doctype.razorpay_settings.razorpay_settings.capture_payment for my_site
2021-04-18 14:19:49,478 INFO scheduler Scheduled Job Start: frappe.email.doctype.email_account.email_account.notify_unreplied for my_site
2021-04-18 14:19:49,789 INFO scheduler Scheduled Job Complete: frappe.email.doctype.email_account.email_account.notify_unreplied for my_site
2021-04-18 14:19:49,863 INFO scheduler Scheduled Job Start: frappe.email.doctype.email_account.email_account.pull for my_site
2021-04-18 14:19:50,214 INFO scheduler Scheduled Job Complete: frappe.email.doctype.email_account.email_account.pull for my_site
2021-04-18 14:19:50,314 INFO scheduler Scheduled Job Start: frappe.email.queue.flush for my_site
2021-04-18 14:19:50,690 INFO scheduler Scheduled Job Complete: frappe.email.queue.flush for my_site
2021-04-18 14:19:50,769 INFO scheduler Scheduled Job Start: frappe.twofactor.delete_all_barcodes_for_users for my_site
2021-04-18 14:19:51,197 INFO scheduler Scheduled Job Complete: frappe.twofactor.delete_all_barcodes_for_users for my_site
2021-04-18 14:19:51,280 INFO scheduler Scheduled Job Start: frappe.website.doctype.web_page.web_page.check_publish_status for my_site
2021-04-18 14:19:51,737 INFO scheduler Scheduled Job Complete: frappe.website.doctype.web_page.web_page.check_publish_status for my_site
2021-04-18 14:19:51,822 INFO scheduler Scheduled Job Start: frappe.oauth.delete_oauth2_data for my_site
2021-04-18 14:19:52,200 INFO scheduler Scheduled Job Complete: frappe.oauth.delete_oauth2_data for my_site
2021-04-18 14:20:44,663 DEBUG scheduler Queued events for site my_site
2021-04-18 14:20:44,700 INFO scheduler Scheduled Job Start: frappe.monitor.flush for my_site
2021-04-18 14:20:44,913 INFO scheduler Scheduled Job Complete: frappe.monitor.flush for my_site
2021-04-18 14:20:45,037 INFO scheduler Scheduled Job Start: frappe.utils.global_search.sync_global_search for my_site
2021-04-18 14:20:45,294 INFO scheduler Scheduled Job Complete: frappe.utils.global_search.sync_global_search for my_site
2021-04-18 14:20:45,391 INFO scheduler Scheduled Job Start: frappe.integrations.doctype.razorpay_settings.razorpay_settings.capture_payment for my_site
2021-04-18 14:20:46,175 INFO scheduler Scheduled Job Complete: frappe.integrations.doctype.razorpay_settings.razorpay_settings.capture_payment for my_site
2021-04-18 14:20:46,283 INFO scheduler Scheduled Job Start: frappe.email.doctype.email_account.email_account.notify_unreplied for my_site
2021-04-18 14:20:46,757 INFO scheduler Scheduled Job Complete: frappe.email.doctype.email_account.email_account.notify_unreplied for my_site
2021-04-18 14:20:46,870 INFO scheduler Scheduled Job Start: frappe.email.doctype.email_account.email_account.pull for my_site
2021-04-18 14:20:47,341 INFO scheduler Scheduled Job Complete: frappe.email.doctype.email_account.email_account.pull for my_site
2021-04-18 14:20:47,455 INFO scheduler Scheduled Job Start: frappe.email.queue.flush for my_site
2021-04-18 14:20:47,842 INFO scheduler Scheduled Job Complete: frappe.email.queue.flush for my_site
2021-04-18 14:21:44,872 DEBUG scheduler Queued events for site my_site
2021-04-18 14:22:45,054 DEBUG scheduler Queued events for site my_site
2021-04-18 14:23:45,237 DEBUG scheduler Queued events for site my_site
2021-04-18 14:24:45,443 DEBUG scheduler Queued events for site my_site
2021-04-18 14:24:45,478 INFO scheduler Scheduled Job Start: frappe.monitor.flush for my_site
2021-04-18 14:24:45,643 INFO scheduler Scheduled Job Complete: frappe.monitor.flush for my_site
2021-04-18 14:24:45,725 INFO scheduler Scheduled Job Start: frappe.utils.global_search.sync_global_search for my_site
2021-04-18 14:24:45,890 INFO scheduler Scheduled Job Complete: frappe.utils.global_search.sync_global_search for my_site
2021-04-18 14:24:45,962 INFO scheduler Scheduled Job Start: frappe.integrations.doctype.razorpay_settings.razorpay_settings.capture_payment for my_site
2021-04-18 14:24:46,344 INFO scheduler Scheduled Job Complete: frappe.integrations.doctype.razorpay_settings.razorpay_settings.capture_payment for my_site
2021-04-18 14:24:46,414 INFO scheduler Scheduled Job Start: frappe.email.doctype.email_account.email_account.notify_unreplied for my_site
2021-04-18 14:24:46,714 INFO scheduler Scheduled Job Complete: frappe.email.doctype.email_account.email_account.notify_unreplied for my_site
2021-04-18 14:24:46,784 INFO scheduler Scheduled Job Start: frappe.email.doctype.email_account.email_account.pull for my_site
2021-04-18 14:24:47,089 INFO scheduler Scheduled Job Complete: frappe.email.doctype.email_account.email_account.pull for my_site
2021-04-18 14:24:47,161 INFO scheduler Scheduled Job Start: frappe.email.queue.flush for my_site
2021-04-18 14:24:47,438 INFO scheduler Scheduled Job Complete: frappe.email.queue.flush for my_site
2021-04-18 14:26:39,301 DEBUG scheduler Queued events for site my_site
2021-04-18 14:27:39,515 DEBUG scheduler Queued events for site my_site
2021-04-18 14:28:39,736 DEBUG scheduler Queued events for site my_site
2021-04-18 14:28:39,785 INFO scheduler Scheduled Job Start: frappe.monitor.flush for my_site
2021-04-18 14:28:40,175 INFO scheduler Scheduled Job Complete: frappe.monitor.flush for my_site
2021-04-18 14:28:40,262 INFO scheduler Scheduled Job Start: frappe.utils.global_search.sync_global_search for my_site
2021-04-18 14:28:40,446 INFO scheduler Scheduled Job Complete: frappe.utils.global_search.sync_global_search for my_site
2021-04-18 14:28:40,522 INFO scheduler Scheduled Job Start: frappe.integrations.doctype.razorpay_settings.razorpay_settings.capture_payment for my_site
2021-04-18 14:28:40,958 INFO scheduler Scheduled Job Complete: frappe.integrations.doctype.razorpay_settings.razorpay_settings.capture_payment for my_site
2021-04-18 14:28:41,029 INFO scheduler Scheduled Job Start: frappe.email.doctype.email_account.email_account.notify_unreplied for my_site
2021-04-18 14:28:41,370 INFO scheduler Scheduled Job Complete: frappe.email.doctype.email_account.email_account.notify_unreplied for my_site
2021-04-18 14:28:41,438 INFO scheduler Scheduled Job Start: frappe.email.doctype.email_account.email_account.pull for my_site
2021-04-18 14:28:41,767 INFO scheduler Scheduled Job Complete: frappe.email.doctype.email_account.email_account.pull for my_site
2021-04-18 14:28:41,840 INFO scheduler Scheduled Job Start: frappe.email.queue.flush for my_site
2021-04-18 14:28:42,108 INFO scheduler Scheduled Job Complete: frappe.email.queue.flush for my_site
2021-04-18 14:29:39,960 DEBUG scheduler Queued events for site my_site
2021-04-18 14:30:40,161 DEBUG scheduler Queued events for site my_site
2021-04-18 14:30:40,213 INFO scheduler Scheduled Job Start: frappe.twofactor.delete_all_barcodes_for_users for my_site
2021-04-18 14:30:40,740 INFO scheduler Scheduled Job Complete: frappe.twofactor.delete_all_barcodes_for_users for my_site
2021-04-18 14:30:40,846 INFO scheduler Scheduled Job Start: frappe.website.doctype.web_page.web_page.check_publish_status for my_site
2021-04-18 14:30:41,315 INFO scheduler Scheduled Job Complete: frappe.website.doctype.web_page.web_page.check_publish_status for my_site
2021-04-18 14:30:41,399 INFO scheduler Scheduled Job Start: frappe.oauth.delete_oauth2_data for my_site
2021-04-18 14:30:41,803 INFO scheduler Scheduled Job Complete: frappe.oauth.delete_oauth2_data for my_site
2021-04-18 14:31:40,397 DEBUG scheduler Queued events for site my_site
2021-04-18 14:32:40,628 DEBUG scheduler Queued events for site my_site
2021-04-18 14:32:40,657 INFO scheduler Scheduled Job Start: frappe.monitor.flush for my_site
2021-04-18 14:32:40,817 INFO scheduler Scheduled Job Complete: frappe.monitor.flush for my_site
2021-04-18 14:32:40,891 INFO scheduler Scheduled Job Start: frappe.utils.global_search.sync_global_search for my_site
2021-04-18 14:32:41,054 INFO scheduler Scheduled Job Complete: frappe.utils.global_search.sync_global_search for my_site
2021-04-18 14:32:41,128 INFO scheduler Scheduled Job Start: frappe.integrations.doctype.razorpay_settings.razorpay_settings.capture_payment for my_site
2021-04-18 14:32:41,516 INFO scheduler Scheduled Job Complete: frappe.integrations.doctype.razorpay_settings.razorpay_settings.capture_payment for my_site
2021-04-18 14:32:41,592 INFO scheduler Scheduled Job Start: frappe.email.doctype.email_account.email_account.notify_unreplied for my_site
2021-04-18 14:32:41,906 INFO scheduler Scheduled Job Complete: frappe.email.doctype.email_account.email_account.notify_unreplied for my_site
2021-04-18 14:32:41,977 INFO scheduler Scheduled Job Start: frappe.email.doctype.email_account.email_account.pull for my_site
2021-04-18 14:32:42,298 INFO scheduler Scheduled Job Complete: frappe.email.doctype.email_account.email_account.pull for my_site
2021-04-18 14:32:42,370 INFO scheduler Scheduled Job Start: frappe.email.queue.flush for my_site
2021-04-18 14:32:42,640 INFO scheduler Scheduled Job Complete: frappe.email.queue.flush for my_site
2021-04-18 14:33:40,850 DEBUG scheduler Queued events for site my_site
2021-04-18 14:34:41,146 DEBUG scheduler Queued events for site my_site
2021-04-18 14:35:41,334 DEBUG scheduler Queued events for site my_site
2021-04-18 14:36:41,559 DEBUG scheduler Queued events for site my_site
2021-04-18 14:36:41,587 INFO scheduler Scheduled Job Start: frappe.monitor.flush for my_site
2021-04-18 14:36:41,742 INFO scheduler Scheduled Job Complete: frappe.monitor.flush for my_site
2021-04-18 14:36:41,810 INFO scheduler Scheduled Job Start: frappe.utils.global_search.sync_global_search for my_site
2021-04-18 14:36:41,964 INFO scheduler Scheduled Job Complete: frappe.utils.global_search.sync_global_search for my_site
2021-04-18 14:36:42,037 INFO scheduler Scheduled Job Start: frappe.integrations.doctype.razorpay_settings.razorpay_settings.capture_payment for my_site
2021-04-18 14:36:42,422 INFO scheduler Scheduled Job Complete: frappe.integrations.doctype.razorpay_settings.razorpay_settings.capture_payment for my_site
2021-04-18 14:36:42,492 INFO scheduler Scheduled Job Start: frappe.email.doctype.email_account.email_account.notify_unreplied for my_site
2021-04-18 14:36:42,781 INFO scheduler Scheduled Job Complete: frappe.email.doctype.email_account.email_account.notify_unreplied for my_site
2021-04-18 14:36:42,849 INFO scheduler Scheduled Job Start: frappe.email.doctype.email_account.email_account.pull for my_site
2021-04-18 14:36:43,144 INFO scheduler Scheduled Job Complete: frappe.email.doctype.email_account.email_account.pull for my_site
2021-04-18 14:36:43,210 INFO scheduler Scheduled Job Start: frappe.email.queue.flush for my_site
2021-04-18 14:36:43,474 INFO scheduler Scheduled Job Complete: frappe.email.queue.flush for my_site
2021-04-18 14:37:41,753 DEBUG scheduler Queued events for site my_site
2021-04-18 14:38:41,936 DEBUG scheduler Queued events for site my_site
2021-04-18 14:39:42,121 DEBUG scheduler Queued events for site my_site
2021-04-18 14:40:42,363 DEBUG scheduler Queued events for site my_site
2021-04-18 14:40:42,393 INFO scheduler Scheduled Job Start: frappe.monitor.flush for my_site
2021-04-18 14:40:42,561 INFO scheduler Scheduled Job Complete: frappe.monitor.flush for my_site
2021-04-18 14:40:42,637 INFO scheduler Scheduled Job Start: frappe.utils.global_search.sync_global_search for my_site
2021-04-18 14:40:42,792 INFO scheduler Scheduled Job Complete: frappe.utils.global_search.sync_global_search for my_site
2021-04-18 14:40:42,869 INFO scheduler Scheduled Job Start: frappe.integrations.doctype.razorpay_settings.razorpay_settings.capture_payment for my_site
2021-04-18 14:40:43,278 INFO scheduler Scheduled Job Complete: frappe.integrations.doctype.razorpay_settings.razorpay_settings.capture_payment for my_site
2021-04-18 14:40:43,351 INFO scheduler Scheduled Job Start: frappe.email.doctype.email_account.email_account.notify_unreplied for my_site
2021-04-18 14:40:43,649 INFO scheduler Scheduled Job Complete: frappe.email.doctype.email_account.email_account.notify_unreplied for my_site
2021-04-18 14:40:43,719 INFO scheduler Scheduled Job Start: frappe.email.doctype.email_account.email_account.pull for my_site
2021-04-18 14:40:44,024 INFO scheduler Scheduled Job Complete: frappe.email.doctype.email_account.email_account.pull for my_site
2021-04-18 14:40:44,096 INFO scheduler Scheduled Job Start: frappe.email.queue.flush for my_site
2021-04-18 14:40:44,367 INFO scheduler Scheduled Job Complete: frappe.email.queue.flush for my_site
2021-04-18 14:41:42,573 DEBUG scheduler Queued events for site my_site
2021-04-18 14:42:42,774 DEBUG scheduler Queued events for site my_site
2021-04-18 14:43:42,967 DEBUG scheduler Queued events for site my_site
2021-04-18 14:44:43,231 DEBUG scheduler Queued events for site my_site
2021-04-18 14:44:43,269 INFO scheduler Scheduled Job Start: frappe.monitor.flush for my_site
2021-04-18 14:44:43,462 INFO scheduler Scheduled Job Complete: frappe.monitor.flush for my_site
2021-04-18 14:44:43,554 INFO scheduler Scheduled Job Start: frappe.utils.global_search.sync_global_search for my_site
2021-04-18 14:44:43,739 INFO scheduler Scheduled Job Complete: frappe.utils.global_search.sync_global_search for my_site
2021-04-18 14:44:43,817 INFO scheduler Scheduled Job Start: frappe.integrations.doctype.razorpay_settings.razorpay_settings.capture_payment for my_site
2021-04-18 14:44:44,204 INFO scheduler Scheduled Job Complete: frappe.integrations.doctype.razorpay_settings.razorpay_settings.capture_payment for my_site
2021-04-18 14:44:44,274 INFO scheduler Scheduled Job Start: frappe.email.doctype.email_account.email_account.notify_unreplied for my_site
2021-04-18 14:44:44,564 INFO scheduler Scheduled Job Complete: frappe.email.doctype.email_account.email_account.notify_unreplied for my_site
2021-04-18 14:44:44,631 INFO scheduler Scheduled Job Start: frappe.email.doctype.email_account.email_account.pull for my_site
2021-04-18 14:44:44,933 INFO scheduler Scheduled Job Complete: frappe.email.doctype.email_account.email_account.pull for my_site
2021-04-18 14:44:45,002 INFO scheduler Scheduled Job Start: frappe.email.queue.flush for my_site
2021-04-18 14:44:45,273 INFO scheduler Scheduled Job Complete: frappe.email.queue.flush for my_site
2021-04-18 14:45:43,435 DEBUG scheduler Queued events for site my_site
2021-04-18 14:45:43,485 INFO scheduler Scheduled Job Start: frappe.twofactor.delete_all_barcodes_for_users for my_site
2021-04-18 14:45:43,841 INFO scheduler Scheduled Job Complete: frappe.twofactor.delete_all_barcodes_for_users for my_site
2021-04-18 14:45:43,920 INFO scheduler Scheduled Job Start: frappe.website.doctype.web_page.web_page.check_publish_status for my_site
2021-04-18 14:45:44,322 INFO scheduler Scheduled Job Complete: frappe.website.doctype.web_page.web_page.check_publish_status for my_site
2021-04-18 14:45:44,410 INFO scheduler Scheduled Job Start: frappe.oauth.delete_oauth2_data for my_site
2021-04-18 14:45:44,769 INFO scheduler Scheduled Job Complete: frappe.oauth.delete_oauth2_data for my_site
2021-04-18 14:46:43,678 DEBUG scheduler Queued events for site my_site
2021-04-18 14:47:43,929 DEBUG scheduler Queued events for site my_site
2021-04-18 14:48:44,158 DEBUG scheduler Queued events for site my_site
2021-04-18 14:48:44,194 INFO scheduler Scheduled Job Start: frappe.monitor.flush for my_site
2021-04-18 14:48:44,366 INFO scheduler Scheduled Job Complete: frappe.monitor.flush for my_site
2021-04-18 14:48:44,449 INFO scheduler Scheduled Job Start: frappe.utils.global_search.sync_global_search for my_site
2021-04-18 14:48:44,619 INFO scheduler Scheduled Job Complete: frappe.utils.global_search.sync_global_search for my_site
2021-04-18 14:48:44,690 INFO scheduler Scheduled Job Start: frappe.integrations.doctype.razorpay_settings.razorpay_settings.capture_payment for my_site
2021-04-18 14:48:45,074 INFO scheduler Scheduled Job Complete: frappe.integrations.doctype.razorpay_settings.razorpay_settings.capture_payment for my_site
2021-04-18 14:48:45,143 INFO scheduler Scheduled Job Start: frappe.email.doctype.email_account.email_account.notify_unreplied for my_site
2021-04-18 14:48:45,437 INFO scheduler Scheduled Job Complete: frappe.email.doctype.email_account.email_account.notify_unreplied for my_site
2021-04-18 14:48:45,506 INFO scheduler Scheduled Job Start: frappe.email.doctype.email_account.email_account.pull for my_site
2021-04-18 14:48:45,815 INFO scheduler Scheduled Job Complete: frappe.email.doctype.email_account.email_account.pull for my_site
2021-04-18 14:48:45,887 INFO scheduler Scheduled Job Start: frappe.email.queue.flush for my_site
2021-04-18 14:48:46,148 INFO scheduler Scheduled Job Complete: frappe.email.queue.flush for my_site
2021-04-18 14:49:44,342 DEBUG scheduler Queued events for site my_site
2021-04-18 14:51:41,824 DEBUG scheduler Queued events for site my_site
2021-04-18 14:52:42,057 DEBUG scheduler Queued events for site my_site
2021-04-18 14:52:42,091 INFO scheduler Scheduled Job Start: frappe.monitor.flush for my_site
2021-04-18 14:52:42,470 INFO scheduler Scheduled Job Complete: frappe.monitor.flush for my_site
2021-04-18 14:52:42,556 INFO scheduler Scheduled Job Start: frappe.utils.global_search.sync_global_search for my_site
2021-04-18 14:52:42,709 INFO scheduler Scheduled Job Complete: frappe.utils.global_search.sync_global_search for my_site
2021-04-18 14:52:42,787 INFO scheduler Scheduled Job Start: frappe.integrations.doctype.razorpay_settings.razorpay_settings.capture_payment for my_site
2021-04-18 14:52:43,247 INFO scheduler Scheduled Job Complete: frappe.integrations.doctype.razorpay_settings.razorpay_settings.capture_payment for my_site
2021-04-18 14:52:43,321 INFO scheduler Scheduled Job Start: frappe.email.doctype.email_account.email_account.notify_unreplied for my_site
2021-04-18 14:52:43,672 INFO scheduler Scheduled Job Complete: frappe.email.doctype.email_account.email_account.notify_unreplied for my_site
2021-04-18 14:52:43,740 INFO scheduler Scheduled Job Start: frappe.email.doctype.email_account.email_account.pull for my_site
2021-04-18 14:52:44,072 INFO scheduler Scheduled Job Complete: frappe.email.doctype.email_account.email_account.pull for my_site
2021-04-18 14:52:44,140 INFO scheduler Scheduled Job Start: frappe.email.queue.flush for my_site
2021-04-18 14:52:44,422 INFO scheduler Scheduled Job Complete: frappe.email.queue.flush for my_site
2021-04-18 14:53:42,244 DEBUG scheduler Queued events for site my_site
2021-04-18 14:54:42,429 DEBUG scheduler Queued events for site my_site
2021-04-18 14:56:20,760 DEBUG scheduler Queued events for site my_site
2021-04-18 14:56:20,789 INFO scheduler Scheduled Job Start: frappe.monitor.flush for my_site
2021-04-18 14:56:21,167 INFO scheduler Scheduled Job Complete: frappe.monitor.flush for my_site
2021-04-18 14:56:21,257 INFO scheduler Scheduled Job Start: frappe.utils.global_search.sync_global_search for my_site
2021-04-18 14:56:21,455 INFO scheduler Scheduled Job Complete: frappe.utils.global_search.sync_global_search for my_site
2021-04-18 14:56:21,533 INFO scheduler Scheduled Job Start: frappe.integrations.doctype.razorpay_settings.razorpay_settings.capture_payment for my_site
2021-04-18 14:56:21,968 INFO scheduler Scheduled Job Complete: frappe.integrations.doctype.razorpay_settings.razorpay_settings.capture_payment for my_site
2021-04-18 14:56:22,037 INFO scheduler Scheduled Job Start: frappe.email.doctype.email_account.email_account.notify_unreplied for my_site
2021-04-18 14:56:22,374 INFO scheduler Scheduled Job Complete: frappe.email.doctype.email_account.email_account.notify_unreplied for my_site
2021-04-18 14:56:22,443 INFO scheduler Scheduled Job Start: frappe.email.doctype.email_account.email_account.pull for my_site
2021-04-18 14:56:22,795 INFO scheduler Scheduled Job Complete: frappe.email.doctype.email_account.email_account.pull for my_site
2021-04-18 14:56:22,876 INFO scheduler Scheduled Job Start: frappe.email.queue.flush for my_site
2021-04-18 14:56:23,196 INFO scheduler Scheduled Job Complete: frappe.email.queue.flush for my_site
2021-04-18 14:57:20,974 DEBUG scheduler Queued events for site my_site
2021-04-18 14:58:21,152 DEBUG scheduler Queued events for site my_site
2021-04-18 14:59:21,321 DEBUG scheduler Queued events for site my_site
2021-04-18 15:02:04,078 INFO scheduler Scheduled Job Start: frappe.email.doctype.newsletter.newsletter.send_scheduled_email for my_site
2021-04-18 15:02:04,186 DEBUG scheduler Queued events for site my_site
2021-04-18 15:02:04,817 INFO scheduler Scheduled Job Complete: frappe.email.doctype.newsletter.newsletter.send_scheduled_email for my_site
2021-04-18 15:02:04,907 INFO scheduler Scheduled Job Start: frappe.integrations.doctype.google_calendar.google_calendar.sync for my_site
2021-04-18 15:02:05,466 INFO scheduler Scheduled Job Complete: frappe.integrations.doctype.google_calendar.google_calendar.sync for my_site
2021-04-18 15:02:05,551 INFO scheduler Scheduled Job Start: frappe.desk.form.document_follow.send_hourly_updates for my_site
2021-04-18 15:02:05,945 INFO scheduler Scheduled Job Complete: frappe.desk.form.document_follow.send_hourly_updates for my_site
2021-04-18 15:02:06,036 INFO scheduler Scheduled Job Start: frappe.deferred_insert.save_to_db for my_site
2021-04-18 15:02:06,395 INFO scheduler Scheduled Job Complete: frappe.deferred_insert.save_to_db for my_site
2021-04-18 15:02:06,476 INFO scheduler Scheduled Job Start: frappe.desk.page.backups.backups.delete_downloadable_backups for my_site
2021-04-18 15:02:06,851 INFO scheduler Scheduled Job Complete: frappe.desk.page.backups.backups.delete_downloadable_backups for my_site
2021-04-18 15:02:06,932 INFO scheduler Scheduled Job Start: frappe.utils.error.collect_error_snapshots for my_site
2021-04-18 15:02:07,478 INFO scheduler Scheduled Job Complete: frappe.utils.error.collect_error_snapshots for my_site
2021-04-18 15:02:07,562 INFO scheduler Scheduled Job Start: frappe.model.utils.user_settings.sync_user_settings for my_site
2021-04-18 15:02:08,003 INFO scheduler Scheduled Job Complete: frappe.model.utils.user_settings.sync_user_settings for my_site
2021-04-18 15:02:08,113 INFO scheduler Scheduled Job Start: frappe.model.utils.link_count.update_link_count for my_site
2021-04-18 15:02:08,578 INFO scheduler Scheduled Job Complete: frappe.model.utils.link_count.update_link_count for my_site
2021-04-18 15:02:08,681 INFO scheduler Scheduled Job Start: frappe.monitor.flush for my_site
2021-04-18 15:02:08,879 INFO scheduler Scheduled Job Complete: frappe.monitor.flush for my_site
2021-04-18 15:02:08,976 INFO scheduler Scheduled Job Start: frappe.utils.global_search.sync_global_search for my_site
2021-04-18 15:02:09,168 INFO scheduler Scheduled Job Complete: frappe.utils.global_search.sync_global_search for my_site
2021-04-18 15:02:09,260 INFO scheduler Scheduled Job Start: frappe.integrations.doctype.razorpay_settings.razorpay_settings.capture_payment for my_site
2021-04-18 15:02:09,738 INFO scheduler Scheduled Job Complete: frappe.integrations.doctype.razorpay_settings.razorpay_settings.capture_payment for my_site
2021-04-18 15:02:09,808 INFO scheduler Scheduled Job Start: frappe.email.doctype.email_account.email_account.notify_unreplied for my_site
2021-04-18 15:02:10,148 INFO scheduler Scheduled Job Complete: frappe.email.doctype.email_account.email_account.notify_unreplied for my_site
2021-04-18 15:02:10,221 INFO scheduler Scheduled Job Start: frappe.email.doctype.email_account.email_account.pull for my_site
2021-04-18 15:02:10,615 INFO scheduler Scheduled Job Complete: frappe.email.doctype.email_account.email_account.pull for my_site
2021-04-18 15:02:10,704 INFO scheduler Scheduled Job Start: frappe.email.queue.flush for my_site
2021-04-18 15:02:10,975 INFO scheduler Scheduled Job Complete: frappe.email.queue.flush for my_site
2021-04-18 15:02:11,048 INFO scheduler Scheduled Job Start: frappe.twofactor.delete_all_barcodes_for_users for my_site
2021-04-18 15:02:11,444 INFO scheduler Scheduled Job Complete: frappe.twofactor.delete_all_barcodes_for_users for my_site
2021-04-18 15:02:11,533 INFO scheduler Scheduled Job Start: frappe.website.doctype.web_page.web_page.check_publish_status for my_site
2021-04-18 15:02:11,957 INFO scheduler Scheduled Job Complete: frappe.website.doctype.web_page.web_page.check_publish_status for my_site
2021-04-18 15:02:12,039 INFO scheduler Scheduled Job Start: frappe.oauth.delete_oauth2_data for my_site
2021-04-18 15:02:12,420 INFO scheduler Scheduled Job Complete: frappe.oauth.delete_oauth2_data for my_site
2021-04-18 15:13:08,295 DEBUG scheduler Queued events for site my_site
2021-04-18 15:13:08,346 INFO scheduler Scheduled Job Start: frappe.monitor.flush for my_site
2021-04-18 15:13:08,823 INFO scheduler Scheduled Job Complete: frappe.monitor.flush for my_site
2021-04-18 15:13:08,926 INFO scheduler Scheduled Job Start: frappe.utils.global_search.sync_global_search for my_site
2021-04-18 15:13:09,100 INFO scheduler Scheduled Job Complete: frappe.utils.global_search.sync_global_search for my_site
2021-04-18 15:13:09,178 INFO scheduler Scheduled Job Start: frappe.integrations.doctype.razorpay_settings.razorpay_settings.capture_payment for my_site
2021-04-18 15:13:09,626 INFO scheduler Scheduled Job Complete: frappe.integrations.doctype.razorpay_settings.razorpay_settings.capture_payment for my_site
2021-04-18 15:13:09,698 INFO scheduler Scheduled Job Start: frappe.email.doctype.email_account.email_account.notify_unreplied for my_site
2021-04-18 15:13:10,083 INFO scheduler Scheduled Job Complete: frappe.email.doctype.email_account.email_account.notify_unreplied for my_site
2021-04-18 15:13:10,170 INFO scheduler Scheduled Job Start: frappe.email.doctype.email_account.email_account.pull for my_site
2021-04-18 15:13:10,576 INFO scheduler Scheduled Job Complete: frappe.email.doctype.email_account.email_account.pull for my_site
2021-04-18 15:13:10,647 INFO scheduler Scheduled Job Start: frappe.email.queue.flush for my_site
2021-04-18 15:13:10,923 INFO scheduler Scheduled Job Complete: frappe.email.queue.flush for my_site
2021-04-18 15:14:08,495 DEBUG scheduler Queued events for site my_site
2021-04-18 15:15:08,703 DEBUG scheduler Queued events for site my_site
2021-04-18 15:15:08,753 INFO scheduler Scheduled Job Start: frappe.twofactor.delete_all_barcodes_for_users for my_site
2021-04-18 15:15:09,334 INFO scheduler Scheduled Job Complete: frappe.twofactor.delete_all_barcodes_for_users for my_site
2021-04-18 15:15:09,418 INFO scheduler Scheduled Job Start: frappe.website.doctype.web_page.web_page.check_publish_status for my_site
2021-04-18 15:15:09,849 INFO scheduler Scheduled Job Complete: frappe.website.doctype.web_page.web_page.check_publish_status for my_site
2021-04-18 15:15:09,937 INFO scheduler Scheduled Job Start: frappe.oauth.delete_oauth2_data for my_site
2021-04-18 15:15:10,323 INFO scheduler Scheduled Job Complete: frappe.oauth.delete_oauth2_data for my_site
2021-04-18 15:16:09,067 DEBUG scheduler Queued events for site my_site
2021-04-18 15:16:09,095 INFO scheduler Scheduled Job Start: frappe.monitor.flush for my_site
2021-04-18 15:16:09,275 INFO scheduler Scheduled Job Complete: frappe.monitor.flush for my_site
2021-04-18 15:16:09,356 INFO scheduler Scheduled Job Start: frappe.utils.global_search.sync_global_search for my_site
2021-04-18 15:16:09,528 INFO scheduler Scheduled Job Complete: frappe.utils.global_search.sync_global_search for my_site
2021-04-18 15:16:09,611 INFO scheduler Scheduled Job Start: frappe.integrations.doctype.razorpay_settings.razorpay_settings.capture_payment for my_site
2021-04-18 15:16:10,177 INFO scheduler Scheduled Job Complete: frappe.integrations.doctype.razorpay_settings.razorpay_settings.capture_payment for my_site
2021-04-18 15:16:10,258 INFO scheduler Scheduled Job Start: frappe.email.doctype.email_account.email_account.notify_unreplied for my_site
2021-04-18 15:16:10,709 INFO scheduler Scheduled Job Complete: frappe.email.doctype.email_account.email_account.notify_unreplied for my_site
2021-04-18 15:16:10,791 INFO scheduler Scheduled Job Start: frappe.email.doctype.email_account.email_account.pull for my_site
2021-04-18 15:16:11,137 INFO scheduler Scheduled Job Complete: frappe.email.doctype.email_account.email_account.pull for my_site
2021-04-18 15:16:11,226 INFO scheduler Scheduled Job Start: frappe.email.queue.flush for my_site
2021-04-18 15:16:11,542 INFO scheduler Scheduled Job Complete: frappe.email.queue.flush for my_site
2021-04-18 15:17:10,600 DEBUG scheduler Queued events for site my_site
2021-04-18 15:18:10,897 DEBUG scheduler Queued events for site my_site
2021-04-18 15:19:11,175 DEBUG scheduler Queued events for site my_site
2021-04-18 15:20:11,559 DEBUG scheduler Queued events for site my_site
2021-04-18 15:20:13,464 INFO scheduler Scheduled Job Start: frappe.monitor.flush for my_site
2021-04-18 15:20:13,615 INFO scheduler Scheduled Job Complete: frappe.monitor.flush for my_site
