2021-04-19 11:51:22,392 DEBUG scheduler Queued events for site my_site
2021-04-19 11:52:23,050 DEBUG scheduler Queued events for site my_site
2021-04-19 11:52:25,706 INFO scheduler Scheduled Job Start: frappe.monitor.flush for my_site
2021-04-19 11:52:25,914 INFO scheduler Scheduled Job Complete: frappe.monitor.flush for my_site
2021-04-19 11:52:26,023 INFO scheduler Scheduled Job Start: frappe.utils.global_search.sync_global_search for my_site
2021-04-19 11:52:26,231 INFO scheduler Scheduled Job Complete: frappe.utils.global_search.sync_global_search for my_site
2021-04-19 11:52:26,346 INFO scheduler Scheduled Job Start: frappe.integrations.doctype.razorpay_settings.razorpay_settings.capture_payment for my_site
2021-04-19 11:52:26,968 INFO scheduler Scheduled Job Complete: frappe.integrations.doctype.razorpay_settings.razorpay_settings.capture_payment for my_site
2021-04-19 11:52:27,072 INFO scheduler Scheduled Job Start: frappe.email.doctype.email_account.email_account.notify_unreplied for my_site
2021-04-19 11:52:27,525 INFO scheduler Scheduled Job Complete: frappe.email.doctype.email_account.email_account.notify_unreplied for my_site
2021-04-19 11:52:27,624 INFO scheduler Scheduled Job Start: frappe.email.doctype.email_account.email_account.pull for my_site
2021-04-19 11:52:28,092 INFO scheduler Scheduled Job Complete: frappe.email.doctype.email_account.email_account.pull for my_site
2021-04-19 11:52:28,221 INFO scheduler Scheduled Job Start: frappe.email.queue.flush for my_site
2021-04-19 11:52:28,556 INFO scheduler Scheduled Job Complete: frappe.email.queue.flush for my_site
2021-04-19 11:53:23,488 DEBUG scheduler Queued events for site my_site
2021-04-19 11:54:23,800 DEBUG scheduler Queued events for site my_site
2021-04-19 11:55:24,201 DEBUG scheduler Queued events for site my_site
2021-04-19 11:56:24,608 DEBUG scheduler Queued events for site my_site
2021-04-19 11:56:27,055 INFO scheduler Scheduled Job Start: frappe.monitor.flush for my_site
2021-04-19 11:56:27,249 INFO scheduler Scheduled Job Complete: frappe.monitor.flush for my_site
2021-04-19 11:56:27,324 INFO scheduler Scheduled Job Start: frappe.utils.global_search.sync_global_search for my_site
2021-04-19 11:56:27,477 INFO scheduler Scheduled Job Complete: frappe.utils.global_search.sync_global_search for my_site
2021-04-19 11:56:27,558 INFO scheduler Scheduled Job Start: frappe.integrations.doctype.razorpay_settings.razorpay_settings.capture_payment for my_site
2021-04-19 11:56:27,983 INFO scheduler Scheduled Job Complete: frappe.integrations.doctype.razorpay_settings.razorpay_settings.capture_payment for my_site
2021-04-19 11:56:28,057 INFO scheduler Scheduled Job Start: frappe.email.doctype.email_account.email_account.notify_unreplied for my_site
2021-04-19 11:56:28,387 INFO scheduler Scheduled Job Complete: frappe.email.doctype.email_account.email_account.notify_unreplied for my_site
2021-04-19 11:56:28,492 INFO scheduler Scheduled Job Start: frappe.email.doctype.email_account.email_account.pull for my_site
2021-04-19 11:56:28,957 INFO scheduler Scheduled Job Complete: frappe.email.doctype.email_account.email_account.pull for my_site
2021-04-19 11:56:29,037 INFO scheduler Scheduled Job Start: frappe.email.queue.flush for my_site
2021-04-19 11:56:29,336 INFO scheduler Scheduled Job Complete: frappe.email.queue.flush for my_site
2021-04-19 11:57:24,945 DEBUG scheduler Queued events for site my_site
2021-04-19 11:58:25,297 DEBUG scheduler Queued events for site my_site
2021-04-19 11:59:25,878 DEBUG scheduler Queued events for site my_site
2021-04-19 12:00:26,808 DEBUG scheduler Queued events for site my_site
2021-04-19 12:00:37,676 INFO scheduler Scheduled Job Start: frappe.email.doctype.newsletter.newsletter.send_scheduled_email for my_site
2021-04-19 12:00:38,465 INFO scheduler Scheduled Job Complete: frappe.email.doctype.newsletter.newsletter.send_scheduled_email for my_site
2021-04-19 12:00:38,648 INFO scheduler Scheduled Job Start: frappe.integrations.doctype.google_calendar.google_calendar.sync for my_site
2021-04-19 12:00:39,400 INFO scheduler Scheduled Job Complete: frappe.integrations.doctype.google_calendar.google_calendar.sync for my_site
2021-04-19 12:00:39,595 INFO scheduler Scheduled Job Start: frappe.desk.form.document_follow.send_hourly_updates for my_site
2021-04-19 12:00:40,080 INFO scheduler Scheduled Job Complete: frappe.desk.form.document_follow.send_hourly_updates for my_site
2021-04-19 12:00:40,184 INFO scheduler Scheduled Job Start: frappe.deferred_insert.save_to_db for my_site
2021-04-19 12:00:40,631 INFO scheduler Scheduled Job Complete: frappe.deferred_insert.save_to_db for my_site
2021-04-19 12:00:40,724 INFO scheduler Scheduled Job Start: frappe.desk.page.backups.backups.delete_downloadable_backups for my_site
2021-04-19 12:00:41,462 INFO scheduler Scheduled Job Complete: frappe.desk.page.backups.backups.delete_downloadable_backups for my_site
2021-04-19 12:00:41,584 INFO scheduler Scheduled Job Start: frappe.utils.error.collect_error_snapshots for my_site
2021-04-19 12:00:42,122 INFO scheduler Scheduled Job Complete: frappe.utils.error.collect_error_snapshots for my_site
2021-04-19 12:00:42,243 INFO scheduler Scheduled Job Start: frappe.model.utils.user_settings.sync_user_settings for my_site
2021-04-19 12:00:42,739 INFO scheduler Scheduled Job Complete: frappe.model.utils.user_settings.sync_user_settings for my_site
2021-04-19 12:00:42,846 INFO scheduler Scheduled Job Start: frappe.model.utils.link_count.update_link_count for my_site
2021-04-19 12:00:43,317 INFO scheduler Scheduled Job Complete: frappe.model.utils.link_count.update_link_count for my_site
2021-04-19 12:00:43,428 INFO scheduler Scheduled Job Start: frappe.monitor.flush for my_site
2021-04-19 12:00:43,625 INFO scheduler Scheduled Job Complete: frappe.monitor.flush for my_site
2021-04-19 12:00:43,717 INFO scheduler Scheduled Job Start: frappe.utils.global_search.sync_global_search for my_site
2021-04-19 12:00:43,900 INFO scheduler Scheduled Job Complete: frappe.utils.global_search.sync_global_search for my_site
2021-04-19 12:00:43,985 INFO scheduler Scheduled Job Start: frappe.integrations.doctype.razorpay_settings.razorpay_settings.capture_payment for my_site
2021-04-19 12:00:44,444 INFO scheduler Scheduled Job Complete: frappe.integrations.doctype.razorpay_settings.razorpay_settings.capture_payment for my_site
2021-04-19 12:00:44,526 INFO scheduler Scheduled Job Start: frappe.email.doctype.email_account.email_account.notify_unreplied for my_site
2021-04-19 12:00:44,935 INFO scheduler Scheduled Job Complete: frappe.email.doctype.email_account.email_account.notify_unreplied for my_site
2021-04-19 12:00:45,051 INFO scheduler Scheduled Job Start: frappe.email.doctype.email_account.email_account.pull for my_site
2021-04-19 12:00:45,440 INFO scheduler Scheduled Job Complete: frappe.email.doctype.email_account.email_account.pull for my_site
2021-04-19 12:00:45,552 INFO scheduler Scheduled Job Start: frappe.email.queue.flush for my_site
2021-04-19 12:00:45,891 INFO scheduler Scheduled Job Complete: frappe.email.queue.flush for my_site
2021-04-19 12:00:45,974 INFO scheduler Scheduled Job Start: frappe.twofactor.delete_all_barcodes_for_users for my_site
2021-04-19 12:00:46,478 INFO scheduler Scheduled Job Complete: frappe.twofactor.delete_all_barcodes_for_users for my_site
2021-04-19 12:00:46,575 INFO scheduler Scheduled Job Start: frappe.website.doctype.web_page.web_page.check_publish_status for my_site
2021-04-19 12:00:47,106 INFO scheduler Scheduled Job Complete: frappe.website.doctype.web_page.web_page.check_publish_status for my_site
2021-04-19 12:00:47,211 INFO scheduler Scheduled Job Start: frappe.oauth.delete_oauth2_data for my_site
2021-04-19 12:00:47,865 INFO scheduler Scheduled Job Complete: frappe.oauth.delete_oauth2_data for my_site
2021-04-19 12:01:27,197 DEBUG scheduler Queued events for site my_site
2021-04-19 12:02:27,613 DEBUG scheduler Queued events for site my_site
2021-04-19 12:03:28,020 DEBUG scheduler Queued events for site my_site
2021-04-19 12:04:28,603 DEBUG scheduler Queued events for site my_site
2021-04-19 12:04:31,096 INFO scheduler Scheduled Job Start: frappe.monitor.flush for my_site
2021-04-19 12:04:31,342 INFO scheduler Scheduled Job Complete: frappe.monitor.flush for my_site
2021-04-19 12:04:31,439 INFO scheduler Scheduled Job Start: frappe.utils.global_search.sync_global_search for my_site
2021-04-19 12:04:31,638 INFO scheduler Scheduled Job Complete: frappe.utils.global_search.sync_global_search for my_site
2021-04-19 12:04:31,734 INFO scheduler Scheduled Job Start: frappe.integrations.doctype.razorpay_settings.razorpay_settings.capture_payment for my_site
2021-04-19 12:04:32,210 INFO scheduler Scheduled Job Complete: frappe.integrations.doctype.razorpay_settings.razorpay_settings.capture_payment for my_site
2021-04-19 12:04:32,292 INFO scheduler Scheduled Job Start: frappe.email.doctype.email_account.email_account.notify_unreplied for my_site
2021-04-19 12:04:32,641 INFO scheduler Scheduled Job Complete: frappe.email.doctype.email_account.email_account.notify_unreplied for my_site
2021-04-19 12:04:32,721 INFO scheduler Scheduled Job Start: frappe.email.doctype.email_account.email_account.pull for my_site
2021-04-19 12:04:33,158 INFO scheduler Scheduled Job Complete: frappe.email.doctype.email_account.email_account.pull for my_site
2021-04-19 12:04:33,242 INFO scheduler Scheduled Job Start: frappe.email.queue.flush for my_site
2021-04-19 12:04:33,555 INFO scheduler Scheduled Job Complete: frappe.email.queue.flush for my_site
2021-04-19 12:05:29,024 DEBUG scheduler Queued events for site my_site
2021-04-19 12:06:29,440 DEBUG scheduler Queued events for site my_site
2021-04-19 12:07:29,820 DEBUG scheduler Queued events for site my_site
2021-04-19 12:08:30,415 DEBUG scheduler Queued events for site my_site
2021-04-19 12:08:33,077 INFO scheduler Scheduled Job Start: frappe.monitor.flush for my_site
2021-04-19 12:08:33,252 INFO scheduler Scheduled Job Complete: frappe.monitor.flush for my_site
2021-04-19 12:08:33,351 INFO scheduler Scheduled Job Start: frappe.utils.global_search.sync_global_search for my_site
2021-04-19 12:08:33,628 INFO scheduler Scheduled Job Complete: frappe.utils.global_search.sync_global_search for my_site
2021-04-19 12:08:33,724 INFO scheduler Scheduled Job Start: frappe.integrations.doctype.razorpay_settings.razorpay_settings.capture_payment for my_site
2021-04-19 12:08:34,250 INFO scheduler Scheduled Job Complete: frappe.integrations.doctype.razorpay_settings.razorpay_settings.capture_payment for my_site
2021-04-19 12:08:34,383 INFO scheduler Scheduled Job Start: frappe.email.doctype.email_account.email_account.notify_unreplied for my_site
2021-04-19 12:08:34,813 INFO scheduler Scheduled Job Complete: frappe.email.doctype.email_account.email_account.notify_unreplied for my_site
2021-04-19 12:08:34,897 INFO scheduler Scheduled Job Start: frappe.email.doctype.email_account.email_account.pull for my_site
2021-04-19 12:08:35,391 INFO scheduler Scheduled Job Complete: frappe.email.doctype.email_account.email_account.pull for my_site
2021-04-19 12:08:35,493 INFO scheduler Scheduled Job Start: frappe.email.queue.flush for my_site
2021-04-19 12:08:35,806 INFO scheduler Scheduled Job Complete: frappe.email.queue.flush for my_site
2021-04-19 12:09:30,815 DEBUG scheduler Queued events for site my_site
2021-04-19 12:10:31,220 DEBUG scheduler Queued events for site my_site
2021-04-19 12:11:31,617 DEBUG scheduler Queued events for site my_site
2021-04-19 12:12:32,214 DEBUG scheduler Queued events for site my_site
2021-04-19 12:12:34,784 INFO scheduler Scheduled Job Start: frappe.monitor.flush for my_site
2021-04-19 12:12:34,980 INFO scheduler Scheduled Job Complete: frappe.monitor.flush for my_site
2021-04-19 12:12:35,077 INFO scheduler Scheduled Job Start: frappe.utils.global_search.sync_global_search for my_site
2021-04-19 12:12:35,298 INFO scheduler Scheduled Job Complete: frappe.utils.global_search.sync_global_search for my_site
2021-04-19 12:12:35,396 INFO scheduler Scheduled Job Start: frappe.integrations.doctype.razorpay_settings.razorpay_settings.capture_payment for my_site
2021-04-19 12:12:35,922 INFO scheduler Scheduled Job Complete: frappe.integrations.doctype.razorpay_settings.razorpay_settings.capture_payment for my_site
2021-04-19 12:12:36,023 INFO scheduler Scheduled Job Start: frappe.email.doctype.email_account.email_account.notify_unreplied for my_site
2021-04-19 12:12:36,439 INFO scheduler Scheduled Job Complete: frappe.email.doctype.email_account.email_account.notify_unreplied for my_site
2021-04-19 12:12:36,544 INFO scheduler Scheduled Job Start: frappe.email.doctype.email_account.email_account.pull for my_site
2021-04-19 12:12:36,982 INFO scheduler Scheduled Job Complete: frappe.email.doctype.email_account.email_account.pull for my_site
2021-04-19 12:12:37,078 INFO scheduler Scheduled Job Start: frappe.email.queue.flush for my_site
2021-04-19 12:12:37,434 INFO scheduler Scheduled Job Complete: frappe.email.queue.flush for my_site
2021-04-19 12:13:32,658 DEBUG scheduler Queued events for site my_site
2021-04-19 12:14:33,077 DEBUG scheduler Queued events for site my_site
2021-04-19 12:15:33,582 DEBUG scheduler Queued events for site my_site
2021-04-19 12:15:35,491 INFO scheduler Scheduled Job Start: frappe.twofactor.delete_all_barcodes_for_users for my_site
2021-04-19 12:15:36,098 INFO scheduler Scheduled Job Complete: frappe.twofactor.delete_all_barcodes_for_users for my_site
2021-04-19 12:15:36,225 INFO scheduler Scheduled Job Start: frappe.website.doctype.web_page.web_page.check_publish_status for my_site
2021-04-19 12:15:36,830 INFO scheduler Scheduled Job Complete: frappe.website.doctype.web_page.web_page.check_publish_status for my_site
2021-04-19 12:15:36,942 INFO scheduler Scheduled Job Start: frappe.oauth.delete_oauth2_data for my_site
2021-04-19 12:15:37,490 INFO scheduler Scheduled Job Complete: frappe.oauth.delete_oauth2_data for my_site
2021-04-19 12:16:34,223 DEBUG scheduler Queued events for site my_site
2021-04-19 12:16:36,792 INFO scheduler Scheduled Job Start: frappe.monitor.flush for my_site
2021-04-19 12:16:37,005 INFO scheduler Scheduled Job Complete: frappe.monitor.flush for my_site
2021-04-19 12:16:37,112 INFO scheduler Scheduled Job Start: frappe.utils.global_search.sync_global_search for my_site
2021-04-19 12:16:37,327 INFO scheduler Scheduled Job Complete: frappe.utils.global_search.sync_global_search for my_site
2021-04-19 12:16:37,425 INFO scheduler Scheduled Job Start: frappe.integrations.doctype.razorpay_settings.razorpay_settings.capture_payment for my_site
2021-04-19 12:16:37,937 INFO scheduler Scheduled Job Complete: frappe.integrations.doctype.razorpay_settings.razorpay_settings.capture_payment for my_site
2021-04-19 12:16:38,035 INFO scheduler Scheduled Job Start: frappe.email.doctype.email_account.email_account.notify_unreplied for my_site
2021-04-19 12:16:38,443 INFO scheduler Scheduled Job Complete: frappe.email.doctype.email_account.email_account.notify_unreplied for my_site
2021-04-19 12:16:38,541 INFO scheduler Scheduled Job Start: frappe.email.doctype.email_account.email_account.pull for my_site
2021-04-19 12:16:38,973 INFO scheduler Scheduled Job Complete: frappe.email.doctype.email_account.email_account.pull for my_site
2021-04-19 12:16:39,082 INFO scheduler Scheduled Job Start: frappe.email.queue.flush for my_site
2021-04-19 12:16:39,436 INFO scheduler Scheduled Job Complete: frappe.email.queue.flush for my_site
2021-04-19 12:17:34,584 DEBUG scheduler Queued events for site my_site
2021-04-19 12:18:34,914 DEBUG scheduler Queued events for site my_site
2021-04-19 12:19:35,239 DEBUG scheduler Queued events for site my_site
2021-04-19 12:20:35,780 DEBUG scheduler Queued events for site my_site
2021-04-19 12:20:38,933 INFO scheduler Scheduled Job Start: frappe.monitor.flush for my_site
2021-04-19 12:20:39,144 INFO scheduler Scheduled Job Complete: frappe.monitor.flush for my_site
2021-04-19 12:20:39,259 INFO scheduler Scheduled Job Start: frappe.utils.global_search.sync_global_search for my_site
2021-04-19 12:20:39,569 INFO scheduler Scheduled Job Complete: frappe.utils.global_search.sync_global_search for my_site
2021-04-19 12:20:39,671 INFO scheduler Scheduled Job Start: frappe.integrations.doctype.razorpay_settings.razorpay_settings.capture_payment for my_site
2021-04-19 12:20:40,155 INFO scheduler Scheduled Job Complete: frappe.integrations.doctype.razorpay_settings.razorpay_settings.capture_payment for my_site
2021-04-19 12:20:40,244 INFO scheduler Scheduled Job Start: frappe.email.doctype.email_account.email_account.notify_unreplied for my_site
2021-04-19 12:20:40,774 INFO scheduler Scheduled Job Complete: frappe.email.doctype.email_account.email_account.notify_unreplied for my_site
2021-04-19 12:20:40,904 INFO scheduler Scheduled Job Start: frappe.email.doctype.email_account.email_account.pull for my_site
2021-04-19 12:20:41,468 INFO scheduler Scheduled Job Complete: frappe.email.doctype.email_account.email_account.pull for my_site
2021-04-19 12:20:41,605 INFO scheduler Scheduled Job Start: frappe.email.queue.flush for my_site
2021-04-19 12:20:42,136 INFO scheduler Scheduled Job Complete: frappe.email.queue.flush for my_site
2021-04-19 12:24:02,608 DEBUG scheduler Queued events for site my_site
2021-04-19 12:24:04,617 INFO scheduler Scheduled Job Start: frappe.monitor.flush for my_site
2021-04-19 12:24:04,768 INFO scheduler Scheduled Job Complete: frappe.monitor.flush for my_site
2021-04-19 12:24:04,840 INFO scheduler Scheduled Job Start: frappe.utils.global_search.sync_global_search for my_site
2021-04-19 12:24:04,991 INFO scheduler Scheduled Job Complete: frappe.utils.global_search.sync_global_search for my_site
2021-04-19 12:24:05,066 INFO scheduler Scheduled Job Start: frappe.integrations.doctype.razorpay_settings.razorpay_settings.capture_payment for my_site
2021-04-19 12:24:05,451 INFO scheduler Scheduled Job Complete: frappe.integrations.doctype.razorpay_settings.razorpay_settings.capture_payment for my_site
2021-04-19 12:24:05,524 INFO scheduler Scheduled Job Start: frappe.email.doctype.email_account.email_account.notify_unreplied for my_site
2021-04-19 12:24:05,847 INFO scheduler Scheduled Job Complete: frappe.email.doctype.email_account.email_account.notify_unreplied for my_site
2021-04-19 12:24:05,925 INFO scheduler Scheduled Job Start: frappe.email.doctype.email_account.email_account.pull for my_site
2021-04-19 12:24:06,259 INFO scheduler Scheduled Job Complete: frappe.email.doctype.email_account.email_account.pull for my_site
2021-04-19 12:24:06,330 INFO scheduler Scheduled Job Start: frappe.email.queue.flush for my_site
2021-04-19 12:24:06,619 INFO scheduler Scheduled Job Complete: frappe.email.queue.flush for my_site
2021-04-19 12:25:02,972 DEBUG scheduler Queued events for site my_site
2021-04-19 12:26:03,291 DEBUG scheduler Queued events for site my_site
2021-04-19 12:27:03,635 DEBUG scheduler Queued events for site my_site
2021-04-19 12:28:04,061 DEBUG scheduler Queued events for site my_site
2021-04-19 12:28:07,236 INFO scheduler Scheduled Job Start: frappe.monitor.flush for my_site
2021-04-19 12:28:07,444 INFO scheduler Scheduled Job Complete: frappe.monitor.flush for my_site
2021-04-19 12:28:07,580 INFO scheduler Scheduled Job Start: frappe.utils.global_search.sync_global_search for my_site
2021-04-19 12:28:07,841 INFO scheduler Scheduled Job Complete: frappe.utils.global_search.sync_global_search for my_site
2021-04-19 12:28:07,929 INFO scheduler Scheduled Job Start: frappe.integrations.doctype.razorpay_settings.razorpay_settings.capture_payment for my_site
2021-04-19 12:28:08,436 INFO scheduler Scheduled Job Complete: frappe.integrations.doctype.razorpay_settings.razorpay_settings.capture_payment for my_site
2021-04-19 12:28:08,531 INFO scheduler Scheduled Job Start: frappe.email.doctype.email_account.email_account.notify_unreplied for my_site
2021-04-19 12:28:08,907 INFO scheduler Scheduled Job Complete: frappe.email.doctype.email_account.email_account.notify_unreplied for my_site
2021-04-19 12:28:08,986 INFO scheduler Scheduled Job Start: frappe.email.doctype.email_account.email_account.pull for my_site
2021-04-19 12:28:09,399 INFO scheduler Scheduled Job Complete: frappe.email.doctype.email_account.email_account.pull for my_site
2021-04-19 12:28:09,491 INFO scheduler Scheduled Job Start: frappe.email.queue.flush for my_site
2021-04-19 12:28:09,855 INFO scheduler Scheduled Job Complete: frappe.email.queue.flush for my_site
2021-04-19 12:29:04,421 DEBUG scheduler Queued events for site my_site
2021-04-19 12:30:04,905 DEBUG scheduler Queued events for site my_site
2021-04-19 12:30:06,636 INFO scheduler Scheduled Job Start: frappe.twofactor.delete_all_barcodes_for_users for my_site
2021-04-19 12:30:07,142 INFO scheduler Scheduled Job Complete: frappe.twofactor.delete_all_barcodes_for_users for my_site
2021-04-19 12:30:07,242 INFO scheduler Scheduled Job Start: frappe.website.doctype.web_page.web_page.check_publish_status for my_site
2021-04-19 12:30:07,851 INFO scheduler Scheduled Job Complete: frappe.website.doctype.web_page.web_page.check_publish_status for my_site
2021-04-19 12:30:08,002 INFO scheduler Scheduled Job Start: frappe.oauth.delete_oauth2_data for my_site
2021-04-19 12:30:08,501 INFO scheduler Scheduled Job Complete: frappe.oauth.delete_oauth2_data for my_site
2021-04-19 12:31:05,260 DEBUG scheduler Queued events for site my_site
2021-04-19 12:32:05,671 DEBUG scheduler Queued events for site my_site
2021-04-19 12:32:07,893 INFO scheduler Scheduled Job Start: frappe.monitor.flush for my_site
2021-04-19 12:32:08,055 INFO scheduler Scheduled Job Complete: frappe.monitor.flush for my_site
2021-04-19 12:32:08,130 INFO scheduler Scheduled Job Start: frappe.utils.global_search.sync_global_search for my_site
2021-04-19 12:32:08,284 INFO scheduler Scheduled Job Complete: frappe.utils.global_search.sync_global_search for my_site
2021-04-19 12:32:08,355 INFO scheduler Scheduled Job Start: frappe.integrations.doctype.razorpay_settings.razorpay_settings.capture_payment for my_site
2021-04-19 12:32:08,747 INFO scheduler Scheduled Job Complete: frappe.integrations.doctype.razorpay_settings.razorpay_settings.capture_payment for my_site
2021-04-19 12:32:08,823 INFO scheduler Scheduled Job Start: frappe.email.doctype.email_account.email_account.notify_unreplied for my_site
2021-04-19 12:32:09,123 INFO scheduler Scheduled Job Complete: frappe.email.doctype.email_account.email_account.notify_unreplied for my_site
2021-04-19 12:32:09,200 INFO scheduler Scheduled Job Start: frappe.email.doctype.email_account.email_account.pull for my_site
2021-04-19 12:32:09,513 INFO scheduler Scheduled Job Complete: frappe.email.doctype.email_account.email_account.pull for my_site
2021-04-19 12:32:09,594 INFO scheduler Scheduled Job Start: frappe.email.queue.flush for my_site
2021-04-19 12:32:09,859 INFO scheduler Scheduled Job Complete: frappe.email.queue.flush for my_site
2021-04-19 12:33:06,065 DEBUG scheduler Queued events for site my_site
2021-04-19 12:34:06,407 DEBUG scheduler Queued events for site my_site
2021-04-19 12:35:06,784 DEBUG scheduler Queued events for site my_site
2021-04-19 12:36:07,198 DEBUG scheduler Queued events for site my_site
2021-04-19 12:36:09,123 INFO scheduler Scheduled Job Start: frappe.monitor.flush for my_site
2021-04-19 12:36:09,275 INFO scheduler Scheduled Job Complete: frappe.monitor.flush for my_site
2021-04-19 12:36:09,352 INFO scheduler Scheduled Job Start: frappe.utils.global_search.sync_global_search for my_site
2021-04-19 12:36:09,503 INFO scheduler Scheduled Job Complete: frappe.utils.global_search.sync_global_search for my_site
2021-04-19 12:36:09,578 INFO scheduler Scheduled Job Start: frappe.integrations.doctype.razorpay_settings.razorpay_settings.capture_payment for my_site
2021-04-19 12:36:09,967 INFO scheduler Scheduled Job Complete: frappe.integrations.doctype.razorpay_settings.razorpay_settings.capture_payment for my_site
2021-04-19 12:36:10,036 INFO scheduler Scheduled Job Start: frappe.email.doctype.email_account.email_account.notify_unreplied for my_site
2021-04-19 12:36:10,353 INFO scheduler Scheduled Job Complete: frappe.email.doctype.email_account.email_account.notify_unreplied for my_site
2021-04-19 12:36:10,424 INFO scheduler Scheduled Job Start: frappe.email.doctype.email_account.email_account.pull for my_site
2021-04-19 12:36:10,741 INFO scheduler Scheduled Job Complete: frappe.email.doctype.email_account.email_account.pull for my_site
2021-04-19 12:36:10,813 INFO scheduler Scheduled Job Start: frappe.email.queue.flush for my_site
2021-04-19 12:36:11,079 INFO scheduler Scheduled Job Complete: frappe.email.queue.flush for my_site
2021-04-19 12:37:07,647 DEBUG scheduler Queued events for site my_site
2021-04-19 12:38:08,016 DEBUG scheduler Queued events for site my_site
2021-04-19 12:39:08,322 DEBUG scheduler Queued events for site my_site
2021-04-19 12:40:09,021 DEBUG scheduler Queued events for site my_site
2021-04-19 12:40:11,018 INFO scheduler Scheduled Job Start: frappe.monitor.flush for my_site
2021-04-19 12:40:11,177 INFO scheduler Scheduled Job Complete: frappe.monitor.flush for my_site
2021-04-19 12:40:11,252 INFO scheduler Scheduled Job Start: frappe.utils.global_search.sync_global_search for my_site
2021-04-19 12:40:11,411 INFO scheduler Scheduled Job Complete: frappe.utils.global_search.sync_global_search for my_site
2021-04-19 12:40:11,490 INFO scheduler Scheduled Job Start: frappe.integrations.doctype.razorpay_settings.razorpay_settings.capture_payment for my_site
2021-04-19 12:40:11,895 INFO scheduler Scheduled Job Complete: frappe.integrations.doctype.razorpay_settings.razorpay_settings.capture_payment for my_site
2021-04-19 12:40:11,973 INFO scheduler Scheduled Job Start: frappe.email.doctype.email_account.email_account.notify_unreplied for my_site
2021-04-19 12:40:12,274 INFO scheduler Scheduled Job Complete: frappe.email.doctype.email_account.email_account.notify_unreplied for my_site
2021-04-19 12:40:12,345 INFO scheduler Scheduled Job Start: frappe.email.doctype.email_account.email_account.pull for my_site
2021-04-19 12:40:12,667 INFO scheduler Scheduled Job Complete: frappe.email.doctype.email_account.email_account.pull for my_site
2021-04-19 12:40:12,737 INFO scheduler Scheduled Job Start: frappe.email.queue.flush for my_site
2021-04-19 12:40:13,025 INFO scheduler Scheduled Job Complete: frappe.email.queue.flush for my_site
2021-04-19 12:41:09,379 DEBUG scheduler Queued events for site my_site
2021-04-19 12:42:09,710 DEBUG scheduler Queued events for site my_site
2021-04-19 12:43:10,015 DEBUG scheduler Queued events for site my_site
2021-04-19 12:44:10,422 DEBUG scheduler Queued events for site my_site
2021-04-19 12:44:12,436 INFO scheduler Scheduled Job Start: frappe.monitor.flush for my_site
2021-04-19 12:44:12,592 INFO scheduler Scheduled Job Complete: frappe.monitor.flush for my_site
2021-04-19 12:44:12,663 INFO scheduler Scheduled Job Start: frappe.utils.global_search.sync_global_search for my_site
2021-04-19 12:44:12,813 INFO scheduler Scheduled Job Complete: frappe.utils.global_search.sync_global_search for my_site
2021-04-19 12:44:12,885 INFO scheduler Scheduled Job Start: frappe.integrations.doctype.razorpay_settings.razorpay_settings.capture_payment for my_site
2021-04-19 12:44:13,286 INFO scheduler Scheduled Job Complete: frappe.integrations.doctype.razorpay_settings.razorpay_settings.capture_payment for my_site
2021-04-19 12:44:13,357 INFO scheduler Scheduled Job Start: frappe.email.doctype.email_account.email_account.notify_unreplied for my_site
2021-04-19 12:44:13,669 INFO scheduler Scheduled Job Complete: frappe.email.doctype.email_account.email_account.notify_unreplied for my_site
2021-04-19 12:44:13,739 INFO scheduler Scheduled Job Start: frappe.email.doctype.email_account.email_account.pull for my_site
2021-04-19 12:44:14,061 INFO scheduler Scheduled Job Complete: frappe.email.doctype.email_account.email_account.pull for my_site
2021-04-19 12:44:14,130 INFO scheduler Scheduled Job Start: frappe.email.queue.flush for my_site
2021-04-19 12:44:14,390 INFO scheduler Scheduled Job Complete: frappe.email.queue.flush for my_site
2021-04-19 12:45:11,063 DEBUG scheduler Queued events for site my_site
2021-04-19 12:45:12,898 INFO scheduler Scheduled Job Start: frappe.twofactor.delete_all_barcodes_for_users for my_site
2021-04-19 12:45:13,313 INFO scheduler Scheduled Job Complete: frappe.twofactor.delete_all_barcodes_for_users for my_site
2021-04-19 12:45:13,398 INFO scheduler Scheduled Job Start: frappe.website.doctype.web_page.web_page.check_publish_status for my_site
2021-04-19 12:45:13,864 INFO scheduler Scheduled Job Complete: frappe.website.doctype.web_page.web_page.check_publish_status for my_site
2021-04-19 12:45:13,950 INFO scheduler Scheduled Job Start: frappe.oauth.delete_oauth2_data for my_site
2021-04-19 12:45:14,354 INFO scheduler Scheduled Job Complete: frappe.oauth.delete_oauth2_data for my_site
2021-04-19 12:46:11,400 DEBUG scheduler Queued events for site my_site
2021-04-19 12:47:11,732 DEBUG scheduler Queued events for site my_site
2021-04-19 12:48:12,278 DEBUG scheduler Queued events for site my_site
2021-04-19 12:48:14,574 INFO scheduler Scheduled Job Start: frappe.monitor.flush for my_site
2021-04-19 12:48:14,730 INFO scheduler Scheduled Job Complete: frappe.monitor.flush for my_site
2021-04-19 12:48:14,815 INFO scheduler Scheduled Job Start: frappe.utils.global_search.sync_global_search for my_site
2021-04-19 12:48:14,982 INFO scheduler Scheduled Job Complete: frappe.utils.global_search.sync_global_search for my_site
2021-04-19 12:48:15,060 INFO scheduler Scheduled Job Start: frappe.integrations.doctype.razorpay_settings.razorpay_settings.capture_payment for my_site
2021-04-19 12:48:15,468 INFO scheduler Scheduled Job Complete: frappe.integrations.doctype.razorpay_settings.razorpay_settings.capture_payment for my_site
2021-04-19 12:48:15,572 INFO scheduler Scheduled Job Start: frappe.email.doctype.email_account.email_account.notify_unreplied for my_site
2021-04-19 12:48:15,958 INFO scheduler Scheduled Job Complete: frappe.email.doctype.email_account.email_account.notify_unreplied for my_site
2021-04-19 12:48:16,029 INFO scheduler Scheduled Job Start: frappe.email.doctype.email_account.email_account.pull for my_site
2021-04-19 12:48:16,404 INFO scheduler Scheduled Job Complete: frappe.email.doctype.email_account.email_account.pull for my_site
2021-04-19 12:48:16,489 INFO scheduler Scheduled Job Start: frappe.email.queue.flush for my_site
2021-04-19 12:48:16,773 INFO scheduler Scheduled Job Complete: frappe.email.queue.flush for my_site
2021-04-19 12:49:12,630 DEBUG scheduler Queued events for site my_site
2021-04-19 12:50:12,936 DEBUG scheduler Queued events for site my_site
2021-04-19 12:51:13,249 DEBUG scheduler Queued events for site my_site
2021-04-19 12:52:13,714 DEBUG scheduler Queued events for site my_site
2021-04-19 12:52:15,814 INFO scheduler Scheduled Job Start: frappe.monitor.flush for my_site
2021-04-19 12:52:15,986 INFO scheduler Scheduled Job Complete: frappe.monitor.flush for my_site
2021-04-19 12:52:16,067 INFO scheduler Scheduled Job Start: frappe.utils.global_search.sync_global_search for my_site
2021-04-19 12:52:16,222 INFO scheduler Scheduled Job Complete: frappe.utils.global_search.sync_global_search for my_site
2021-04-19 12:52:16,304 INFO scheduler Scheduled Job Start: frappe.integrations.doctype.razorpay_settings.razorpay_settings.capture_payment for my_site
2021-04-19 12:52:16,733 INFO scheduler Scheduled Job Complete: frappe.integrations.doctype.razorpay_settings.razorpay_settings.capture_payment for my_site
2021-04-19 12:52:16,824 INFO scheduler Scheduled Job Start: frappe.email.doctype.email_account.email_account.notify_unreplied for my_site
2021-04-19 12:52:17,234 INFO scheduler Scheduled Job Complete: frappe.email.doctype.email_account.email_account.notify_unreplied for my_site
2021-04-19 12:52:17,335 INFO scheduler Scheduled Job Start: frappe.email.doctype.email_account.email_account.pull for my_site
2021-04-19 12:52:17,739 INFO scheduler Scheduled Job Complete: frappe.email.doctype.email_account.email_account.pull for my_site
2021-04-19 12:52:17,822 INFO scheduler Scheduled Job Start: frappe.email.queue.flush for my_site
2021-04-19 12:52:18,091 INFO scheduler Scheduled Job Complete: frappe.email.queue.flush for my_site
2021-04-19 12:53:14,093 DEBUG scheduler Queued events for site my_site
2021-04-19 12:54:14,409 DEBUG scheduler Queued events for site my_site
2021-04-19 12:55:14,781 DEBUG scheduler Queued events for site my_site
2021-04-19 12:56:15,202 DEBUG scheduler Queued events for site my_site
2021-04-19 12:56:17,360 INFO scheduler Scheduled Job Start: frappe.monitor.flush for my_site
2021-04-19 12:56:17,602 INFO scheduler Scheduled Job Complete: frappe.monitor.flush for my_site
2021-04-19 12:56:17,732 INFO scheduler Scheduled Job Start: frappe.utils.global_search.sync_global_search for my_site
2021-04-19 12:56:17,947 INFO scheduler Scheduled Job Complete: frappe.utils.global_search.sync_global_search for my_site
2021-04-19 12:56:18,029 INFO scheduler Scheduled Job Start: frappe.integrations.doctype.razorpay_settings.razorpay_settings.capture_payment for my_site
2021-04-19 12:56:18,452 INFO scheduler Scheduled Job Complete: frappe.integrations.doctype.razorpay_settings.razorpay_settings.capture_payment for my_site
2021-04-19 12:56:18,536 INFO scheduler Scheduled Job Start: frappe.email.doctype.email_account.email_account.notify_unreplied for my_site
2021-04-19 12:56:18,854 INFO scheduler Scheduled Job Complete: frappe.email.doctype.email_account.email_account.notify_unreplied for my_site
2021-04-19 12:56:18,926 INFO scheduler Scheduled Job Start: frappe.email.doctype.email_account.email_account.pull for my_site
2021-04-19 12:56:19,276 INFO scheduler Scheduled Job Complete: frappe.email.doctype.email_account.email_account.pull for my_site
2021-04-19 12:56:19,354 INFO scheduler Scheduled Job Start: frappe.email.queue.flush for my_site
2021-04-19 12:56:19,654 INFO scheduler Scheduled Job Complete: frappe.email.queue.flush for my_site
2021-04-19 12:57:15,609 DEBUG scheduler Queued events for site my_site
2021-04-19 12:58:15,925 DEBUG scheduler Queued events for site my_site
2021-04-19 12:59:16,234 DEBUG scheduler Queued events for site my_site
2021-04-19 13:00:16,938 DEBUG scheduler Queued events for site my_site
2021-04-19 13:00:24,717 INFO scheduler Scheduled Job Start: frappe.email.doctype.newsletter.newsletter.send_scheduled_email for my_site
2021-04-19 13:00:25,200 INFO scheduler Scheduled Job Complete: frappe.email.doctype.newsletter.newsletter.send_scheduled_email for my_site
2021-04-19 13:00:25,290 INFO scheduler Scheduled Job Start: frappe.integrations.doctype.google_calendar.google_calendar.sync for my_site
2021-04-19 13:00:25,841 INFO scheduler Scheduled Job Complete: frappe.integrations.doctype.google_calendar.google_calendar.sync for my_site
2021-04-19 13:00:25,945 INFO scheduler Scheduled Job Start: frappe.desk.form.document_follow.send_hourly_updates for my_site
2021-04-19 13:00:26,341 INFO scheduler Scheduled Job Complete: frappe.desk.form.document_follow.send_hourly_updates for my_site
2021-04-19 13:00:26,431 INFO scheduler Scheduled Job Start: frappe.deferred_insert.save_to_db for my_site
2021-04-19 13:00:26,818 INFO scheduler Scheduled Job Complete: frappe.deferred_insert.save_to_db for my_site
2021-04-19 13:00:26,909 INFO scheduler Scheduled Job Start: frappe.desk.page.backups.backups.delete_downloadable_backups for my_site
2021-04-19 13:00:27,316 INFO scheduler Scheduled Job Complete: frappe.desk.page.backups.backups.delete_downloadable_backups for my_site
2021-04-19 13:00:27,401 INFO scheduler Scheduled Job Start: frappe.utils.error.collect_error_snapshots for my_site
2021-04-19 13:00:27,782 INFO scheduler Scheduled Job Complete: frappe.utils.error.collect_error_snapshots for my_site
2021-04-19 13:00:27,870 INFO scheduler Scheduled Job Start: frappe.model.utils.user_settings.sync_user_settings for my_site
2021-04-19 13:00:28,256 INFO scheduler Scheduled Job Complete: frappe.model.utils.user_settings.sync_user_settings for my_site
2021-04-19 13:00:28,342 INFO scheduler Scheduled Job Start: frappe.model.utils.link_count.update_link_count for my_site
2021-04-19 13:00:28,748 INFO scheduler Scheduled Job Complete: frappe.model.utils.link_count.update_link_count for my_site
2021-04-19 13:00:28,838 INFO scheduler Scheduled Job Start: frappe.monitor.flush for my_site
2021-04-19 13:00:28,992 INFO scheduler Scheduled Job Complete: frappe.monitor.flush for my_site
2021-04-19 13:00:29,073 INFO scheduler Scheduled Job Start: frappe.utils.global_search.sync_global_search for my_site
2021-04-19 13:00:29,230 INFO scheduler Scheduled Job Complete: frappe.utils.global_search.sync_global_search for my_site
2021-04-19 13:00:29,301 INFO scheduler Scheduled Job Start: frappe.integrations.doctype.razorpay_settings.razorpay_settings.capture_payment for my_site
2021-04-19 13:00:29,700 INFO scheduler Scheduled Job Complete: frappe.integrations.doctype.razorpay_settings.razorpay_settings.capture_payment for my_site
2021-04-19 13:00:29,772 INFO scheduler Scheduled Job Start: frappe.email.doctype.email_account.email_account.notify_unreplied for my_site
2021-04-19 13:00:30,108 INFO scheduler Scheduled Job Complete: frappe.email.doctype.email_account.email_account.notify_unreplied for my_site
2021-04-19 13:00:30,185 INFO scheduler Scheduled Job Start: frappe.email.doctype.email_account.email_account.pull for my_site
2021-04-19 13:00:30,521 INFO scheduler Scheduled Job Complete: frappe.email.doctype.email_account.email_account.pull for my_site
2021-04-19 13:00:30,606 INFO scheduler Scheduled Job Start: frappe.email.queue.flush for my_site
2021-04-19 13:00:31,024 INFO scheduler Scheduled Job Complete: frappe.email.queue.flush for my_site
2021-04-19 13:00:31,114 INFO scheduler Scheduled Job Start: frappe.twofactor.delete_all_barcodes_for_users for my_site
2021-04-19 13:00:31,554 INFO scheduler Scheduled Job Complete: frappe.twofactor.delete_all_barcodes_for_users for my_site
2021-04-19 13:00:31,643 INFO scheduler Scheduled Job Start: frappe.website.doctype.web_page.web_page.check_publish_status for my_site
2021-04-19 13:00:32,140 INFO scheduler Scheduled Job Complete: frappe.website.doctype.web_page.web_page.check_publish_status for my_site
2021-04-19 13:00:32,229 INFO scheduler Scheduled Job Start: frappe.oauth.delete_oauth2_data for my_site
2021-04-19 13:00:32,640 INFO scheduler Scheduled Job Complete: frappe.oauth.delete_oauth2_data for my_site
2021-04-19 13:01:17,276 DEBUG scheduler Queued events for site my_site
2021-04-19 13:02:17,591 DEBUG scheduler Queued events for site my_site
2021-04-19 13:03:17,930 DEBUG scheduler Queued events for site my_site
2021-04-19 13:04:18,486 DEBUG scheduler Queued events for site my_site
2021-04-19 13:04:20,749 INFO scheduler Scheduled Job Start: frappe.monitor.flush for my_site
2021-04-19 13:04:21,003 INFO scheduler Scheduled Job Complete: frappe.monitor.flush for my_site
2021-04-19 13:04:21,158 INFO scheduler Scheduled Job Start: frappe.utils.global_search.sync_global_search for my_site
2021-04-19 13:04:21,500 INFO scheduler Scheduled Job Complete: frappe.utils.global_search.sync_global_search for my_site
2021-04-19 13:04:21,633 INFO scheduler Scheduled Job Start: frappe.integrations.doctype.razorpay_settings.razorpay_settings.capture_payment for my_site
2021-04-19 13:04:22,325 INFO scheduler Scheduled Job Complete: frappe.integrations.doctype.razorpay_settings.razorpay_settings.capture_payment for my_site
2021-04-19 13:04:22,429 INFO scheduler Scheduled Job Start: frappe.email.doctype.email_account.email_account.notify_unreplied for my_site
2021-04-19 13:04:22,805 INFO scheduler Scheduled Job Complete: frappe.email.doctype.email_account.email_account.notify_unreplied for my_site
2021-04-19 13:04:22,905 INFO scheduler Scheduled Job Start: frappe.email.doctype.email_account.email_account.pull for my_site
2021-04-19 13:04:23,412 INFO scheduler Scheduled Job Complete: frappe.email.doctype.email_account.email_account.pull for my_site
2021-04-19 13:04:23,549 INFO scheduler Scheduled Job Start: frappe.email.queue.flush for my_site
2021-04-19 13:04:23,980 INFO scheduler Scheduled Job Complete: frappe.email.queue.flush for my_site
2021-04-19 13:05:18,837 DEBUG scheduler Queued events for site my_site
2021-04-19 13:06:19,329 DEBUG scheduler Queued events for site my_site
2021-04-19 13:07:19,655 DEBUG scheduler Queued events for site my_site
2021-04-19 13:08:20,197 DEBUG scheduler Queued events for site my_site
2021-04-19 13:08:22,456 INFO scheduler Scheduled Job Start: frappe.monitor.flush for my_site
2021-04-19 13:08:22,634 INFO scheduler Scheduled Job Complete: frappe.monitor.flush for my_site
2021-04-19 13:08:22,708 INFO scheduler Scheduled Job Start: frappe.utils.global_search.sync_global_search for my_site
2021-04-19 13:08:22,863 INFO scheduler Scheduled Job Complete: frappe.utils.global_search.sync_global_search for my_site
2021-04-19 13:08:22,992 INFO scheduler Scheduled Job Start: frappe.integrations.doctype.razorpay_settings.razorpay_settings.capture_payment for my_site
2021-04-19 13:08:23,447 INFO scheduler Scheduled Job Complete: frappe.integrations.doctype.razorpay_settings.razorpay_settings.capture_payment for my_site
2021-04-19 13:08:23,529 INFO scheduler Scheduled Job Start: frappe.email.doctype.email_account.email_account.notify_unreplied for my_site
2021-04-19 13:08:23,866 INFO scheduler Scheduled Job Complete: frappe.email.doctype.email_account.email_account.notify_unreplied for my_site
2021-04-19 13:08:23,941 INFO scheduler Scheduled Job Start: frappe.email.doctype.email_account.email_account.pull for my_site
2021-04-19 13:08:24,270 INFO scheduler Scheduled Job Complete: frappe.email.doctype.email_account.email_account.pull for my_site
2021-04-19 13:08:24,344 INFO scheduler Scheduled Job Start: frappe.email.queue.flush for my_site
2021-04-19 13:08:24,704 INFO scheduler Scheduled Job Complete: frappe.email.queue.flush for my_site
2021-04-19 13:09:20,545 DEBUG scheduler Queued events for site my_site
2021-04-19 13:10:20,863 DEBUG scheduler Queued events for site my_site
2021-04-19 13:11:21,219 DEBUG scheduler Queued events for site my_site
2021-04-19 13:12:21,671 DEBUG scheduler Queued events for site my_site
2021-04-19 13:12:23,659 INFO scheduler Scheduled Job Start: frappe.monitor.flush for my_site
2021-04-19 13:12:23,826 INFO scheduler Scheduled Job Complete: frappe.monitor.flush for my_site
2021-04-19 13:12:23,923 INFO scheduler Scheduled Job Start: frappe.utils.global_search.sync_global_search for my_site
2021-04-19 13:12:24,101 INFO scheduler Scheduled Job Complete: frappe.utils.global_search.sync_global_search for my_site
2021-04-19 13:12:24,199 INFO scheduler Scheduled Job Start: frappe.integrations.doctype.razorpay_settings.razorpay_settings.capture_payment for my_site
2021-04-19 13:12:24,615 INFO scheduler Scheduled Job Complete: frappe.integrations.doctype.razorpay_settings.razorpay_settings.capture_payment for my_site
2021-04-19 13:12:24,687 INFO scheduler Scheduled Job Start: frappe.email.doctype.email_account.email_account.notify_unreplied for my_site
2021-04-19 13:12:25,005 INFO scheduler Scheduled Job Complete: frappe.email.doctype.email_account.email_account.notify_unreplied for my_site
2021-04-19 13:12:25,089 INFO scheduler Scheduled Job Start: frappe.email.doctype.email_account.email_account.pull for my_site
2021-04-19 13:12:25,433 INFO scheduler Scheduled Job Complete: frappe.email.doctype.email_account.email_account.pull for my_site
2021-04-19 13:12:25,514 INFO scheduler Scheduled Job Start: frappe.email.queue.flush for my_site
2021-04-19 13:12:25,780 INFO scheduler Scheduled Job Complete: frappe.email.queue.flush for my_site
2021-04-19 13:13:22,034 DEBUG scheduler Queued events for site my_site
2021-04-19 13:14:22,528 DEBUG scheduler Queued events for site my_site
2021-04-19 13:15:23,186 DEBUG scheduler Queued events for site my_site
2021-04-19 13:15:25,119 INFO scheduler Scheduled Job Start: frappe.twofactor.delete_all_barcodes_for_users for my_site
2021-04-19 13:15:25,669 INFO scheduler Scheduled Job Complete: frappe.twofactor.delete_all_barcodes_for_users for my_site
2021-04-19 13:15:25,757 INFO scheduler Scheduled Job Start: frappe.website.doctype.web_page.web_page.check_publish_status for my_site
2021-04-19 13:15:26,260 INFO scheduler Scheduled Job Complete: frappe.website.doctype.web_page.web_page.check_publish_status for my_site
2021-04-19 13:15:26,361 INFO scheduler Scheduled Job Start: frappe.oauth.delete_oauth2_data for my_site
2021-04-19 13:15:26,768 INFO scheduler Scheduled Job Complete: frappe.oauth.delete_oauth2_data for my_site
2021-04-19 13:16:23,692 DEBUG scheduler Queued events for site my_site
2021-04-19 13:16:25,997 INFO scheduler Scheduled Job Start: frappe.monitor.flush for my_site
2021-04-19 13:16:26,208 INFO scheduler Scheduled Job Complete: frappe.monitor.flush for my_site
2021-04-19 13:16:26,314 INFO scheduler Scheduled Job Start: frappe.utils.global_search.sync_global_search for my_site
2021-04-19 13:16:26,587 INFO scheduler Scheduled Job Complete: frappe.utils.global_search.sync_global_search for my_site
2021-04-19 13:16:26,742 INFO scheduler Scheduled Job Start: frappe.integrations.doctype.razorpay_settings.razorpay_settings.capture_payment for my_site
2021-04-19 13:16:27,279 INFO scheduler Scheduled Job Complete: frappe.integrations.doctype.razorpay_settings.razorpay_settings.capture_payment for my_site
2021-04-19 13:16:27,358 INFO scheduler Scheduled Job Start: frappe.email.doctype.email_account.email_account.notify_unreplied for my_site
2021-04-19 13:16:27,706 INFO scheduler Scheduled Job Complete: frappe.email.doctype.email_account.email_account.notify_unreplied for my_site
2021-04-19 13:16:27,798 INFO scheduler Scheduled Job Start: frappe.email.doctype.email_account.email_account.pull for my_site
2021-04-19 13:16:28,253 INFO scheduler Scheduled Job Complete: frappe.email.doctype.email_account.email_account.pull for my_site
2021-04-19 13:16:28,351 INFO scheduler Scheduled Job Start: frappe.email.queue.flush for my_site
2021-04-19 13:16:28,891 INFO scheduler Scheduled Job Complete: frappe.email.queue.flush for my_site
2021-04-19 13:17:24,043 DEBUG scheduler Queued events for site my_site
2021-04-19 13:18:24,353 DEBUG scheduler Queued events for site my_site
2021-04-19 13:19:24,863 DEBUG scheduler Queued events for site my_site
2021-04-19 13:20:25,319 DEBUG scheduler Queued events for site my_site
2021-04-19 13:20:27,376 INFO scheduler Scheduled Job Start: frappe.monitor.flush for my_site
2021-04-19 13:20:27,546 INFO scheduler Scheduled Job Complete: frappe.monitor.flush for my_site
2021-04-19 13:20:27,636 INFO scheduler Scheduled Job Start: frappe.utils.global_search.sync_global_search for my_site
2021-04-19 13:20:27,794 INFO scheduler Scheduled Job Complete: frappe.utils.global_search.sync_global_search for my_site
2021-04-19 13:20:27,871 INFO scheduler Scheduled Job Start: frappe.integrations.doctype.razorpay_settings.razorpay_settings.capture_payment for my_site
2021-04-19 13:20:28,261 INFO scheduler Scheduled Job Complete: frappe.integrations.doctype.razorpay_settings.razorpay_settings.capture_payment for my_site
2021-04-19 13:20:28,331 INFO scheduler Scheduled Job Start: frappe.email.doctype.email_account.email_account.notify_unreplied for my_site
2021-04-19 13:20:28,633 INFO scheduler Scheduled Job Complete: frappe.email.doctype.email_account.email_account.notify_unreplied for my_site
2021-04-19 13:20:28,711 INFO scheduler Scheduled Job Start: frappe.email.doctype.email_account.email_account.pull for my_site
2021-04-19 13:20:29,064 INFO scheduler Scheduled Job Complete: frappe.email.doctype.email_account.email_account.pull for my_site
2021-04-19 13:20:29,146 INFO scheduler Scheduled Job Start: frappe.email.queue.flush for my_site
2021-04-19 13:20:29,410 INFO scheduler Scheduled Job Complete: frappe.email.queue.flush for my_site
2021-04-19 13:21:25,766 DEBUG scheduler Queued events for site my_site
2021-04-19 13:22:26,113 DEBUG scheduler Queued events for site my_site
2021-04-19 13:23:26,535 DEBUG scheduler Queued events for site my_site
2021-04-19 13:24:26,960 DEBUG scheduler Queued events for site my_site
2021-04-19 13:24:29,015 INFO scheduler Scheduled Job Start: frappe.monitor.flush for my_site
2021-04-19 13:24:29,184 INFO scheduler Scheduled Job Complete: frappe.monitor.flush for my_site
2021-04-19 13:24:29,264 INFO scheduler Scheduled Job Start: frappe.utils.global_search.sync_global_search for my_site
2021-04-19 13:24:29,419 INFO scheduler Scheduled Job Complete: frappe.utils.global_search.sync_global_search for my_site
2021-04-19 13:24:29,495 INFO scheduler Scheduled Job Start: frappe.integrations.doctype.razorpay_settings.razorpay_settings.capture_payment for my_site
2021-04-19 13:24:29,926 INFO scheduler Scheduled Job Complete: frappe.integrations.doctype.razorpay_settings.razorpay_settings.capture_payment for my_site
2021-04-19 13:24:30,006 INFO scheduler Scheduled Job Start: frappe.email.doctype.email_account.email_account.notify_unreplied for my_site
2021-04-19 13:24:30,331 INFO scheduler Scheduled Job Complete: frappe.email.doctype.email_account.email_account.notify_unreplied for my_site
2021-04-19 13:24:30,407 INFO scheduler Scheduled Job Start: frappe.email.doctype.email_account.email_account.pull for my_site
2021-04-19 13:24:30,741 INFO scheduler Scheduled Job Complete: frappe.email.doctype.email_account.email_account.pull for my_site
2021-04-19 13:24:30,818 INFO scheduler Scheduled Job Start: frappe.email.queue.flush for my_site
2021-04-19 13:24:31,106 INFO scheduler Scheduled Job Complete: frappe.email.queue.flush for my_site
2021-04-19 13:25:27,328 DEBUG scheduler Queued events for site my_site
2021-04-19 13:26:27,771 DEBUG scheduler Queued events for site my_site
2021-04-19 13:27:28,182 DEBUG scheduler Queued events for site my_site
2021-04-19 13:28:28,711 DEBUG scheduler Queued events for site my_site
2021-04-19 13:28:30,665 INFO scheduler Scheduled Job Start: frappe.monitor.flush for my_site
2021-04-19 13:28:30,823 INFO scheduler Scheduled Job Complete: frappe.monitor.flush for my_site
2021-04-19 13:28:30,901 INFO scheduler Scheduled Job Start: frappe.utils.global_search.sync_global_search for my_site
2021-04-19 13:28:31,058 INFO scheduler Scheduled Job Complete: frappe.utils.global_search.sync_global_search for my_site
2021-04-19 13:28:31,136 INFO scheduler Scheduled Job Start: frappe.integrations.doctype.razorpay_settings.razorpay_settings.capture_payment for my_site
2021-04-19 13:28:31,540 INFO scheduler Scheduled Job Complete: frappe.integrations.doctype.razorpay_settings.razorpay_settings.capture_payment for my_site
2021-04-19 13:28:31,613 INFO scheduler Scheduled Job Start: frappe.email.doctype.email_account.email_account.notify_unreplied for my_site
2021-04-19 13:28:31,976 INFO scheduler Scheduled Job Complete: frappe.email.doctype.email_account.email_account.notify_unreplied for my_site
2021-04-19 13:28:32,081 INFO scheduler Scheduled Job Start: frappe.email.doctype.email_account.email_account.pull for my_site
2021-04-19 13:28:32,463 INFO scheduler Scheduled Job Complete: frappe.email.doctype.email_account.email_account.pull for my_site
2021-04-19 13:28:32,546 INFO scheduler Scheduled Job Start: frappe.email.queue.flush for my_site
2021-04-19 13:28:32,817 INFO scheduler Scheduled Job Complete: frappe.email.queue.flush for my_site
2021-04-19 13:29:29,062 DEBUG scheduler Queued events for site my_site
2021-04-19 13:30:29,419 DEBUG scheduler Queued events for site my_site
2021-04-19 13:30:31,164 INFO scheduler Scheduled Job Start: frappe.twofactor.delete_all_barcodes_for_users for my_site
2021-04-19 13:30:31,682 INFO scheduler Scheduled Job Complete: frappe.twofactor.delete_all_barcodes_for_users for my_site
2021-04-19 13:30:31,776 INFO scheduler Scheduled Job Start: frappe.website.doctype.web_page.web_page.check_publish_status for my_site
2021-04-19 13:30:32,343 INFO scheduler Scheduled Job Complete: frappe.website.doctype.web_page.web_page.check_publish_status for my_site
2021-04-19 13:30:32,460 INFO scheduler Scheduled Job Start: frappe.oauth.delete_oauth2_data for my_site
2021-04-19 13:30:32,929 INFO scheduler Scheduled Job Complete: frappe.oauth.delete_oauth2_data for my_site
2021-04-19 13:31:30,083 DEBUG scheduler Queued events for site my_site
2021-04-19 13:32:30,582 DEBUG scheduler Queued events for site my_site
2021-04-19 13:32:32,520 INFO scheduler Scheduled Job Start: frappe.monitor.flush for my_site
2021-04-19 13:32:32,693 INFO scheduler Scheduled Job Complete: frappe.monitor.flush for my_site
2021-04-19 13:32:32,788 INFO scheduler Scheduled Job Start: frappe.utils.global_search.sync_global_search for my_site
2021-04-19 13:32:32,988 INFO scheduler Scheduled Job Complete: frappe.utils.global_search.sync_global_search for my_site
2021-04-19 13:32:33,082 INFO scheduler Scheduled Job Start: frappe.integrations.doctype.razorpay_settings.razorpay_settings.capture_payment for my_site
2021-04-19 13:32:33,546 INFO scheduler Scheduled Job Complete: frappe.integrations.doctype.razorpay_settings.razorpay_settings.capture_payment for my_site
2021-04-19 13:32:33,619 INFO scheduler Scheduled Job Start: frappe.email.doctype.email_account.email_account.notify_unreplied for my_site
2021-04-19 13:32:33,969 INFO scheduler Scheduled Job Complete: frappe.email.doctype.email_account.email_account.notify_unreplied for my_site
2021-04-19 13:32:34,068 INFO scheduler Scheduled Job Start: frappe.email.doctype.email_account.email_account.pull for my_site
2021-04-19 13:32:34,452 INFO scheduler Scheduled Job Complete: frappe.email.doctype.email_account.email_account.pull for my_site
2021-04-19 13:32:34,553 INFO scheduler Scheduled Job Start: frappe.email.queue.flush for my_site
2021-04-19 13:32:34,918 INFO scheduler Scheduled Job Complete: frappe.email.queue.flush for my_site
2021-04-19 14:08:28,025 DEBUG scheduler Queued events for site my_site
2021-04-19 14:08:39,111 INFO scheduler Scheduled Job Start: frappe.email.doctype.newsletter.newsletter.send_scheduled_email for my_site
2021-04-19 14:08:39,617 INFO scheduler Scheduled Job Complete: frappe.email.doctype.newsletter.newsletter.send_scheduled_email for my_site
2021-04-19 14:08:39,706 INFO scheduler Scheduled Job Start: frappe.integrations.doctype.google_calendar.google_calendar.sync for my_site
2021-04-19 14:08:40,304 INFO scheduler Scheduled Job Complete: frappe.integrations.doctype.google_calendar.google_calendar.sync for my_site
2021-04-19 14:08:40,397 INFO scheduler Scheduled Job Start: frappe.desk.form.document_follow.send_hourly_updates for my_site
2021-04-19 14:08:40,793 INFO scheduler Scheduled Job Complete: frappe.desk.form.document_follow.send_hourly_updates for my_site
2021-04-19 14:08:40,876 INFO scheduler Scheduled Job Start: frappe.deferred_insert.save_to_db for my_site
2021-04-19 14:08:41,261 INFO scheduler Scheduled Job Complete: frappe.deferred_insert.save_to_db for my_site
2021-04-19 14:08:41,347 INFO scheduler Scheduled Job Start: frappe.desk.page.backups.backups.delete_downloadable_backups for my_site
2021-04-19 14:08:41,775 INFO scheduler Scheduled Job Complete: frappe.desk.page.backups.backups.delete_downloadable_backups for my_site
2021-04-19 14:08:41,862 INFO scheduler Scheduled Job Start: frappe.utils.error.collect_error_snapshots for my_site
2021-04-19 14:08:42,258 INFO scheduler Scheduled Job Complete: frappe.utils.error.collect_error_snapshots for my_site
2021-04-19 14:08:42,363 INFO scheduler Scheduled Job Start: frappe.model.utils.user_settings.sync_user_settings for my_site
2021-04-19 14:08:42,891 INFO scheduler Scheduled Job Complete: frappe.model.utils.user_settings.sync_user_settings for my_site
2021-04-19 14:08:43,011 INFO scheduler Scheduled Job Start: frappe.model.utils.link_count.update_link_count for my_site
2021-04-19 14:08:43,513 INFO scheduler Scheduled Job Complete: frappe.model.utils.link_count.update_link_count for my_site
2021-04-19 14:08:43,656 INFO scheduler Scheduled Job Start: frappe.monitor.flush for my_site
2021-04-19 14:08:43,974 INFO scheduler Scheduled Job Complete: frappe.monitor.flush for my_site
2021-04-19 14:08:44,068 INFO scheduler Scheduled Job Start: frappe.utils.global_search.sync_global_search for my_site
2021-04-19 14:08:44,229 INFO scheduler Scheduled Job Complete: frappe.utils.global_search.sync_global_search for my_site
2021-04-19 14:08:44,307 INFO scheduler Scheduled Job Start: frappe.integrations.doctype.razorpay_settings.razorpay_settings.capture_payment for my_site
2021-04-19 14:08:44,720 INFO scheduler Scheduled Job Complete: frappe.integrations.doctype.razorpay_settings.razorpay_settings.capture_payment for my_site
2021-04-19 14:08:44,805 INFO scheduler Scheduled Job Start: frappe.email.doctype.email_account.email_account.notify_unreplied for my_site
2021-04-19 14:08:45,168 INFO scheduler Scheduled Job Complete: frappe.email.doctype.email_account.email_account.notify_unreplied for my_site
2021-04-19 14:08:45,240 INFO scheduler Scheduled Job Start: frappe.email.doctype.email_account.email_account.pull for my_site
2021-04-19 14:08:45,626 INFO scheduler Scheduled Job Complete: frappe.email.doctype.email_account.email_account.pull for my_site
2021-04-19 14:08:45,696 INFO scheduler Scheduled Job Start: frappe.email.queue.flush for my_site
2021-04-19 14:08:45,964 INFO scheduler Scheduled Job Complete: frappe.email.queue.flush for my_site
2021-04-19 14:08:46,037 INFO scheduler Scheduled Job Start: frappe.twofactor.delete_all_barcodes_for_users for my_site
2021-04-19 14:08:46,456 INFO scheduler Scheduled Job Complete: frappe.twofactor.delete_all_barcodes_for_users for my_site
2021-04-19 14:08:46,549 INFO scheduler Scheduled Job Start: frappe.website.doctype.web_page.web_page.check_publish_status for my_site
2021-04-19 14:08:47,008 INFO scheduler Scheduled Job Complete: frappe.website.doctype.web_page.web_page.check_publish_status for my_site
2021-04-19 14:08:47,099 INFO scheduler Scheduled Job Start: frappe.oauth.delete_oauth2_data for my_site
2021-04-19 14:08:47,518 INFO scheduler Scheduled Job Complete: frappe.oauth.delete_oauth2_data for my_site
2021-04-19 14:09:28,463 DEBUG scheduler Queued events for site my_site
2021-04-19 14:10:28,775 DEBUG scheduler Queued events for site my_site
2021-04-19 14:11:29,090 DEBUG scheduler Queued events for site my_site
2021-04-19 14:12:29,515 DEBUG scheduler Queued events for site my_site
2021-04-19 14:12:31,434 INFO scheduler Scheduled Job Start: frappe.monitor.flush for my_site
2021-04-19 14:12:31,594 INFO scheduler Scheduled Job Complete: frappe.monitor.flush for my_site
2021-04-19 14:12:31,670 INFO scheduler Scheduled Job Start: frappe.utils.global_search.sync_global_search for my_site
2021-04-19 14:12:31,821 INFO scheduler Scheduled Job Complete: frappe.utils.global_search.sync_global_search for my_site
2021-04-19 14:12:31,894 INFO scheduler Scheduled Job Start: frappe.integrations.doctype.razorpay_settings.razorpay_settings.capture_payment for my_site
2021-04-19 14:12:32,309 INFO scheduler Scheduled Job Complete: frappe.integrations.doctype.razorpay_settings.razorpay_settings.capture_payment for my_site
2021-04-19 14:12:32,381 INFO scheduler Scheduled Job Start: frappe.email.doctype.email_account.email_account.notify_unreplied for my_site
2021-04-19 14:12:32,696 INFO scheduler Scheduled Job Complete: frappe.email.doctype.email_account.email_account.notify_unreplied for my_site
2021-04-19 14:12:32,769 INFO scheduler Scheduled Job Start: frappe.email.doctype.email_account.email_account.pull for my_site
2021-04-19 14:12:33,105 INFO scheduler Scheduled Job Complete: frappe.email.doctype.email_account.email_account.pull for my_site
2021-04-19 14:12:33,174 INFO scheduler Scheduled Job Start: frappe.email.queue.flush for my_site
2021-04-19 14:12:33,437 INFO scheduler Scheduled Job Complete: frappe.email.queue.flush for my_site
2021-04-19 14:13:29,866 DEBUG scheduler Queued events for site my_site
2021-04-19 14:14:30,264 DEBUG scheduler Queued events for site my_site
2021-04-19 14:15:30,621 DEBUG scheduler Queued events for site my_site
2021-04-19 14:15:32,215 INFO scheduler Scheduled Job Start: frappe.twofactor.delete_all_barcodes_for_users for my_site
2021-04-19 14:15:32,782 INFO scheduler Scheduled Job Complete: frappe.twofactor.delete_all_barcodes_for_users for my_site
2021-04-19 14:15:32,878 INFO scheduler Scheduled Job Start: frappe.website.doctype.web_page.web_page.check_publish_status for my_site
2021-04-19 14:15:33,359 INFO scheduler Scheduled Job Complete: frappe.website.doctype.web_page.web_page.check_publish_status for my_site
2021-04-19 14:15:33,454 INFO scheduler Scheduled Job Start: frappe.oauth.delete_oauth2_data for my_site
2021-04-19 14:15:33,939 INFO scheduler Scheduled Job Complete: frappe.oauth.delete_oauth2_data for my_site
2021-04-19 14:16:31,055 DEBUG scheduler Queued events for site my_site
2021-04-19 14:16:32,936 INFO scheduler Scheduled Job Start: frappe.monitor.flush for my_site
2021-04-19 14:16:33,088 INFO scheduler Scheduled Job Complete: frappe.monitor.flush for my_site
2021-04-19 14:16:33,160 INFO scheduler Scheduled Job Start: frappe.utils.global_search.sync_global_search for my_site
2021-04-19 14:16:33,314 INFO scheduler Scheduled Job Complete: frappe.utils.global_search.sync_global_search for my_site
2021-04-19 14:16:33,389 INFO scheduler Scheduled Job Start: frappe.integrations.doctype.razorpay_settings.razorpay_settings.capture_payment for my_site
2021-04-19 14:16:33,773 INFO scheduler Scheduled Job Complete: frappe.integrations.doctype.razorpay_settings.razorpay_settings.capture_payment for my_site
2021-04-19 14:16:33,846 INFO scheduler Scheduled Job Start: frappe.email.doctype.email_account.email_account.notify_unreplied for my_site
2021-04-19 14:16:34,149 INFO scheduler Scheduled Job Complete: frappe.email.doctype.email_account.email_account.notify_unreplied for my_site
2021-04-19 14:16:34,222 INFO scheduler Scheduled Job Start: frappe.email.doctype.email_account.email_account.pull for my_site
2021-04-19 14:16:34,546 INFO scheduler Scheduled Job Complete: frappe.email.doctype.email_account.email_account.pull for my_site
2021-04-19 14:16:34,616 INFO scheduler Scheduled Job Start: frappe.email.queue.flush for my_site
2021-04-19 14:16:34,871 INFO scheduler Scheduled Job Complete: frappe.email.queue.flush for my_site
2021-04-19 14:17:31,401 DEBUG scheduler Queued events for site my_site
2021-04-19 14:18:31,716 DEBUG scheduler Queued events for site my_site
2021-04-19 14:19:32,028 DEBUG scheduler Queued events for site my_site
2021-04-19 14:20:32,473 DEBUG scheduler Queued events for site my_site
2021-04-19 14:20:34,689 INFO scheduler Scheduled Job Start: frappe.monitor.flush for my_site
2021-04-19 14:20:34,844 INFO scheduler Scheduled Job Complete: frappe.monitor.flush for my_site
2021-04-19 14:20:34,923 INFO scheduler Scheduled Job Start: frappe.utils.global_search.sync_global_search for my_site
2021-04-19 14:20:35,106 INFO scheduler Scheduled Job Complete: frappe.utils.global_search.sync_global_search for my_site
2021-04-19 14:20:35,184 INFO scheduler Scheduled Job Start: frappe.integrations.doctype.razorpay_settings.razorpay_settings.capture_payment for my_site
2021-04-19 14:20:35,600 INFO scheduler Scheduled Job Complete: frappe.integrations.doctype.razorpay_settings.razorpay_settings.capture_payment for my_site
2021-04-19 14:20:35,675 INFO scheduler Scheduled Job Start: frappe.email.doctype.email_account.email_account.notify_unreplied for my_site
2021-04-19 14:20:36,046 INFO scheduler Scheduled Job Complete: frappe.email.doctype.email_account.email_account.notify_unreplied for my_site
2021-04-19 14:20:36,122 INFO scheduler Scheduled Job Start: frappe.email.doctype.email_account.email_account.pull for my_site
2021-04-19 14:20:36,472 INFO scheduler Scheduled Job Complete: frappe.email.doctype.email_account.email_account.pull for my_site
2021-04-19 14:20:36,546 INFO scheduler Scheduled Job Start: frappe.email.queue.flush for my_site
2021-04-19 14:20:36,811 INFO scheduler Scheduled Job Complete: frappe.email.queue.flush for my_site
2021-04-19 14:21:33,012 DEBUG scheduler Queued events for site my_site
2021-04-19 14:22:33,419 DEBUG scheduler Queued events for site my_site
2021-04-19 14:23:33,748 DEBUG scheduler Queued events for site my_site
2021-04-19 14:24:34,282 DEBUG scheduler Queued events for site my_site
2021-04-19 14:24:36,605 INFO scheduler Scheduled Job Start: frappe.monitor.flush for my_site
2021-04-19 14:24:36,821 INFO scheduler Scheduled Job Complete: frappe.monitor.flush for my_site
2021-04-19 14:24:36,907 INFO scheduler Scheduled Job Start: frappe.utils.global_search.sync_global_search for my_site
2021-04-19 14:24:37,097 INFO scheduler Scheduled Job Complete: frappe.utils.global_search.sync_global_search for my_site
2021-04-19 14:24:37,180 INFO scheduler Scheduled Job Start: frappe.integrations.doctype.razorpay_settings.razorpay_settings.capture_payment for my_site
2021-04-19 14:24:37,596 INFO scheduler Scheduled Job Complete: frappe.integrations.doctype.razorpay_settings.razorpay_settings.capture_payment for my_site
2021-04-19 14:24:37,666 INFO scheduler Scheduled Job Start: frappe.email.doctype.email_account.email_account.notify_unreplied for my_site
2021-04-19 14:24:38,046 INFO scheduler Scheduled Job Complete: frappe.email.doctype.email_account.email_account.notify_unreplied for my_site
2021-04-19 14:24:38,200 INFO scheduler Scheduled Job Start: frappe.email.doctype.email_account.email_account.pull for my_site
2021-04-19 14:24:38,588 INFO scheduler Scheduled Job Complete: frappe.email.doctype.email_account.email_account.pull for my_site
2021-04-19 14:24:38,661 INFO scheduler Scheduled Job Start: frappe.email.queue.flush for my_site
2021-04-19 14:24:38,982 INFO scheduler Scheduled Job Complete: frappe.email.queue.flush for my_site
2021-04-19 14:25:34,758 DEBUG scheduler Queued events for site my_site
2021-04-19 14:26:35,064 DEBUG scheduler Queued events for site my_site
2021-04-19 14:27:35,375 DEBUG scheduler Queued events for site my_site
2021-04-19 14:28:35,870 DEBUG scheduler Queued events for site my_site
2021-04-19 14:28:38,028 INFO scheduler Scheduled Job Start: frappe.monitor.flush for my_site
2021-04-19 14:28:38,220 INFO scheduler Scheduled Job Complete: frappe.monitor.flush for my_site
2021-04-19 14:28:38,292 INFO scheduler Scheduled Job Start: frappe.utils.global_search.sync_global_search for my_site
2021-04-19 14:28:38,445 INFO scheduler Scheduled Job Complete: frappe.utils.global_search.sync_global_search for my_site
2021-04-19 14:28:38,523 INFO scheduler Scheduled Job Start: frappe.integrations.doctype.razorpay_settings.razorpay_settings.capture_payment for my_site
2021-04-19 14:28:38,923 INFO scheduler Scheduled Job Complete: frappe.integrations.doctype.razorpay_settings.razorpay_settings.capture_payment for my_site
2021-04-19 14:28:38,996 INFO scheduler Scheduled Job Start: frappe.email.doctype.email_account.email_account.notify_unreplied for my_site
2021-04-19 14:28:39,332 INFO scheduler Scheduled Job Complete: frappe.email.doctype.email_account.email_account.notify_unreplied for my_site
2021-04-19 14:28:39,404 INFO scheduler Scheduled Job Start: frappe.email.doctype.email_account.email_account.pull for my_site
2021-04-19 14:28:39,743 INFO scheduler Scheduled Job Complete: frappe.email.doctype.email_account.email_account.pull for my_site
2021-04-19 14:28:39,815 INFO scheduler Scheduled Job Start: frappe.email.queue.flush for my_site
2021-04-19 14:28:40,163 INFO scheduler Scheduled Job Complete: frappe.email.queue.flush for my_site
2021-04-19 14:29:36,283 DEBUG scheduler Queued events for site my_site
2021-04-19 14:30:36,694 DEBUG scheduler Queued events for site my_site
2021-04-19 14:30:38,172 INFO scheduler Scheduled Job Start: frappe.twofactor.delete_all_barcodes_for_users for my_site
2021-04-19 14:30:38,644 INFO scheduler Scheduled Job Complete: frappe.twofactor.delete_all_barcodes_for_users for my_site
2021-04-19 14:30:38,766 INFO scheduler Scheduled Job Start: frappe.website.doctype.web_page.web_page.check_publish_status for my_site
2021-04-19 14:30:39,302 INFO scheduler Scheduled Job Complete: frappe.website.doctype.web_page.web_page.check_publish_status for my_site
2021-04-19 14:30:39,416 INFO scheduler Scheduled Job Start: frappe.oauth.delete_oauth2_data for my_site
2021-04-19 14:30:39,890 INFO scheduler Scheduled Job Complete: frappe.oauth.delete_oauth2_data for my_site
2021-04-19 14:31:37,175 DEBUG scheduler Queued events for site my_site
2021-04-19 14:32:37,594 DEBUG scheduler Queued events for site my_site
2021-04-19 14:32:39,826 INFO scheduler Scheduled Job Start: frappe.monitor.flush for my_site
2021-04-19 14:32:39,987 INFO scheduler Scheduled Job Complete: frappe.monitor.flush for my_site
2021-04-19 14:32:40,060 INFO scheduler Scheduled Job Start: frappe.utils.global_search.sync_global_search for my_site
2021-04-19 14:32:40,223 INFO scheduler Scheduled Job Complete: frappe.utils.global_search.sync_global_search for my_site
2021-04-19 14:32:40,304 INFO scheduler Scheduled Job Start: frappe.integrations.doctype.razorpay_settings.razorpay_settings.capture_payment for my_site
2021-04-19 14:32:40,697 INFO scheduler Scheduled Job Complete: frappe.integrations.doctype.razorpay_settings.razorpay_settings.capture_payment for my_site
2021-04-19 14:32:40,768 INFO scheduler Scheduled Job Start: frappe.email.doctype.email_account.email_account.notify_unreplied for my_site
2021-04-19 14:32:41,076 INFO scheduler Scheduled Job Complete: frappe.email.doctype.email_account.email_account.notify_unreplied for my_site
2021-04-19 14:32:41,149 INFO scheduler Scheduled Job Start: frappe.email.doctype.email_account.email_account.pull for my_site
2021-04-19 14:32:41,464 INFO scheduler Scheduled Job Complete: frappe.email.doctype.email_account.email_account.pull for my_site
2021-04-19 14:32:41,534 INFO scheduler Scheduled Job Start: frappe.email.queue.flush for my_site
2021-04-19 14:32:41,797 INFO scheduler Scheduled Job Complete: frappe.email.queue.flush for my_site
2021-04-19 14:33:37,964 DEBUG scheduler Queued events for site my_site
2021-04-19 14:34:38,272 DEBUG scheduler Queued events for site my_site
2021-04-19 14:35:38,592 DEBUG scheduler Queued events for site my_site
2021-04-19 14:36:39,050 DEBUG scheduler Queued events for site my_site
2021-04-19 14:36:40,985 INFO scheduler Scheduled Job Start: frappe.monitor.flush for my_site
2021-04-19 14:36:41,159 INFO scheduler Scheduled Job Complete: frappe.monitor.flush for my_site
2021-04-19 14:36:41,235 INFO scheduler Scheduled Job Start: frappe.utils.global_search.sync_global_search for my_site
2021-04-19 14:36:41,385 INFO scheduler Scheduled Job Complete: frappe.utils.global_search.sync_global_search for my_site
2021-04-19 14:36:41,466 INFO scheduler Scheduled Job Start: frappe.integrations.doctype.razorpay_settings.razorpay_settings.capture_payment for my_site
2021-04-19 14:36:41,846 INFO scheduler Scheduled Job Complete: frappe.integrations.doctype.razorpay_settings.razorpay_settings.capture_payment for my_site
2021-04-19 14:36:41,918 INFO scheduler Scheduled Job Start: frappe.email.doctype.email_account.email_account.notify_unreplied for my_site
2021-04-19 14:36:42,219 INFO scheduler Scheduled Job Complete: frappe.email.doctype.email_account.email_account.notify_unreplied for my_site
2021-04-19 14:36:42,290 INFO scheduler Scheduled Job Start: frappe.email.doctype.email_account.email_account.pull for my_site
2021-04-19 14:36:42,608 INFO scheduler Scheduled Job Complete: frappe.email.doctype.email_account.email_account.pull for my_site
2021-04-19 14:36:42,683 INFO scheduler Scheduled Job Start: frappe.email.queue.flush for my_site
2021-04-19 14:36:42,943 INFO scheduler Scheduled Job Complete: frappe.email.queue.flush for my_site
2021-04-19 14:37:39,398 DEBUG scheduler Queued events for site my_site
2021-04-19 14:38:39,760 DEBUG scheduler Queued events for site my_site
2021-04-19 14:39:40,138 DEBUG scheduler Queued events for site my_site
2021-04-19 14:40:40,660 DEBUG scheduler Queued events for site my_site
2021-04-19 14:40:42,670 INFO scheduler Scheduled Job Start: frappe.monitor.flush for my_site
2021-04-19 14:40:42,838 INFO scheduler Scheduled Job Complete: frappe.monitor.flush for my_site
2021-04-19 14:40:42,912 INFO scheduler Scheduled Job Start: frappe.utils.global_search.sync_global_search for my_site
2021-04-19 14:40:43,076 INFO scheduler Scheduled Job Complete: frappe.utils.global_search.sync_global_search for my_site
2021-04-19 14:40:43,153 INFO scheduler Scheduled Job Start: frappe.integrations.doctype.razorpay_settings.razorpay_settings.capture_payment for my_site
2021-04-19 14:40:43,611 INFO scheduler Scheduled Job Complete: frappe.integrations.doctype.razorpay_settings.razorpay_settings.capture_payment for my_site
2021-04-19 14:40:43,685 INFO scheduler Scheduled Job Start: frappe.email.doctype.email_account.email_account.notify_unreplied for my_site
2021-04-19 14:40:44,013 INFO scheduler Scheduled Job Complete: frappe.email.doctype.email_account.email_account.notify_unreplied for my_site
2021-04-19 14:40:44,095 INFO scheduler Scheduled Job Start: frappe.email.doctype.email_account.email_account.pull for my_site
2021-04-19 14:40:44,496 INFO scheduler Scheduled Job Complete: frappe.email.doctype.email_account.email_account.pull for my_site
2021-04-19 14:40:44,593 INFO scheduler Scheduled Job Start: frappe.email.queue.flush for my_site
2021-04-19 14:40:44,885 INFO scheduler Scheduled Job Complete: frappe.email.queue.flush for my_site
2021-04-19 14:41:40,995 DEBUG scheduler Queued events for site my_site
2021-04-19 14:42:41,312 DEBUG scheduler Queued events for site my_site
2021-04-19 14:43:41,644 DEBUG scheduler Queued events for site my_site
2021-04-19 14:44:42,052 DEBUG scheduler Queued events for site my_site
2021-04-19 14:44:44,025 INFO scheduler Scheduled Job Start: frappe.monitor.flush for my_site
2021-04-19 14:44:44,177 INFO scheduler Scheduled Job Complete: frappe.monitor.flush for my_site
2021-04-19 14:44:44,252 INFO scheduler Scheduled Job Start: frappe.utils.global_search.sync_global_search for my_site
2021-04-19 14:44:44,406 INFO scheduler Scheduled Job Complete: frappe.utils.global_search.sync_global_search for my_site
2021-04-19 14:44:44,484 INFO scheduler Scheduled Job Start: frappe.integrations.doctype.razorpay_settings.razorpay_settings.capture_payment for my_site
2021-04-19 14:44:44,904 INFO scheduler Scheduled Job Complete: frappe.integrations.doctype.razorpay_settings.razorpay_settings.capture_payment for my_site
2021-04-19 14:44:44,974 INFO scheduler Scheduled Job Start: frappe.email.doctype.email_account.email_account.notify_unreplied for my_site
2021-04-19 14:44:45,278 INFO scheduler Scheduled Job Complete: frappe.email.doctype.email_account.email_account.notify_unreplied for my_site
2021-04-19 14:44:45,349 INFO scheduler Scheduled Job Start: frappe.email.doctype.email_account.email_account.pull for my_site
2021-04-19 14:44:45,693 INFO scheduler Scheduled Job Complete: frappe.email.doctype.email_account.email_account.pull for my_site
2021-04-19 14:44:45,767 INFO scheduler Scheduled Job Start: frappe.email.queue.flush for my_site
2021-04-19 14:44:46,043 INFO scheduler Scheduled Job Complete: frappe.email.queue.flush for my_site
2021-04-19 14:45:42,690 DEBUG scheduler Queued events for site my_site
2021-04-19 14:45:44,308 INFO scheduler Scheduled Job Start: frappe.twofactor.delete_all_barcodes_for_users for my_site
2021-04-19 14:45:44,779 INFO scheduler Scheduled Job Complete: frappe.twofactor.delete_all_barcodes_for_users for my_site
2021-04-19 14:45:44,866 INFO scheduler Scheduled Job Start: frappe.website.doctype.web_page.web_page.check_publish_status for my_site
2021-04-19 14:45:45,330 INFO scheduler Scheduled Job Complete: frappe.website.doctype.web_page.web_page.check_publish_status for my_site
2021-04-19 14:45:45,418 INFO scheduler Scheduled Job Start: frappe.oauth.delete_oauth2_data for my_site
2021-04-19 14:45:45,827 INFO scheduler Scheduled Job Complete: frappe.oauth.delete_oauth2_data for my_site
2021-04-19 14:46:43,034 DEBUG scheduler Queued events for site my_site
2021-04-19 14:47:43,342 DEBUG scheduler Queued events for site my_site
2021-04-19 14:48:43,739 DEBUG scheduler Queued events for site my_site
2021-04-19 14:48:45,637 INFO scheduler Scheduled Job Start: frappe.monitor.flush for my_site
2021-04-19 14:48:45,792 INFO scheduler Scheduled Job Complete: frappe.monitor.flush for my_site
2021-04-19 14:48:45,865 INFO scheduler Scheduled Job Start: frappe.utils.global_search.sync_global_search for my_site
2021-04-19 14:48:46,016 INFO scheduler Scheduled Job Complete: frappe.utils.global_search.sync_global_search for my_site
2021-04-19 14:48:46,093 INFO scheduler Scheduled Job Start: frappe.integrations.doctype.razorpay_settings.razorpay_settings.capture_payment for my_site
2021-04-19 14:48:46,474 INFO scheduler Scheduled Job Complete: frappe.integrations.doctype.razorpay_settings.razorpay_settings.capture_payment for my_site
2021-04-19 14:48:46,548 INFO scheduler Scheduled Job Start: frappe.email.doctype.email_account.email_account.notify_unreplied for my_site
2021-04-19 14:48:46,854 INFO scheduler Scheduled Job Complete: frappe.email.doctype.email_account.email_account.notify_unreplied for my_site
2021-04-19 14:48:46,930 INFO scheduler Scheduled Job Start: frappe.email.doctype.email_account.email_account.pull for my_site
2021-04-19 14:48:47,247 INFO scheduler Scheduled Job Complete: frappe.email.doctype.email_account.email_account.pull for my_site
2021-04-19 14:48:47,317 INFO scheduler Scheduled Job Start: frappe.email.queue.flush for my_site
2021-04-19 14:48:47,590 INFO scheduler Scheduled Job Complete: frappe.email.queue.flush for my_site
2021-04-19 14:49:44,072 DEBUG scheduler Queued events for site my_site
2021-04-19 14:50:44,543 DEBUG scheduler Queued events for site my_site
2021-04-19 14:51:44,880 DEBUG scheduler Queued events for site my_site
2021-04-19 14:52:45,293 DEBUG scheduler Queued events for site my_site
2021-04-19 14:52:48,007 INFO scheduler Scheduled Job Start: frappe.monitor.flush for my_site
2021-04-19 14:52:48,183 INFO scheduler Scheduled Job Complete: frappe.monitor.flush for my_site
2021-04-19 14:52:48,264 INFO scheduler Scheduled Job Start: frappe.utils.global_search.sync_global_search for my_site
2021-04-19 14:52:48,445 INFO scheduler Scheduled Job Complete: frappe.utils.global_search.sync_global_search for my_site
2021-04-19 14:52:48,531 INFO scheduler Scheduled Job Start: frappe.integrations.doctype.razorpay_settings.razorpay_settings.capture_payment for my_site
2021-04-19 14:52:49,072 INFO scheduler Scheduled Job Complete: frappe.integrations.doctype.razorpay_settings.razorpay_settings.capture_payment for my_site
2021-04-19 14:52:49,177 INFO scheduler Scheduled Job Start: frappe.email.doctype.email_account.email_account.notify_unreplied for my_site
2021-04-19 14:52:49,734 INFO scheduler Scheduled Job Complete: frappe.email.doctype.email_account.email_account.notify_unreplied for my_site
2021-04-19 14:52:49,900 INFO scheduler Scheduled Job Start: frappe.email.doctype.email_account.email_account.pull for my_site
2021-04-19 14:52:50,300 INFO scheduler Scheduled Job Complete: frappe.email.doctype.email_account.email_account.pull for my_site
2021-04-19 14:52:50,375 INFO scheduler Scheduled Job Start: frappe.email.queue.flush for my_site
2021-04-19 14:52:50,657 INFO scheduler Scheduled Job Complete: frappe.email.queue.flush for my_site
2021-04-19 14:53:45,686 DEBUG scheduler Queued events for site my_site
2021-04-19 14:56:25,299 DEBUG scheduler Queued events for site my_site
2021-04-19 14:56:27,723 INFO scheduler Scheduled Job Start: frappe.monitor.flush for my_site
2021-04-19 14:56:27,883 INFO scheduler Scheduled Job Complete: frappe.monitor.flush for my_site
2021-04-19 14:56:27,961 INFO scheduler Scheduled Job Start: frappe.utils.global_search.sync_global_search for my_site
2021-04-19 14:56:28,130 INFO scheduler Scheduled Job Complete: frappe.utils.global_search.sync_global_search for my_site
2021-04-19 14:56:28,201 INFO scheduler Scheduled Job Start: frappe.integrations.doctype.razorpay_settings.razorpay_settings.capture_payment for my_site
2021-04-19 14:56:28,627 INFO scheduler Scheduled Job Complete: frappe.integrations.doctype.razorpay_settings.razorpay_settings.capture_payment for my_site
2021-04-19 14:56:28,713 INFO scheduler Scheduled Job Start: frappe.email.doctype.email_account.email_account.notify_unreplied for my_site
2021-04-19 14:56:29,144 INFO scheduler Scheduled Job Complete: frappe.email.doctype.email_account.email_account.notify_unreplied for my_site
2021-04-19 14:56:29,216 INFO scheduler Scheduled Job Start: frappe.email.doctype.email_account.email_account.pull for my_site
2021-04-19 14:56:29,559 INFO scheduler Scheduled Job Complete: frappe.email.doctype.email_account.email_account.pull for my_site
2021-04-19 14:56:29,679 INFO scheduler Scheduled Job Start: frappe.email.queue.flush for my_site
2021-04-19 14:56:30,142 INFO scheduler Scheduled Job Complete: frappe.email.queue.flush for my_site
2021-04-19 14:57:25,650 DEBUG scheduler Queued events for site my_site
2021-04-19 14:58:25,967 DEBUG scheduler Queued events for site my_site
2021-04-19 14:59:26,309 DEBUG scheduler Queued events for site my_site
2021-04-19 15:00:27,055 DEBUG scheduler Queued events for site my_site
2021-04-19 15:00:34,661 INFO scheduler Scheduled Job Start: frappe.email.doctype.newsletter.newsletter.send_scheduled_email for my_site
2021-04-19 15:00:35,100 INFO scheduler Scheduled Job Complete: frappe.email.doctype.newsletter.newsletter.send_scheduled_email for my_site
2021-04-19 15:00:35,188 INFO scheduler Scheduled Job Start: frappe.integrations.doctype.google_calendar.google_calendar.sync for my_site
2021-04-19 15:00:35,741 INFO scheduler Scheduled Job Complete: frappe.integrations.doctype.google_calendar.google_calendar.sync for my_site
2021-04-19 15:00:35,835 INFO scheduler Scheduled Job Start: frappe.desk.form.document_follow.send_hourly_updates for my_site
2021-04-19 15:00:36,217 INFO scheduler Scheduled Job Complete: frappe.desk.form.document_follow.send_hourly_updates for my_site
2021-04-19 15:00:36,301 INFO scheduler Scheduled Job Start: frappe.deferred_insert.save_to_db for my_site
2021-04-19 15:00:36,686 INFO scheduler Scheduled Job Complete: frappe.deferred_insert.save_to_db for my_site
2021-04-19 15:00:36,791 INFO scheduler Scheduled Job Start: frappe.desk.page.backups.backups.delete_downloadable_backups for my_site
2021-04-19 15:00:37,188 INFO scheduler Scheduled Job Complete: frappe.desk.page.backups.backups.delete_downloadable_backups for my_site
2021-04-19 15:00:37,273 INFO scheduler Scheduled Job Start: frappe.utils.error.collect_error_snapshots for my_site
2021-04-19 15:00:37,667 INFO scheduler Scheduled Job Complete: frappe.utils.error.collect_error_snapshots for my_site
2021-04-19 15:00:37,752 INFO scheduler Scheduled Job Start: frappe.model.utils.user_settings.sync_user_settings for my_site
2021-04-19 15:00:38,124 INFO scheduler Scheduled Job Complete: frappe.model.utils.user_settings.sync_user_settings for my_site
2021-04-19 15:00:38,228 INFO scheduler Scheduled Job Start: frappe.model.utils.link_count.update_link_count for my_site
2021-04-19 15:00:38,644 INFO scheduler Scheduled Job Complete: frappe.model.utils.link_count.update_link_count for my_site
2021-04-19 15:00:38,739 INFO scheduler Scheduled Job Start: frappe.monitor.flush for my_site
2021-04-19 15:00:38,892 INFO scheduler Scheduled Job Complete: frappe.monitor.flush for my_site
2021-04-19 15:00:38,975 INFO scheduler Scheduled Job Start: frappe.utils.global_search.sync_global_search for my_site
2021-04-19 15:00:39,135 INFO scheduler Scheduled Job Complete: frappe.utils.global_search.sync_global_search for my_site
2021-04-19 15:00:39,209 INFO scheduler Scheduled Job Start: frappe.integrations.doctype.razorpay_settings.razorpay_settings.capture_payment for my_site
2021-04-19 15:00:39,651 INFO scheduler Scheduled Job Complete: frappe.integrations.doctype.razorpay_settings.razorpay_settings.capture_payment for my_site
2021-04-19 15:00:39,737 INFO scheduler Scheduled Job Start: frappe.email.doctype.email_account.email_account.notify_unreplied for my_site
2021-04-19 15:00:40,091 INFO scheduler Scheduled Job Complete: frappe.email.doctype.email_account.email_account.notify_unreplied for my_site
2021-04-19 15:00:40,168 INFO scheduler Scheduled Job Start: frappe.email.doctype.email_account.email_account.pull for my_site
2021-04-19 15:00:40,686 INFO scheduler Scheduled Job Complete: frappe.email.doctype.email_account.email_account.pull for my_site
2021-04-19 15:00:40,758 INFO scheduler Scheduled Job Start: frappe.email.queue.flush for my_site
2021-04-19 15:00:41,031 INFO scheduler Scheduled Job Complete: frappe.email.queue.flush for my_site
2021-04-19 15:00:41,101 INFO scheduler Scheduled Job Start: frappe.twofactor.delete_all_barcodes_for_users for my_site
2021-04-19 15:00:41,513 INFO scheduler Scheduled Job Complete: frappe.twofactor.delete_all_barcodes_for_users for my_site
2021-04-19 15:00:41,604 INFO scheduler Scheduled Job Start: frappe.website.doctype.web_page.web_page.check_publish_status for my_site
2021-04-19 15:00:42,172 INFO scheduler Scheduled Job Complete: frappe.website.doctype.web_page.web_page.check_publish_status for my_site
2021-04-19 15:00:42,303 INFO scheduler Scheduled Job Start: frappe.oauth.delete_oauth2_data for my_site
2021-04-19 15:00:42,853 INFO scheduler Scheduled Job Complete: frappe.oauth.delete_oauth2_data for my_site
2021-04-19 15:01:27,477 DEBUG scheduler Queued events for site my_site
2021-04-19 15:02:27,790 DEBUG scheduler Queued events for site my_site
2021-04-19 15:03:28,118 DEBUG scheduler Queued events for site my_site
2021-04-19 15:04:28,632 DEBUG scheduler Queued events for site my_site
2021-04-19 15:04:30,682 INFO scheduler Scheduled Job Start: frappe.monitor.flush for my_site
2021-04-19 15:04:30,858 INFO scheduler Scheduled Job Complete: frappe.monitor.flush for my_site
2021-04-19 15:04:30,951 INFO scheduler Scheduled Job Start: frappe.utils.global_search.sync_global_search for my_site
2021-04-19 15:04:31,123 INFO scheduler Scheduled Job Complete: frappe.utils.global_search.sync_global_search for my_site
2021-04-19 15:04:31,210 INFO scheduler Scheduled Job Start: frappe.integrations.doctype.razorpay_settings.razorpay_settings.capture_payment for my_site
2021-04-19 15:04:31,690 INFO scheduler Scheduled Job Complete: frappe.integrations.doctype.razorpay_settings.razorpay_settings.capture_payment for my_site
2021-04-19 15:04:31,777 INFO scheduler Scheduled Job Start: frappe.email.doctype.email_account.email_account.notify_unreplied for my_site
2021-04-19 15:04:32,135 INFO scheduler Scheduled Job Complete: frappe.email.doctype.email_account.email_account.notify_unreplied for my_site
2021-04-19 15:04:32,214 INFO scheduler Scheduled Job Start: frappe.email.doctype.email_account.email_account.pull for my_site
2021-04-19 15:04:32,578 INFO scheduler Scheduled Job Complete: frappe.email.doctype.email_account.email_account.pull for my_site
2021-04-19 15:04:32,655 INFO scheduler Scheduled Job Start: frappe.email.queue.flush for my_site
2021-04-19 15:04:32,922 INFO scheduler Scheduled Job Complete: frappe.email.queue.flush for my_site
2021-04-19 15:05:29,039 DEBUG scheduler Queued events for site my_site
2021-04-19 15:06:29,537 DEBUG scheduler Queued events for site my_site
2021-04-19 15:07:29,973 DEBUG scheduler Queued events for site my_site
2021-04-19 15:08:30,568 DEBUG scheduler Queued events for site my_site
2021-04-19 15:08:33,193 INFO scheduler Scheduled Job Start: frappe.monitor.flush for my_site
2021-04-19 15:08:33,408 INFO scheduler Scheduled Job Complete: frappe.monitor.flush for my_site
2021-04-19 15:08:33,504 INFO scheduler Scheduled Job Start: frappe.utils.global_search.sync_global_search for my_site
2021-04-19 15:08:33,760 INFO scheduler Scheduled Job Complete: frappe.utils.global_search.sync_global_search for my_site
2021-04-19 15:08:33,857 INFO scheduler Scheduled Job Start: frappe.integrations.doctype.razorpay_settings.razorpay_settings.capture_payment for my_site
2021-04-19 15:08:34,403 INFO scheduler Scheduled Job Complete: frappe.integrations.doctype.razorpay_settings.razorpay_settings.capture_payment for my_site
2021-04-19 15:08:34,500 INFO scheduler Scheduled Job Start: frappe.email.doctype.email_account.email_account.notify_unreplied for my_site
2021-04-19 15:08:34,995 INFO scheduler Scheduled Job Complete: frappe.email.doctype.email_account.email_account.notify_unreplied for my_site
2021-04-19 15:08:35,145 INFO scheduler Scheduled Job Start: frappe.email.doctype.email_account.email_account.pull for my_site
2021-04-19 15:08:35,861 INFO scheduler Scheduled Job Complete: frappe.email.doctype.email_account.email_account.pull for my_site
2021-04-19 15:08:36,008 INFO scheduler Scheduled Job Start: frappe.email.queue.flush for my_site
2021-04-19 15:08:36,386 INFO scheduler Scheduled Job Complete: frappe.email.queue.flush for my_site
2021-04-19 15:09:30,994 DEBUG scheduler Queued events for site my_site
2021-04-19 15:10:31,397 DEBUG scheduler Queued events for site my_site
2021-04-19 15:11:31,905 DEBUG scheduler Queued events for site my_site
2021-04-19 15:12:32,414 DEBUG scheduler Queued events for site my_site
2021-04-19 15:12:35,020 INFO scheduler Scheduled Job Start: frappe.monitor.flush for my_site
2021-04-19 15:12:35,229 INFO scheduler Scheduled Job Complete: frappe.monitor.flush for my_site
2021-04-19 15:12:35,329 INFO scheduler Scheduled Job Start: frappe.utils.global_search.sync_global_search for my_site
2021-04-19 15:12:35,535 INFO scheduler Scheduled Job Complete: frappe.utils.global_search.sync_global_search for my_site
2021-04-19 15:12:35,640 INFO scheduler Scheduled Job Start: frappe.integrations.doctype.razorpay_settings.razorpay_settings.capture_payment for my_site
2021-04-19 15:12:36,186 INFO scheduler Scheduled Job Complete: frappe.integrations.doctype.razorpay_settings.razorpay_settings.capture_payment for my_site
2021-04-19 15:12:36,283 INFO scheduler Scheduled Job Start: frappe.email.doctype.email_account.email_account.notify_unreplied for my_site
2021-04-19 15:12:36,732 INFO scheduler Scheduled Job Complete: frappe.email.doctype.email_account.email_account.notify_unreplied for my_site
2021-04-19 15:12:36,832 INFO scheduler Scheduled Job Start: frappe.email.doctype.email_account.email_account.pull for my_site
2021-04-19 15:12:37,278 INFO scheduler Scheduled Job Complete: frappe.email.doctype.email_account.email_account.pull for my_site
2021-04-19 15:12:37,377 INFO scheduler Scheduled Job Start: frappe.email.queue.flush for my_site
2021-04-19 15:12:37,775 INFO scheduler Scheduled Job Complete: frappe.email.queue.flush for my_site
2021-04-19 15:13:32,827 DEBUG scheduler Queued events for site my_site
2021-04-19 15:14:33,251 DEBUG scheduler Queued events for site my_site
2021-04-19 15:15:33,759 DEBUG scheduler Queued events for site my_site
2021-04-19 15:15:35,861 INFO scheduler Scheduled Job Start: frappe.twofactor.delete_all_barcodes_for_users for my_site
2021-04-19 15:15:36,446 INFO scheduler Scheduled Job Complete: frappe.twofactor.delete_all_barcodes_for_users for my_site
2021-04-19 15:15:36,561 INFO scheduler Scheduled Job Start: frappe.website.doctype.web_page.web_page.check_publish_status for my_site
2021-04-19 15:15:37,196 INFO scheduler Scheduled Job Complete: frappe.website.doctype.web_page.web_page.check_publish_status for my_site
2021-04-19 15:15:37,311 INFO scheduler Scheduled Job Start: frappe.oauth.delete_oauth2_data for my_site
2021-04-19 15:15:37,851 INFO scheduler Scheduled Job Complete: frappe.oauth.delete_oauth2_data for my_site
2021-04-19 15:16:34,320 DEBUG scheduler Queued events for site my_site
2021-04-19 15:16:36,555 INFO scheduler Scheduled Job Start: frappe.monitor.flush for my_site
2021-04-19 15:16:36,746 INFO scheduler Scheduled Job Complete: frappe.monitor.flush for my_site
2021-04-19 15:16:36,832 INFO scheduler Scheduled Job Start: frappe.utils.global_search.sync_global_search for my_site
2021-04-19 15:16:37,021 INFO scheduler Scheduled Job Complete: frappe.utils.global_search.sync_global_search for my_site
2021-04-19 15:16:37,102 INFO scheduler Scheduled Job Start: frappe.integrations.doctype.razorpay_settings.razorpay_settings.capture_payment for my_site
2021-04-19 15:16:37,568 INFO scheduler Scheduled Job Complete: frappe.integrations.doctype.razorpay_settings.razorpay_settings.capture_payment for my_site
2021-04-19 15:16:37,649 INFO scheduler Scheduled Job Start: frappe.email.doctype.email_account.email_account.notify_unreplied for my_site
2021-04-19 15:16:38,006 INFO scheduler Scheduled Job Complete: frappe.email.doctype.email_account.email_account.notify_unreplied for my_site
2021-04-19 15:16:38,089 INFO scheduler Scheduled Job Start: frappe.email.doctype.email_account.email_account.pull for my_site
2021-04-19 15:16:38,464 INFO scheduler Scheduled Job Complete: frappe.email.doctype.email_account.email_account.pull for my_site
2021-04-19 15:16:38,551 INFO scheduler Scheduled Job Start: frappe.email.queue.flush for my_site
2021-04-19 15:16:38,855 INFO scheduler Scheduled Job Complete: frappe.email.queue.flush for my_site
2021-04-19 15:17:34,797 DEBUG scheduler Queued events for site my_site
2021-04-19 15:18:35,214 DEBUG scheduler Queued events for site my_site
2021-04-19 15:19:35,565 DEBUG scheduler Queued events for site my_site
2021-04-19 15:20:36,132 DEBUG scheduler Queued events for site my_site
2021-04-19 15:20:38,647 INFO scheduler Scheduled Job Start: frappe.monitor.flush for my_site
2021-04-19 15:20:38,850 INFO scheduler Scheduled Job Complete: frappe.monitor.flush for my_site
2021-04-19 15:20:38,945 INFO scheduler Scheduled Job Start: frappe.utils.global_search.sync_global_search for my_site
2021-04-19 15:20:39,152 INFO scheduler Scheduled Job Complete: frappe.utils.global_search.sync_global_search for my_site
2021-04-19 15:20:39,248 INFO scheduler Scheduled Job Start: frappe.integrations.doctype.razorpay_settings.razorpay_settings.capture_payment for my_site
2021-04-19 15:20:39,816 INFO scheduler Scheduled Job Complete: frappe.integrations.doctype.razorpay_settings.razorpay_settings.capture_payment for my_site
2021-04-19 15:20:39,927 INFO scheduler Scheduled Job Start: frappe.email.doctype.email_account.email_account.notify_unreplied for my_site
2021-04-19 15:20:40,335 INFO scheduler Scheduled Job Complete: frappe.email.doctype.email_account.email_account.notify_unreplied for my_site
2021-04-19 15:20:40,431 INFO scheduler Scheduled Job Start: frappe.email.doctype.email_account.email_account.pull for my_site
2021-04-19 15:20:40,860 INFO scheduler Scheduled Job Complete: frappe.email.doctype.email_account.email_account.pull for my_site
2021-04-19 15:20:40,947 INFO scheduler Scheduled Job Start: frappe.email.queue.flush for my_site
2021-04-19 15:20:41,286 INFO scheduler Scheduled Job Complete: frappe.email.queue.flush for my_site
2021-04-19 15:21:36,580 DEBUG scheduler Queued events for site my_site
2021-04-19 15:22:36,999 DEBUG scheduler Queued events for site my_site
2021-04-19 15:23:37,427 DEBUG scheduler Queued events for site my_site
2021-04-19 15:24:38,008 DEBUG scheduler Queued events for site my_site
2021-04-19 15:24:40,403 INFO scheduler Scheduled Job Start: frappe.monitor.flush for my_site
2021-04-19 15:24:40,603 INFO scheduler Scheduled Job Complete: frappe.monitor.flush for my_site
2021-04-19 15:24:40,694 INFO scheduler Scheduled Job Start: frappe.utils.global_search.sync_global_search for my_site
2021-04-19 15:24:40,880 INFO scheduler Scheduled Job Complete: frappe.utils.global_search.sync_global_search for my_site
2021-04-19 15:24:40,964 INFO scheduler Scheduled Job Start: frappe.integrations.doctype.razorpay_settings.razorpay_settings.capture_payment for my_site
2021-04-19 15:24:41,483 INFO scheduler Scheduled Job Complete: frappe.integrations.doctype.razorpay_settings.razorpay_settings.capture_payment for my_site
2021-04-19 15:24:41,588 INFO scheduler Scheduled Job Start: frappe.email.doctype.email_account.email_account.notify_unreplied for my_site
2021-04-19 15:24:42,029 INFO scheduler Scheduled Job Complete: frappe.email.doctype.email_account.email_account.notify_unreplied for my_site
2021-04-19 15:24:42,130 INFO scheduler Scheduled Job Start: frappe.email.doctype.email_account.email_account.pull for my_site
2021-04-19 15:24:42,563 INFO scheduler Scheduled Job Complete: frappe.email.doctype.email_account.email_account.pull for my_site
2021-04-19 15:24:42,667 INFO scheduler Scheduled Job Start: frappe.email.queue.flush for my_site
2021-04-19 15:24:43,003 INFO scheduler Scheduled Job Complete: frappe.email.queue.flush for my_site
2021-04-19 15:25:38,453 DEBUG scheduler Queued events for site my_site
2021-04-19 15:26:38,802 DEBUG scheduler Queued events for site my_site
2021-04-19 15:27:39,185 DEBUG scheduler Queued events for site my_site
2021-04-19 15:28:39,688 DEBUG scheduler Queued events for site my_site
2021-04-19 15:28:42,891 INFO scheduler Scheduled Job Start: frappe.monitor.flush for my_site
2021-04-19 15:28:43,104 INFO scheduler Scheduled Job Complete: frappe.monitor.flush for my_site
2021-04-19 15:28:43,220 INFO scheduler Scheduled Job Start: frappe.utils.global_search.sync_global_search for my_site
2021-04-19 15:28:43,511 INFO scheduler Scheduled Job Complete: frappe.utils.global_search.sync_global_search for my_site
2021-04-19 15:28:43,662 INFO scheduler Scheduled Job Start: frappe.integrations.doctype.razorpay_settings.razorpay_settings.capture_payment for my_site
2021-04-19 15:28:44,290 INFO scheduler Scheduled Job Complete: frappe.integrations.doctype.razorpay_settings.razorpay_settings.capture_payment for my_site
2021-04-19 15:28:44,388 INFO scheduler Scheduled Job Start: frappe.email.doctype.email_account.email_account.notify_unreplied for my_site
2021-04-19 15:28:44,808 INFO scheduler Scheduled Job Complete: frappe.email.doctype.email_account.email_account.notify_unreplied for my_site
2021-04-19 15:28:44,912 INFO scheduler Scheduled Job Start: frappe.email.doctype.email_account.email_account.pull for my_site
2021-04-19 15:28:45,317 INFO scheduler Scheduled Job Complete: frappe.email.doctype.email_account.email_account.pull for my_site
2021-04-19 15:28:45,397 INFO scheduler Scheduled Job Start: frappe.email.queue.flush for my_site
2021-04-19 15:28:45,663 INFO scheduler Scheduled Job Complete: frappe.email.queue.flush for my_site
2021-04-19 15:29:40,067 DEBUG scheduler Queued events for site my_site
2021-04-19 15:30:40,437 DEBUG scheduler Queued events for site my_site
2021-04-19 15:30:42,154 INFO scheduler Scheduled Job Start: frappe.twofactor.delete_all_barcodes_for_users for my_site
2021-04-19 15:30:42,672 INFO scheduler Scheduled Job Complete: frappe.twofactor.delete_all_barcodes_for_users for my_site
2021-04-19 15:30:42,763 INFO scheduler Scheduled Job Start: frappe.website.doctype.web_page.web_page.check_publish_status for my_site
2021-04-19 15:30:43,267 INFO scheduler Scheduled Job Complete: frappe.website.doctype.web_page.web_page.check_publish_status for my_site
2021-04-19 15:30:43,393 INFO scheduler Scheduled Job Start: frappe.oauth.delete_oauth2_data for my_site
2021-04-19 15:30:43,841 INFO scheduler Scheduled Job Complete: frappe.oauth.delete_oauth2_data for my_site
2021-04-19 15:31:40,785 DEBUG scheduler Queued events for site my_site
