2021-04-18 15:21:11,866 DEBUG scheduler Queued events for site my_site
2021-04-18 15:22:12,192 DEBUG scheduler Queued events for site my_site
2021-04-18 15:23:12,476 DEBUG scheduler Queued events for site my_site
2021-04-18 15:24:12,846 DEBUG scheduler Queued events for site my_site
2021-04-18 15:24:14,755 INFO scheduler Scheduled Job Start: frappe.monitor.flush for my_site
2021-04-18 15:24:14,906 INFO scheduler Scheduled Job Complete: frappe.monitor.flush for my_site
2021-04-18 15:24:14,980 INFO scheduler Scheduled Job Start: frappe.utils.global_search.sync_global_search for my_site
2021-04-18 15:24:15,132 INFO scheduler Scheduled Job Complete: frappe.utils.global_search.sync_global_search for my_site
2021-04-18 15:24:15,207 INFO scheduler Scheduled Job Start: frappe.integrations.doctype.razorpay_settings.razorpay_settings.capture_payment for my_site
2021-04-18 15:24:15,589 INFO scheduler Scheduled Job Complete: frappe.integrations.doctype.razorpay_settings.razorpay_settings.capture_payment for my_site
2021-04-18 15:24:15,657 INFO scheduler Scheduled Job Start: frappe.email.doctype.email_account.email_account.notify_unreplied for my_site
2021-04-18 15:24:15,941 INFO scheduler Scheduled Job Complete: frappe.email.doctype.email_account.email_account.notify_unreplied for my_site
2021-04-18 15:24:16,008 INFO scheduler Scheduled Job Start: frappe.email.doctype.email_account.email_account.pull for my_site
2021-04-18 15:24:16,307 INFO scheduler Scheduled Job Complete: frappe.email.doctype.email_account.email_account.pull for my_site
2021-04-18 15:24:16,375 INFO scheduler Scheduled Job Start: frappe.email.queue.flush for my_site
2021-04-18 15:24:16,631 INFO scheduler Scheduled Job Complete: frappe.email.queue.flush for my_site
2021-04-18 15:25:13,159 DEBUG scheduler Queued events for site my_site
2021-04-18 15:26:13,442 DEBUG scheduler Queued events for site my_site
2021-04-18 15:27:13,723 DEBUG scheduler Queued events for site my_site
2021-04-18 16:11:23,744 DEBUG scheduler Queued events for site my_site
2021-04-18 16:11:32,242 INFO scheduler Scheduled Job Start: frappe.email.doctype.newsletter.newsletter.send_scheduled_email for my_site
2021-04-18 16:11:32,817 INFO scheduler Scheduled Job Complete: frappe.email.doctype.newsletter.newsletter.send_scheduled_email for my_site
2021-04-18 16:11:32,926 INFO scheduler Scheduled Job Start: frappe.integrations.doctype.google_calendar.google_calendar.sync for my_site
2021-04-18 16:11:33,524 INFO scheduler Scheduled Job Complete: frappe.integrations.doctype.google_calendar.google_calendar.sync for my_site
2021-04-18 16:11:33,641 INFO scheduler Scheduled Job Start: frappe.desk.form.document_follow.send_hourly_updates for my_site
2021-04-18 16:11:34,063 INFO scheduler Scheduled Job Complete: frappe.desk.form.document_follow.send_hourly_updates for my_site
2021-04-18 16:11:34,164 INFO scheduler Scheduled Job Start: frappe.deferred_insert.save_to_db for my_site
2021-04-18 16:11:34,823 INFO scheduler Scheduled Job Complete: frappe.deferred_insert.save_to_db for my_site
2021-04-18 16:11:34,961 INFO scheduler Scheduled Job Start: frappe.desk.page.backups.backups.delete_downloadable_backups for my_site
2021-04-18 16:11:35,557 INFO scheduler Scheduled Job Complete: frappe.desk.page.backups.backups.delete_downloadable_backups for my_site
2021-04-18 16:11:35,694 INFO scheduler Scheduled Job Start: frappe.utils.error.collect_error_snapshots for my_site
2021-04-18 16:11:36,264 INFO scheduler Scheduled Job Complete: frappe.utils.error.collect_error_snapshots for my_site
2021-04-18 16:11:36,394 INFO scheduler Scheduled Job Start: frappe.model.utils.user_settings.sync_user_settings for my_site
2021-04-18 16:11:37,008 INFO scheduler Scheduled Job Complete: frappe.model.utils.user_settings.sync_user_settings for my_site
2021-04-18 16:11:37,139 INFO scheduler Scheduled Job Start: frappe.model.utils.link_count.update_link_count for my_site
2021-04-18 16:11:37,576 INFO scheduler Scheduled Job Complete: frappe.model.utils.link_count.update_link_count for my_site
2021-04-18 16:11:37,673 INFO scheduler Scheduled Job Start: frappe.monitor.flush for my_site
2021-04-18 16:11:37,848 INFO scheduler Scheduled Job Complete: frappe.monitor.flush for my_site
2021-04-18 16:11:37,930 INFO scheduler Scheduled Job Start: frappe.utils.global_search.sync_global_search for my_site
2021-04-18 16:11:38,119 INFO scheduler Scheduled Job Complete: frappe.utils.global_search.sync_global_search for my_site
2021-04-18 16:11:38,208 INFO scheduler Scheduled Job Start: frappe.integrations.doctype.razorpay_settings.razorpay_settings.capture_payment for my_site
2021-04-18 16:11:38,763 INFO scheduler Scheduled Job Complete: frappe.integrations.doctype.razorpay_settings.razorpay_settings.capture_payment for my_site
2021-04-18 16:11:38,881 INFO scheduler Scheduled Job Start: frappe.email.doctype.email_account.email_account.notify_unreplied for my_site
2021-04-18 16:11:39,377 INFO scheduler Scheduled Job Complete: frappe.email.doctype.email_account.email_account.notify_unreplied for my_site
2021-04-18 16:11:39,489 INFO scheduler Scheduled Job Start: frappe.email.doctype.email_account.email_account.pull for my_site
2021-04-18 16:11:39,976 INFO scheduler Scheduled Job Complete: frappe.email.doctype.email_account.email_account.pull for my_site
2021-04-18 16:11:40,101 INFO scheduler Scheduled Job Start: frappe.email.queue.flush for my_site
2021-04-18 16:11:40,539 INFO scheduler Scheduled Job Complete: frappe.email.queue.flush for my_site
2021-04-18 16:11:40,669 INFO scheduler Scheduled Job Start: frappe.twofactor.delete_all_barcodes_for_users for my_site
2021-04-18 16:11:41,284 INFO scheduler Scheduled Job Complete: frappe.twofactor.delete_all_barcodes_for_users for my_site
2021-04-18 16:11:41,412 INFO scheduler Scheduled Job Start: frappe.website.doctype.web_page.web_page.check_publish_status for my_site
2021-04-18 16:11:41,960 INFO scheduler Scheduled Job Complete: frappe.website.doctype.web_page.web_page.check_publish_status for my_site
2021-04-18 16:11:42,051 INFO scheduler Scheduled Job Start: frappe.oauth.delete_oauth2_data for my_site
2021-04-18 16:11:42,465 INFO scheduler Scheduled Job Complete: frappe.oauth.delete_oauth2_data for my_site
2021-04-18 16:12:24,212 DEBUG scheduler Queued events for site my_site
2021-04-18 16:12:26,456 INFO scheduler Scheduled Job Start: frappe.monitor.flush for my_site
2021-04-18 16:12:26,631 INFO scheduler Scheduled Job Complete: frappe.monitor.flush for my_site
2021-04-18 16:12:26,715 INFO scheduler Scheduled Job Start: frappe.utils.global_search.sync_global_search for my_site
2021-04-18 16:12:26,888 INFO scheduler Scheduled Job Complete: frappe.utils.global_search.sync_global_search for my_site
2021-04-18 16:12:26,970 INFO scheduler Scheduled Job Start: frappe.integrations.doctype.razorpay_settings.razorpay_settings.capture_payment for my_site
2021-04-18 16:12:27,414 INFO scheduler Scheduled Job Complete: frappe.integrations.doctype.razorpay_settings.razorpay_settings.capture_payment for my_site
2021-04-18 16:12:27,496 INFO scheduler Scheduled Job Start: frappe.email.doctype.email_account.email_account.notify_unreplied for my_site
2021-04-18 16:12:27,849 INFO scheduler Scheduled Job Complete: frappe.email.doctype.email_account.email_account.notify_unreplied for my_site
2021-04-18 16:12:27,932 INFO scheduler Scheduled Job Start: frappe.email.doctype.email_account.email_account.pull for my_site
2021-04-18 16:12:28,285 INFO scheduler Scheduled Job Complete: frappe.email.doctype.email_account.email_account.pull for my_site
2021-04-18 16:12:28,365 INFO scheduler Scheduled Job Start: frappe.email.queue.flush for my_site
2021-04-18 16:12:28,670 INFO scheduler Scheduled Job Complete: frappe.email.queue.flush for my_site
2021-04-18 16:13:24,570 DEBUG scheduler Queued events for site my_site
2021-04-18 16:14:24,894 DEBUG scheduler Queued events for site my_site
2021-04-18 16:15:25,316 DEBUG scheduler Queued events for site my_site
2021-04-18 16:15:27,060 INFO scheduler Scheduled Job Start: frappe.twofactor.delete_all_barcodes_for_users for my_site
2021-04-18 16:15:27,479 INFO scheduler Scheduled Job Complete: frappe.twofactor.delete_all_barcodes_for_users for my_site
2021-04-18 16:15:27,574 INFO scheduler Scheduled Job Start: frappe.website.doctype.web_page.web_page.check_publish_status for my_site
2021-04-18 16:15:28,047 INFO scheduler Scheduled Job Complete: frappe.website.doctype.web_page.web_page.check_publish_status for my_site
2021-04-18 16:15:28,148 INFO scheduler Scheduled Job Start: frappe.oauth.delete_oauth2_data for my_site
2021-04-18 16:15:28,580 INFO scheduler Scheduled Job Complete: frappe.oauth.delete_oauth2_data for my_site
2021-04-18 16:16:25,791 DEBUG scheduler Queued events for site my_site
2021-04-18 16:16:27,883 INFO scheduler Scheduled Job Start: frappe.monitor.flush for my_site
2021-04-18 16:16:28,041 INFO scheduler Scheduled Job Complete: frappe.monitor.flush for my_site
2021-04-18 16:16:28,115 INFO scheduler Scheduled Job Start: frappe.utils.global_search.sync_global_search for my_site
2021-04-18 16:16:28,279 INFO scheduler Scheduled Job Complete: frappe.utils.global_search.sync_global_search for my_site
2021-04-18 16:16:28,354 INFO scheduler Scheduled Job Start: frappe.integrations.doctype.razorpay_settings.razorpay_settings.capture_payment for my_site
2021-04-18 16:16:28,743 INFO scheduler Scheduled Job Complete: frappe.integrations.doctype.razorpay_settings.razorpay_settings.capture_payment for my_site
2021-04-18 16:16:28,810 INFO scheduler Scheduled Job Start: frappe.email.doctype.email_account.email_account.notify_unreplied for my_site
2021-04-18 16:16:29,112 INFO scheduler Scheduled Job Complete: frappe.email.doctype.email_account.email_account.notify_unreplied for my_site
2021-04-18 16:16:29,186 INFO scheduler Scheduled Job Start: frappe.email.doctype.email_account.email_account.pull for my_site
2021-04-18 16:16:29,504 INFO scheduler Scheduled Job Complete: frappe.email.doctype.email_account.email_account.pull for my_site
2021-04-18 16:16:29,583 INFO scheduler Scheduled Job Start: frappe.email.queue.flush for my_site
2021-04-18 16:16:29,851 INFO scheduler Scheduled Job Complete: frappe.email.queue.flush for my_site
2021-04-18 16:17:26,263 DEBUG scheduler Queued events for site my_site
2021-04-18 16:18:26,582 DEBUG scheduler Queued events for site my_site
2021-04-18 16:19:26,881 DEBUG scheduler Queued events for site my_site
2021-04-18 16:20:27,804 DEBUG scheduler Queued events for site my_site
2021-04-18 16:20:29,801 INFO scheduler Scheduled Job Start: frappe.monitor.flush for my_site
2021-04-18 16:20:29,962 INFO scheduler Scheduled Job Complete: frappe.monitor.flush for my_site
2021-04-18 16:20:30,034 INFO scheduler Scheduled Job Start: frappe.utils.global_search.sync_global_search for my_site
2021-04-18 16:20:30,190 INFO scheduler Scheduled Job Complete: frappe.utils.global_search.sync_global_search for my_site
2021-04-18 16:20:30,261 INFO scheduler Scheduled Job Start: frappe.integrations.doctype.razorpay_settings.razorpay_settings.capture_payment for my_site
2021-04-18 16:20:30,672 INFO scheduler Scheduled Job Complete: frappe.integrations.doctype.razorpay_settings.razorpay_settings.capture_payment for my_site
2021-04-18 16:20:30,744 INFO scheduler Scheduled Job Start: frappe.email.doctype.email_account.email_account.notify_unreplied for my_site
2021-04-18 16:20:31,044 INFO scheduler Scheduled Job Complete: frappe.email.doctype.email_account.email_account.notify_unreplied for my_site
2021-04-18 16:20:31,124 INFO scheduler Scheduled Job Start: frappe.email.doctype.email_account.email_account.pull for my_site
2021-04-18 16:20:31,432 INFO scheduler Scheduled Job Complete: frappe.email.doctype.email_account.email_account.pull for my_site
2021-04-18 16:20:31,510 INFO scheduler Scheduled Job Start: frappe.email.queue.flush for my_site
2021-04-18 16:20:31,783 INFO scheduler Scheduled Job Complete: frappe.email.queue.flush for my_site
2021-04-18 16:21:28,119 DEBUG scheduler Queued events for site my_site
2021-04-18 16:22:28,407 DEBUG scheduler Queued events for site my_site
2021-04-18 16:23:28,689 DEBUG scheduler Queued events for site my_site
2021-04-18 16:24:29,345 DEBUG scheduler Queued events for site my_site
2021-04-18 16:24:31,850 INFO scheduler Scheduled Job Start: frappe.monitor.flush for my_site
2021-04-18 16:24:32,034 INFO scheduler Scheduled Job Complete: frappe.monitor.flush for my_site
2021-04-18 16:24:32,110 INFO scheduler Scheduled Job Start: frappe.utils.global_search.sync_global_search for my_site
2021-04-18 16:24:32,279 INFO scheduler Scheduled Job Complete: frappe.utils.global_search.sync_global_search for my_site
2021-04-18 16:24:32,356 INFO scheduler Scheduled Job Start: frappe.integrations.doctype.razorpay_settings.razorpay_settings.capture_payment for my_site
2021-04-18 16:24:32,783 INFO scheduler Scheduled Job Complete: frappe.integrations.doctype.razorpay_settings.razorpay_settings.capture_payment for my_site
2021-04-18 16:24:32,855 INFO scheduler Scheduled Job Start: frappe.email.doctype.email_account.email_account.notify_unreplied for my_site
2021-04-18 16:24:33,192 INFO scheduler Scheduled Job Complete: frappe.email.doctype.email_account.email_account.notify_unreplied for my_site
2021-04-18 16:24:33,271 INFO scheduler Scheduled Job Start: frappe.email.doctype.email_account.email_account.pull for my_site
2021-04-18 16:24:33,598 INFO scheduler Scheduled Job Complete: frappe.email.doctype.email_account.email_account.pull for my_site
2021-04-18 16:24:33,667 INFO scheduler Scheduled Job Start: frappe.email.queue.flush for my_site
2021-04-18 16:24:33,969 INFO scheduler Scheduled Job Complete: frappe.email.queue.flush for my_site
2021-04-18 16:25:29,700 DEBUG scheduler Queued events for site my_site
2021-04-18 16:26:30,147 DEBUG scheduler Queued events for site my_site
2021-04-18 16:27:30,457 DEBUG scheduler Queued events for site my_site
2021-04-18 16:28:30,944 DEBUG scheduler Queued events for site my_site
2021-04-18 16:28:33,263 INFO scheduler Scheduled Job Start: frappe.monitor.flush for my_site
2021-04-18 16:28:33,438 INFO scheduler Scheduled Job Complete: frappe.monitor.flush for my_site
2021-04-18 16:28:33,511 INFO scheduler Scheduled Job Start: frappe.utils.global_search.sync_global_search for my_site
2021-04-18 16:28:33,678 INFO scheduler Scheduled Job Complete: frappe.utils.global_search.sync_global_search for my_site
2021-04-18 16:28:33,755 INFO scheduler Scheduled Job Start: frappe.integrations.doctype.razorpay_settings.razorpay_settings.capture_payment for my_site
2021-04-18 16:28:34,198 INFO scheduler Scheduled Job Complete: frappe.integrations.doctype.razorpay_settings.razorpay_settings.capture_payment for my_site
2021-04-18 16:28:34,269 INFO scheduler Scheduled Job Start: frappe.email.doctype.email_account.email_account.notify_unreplied for my_site
2021-04-18 16:28:34,561 INFO scheduler Scheduled Job Complete: frappe.email.doctype.email_account.email_account.notify_unreplied for my_site
2021-04-18 16:28:34,632 INFO scheduler Scheduled Job Start: frappe.email.doctype.email_account.email_account.pull for my_site
2021-04-18 16:28:34,957 INFO scheduler Scheduled Job Complete: frappe.email.doctype.email_account.email_account.pull for my_site
2021-04-18 16:28:35,028 INFO scheduler Scheduled Job Start: frappe.email.queue.flush for my_site
2021-04-18 16:28:35,335 INFO scheduler Scheduled Job Complete: frappe.email.queue.flush for my_site
2021-04-18 16:29:31,422 DEBUG scheduler Queued events for site my_site
2021-04-18 18:06:57,249 DEBUG scheduler Queued events for site my_site
2021-04-18 18:07:05,296 INFO scheduler Scheduled Job Start: frappe.email.doctype.newsletter.newsletter.send_scheduled_email for my_site
2021-04-18 18:07:05,707 INFO scheduler Scheduled Job Complete: frappe.email.doctype.newsletter.newsletter.send_scheduled_email for my_site
2021-04-18 18:07:05,798 INFO scheduler Scheduled Job Start: frappe.integrations.doctype.google_calendar.google_calendar.sync for my_site
2021-04-18 18:07:06,318 INFO scheduler Scheduled Job Complete: frappe.integrations.doctype.google_calendar.google_calendar.sync for my_site
2021-04-18 18:07:06,400 INFO scheduler Scheduled Job Start: frappe.desk.form.document_follow.send_hourly_updates for my_site
2021-04-18 18:07:06,787 INFO scheduler Scheduled Job Complete: frappe.desk.form.document_follow.send_hourly_updates for my_site
2021-04-18 18:07:06,871 INFO scheduler Scheduled Job Start: frappe.deferred_insert.save_to_db for my_site
2021-04-18 18:07:07,216 INFO scheduler Scheduled Job Complete: frappe.deferred_insert.save_to_db for my_site
2021-04-18 18:07:07,306 INFO scheduler Scheduled Job Start: frappe.desk.page.backups.backups.delete_downloadable_backups for my_site
2021-04-18 18:07:07,667 INFO scheduler Scheduled Job Complete: frappe.desk.page.backups.backups.delete_downloadable_backups for my_site
2021-04-18 18:07:07,751 INFO scheduler Scheduled Job Start: frappe.utils.error.collect_error_snapshots for my_site
2021-04-18 18:07:08,116 INFO scheduler Scheduled Job Complete: frappe.utils.error.collect_error_snapshots for my_site
2021-04-18 18:07:08,199 INFO scheduler Scheduled Job Start: frappe.model.utils.user_settings.sync_user_settings for my_site
2021-04-18 18:07:08,545 INFO scheduler Scheduled Job Complete: frappe.model.utils.user_settings.sync_user_settings for my_site
2021-04-18 18:07:08,623 INFO scheduler Scheduled Job Start: frappe.model.utils.link_count.update_link_count for my_site
2021-04-18 18:07:08,984 INFO scheduler Scheduled Job Complete: frappe.model.utils.link_count.update_link_count for my_site
2021-04-18 18:07:09,067 INFO scheduler Scheduled Job Start: frappe.monitor.flush for my_site
2021-04-18 18:07:09,233 INFO scheduler Scheduled Job Complete: frappe.monitor.flush for my_site
2021-04-18 18:07:09,313 INFO scheduler Scheduled Job Start: frappe.utils.global_search.sync_global_search for my_site
2021-04-18 18:07:09,481 INFO scheduler Scheduled Job Complete: frappe.utils.global_search.sync_global_search for my_site
2021-04-18 18:07:09,551 INFO scheduler Scheduled Job Start: frappe.integrations.doctype.razorpay_settings.razorpay_settings.capture_payment for my_site
2021-04-18 18:07:09,993 INFO scheduler Scheduled Job Complete: frappe.integrations.doctype.razorpay_settings.razorpay_settings.capture_payment for my_site
2021-04-18 18:07:10,062 INFO scheduler Scheduled Job Start: frappe.email.doctype.email_account.email_account.notify_unreplied for my_site
2021-04-18 18:07:10,356 INFO scheduler Scheduled Job Complete: frappe.email.doctype.email_account.email_account.notify_unreplied for my_site
2021-04-18 18:07:10,427 INFO scheduler Scheduled Job Start: frappe.email.doctype.email_account.email_account.pull for my_site
2021-04-18 18:07:10,746 INFO scheduler Scheduled Job Complete: frappe.email.doctype.email_account.email_account.pull for my_site
2021-04-18 18:07:10,812 INFO scheduler Scheduled Job Start: frappe.email.queue.flush for my_site
2021-04-18 18:07:11,081 INFO scheduler Scheduled Job Complete: frappe.email.queue.flush for my_site
2021-04-18 18:07:11,156 INFO scheduler Scheduled Job Start: frappe.twofactor.delete_all_barcodes_for_users for my_site
2021-04-18 18:07:11,521 INFO scheduler Scheduled Job Complete: frappe.twofactor.delete_all_barcodes_for_users for my_site
2021-04-18 18:07:11,615 INFO scheduler Scheduled Job Start: frappe.website.doctype.web_page.web_page.check_publish_status for my_site
2021-04-18 18:07:12,046 INFO scheduler Scheduled Job Complete: frappe.website.doctype.web_page.web_page.check_publish_status for my_site
2021-04-18 18:07:12,135 INFO scheduler Scheduled Job Start: frappe.oauth.delete_oauth2_data for my_site
2021-04-18 18:07:12,517 INFO scheduler Scheduled Job Complete: frappe.oauth.delete_oauth2_data for my_site
2021-04-18 18:07:57,758 DEBUG scheduler Queued events for site my_site
2021-04-18 18:08:59,027 DEBUG scheduler Queued events for site my_site
2021-04-18 18:09:00,945 INFO scheduler Scheduled Job Start: frappe.monitor.flush for my_site
2021-04-18 18:09:01,096 INFO scheduler Scheduled Job Complete: frappe.monitor.flush for my_site
2021-04-18 18:09:01,165 INFO scheduler Scheduled Job Start: frappe.utils.global_search.sync_global_search for my_site
2021-04-18 18:09:01,316 INFO scheduler Scheduled Job Complete: frappe.utils.global_search.sync_global_search for my_site
2021-04-18 18:09:01,386 INFO scheduler Scheduled Job Start: frappe.integrations.doctype.razorpay_settings.razorpay_settings.capture_payment for my_site
2021-04-18 18:09:01,775 INFO scheduler Scheduled Job Complete: frappe.integrations.doctype.razorpay_settings.razorpay_settings.capture_payment for my_site
2021-04-18 18:09:01,843 INFO scheduler Scheduled Job Start: frappe.email.doctype.email_account.email_account.notify_unreplied for my_site
2021-04-18 18:09:02,137 INFO scheduler Scheduled Job Complete: frappe.email.doctype.email_account.email_account.notify_unreplied for my_site
2021-04-18 18:09:02,204 INFO scheduler Scheduled Job Start: frappe.email.doctype.email_account.email_account.pull for my_site
2021-04-18 18:09:02,503 INFO scheduler Scheduled Job Complete: frappe.email.doctype.email_account.email_account.pull for my_site
2021-04-18 18:09:02,570 INFO scheduler Scheduled Job Start: frappe.email.queue.flush for my_site
2021-04-18 18:09:02,834 INFO scheduler Scheduled Job Complete: frappe.email.queue.flush for my_site
2021-04-18 18:09:59,341 DEBUG scheduler Queued events for site my_site
2021-04-18 18:10:59,663 DEBUG scheduler Queued events for site my_site
2021-04-18 18:11:59,999 DEBUG scheduler Queued events for site my_site
2021-04-18 18:13:00,672 DEBUG scheduler Queued events for site my_site
2021-04-18 18:13:03,781 INFO scheduler Scheduled Job Start: frappe.monitor.flush for my_site
2021-04-18 18:13:03,957 INFO scheduler Scheduled Job Complete: frappe.monitor.flush for my_site
2021-04-18 18:13:04,041 INFO scheduler Scheduled Job Start: frappe.utils.global_search.sync_global_search for my_site
2021-04-18 18:13:04,261 INFO scheduler Scheduled Job Complete: frappe.utils.global_search.sync_global_search for my_site
2021-04-18 18:13:04,387 INFO scheduler Scheduled Job Start: frappe.integrations.doctype.razorpay_settings.razorpay_settings.capture_payment for my_site
2021-04-18 18:13:04,898 INFO scheduler Scheduled Job Complete: frappe.integrations.doctype.razorpay_settings.razorpay_settings.capture_payment for my_site
2021-04-18 18:13:04,986 INFO scheduler Scheduled Job Start: frappe.email.doctype.email_account.email_account.notify_unreplied for my_site
2021-04-18 18:13:05,379 INFO scheduler Scheduled Job Complete: frappe.email.doctype.email_account.email_account.notify_unreplied for my_site
2021-04-18 18:13:05,459 INFO scheduler Scheduled Job Start: frappe.email.doctype.email_account.email_account.pull for my_site
2021-04-18 18:13:05,833 INFO scheduler Scheduled Job Complete: frappe.email.doctype.email_account.email_account.pull for my_site
2021-04-18 18:13:05,930 INFO scheduler Scheduled Job Start: frappe.email.queue.flush for my_site
2021-04-18 18:13:06,233 INFO scheduler Scheduled Job Complete: frappe.email.queue.flush for my_site
2021-04-18 18:14:01,020 DEBUG scheduler Queued events for site my_site
2021-04-18 18:15:01,337 DEBUG scheduler Queued events for site my_site
2021-04-18 18:15:02,934 INFO scheduler Scheduled Job Start: frappe.twofactor.delete_all_barcodes_for_users for my_site
2021-04-18 18:15:03,301 INFO scheduler Scheduled Job Complete: frappe.twofactor.delete_all_barcodes_for_users for my_site
2021-04-18 18:15:03,386 INFO scheduler Scheduled Job Start: frappe.website.doctype.web_page.web_page.check_publish_status for my_site
2021-04-18 18:15:03,818 INFO scheduler Scheduled Job Complete: frappe.website.doctype.web_page.web_page.check_publish_status for my_site
2021-04-18 18:15:03,910 INFO scheduler Scheduled Job Start: frappe.oauth.delete_oauth2_data for my_site
2021-04-18 18:15:04,277 INFO scheduler Scheduled Job Complete: frappe.oauth.delete_oauth2_data for my_site
2021-04-18 18:16:01,833 DEBUG scheduler Queued events for site my_site
2021-04-18 18:16:04,057 INFO scheduler Scheduled Job Start: frappe.monitor.flush for my_site
2021-04-18 18:16:04,231 INFO scheduler Scheduled Job Complete: frappe.monitor.flush for my_site
2021-04-18 18:16:04,317 INFO scheduler Scheduled Job Start: frappe.utils.global_search.sync_global_search for my_site
2021-04-18 18:16:04,499 INFO scheduler Scheduled Job Complete: frappe.utils.global_search.sync_global_search for my_site
2021-04-18 18:16:04,578 INFO scheduler Scheduled Job Start: frappe.integrations.doctype.razorpay_settings.razorpay_settings.capture_payment for my_site
2021-04-18 18:16:05,017 INFO scheduler Scheduled Job Complete: frappe.integrations.doctype.razorpay_settings.razorpay_settings.capture_payment for my_site
2021-04-18 18:16:05,095 INFO scheduler Scheduled Job Start: frappe.email.doctype.email_account.email_account.notify_unreplied for my_site
2021-04-18 18:16:05,430 INFO scheduler Scheduled Job Complete: frappe.email.doctype.email_account.email_account.notify_unreplied for my_site
2021-04-18 18:16:05,510 INFO scheduler Scheduled Job Start: frappe.email.doctype.email_account.email_account.pull for my_site
2021-04-18 18:16:05,863 INFO scheduler Scheduled Job Complete: frappe.email.doctype.email_account.email_account.pull for my_site
2021-04-18 18:16:05,943 INFO scheduler Scheduled Job Start: frappe.email.queue.flush for my_site
2021-04-18 18:16:06,245 INFO scheduler Scheduled Job Complete: frappe.email.queue.flush for my_site
2021-04-18 18:17:02,156 DEBUG scheduler Queued events for site my_site
2021-04-18 18:18:02,451 DEBUG scheduler Queued events for site my_site
2021-04-18 18:19:02,743 DEBUG scheduler Queued events for site my_site
2021-04-18 18:20:03,129 DEBUG scheduler Queued events for site my_site
2021-04-18 18:20:05,352 INFO scheduler Scheduled Job Start: frappe.monitor.flush for my_site
2021-04-18 18:20:05,515 INFO scheduler Scheduled Job Complete: frappe.monitor.flush for my_site
2021-04-18 18:20:05,588 INFO scheduler Scheduled Job Start: frappe.utils.global_search.sync_global_search for my_site
2021-04-18 18:20:05,757 INFO scheduler Scheduled Job Complete: frappe.utils.global_search.sync_global_search for my_site
2021-04-18 18:20:05,840 INFO scheduler Scheduled Job Start: frappe.integrations.doctype.razorpay_settings.razorpay_settings.capture_payment for my_site
2021-04-18 18:20:06,228 INFO scheduler Scheduled Job Complete: frappe.integrations.doctype.razorpay_settings.razorpay_settings.capture_payment for my_site
2021-04-18 18:20:06,300 INFO scheduler Scheduled Job Start: frappe.email.doctype.email_account.email_account.notify_unreplied for my_site
2021-04-18 18:20:06,683 INFO scheduler Scheduled Job Complete: frappe.email.doctype.email_account.email_account.notify_unreplied for my_site
2021-04-18 18:20:06,750 INFO scheduler Scheduled Job Start: frappe.email.doctype.email_account.email_account.pull for my_site
2021-04-18 18:20:07,049 INFO scheduler Scheduled Job Complete: frappe.email.doctype.email_account.email_account.pull for my_site
2021-04-18 18:20:07,117 INFO scheduler Scheduled Job Start: frappe.email.queue.flush for my_site
2021-04-18 18:20:07,412 INFO scheduler Scheduled Job Complete: frappe.email.queue.flush for my_site
2021-04-18 18:21:03,439 DEBUG scheduler Queued events for site my_site
2021-04-18 18:22:03,740 DEBUG scheduler Queued events for site my_site
2021-04-18 18:23:04,026 DEBUG scheduler Queued events for site my_site
2021-04-18 18:24:04,476 DEBUG scheduler Queued events for site my_site
2021-04-18 18:24:06,772 INFO scheduler Scheduled Job Start: frappe.monitor.flush for my_site
2021-04-18 18:24:06,931 INFO scheduler Scheduled Job Complete: frappe.monitor.flush for my_site
2021-04-18 18:24:07,004 INFO scheduler Scheduled Job Start: frappe.utils.global_search.sync_global_search for my_site
2021-04-18 18:24:07,166 INFO scheduler Scheduled Job Complete: frappe.utils.global_search.sync_global_search for my_site
2021-04-18 18:24:07,241 INFO scheduler Scheduled Job Start: frappe.integrations.doctype.razorpay_settings.razorpay_settings.capture_payment for my_site
2021-04-18 18:24:07,641 INFO scheduler Scheduled Job Complete: frappe.integrations.doctype.razorpay_settings.razorpay_settings.capture_payment for my_site
2021-04-18 18:24:07,709 INFO scheduler Scheduled Job Start: frappe.email.doctype.email_account.email_account.notify_unreplied for my_site
2021-04-18 18:24:08,020 INFO scheduler Scheduled Job Complete: frappe.email.doctype.email_account.email_account.notify_unreplied for my_site
2021-04-18 18:24:08,092 INFO scheduler Scheduled Job Start: frappe.email.doctype.email_account.email_account.pull for my_site
2021-04-18 18:24:08,393 INFO scheduler Scheduled Job Complete: frappe.email.doctype.email_account.email_account.pull for my_site
2021-04-18 18:24:08,461 INFO scheduler Scheduled Job Start: frappe.email.queue.flush for my_site
2021-04-18 18:24:08,716 INFO scheduler Scheduled Job Complete: frappe.email.queue.flush for my_site
2021-04-18 18:25:04,780 DEBUG scheduler Queued events for site my_site
2021-04-18 18:26:05,122 DEBUG scheduler Queued events for site my_site
2021-04-18 18:27:05,419 DEBUG scheduler Queued events for site my_site
2021-04-18 18:28:05,784 DEBUG scheduler Queued events for site my_site
2021-04-18 18:28:07,698 INFO scheduler Scheduled Job Start: frappe.monitor.flush for my_site
2021-04-18 18:28:07,852 INFO scheduler Scheduled Job Complete: frappe.monitor.flush for my_site
2021-04-18 18:28:07,928 INFO scheduler Scheduled Job Start: frappe.utils.global_search.sync_global_search for my_site
2021-04-18 18:28:08,097 INFO scheduler Scheduled Job Complete: frappe.utils.global_search.sync_global_search for my_site
2021-04-18 18:28:08,173 INFO scheduler Scheduled Job Start: frappe.integrations.doctype.razorpay_settings.razorpay_settings.capture_payment for my_site
2021-04-18 18:28:08,585 INFO scheduler Scheduled Job Complete: frappe.integrations.doctype.razorpay_settings.razorpay_settings.capture_payment for my_site
2021-04-18 18:28:08,659 INFO scheduler Scheduled Job Start: frappe.email.doctype.email_account.email_account.notify_unreplied for my_site
2021-04-18 18:28:08,958 INFO scheduler Scheduled Job Complete: frappe.email.doctype.email_account.email_account.notify_unreplied for my_site
2021-04-18 18:28:09,028 INFO scheduler Scheduled Job Start: frappe.email.doctype.email_account.email_account.pull for my_site
2021-04-18 18:28:09,349 INFO scheduler Scheduled Job Complete: frappe.email.doctype.email_account.email_account.pull for my_site
2021-04-18 18:28:09,422 INFO scheduler Scheduled Job Start: frappe.email.queue.flush for my_site
2021-04-18 18:28:09,711 INFO scheduler Scheduled Job Complete: frappe.email.queue.flush for my_site
2021-04-18 18:29:06,141 DEBUG scheduler Queued events for site my_site
2021-04-18 18:30:06,508 DEBUG scheduler Queued events for site my_site
2021-04-18 18:30:08,004 INFO scheduler Scheduled Job Start: frappe.twofactor.delete_all_barcodes_for_users for my_site
2021-04-18 18:30:08,425 INFO scheduler Scheduled Job Complete: frappe.twofactor.delete_all_barcodes_for_users for my_site
2021-04-18 18:30:08,513 INFO scheduler Scheduled Job Start: frappe.website.doctype.web_page.web_page.check_publish_status for my_site
2021-04-18 18:30:08,961 INFO scheduler Scheduled Job Complete: frappe.website.doctype.web_page.web_page.check_publish_status for my_site
2021-04-18 18:30:09,056 INFO scheduler Scheduled Job Start: frappe.oauth.delete_oauth2_data for my_site
2021-04-18 18:30:09,450 INFO scheduler Scheduled Job Complete: frappe.oauth.delete_oauth2_data for my_site
2021-04-18 18:31:06,841 DEBUG scheduler Queued events for site my_site
2021-04-18 18:32:07,266 DEBUG scheduler Queued events for site my_site
2021-04-18 18:32:09,148 INFO scheduler Scheduled Job Start: frappe.monitor.flush for my_site
2021-04-18 18:32:09,306 INFO scheduler Scheduled Job Complete: frappe.monitor.flush for my_site
2021-04-18 18:32:09,380 INFO scheduler Scheduled Job Start: frappe.utils.global_search.sync_global_search for my_site
2021-04-18 18:32:09,533 INFO scheduler Scheduled Job Complete: frappe.utils.global_search.sync_global_search for my_site
2021-04-18 18:32:09,631 INFO scheduler Scheduled Job Start: frappe.integrations.doctype.razorpay_settings.razorpay_settings.capture_payment for my_site
2021-04-18 18:32:10,478 INFO scheduler Scheduled Job Complete: frappe.integrations.doctype.razorpay_settings.razorpay_settings.capture_payment for my_site
2021-04-18 18:32:10,605 INFO scheduler Scheduled Job Start: frappe.email.doctype.email_account.email_account.notify_unreplied for my_site
2021-04-18 18:32:11,129 INFO scheduler Scheduled Job Complete: frappe.email.doctype.email_account.email_account.notify_unreplied for my_site
2021-04-18 18:32:11,280 INFO scheduler Scheduled Job Start: frappe.email.doctype.email_account.email_account.pull for my_site
2021-04-18 18:32:11,753 INFO scheduler Scheduled Job Complete: frappe.email.doctype.email_account.email_account.pull for my_site
2021-04-18 18:32:11,862 INFO scheduler Scheduled Job Start: frappe.email.queue.flush for my_site
2021-04-18 18:32:12,249 INFO scheduler Scheduled Job Complete: frappe.email.queue.flush for my_site
2021-04-18 18:33:07,615 DEBUG scheduler Queued events for site my_site
2021-04-18 18:34:07,923 DEBUG scheduler Queued events for site my_site
2021-04-18 18:35:08,228 DEBUG scheduler Queued events for site my_site
2021-04-18 18:36:08,620 DEBUG scheduler Queued events for site my_site
2021-04-18 18:36:10,516 INFO scheduler Scheduled Job Start: frappe.monitor.flush for my_site
2021-04-18 18:36:10,668 INFO scheduler Scheduled Job Complete: frappe.monitor.flush for my_site
2021-04-18 18:36:10,742 INFO scheduler Scheduled Job Start: frappe.utils.global_search.sync_global_search for my_site
2021-04-18 18:36:10,900 INFO scheduler Scheduled Job Complete: frappe.utils.global_search.sync_global_search for my_site
2021-04-18 18:36:10,975 INFO scheduler Scheduled Job Start: frappe.integrations.doctype.razorpay_settings.razorpay_settings.capture_payment for my_site
2021-04-18 18:36:11,364 INFO scheduler Scheduled Job Complete: frappe.integrations.doctype.razorpay_settings.razorpay_settings.capture_payment for my_site
2021-04-18 18:36:11,435 INFO scheduler Scheduled Job Start: frappe.email.doctype.email_account.email_account.notify_unreplied for my_site
2021-04-18 18:36:11,741 INFO scheduler Scheduled Job Complete: frappe.email.doctype.email_account.email_account.notify_unreplied for my_site
2021-04-18 18:36:11,811 INFO scheduler Scheduled Job Start: frappe.email.doctype.email_account.email_account.pull for my_site
2021-04-18 18:36:12,134 INFO scheduler Scheduled Job Complete: frappe.email.doctype.email_account.email_account.pull for my_site
2021-04-18 18:36:12,204 INFO scheduler Scheduled Job Start: frappe.email.queue.flush for my_site
2021-04-18 18:36:12,461 INFO scheduler Scheduled Job Complete: frappe.email.queue.flush for my_site
2021-04-18 18:37:08,957 DEBUG scheduler Queued events for site my_site
2021-04-18 18:40:01,588 DEBUG scheduler Queued events for site my_site
2021-04-18 18:40:04,238 INFO scheduler Scheduled Job Start: frappe.monitor.flush for my_site
2021-04-18 18:40:04,707 INFO scheduler Scheduled Job Complete: frappe.monitor.flush for my_site
2021-04-18 18:40:04,795 INFO scheduler Scheduled Job Start: frappe.utils.global_search.sync_global_search for my_site
2021-04-18 18:40:04,972 INFO scheduler Scheduled Job Complete: frappe.utils.global_search.sync_global_search for my_site
2021-04-18 18:40:05,057 INFO scheduler Scheduled Job Start: frappe.integrations.doctype.razorpay_settings.razorpay_settings.capture_payment for my_site
2021-04-18 18:40:05,589 INFO scheduler Scheduled Job Complete: frappe.integrations.doctype.razorpay_settings.razorpay_settings.capture_payment for my_site
2021-04-18 18:40:05,673 INFO scheduler Scheduled Job Start: frappe.email.doctype.email_account.email_account.notify_unreplied for my_site
2021-04-18 18:40:06,123 INFO scheduler Scheduled Job Complete: frappe.email.doctype.email_account.email_account.notify_unreplied for my_site
2021-04-18 18:40:06,206 INFO scheduler Scheduled Job Start: frappe.email.doctype.email_account.email_account.pull for my_site
2021-04-18 18:40:06,678 INFO scheduler Scheduled Job Complete: frappe.email.doctype.email_account.email_account.pull for my_site
2021-04-18 18:40:06,760 INFO scheduler Scheduled Job Start: frappe.email.queue.flush for my_site
2021-04-18 18:40:07,070 INFO scheduler Scheduled Job Complete: frappe.email.queue.flush for my_site
2021-04-18 18:41:01,981 DEBUG scheduler Queued events for site my_site
2021-04-18 18:42:02,293 DEBUG scheduler Queued events for site my_site
2021-04-18 18:43:02,607 DEBUG scheduler Queued events for site my_site
2021-04-18 18:44:03,007 DEBUG scheduler Queued events for site my_site
2021-04-18 18:44:04,875 INFO scheduler Scheduled Job Start: frappe.monitor.flush for my_site
2021-04-18 18:44:05,027 INFO scheduler Scheduled Job Complete: frappe.monitor.flush for my_site
2021-04-18 18:44:05,100 INFO scheduler Scheduled Job Start: frappe.utils.global_search.sync_global_search for my_site
2021-04-18 18:44:05,251 INFO scheduler Scheduled Job Complete: frappe.utils.global_search.sync_global_search for my_site
2021-04-18 18:44:05,323 INFO scheduler Scheduled Job Start: frappe.integrations.doctype.razorpay_settings.razorpay_settings.capture_payment for my_site
2021-04-18 18:44:05,703 INFO scheduler Scheduled Job Complete: frappe.integrations.doctype.razorpay_settings.razorpay_settings.capture_payment for my_site
2021-04-18 18:44:05,773 INFO scheduler Scheduled Job Start: frappe.email.doctype.email_account.email_account.notify_unreplied for my_site
2021-04-18 18:44:06,076 INFO scheduler Scheduled Job Complete: frappe.email.doctype.email_account.email_account.notify_unreplied for my_site
2021-04-18 18:44:06,147 INFO scheduler Scheduled Job Start: frappe.email.doctype.email_account.email_account.pull for my_site
2021-04-18 18:44:06,471 INFO scheduler Scheduled Job Complete: frappe.email.doctype.email_account.email_account.pull for my_site
2021-04-18 18:44:06,543 INFO scheduler Scheduled Job Start: frappe.email.queue.flush for my_site
2021-04-18 18:44:06,805 INFO scheduler Scheduled Job Complete: frappe.email.queue.flush for my_site
2021-04-18 18:45:03,385 DEBUG scheduler Queued events for site my_site
2021-04-18 18:45:05,099 INFO scheduler Scheduled Job Start: frappe.twofactor.delete_all_barcodes_for_users for my_site
2021-04-18 18:45:05,657 INFO scheduler Scheduled Job Complete: frappe.twofactor.delete_all_barcodes_for_users for my_site
2021-04-18 18:45:05,745 INFO scheduler Scheduled Job Start: frappe.website.doctype.web_page.web_page.check_publish_status for my_site
2021-04-18 18:45:06,232 INFO scheduler Scheduled Job Complete: frappe.website.doctype.web_page.web_page.check_publish_status for my_site
2021-04-18 18:45:06,324 INFO scheduler Scheduled Job Start: frappe.oauth.delete_oauth2_data for my_site
2021-04-18 18:45:06,767 INFO scheduler Scheduled Job Complete: frappe.oauth.delete_oauth2_data for my_site
2021-04-18 18:46:03,739 DEBUG scheduler Queued events for site my_site
2021-04-18 18:47:04,058 DEBUG scheduler Queued events for site my_site
2021-04-18 18:48:04,483 DEBUG scheduler Queued events for site my_site
2021-04-18 18:48:06,370 INFO scheduler Scheduled Job Start: frappe.monitor.flush for my_site
2021-04-18 18:48:06,523 INFO scheduler Scheduled Job Complete: frappe.monitor.flush for my_site
2021-04-18 18:48:06,622 INFO scheduler Scheduled Job Start: frappe.utils.global_search.sync_global_search for my_site
2021-04-18 18:48:06,773 INFO scheduler Scheduled Job Complete: frappe.utils.global_search.sync_global_search for my_site
2021-04-18 18:48:06,848 INFO scheduler Scheduled Job Start: frappe.integrations.doctype.razorpay_settings.razorpay_settings.capture_payment for my_site
2021-04-18 18:48:07,226 INFO scheduler Scheduled Job Complete: frappe.integrations.doctype.razorpay_settings.razorpay_settings.capture_payment for my_site
2021-04-18 18:48:07,295 INFO scheduler Scheduled Job Start: frappe.email.doctype.email_account.email_account.notify_unreplied for my_site
2021-04-18 18:48:07,595 INFO scheduler Scheduled Job Complete: frappe.email.doctype.email_account.email_account.notify_unreplied for my_site
2021-04-18 18:48:07,666 INFO scheduler Scheduled Job Start: frappe.email.doctype.email_account.email_account.pull for my_site
2021-04-18 18:48:07,978 INFO scheduler Scheduled Job Complete: frappe.email.doctype.email_account.email_account.pull for my_site
2021-04-18 18:48:08,047 INFO scheduler Scheduled Job Start: frappe.email.queue.flush for my_site
2021-04-18 18:48:08,308 INFO scheduler Scheduled Job Complete: frappe.email.queue.flush for my_site
2021-04-18 18:49:04,831 DEBUG scheduler Queued events for site my_site
2021-04-18 18:50:05,137 DEBUG scheduler Queued events for site my_site
2021-04-18 18:51:05,455 DEBUG scheduler Queued events for site my_site
2021-04-18 18:52:05,868 DEBUG scheduler Queued events for site my_site
2021-04-18 18:52:07,766 INFO scheduler Scheduled Job Start: frappe.monitor.flush for my_site
2021-04-18 18:52:07,925 INFO scheduler Scheduled Job Complete: frappe.monitor.flush for my_site
2021-04-18 18:52:08,010 INFO scheduler Scheduled Job Start: frappe.utils.global_search.sync_global_search for my_site
2021-04-18 18:52:08,163 INFO scheduler Scheduled Job Complete: frappe.utils.global_search.sync_global_search for my_site
2021-04-18 18:52:08,243 INFO scheduler Scheduled Job Start: frappe.integrations.doctype.razorpay_settings.razorpay_settings.capture_payment for my_site
2021-04-18 18:52:08,641 INFO scheduler Scheduled Job Complete: frappe.integrations.doctype.razorpay_settings.razorpay_settings.capture_payment for my_site
2021-04-18 18:52:08,713 INFO scheduler Scheduled Job Start: frappe.email.doctype.email_account.email_account.notify_unreplied for my_site
2021-04-18 18:52:09,033 INFO scheduler Scheduled Job Complete: frappe.email.doctype.email_account.email_account.notify_unreplied for my_site
2021-04-18 18:52:09,110 INFO scheduler Scheduled Job Start: frappe.email.doctype.email_account.email_account.pull for my_site
2021-04-18 18:52:09,466 INFO scheduler Scheduled Job Complete: frappe.email.doctype.email_account.email_account.pull for my_site
2021-04-18 18:52:09,549 INFO scheduler Scheduled Job Start: frappe.email.queue.flush for my_site
2021-04-18 18:52:09,847 INFO scheduler Scheduled Job Complete: frappe.email.queue.flush for my_site
2021-04-18 18:53:06,207 DEBUG scheduler Queued events for site my_site
2021-04-18 18:54:06,511 DEBUG scheduler Queued events for site my_site
2021-04-18 18:55:06,834 DEBUG scheduler Queued events for site my_site
2021-04-18 18:56:07,237 DEBUG scheduler Queued events for site my_site
2021-04-18 18:56:09,128 INFO scheduler Scheduled Job Start: frappe.monitor.flush for my_site
2021-04-18 18:56:09,282 INFO scheduler Scheduled Job Complete: frappe.monitor.flush for my_site
2021-04-18 18:56:09,352 INFO scheduler Scheduled Job Start: frappe.utils.global_search.sync_global_search for my_site
2021-04-18 18:56:09,516 INFO scheduler Scheduled Job Complete: frappe.utils.global_search.sync_global_search for my_site
2021-04-18 18:56:09,594 INFO scheduler Scheduled Job Start: frappe.integrations.doctype.razorpay_settings.razorpay_settings.capture_payment for my_site
2021-04-18 18:56:09,977 INFO scheduler Scheduled Job Complete: frappe.integrations.doctype.razorpay_settings.razorpay_settings.capture_payment for my_site
2021-04-18 18:56:10,048 INFO scheduler Scheduled Job Start: frappe.email.doctype.email_account.email_account.notify_unreplied for my_site
2021-04-18 18:56:10,353 INFO scheduler Scheduled Job Complete: frappe.email.doctype.email_account.email_account.notify_unreplied for my_site
2021-04-18 18:56:10,428 INFO scheduler Scheduled Job Start: frappe.email.doctype.email_account.email_account.pull for my_site
2021-04-18 18:56:10,748 INFO scheduler Scheduled Job Complete: frappe.email.doctype.email_account.email_account.pull for my_site
2021-04-18 18:56:10,819 INFO scheduler Scheduled Job Start: frappe.email.queue.flush for my_site
2021-04-18 18:56:11,080 INFO scheduler Scheduled Job Complete: frappe.email.queue.flush for my_site
2021-04-18 18:57:07,574 DEBUG scheduler Queued events for site my_site
2021-04-18 18:58:07,885 DEBUG scheduler Queued events for site my_site
2021-04-18 18:59:08,208 DEBUG scheduler Queued events for site my_site
2021-04-18 19:00:08,862 DEBUG scheduler Queued events for site my_site
2021-04-18 19:00:16,133 INFO scheduler Scheduled Job Start: frappe.email.doctype.newsletter.newsletter.send_scheduled_email for my_site
2021-04-18 19:00:16,631 INFO scheduler Scheduled Job Complete: frappe.email.doctype.newsletter.newsletter.send_scheduled_email for my_site
2021-04-18 19:00:16,719 INFO scheduler Scheduled Job Start: frappe.integrations.doctype.google_calendar.google_calendar.sync for my_site
2021-04-18 19:00:17,337 INFO scheduler Scheduled Job Complete: frappe.integrations.doctype.google_calendar.google_calendar.sync for my_site
2021-04-18 19:00:17,429 INFO scheduler Scheduled Job Start: frappe.desk.form.document_follow.send_hourly_updates for my_site
2021-04-18 19:00:17,835 INFO scheduler Scheduled Job Complete: frappe.desk.form.document_follow.send_hourly_updates for my_site
2021-04-18 19:00:17,925 INFO scheduler Scheduled Job Start: frappe.deferred_insert.save_to_db for my_site
2021-04-18 19:00:18,303 INFO scheduler Scheduled Job Complete: frappe.deferred_insert.save_to_db for my_site
2021-04-18 19:00:18,390 INFO scheduler Scheduled Job Start: frappe.desk.page.backups.backups.delete_downloadable_backups for my_site
2021-04-18 19:00:18,782 INFO scheduler Scheduled Job Complete: frappe.desk.page.backups.backups.delete_downloadable_backups for my_site
2021-04-18 19:00:18,866 INFO scheduler Scheduled Job Start: frappe.utils.error.collect_error_snapshots for my_site
2021-04-18 19:00:19,247 INFO scheduler Scheduled Job Complete: frappe.utils.error.collect_error_snapshots for my_site
2021-04-18 19:00:19,333 INFO scheduler Scheduled Job Start: frappe.model.utils.user_settings.sync_user_settings for my_site
2021-04-18 19:00:19,706 INFO scheduler Scheduled Job Complete: frappe.model.utils.user_settings.sync_user_settings for my_site
2021-04-18 19:00:19,791 INFO scheduler Scheduled Job Start: frappe.model.utils.link_count.update_link_count for my_site
2021-04-18 19:00:20,171 INFO scheduler Scheduled Job Complete: frappe.model.utils.link_count.update_link_count for my_site
2021-04-18 19:00:20,260 INFO scheduler Scheduled Job Start: frappe.monitor.flush for my_site
2021-04-18 19:00:20,415 INFO scheduler Scheduled Job Complete: frappe.monitor.flush for my_site
2021-04-18 19:00:20,490 INFO scheduler Scheduled Job Start: frappe.utils.global_search.sync_global_search for my_site
2021-04-18 19:00:20,646 INFO scheduler Scheduled Job Complete: frappe.utils.global_search.sync_global_search for my_site
2021-04-18 19:00:20,719 INFO scheduler Scheduled Job Start: frappe.integrations.doctype.razorpay_settings.razorpay_settings.capture_payment for my_site
2021-04-18 19:00:21,104 INFO scheduler Scheduled Job Complete: frappe.integrations.doctype.razorpay_settings.razorpay_settings.capture_payment for my_site
2021-04-18 19:00:21,175 INFO scheduler Scheduled Job Start: frappe.email.doctype.email_account.email_account.notify_unreplied for my_site
2021-04-18 19:00:21,478 INFO scheduler Scheduled Job Complete: frappe.email.doctype.email_account.email_account.notify_unreplied for my_site
2021-04-18 19:00:21,548 INFO scheduler Scheduled Job Start: frappe.email.doctype.email_account.email_account.pull for my_site
2021-04-18 19:00:21,861 INFO scheduler Scheduled Job Complete: frappe.email.doctype.email_account.email_account.pull for my_site
2021-04-18 19:00:21,931 INFO scheduler Scheduled Job Start: frappe.email.queue.flush for my_site
2021-04-18 19:00:22,189 INFO scheduler Scheduled Job Complete: frappe.email.queue.flush for my_site
2021-04-18 19:00:22,259 INFO scheduler Scheduled Job Start: frappe.twofactor.delete_all_barcodes_for_users for my_site
2021-04-18 19:00:22,662 INFO scheduler Scheduled Job Complete: frappe.twofactor.delete_all_barcodes_for_users for my_site
2021-04-18 19:00:22,748 INFO scheduler Scheduled Job Start: frappe.website.doctype.web_page.web_page.check_publish_status for my_site
2021-04-18 19:00:23,195 INFO scheduler Scheduled Job Complete: frappe.website.doctype.web_page.web_page.check_publish_status for my_site
2021-04-18 19:00:23,280 INFO scheduler Scheduled Job Start: frappe.oauth.delete_oauth2_data for my_site
2021-04-18 19:00:23,674 INFO scheduler Scheduled Job Complete: frappe.oauth.delete_oauth2_data for my_site
2021-04-18 19:01:09,376 DEBUG scheduler Queued events for site my_site
2021-04-19 10:29:43,907 DEBUG scheduler Queued events for site my_site
2021-04-19 10:29:45,480 INFO scheduler Scheduled Job Start: frappe.integrations.doctype.google_drive.google_drive.daily_backup for my_site
2021-04-19 10:29:46,109 INFO scheduler Scheduled Job Complete: frappe.integrations.doctype.google_drive.google_drive.daily_backup for my_site
2021-04-19 10:29:46,209 INFO scheduler Scheduled Job Start: frappe.integrations.doctype.s3_backup_settings.s3_backup_settings.take_backups_daily for my_site
2021-04-19 10:29:46,808 INFO scheduler Scheduled Job Complete: frappe.integrations.doctype.s3_backup_settings.s3_backup_settings.take_backups_daily for my_site
2021-04-19 10:29:46,940 INFO scheduler Scheduled Job Start: frappe.utils.change_log.check_for_update for my_site
2021-04-19 10:29:48,648 INFO scheduler Scheduled Job Failed: frappe.utils.change_log.check_for_update for my_site
2021-04-19 10:29:48,794 INFO scheduler Scheduled Job Start: frappe.integrations.doctype.dropbox_settings.dropbox_settings.take_backups_daily for my_site
2021-04-19 10:29:49,533 INFO scheduler Scheduled Job Complete: frappe.integrations.doctype.dropbox_settings.dropbox_settings.take_backups_daily for my_site
2021-04-19 10:30:03,343 INFO scheduler Scheduled Job Start: frappe.core.doctype.log_settings.log_settings.run_log_clean_up for my_site
2021-04-19 10:30:04,021 INFO scheduler Scheduled Job Complete: frappe.core.doctype.log_settings.log_settings.run_log_clean_up for my_site
2021-04-19 10:30:04,168 INFO scheduler Scheduled Job Start: frappe.core.doctype.prepared_report.prepared_report.delete_expired_prepared_reports for my_site
2021-04-19 10:30:05,012 INFO scheduler Scheduled Job Complete: frappe.core.doctype.prepared_report.prepared_report.delete_expired_prepared_reports for my_site
2021-04-19 10:30:05,161 INFO scheduler Scheduled Job Start: frappe.email.doctype.unhandled_email.unhandled_email.remove_old_unhandled_emails for my_site
2021-04-19 10:30:05,881 INFO scheduler Scheduled Job Complete: frappe.email.doctype.unhandled_email.unhandled_email.remove_old_unhandled_emails for my_site
2021-04-19 10:30:05,991 INFO scheduler Scheduled Job Start: frappe.automation.doctype.auto_repeat.auto_repeat.set_auto_repeat_as_completed for my_site
2021-04-19 10:30:06,639 INFO scheduler Scheduled Job Complete: frappe.automation.doctype.auto_repeat.auto_repeat.set_auto_repeat_as_completed for my_site
2021-04-19 10:30:06,732 INFO scheduler Scheduled Job Start: frappe.automation.doctype.auto_repeat.auto_repeat.make_auto_repeat_entry for my_site
2021-04-19 10:30:07,153 INFO scheduler Scheduled Job Complete: frappe.automation.doctype.auto_repeat.auto_repeat.make_auto_repeat_entry for my_site
2021-04-19 10:30:07,240 INFO scheduler Scheduled Job Start: frappe.integrations.doctype.google_contacts.google_contacts.sync for my_site
2021-04-19 10:30:07,837 INFO scheduler Scheduled Job Complete: frappe.integrations.doctype.google_contacts.google_contacts.sync for my_site
2021-04-19 10:30:07,925 INFO scheduler Scheduled Job Start: frappe.social.doctype.energy_point_settings.energy_point_settings.allocate_review_points for my_site
2021-04-19 10:30:08,416 INFO scheduler Scheduled Job Complete: frappe.social.doctype.energy_point_settings.energy_point_settings.allocate_review_points for my_site
2021-04-19 10:30:08,550 INFO scheduler Scheduled Job Start: frappe.desk.form.document_follow.send_daily_updates for my_site
2021-04-19 10:30:09,075 INFO scheduler Scheduled Job Complete: frappe.desk.form.document_follow.send_daily_updates for my_site
2021-04-19 10:30:09,213 INFO scheduler Scheduled Job Start: frappe.website.doctype.personal_data_deletion_request.personal_data_deletion_request.remove_unverified_record for my_site
2021-04-19 10:30:09,834 INFO scheduler Scheduled Job Complete: frappe.website.doctype.personal_data_deletion_request.personal_data_deletion_request.remove_unverified_record for my_site
2021-04-19 10:30:09,962 INFO scheduler Scheduled Job Start: frappe.email.doctype.auto_email_report.auto_email_report.send_daily for my_site
2021-04-19 10:30:11,292 INFO scheduler Scheduled Job Complete: frappe.email.doctype.auto_email_report.auto_email_report.send_daily for my_site
2021-04-19 10:30:11,431 INFO scheduler Scheduled Job Start: frappe.utils.scheduler.restrict_scheduler_events_if_dormant for my_site
2021-04-19 10:30:12,096 INFO scheduler Scheduled Job Failed: frappe.utils.scheduler.restrict_scheduler_events_if_dormant for my_site
2021-04-19 10:30:12,219 INFO scheduler Scheduled Job Start: frappe.realtime.remove_old_task_logs for my_site
2021-04-19 10:30:12,756 INFO scheduler Scheduled Job Complete: frappe.realtime.remove_old_task_logs for my_site
2021-04-19 10:30:12,876 INFO scheduler Scheduled Job Start: frappe.email.doctype.notification.notification.trigger_daily_alerts for my_site
2021-04-19 10:30:13,444 INFO scheduler Scheduled Job Complete: frappe.email.doctype.notification.notification.trigger_daily_alerts for my_site
2021-04-19 10:30:13,577 INFO scheduler Scheduled Job Start: frappe.sessions.clear_expired_sessions for my_site
2021-04-19 10:30:14,167 INFO scheduler Scheduled Job Complete: frappe.sessions.clear_expired_sessions for my_site
2021-04-19 10:30:14,281 INFO scheduler Scheduled Job Start: frappe.desk.doctype.event.event.send_event_digest for my_site
2021-04-19 10:30:14,882 INFO scheduler Scheduled Job Complete: frappe.desk.doctype.event.event.send_event_digest for my_site
2021-04-19 10:30:15,011 INFO scheduler Scheduled Job Start: frappe.core.doctype.error_log.error_log.set_old_logs_as_seen for my_site
2021-04-19 10:30:15,564 INFO scheduler Scheduled Job Complete: frappe.core.doctype.error_log.error_log.set_old_logs_as_seen for my_site
2021-04-19 10:30:15,677 INFO scheduler Scheduled Job Start: frappe.desk.notifications.clear_notifications for my_site
2021-04-19 10:30:16,193 INFO scheduler Scheduled Job Complete: frappe.desk.notifications.clear_notifications for my_site
2021-04-19 10:30:16,329 INFO scheduler Scheduled Job Start: frappe.email.queue.set_expiry_for_email_queue for my_site
2021-04-19 10:30:16,913 INFO scheduler Scheduled Job Complete: frappe.email.queue.set_expiry_for_email_queue for my_site
2021-04-19 10:30:17,030 INFO scheduler Scheduled Job Start: frappe.email.doctype.newsletter.newsletter.send_scheduled_email for my_site
2021-04-19 10:30:17,683 INFO scheduler Scheduled Job Complete: frappe.email.doctype.newsletter.newsletter.send_scheduled_email for my_site
2021-04-19 10:30:17,798 INFO scheduler Scheduled Job Start: frappe.integrations.doctype.google_calendar.google_calendar.sync for my_site
2021-04-19 10:30:18,612 INFO scheduler Scheduled Job Complete: frappe.integrations.doctype.google_calendar.google_calendar.sync for my_site
2021-04-19 10:30:18,745 INFO scheduler Scheduled Job Start: frappe.desk.form.document_follow.send_hourly_updates for my_site
2021-04-19 10:30:19,309 INFO scheduler Scheduled Job Complete: frappe.desk.form.document_follow.send_hourly_updates for my_site
2021-04-19 10:30:19,427 INFO scheduler Scheduled Job Start: frappe.deferred_insert.save_to_db for my_site
2021-04-19 10:30:19,987 INFO scheduler Scheduled Job Complete: frappe.deferred_insert.save_to_db for my_site
2021-04-19 10:30:20,114 INFO scheduler Scheduled Job Start: frappe.desk.page.backups.backups.delete_downloadable_backups for my_site
2021-04-19 10:30:20,706 INFO scheduler Scheduled Job Complete: frappe.desk.page.backups.backups.delete_downloadable_backups for my_site
2021-04-19 10:30:20,820 INFO scheduler Scheduled Job Start: frappe.utils.error.collect_error_snapshots for my_site
2021-04-19 10:30:21,381 INFO scheduler Scheduled Job Complete: frappe.utils.error.collect_error_snapshots for my_site
2021-04-19 10:30:21,501 INFO scheduler Scheduled Job Start: frappe.model.utils.user_settings.sync_user_settings for my_site
2021-04-19 10:30:22,047 INFO scheduler Scheduled Job Complete: frappe.model.utils.user_settings.sync_user_settings for my_site
2021-04-19 10:30:22,159 INFO scheduler Scheduled Job Start: frappe.model.utils.link_count.update_link_count for my_site
2021-04-19 10:30:22,702 INFO scheduler Scheduled Job Complete: frappe.model.utils.link_count.update_link_count for my_site
2021-04-19 10:30:22,816 INFO scheduler Scheduled Job Start: frappe.monitor.flush for my_site
2021-04-19 10:30:23,073 INFO scheduler Scheduled Job Complete: frappe.monitor.flush for my_site
2021-04-19 10:30:23,176 INFO scheduler Scheduled Job Start: frappe.utils.global_search.sync_global_search for my_site
2021-04-19 10:30:23,407 INFO scheduler Scheduled Job Complete: frappe.utils.global_search.sync_global_search for my_site
2021-04-19 10:30:23,517 INFO scheduler Scheduled Job Start: frappe.integrations.doctype.razorpay_settings.razorpay_settings.capture_payment for my_site
2021-04-19 10:30:24,070 INFO scheduler Scheduled Job Complete: frappe.integrations.doctype.razorpay_settings.razorpay_settings.capture_payment for my_site
2021-04-19 10:30:24,172 INFO scheduler Scheduled Job Start: frappe.email.doctype.email_account.email_account.notify_unreplied for my_site
2021-04-19 10:30:24,608 INFO scheduler Scheduled Job Complete: frappe.email.doctype.email_account.email_account.notify_unreplied for my_site
2021-04-19 10:30:24,727 INFO scheduler Scheduled Job Start: frappe.email.doctype.email_account.email_account.pull for my_site
2021-04-19 10:30:25,212 INFO scheduler Scheduled Job Complete: frappe.email.doctype.email_account.email_account.pull for my_site
2021-04-19 10:30:25,316 INFO scheduler Scheduled Job Start: frappe.email.queue.flush for my_site
2021-04-19 10:30:25,716 INFO scheduler Scheduled Job Complete: frappe.email.queue.flush for my_site
2021-04-19 10:30:25,819 INFO scheduler Scheduled Job Start: frappe.twofactor.delete_all_barcodes_for_users for my_site
2021-04-19 10:30:26,413 INFO scheduler Scheduled Job Complete: frappe.twofactor.delete_all_barcodes_for_users for my_site
2021-04-19 10:30:26,535 INFO scheduler Scheduled Job Start: frappe.website.doctype.web_page.web_page.check_publish_status for my_site
2021-04-19 10:30:27,198 INFO scheduler Scheduled Job Complete: frappe.website.doctype.web_page.web_page.check_publish_status for my_site
2021-04-19 10:30:27,310 INFO scheduler Scheduled Job Start: frappe.oauth.delete_oauth2_data for my_site
2021-04-19 10:30:27,889 INFO scheduler Scheduled Job Complete: frappe.oauth.delete_oauth2_data for my_site
2021-04-19 10:30:44,320 DEBUG scheduler Queued events for site my_site
2021-04-19 10:31:44,759 DEBUG scheduler Queued events for site my_site
2021-04-19 10:32:45,646 DEBUG scheduler Queued events for site my_site
2021-04-19 10:32:48,452 INFO scheduler Scheduled Job Start: frappe.monitor.flush for my_site
2021-04-19 10:32:48,654 INFO scheduler Scheduled Job Complete: frappe.monitor.flush for my_site
2021-04-19 10:32:48,764 INFO scheduler Scheduled Job Start: frappe.utils.global_search.sync_global_search for my_site
2021-04-19 10:32:48,978 INFO scheduler Scheduled Job Complete: frappe.utils.global_search.sync_global_search for my_site
2021-04-19 10:32:49,083 INFO scheduler Scheduled Job Start: frappe.integrations.doctype.razorpay_settings.razorpay_settings.capture_payment for my_site
2021-04-19 10:32:49,652 INFO scheduler Scheduled Job Complete: frappe.integrations.doctype.razorpay_settings.razorpay_settings.capture_payment for my_site
2021-04-19 10:32:49,763 INFO scheduler Scheduled Job Start: frappe.email.doctype.email_account.email_account.notify_unreplied for my_site
2021-04-19 10:32:50,196 INFO scheduler Scheduled Job Complete: frappe.email.doctype.email_account.email_account.notify_unreplied for my_site
2021-04-19 10:32:50,292 INFO scheduler Scheduled Job Start: frappe.email.doctype.email_account.email_account.pull for my_site
2021-04-19 10:32:50,677 INFO scheduler Scheduled Job Complete: frappe.email.doctype.email_account.email_account.pull for my_site
2021-04-19 10:32:50,759 INFO scheduler Scheduled Job Start: frappe.email.queue.flush for my_site
2021-04-19 10:32:51,061 INFO scheduler Scheduled Job Complete: frappe.email.queue.flush for my_site
2021-04-19 10:33:46,085 DEBUG scheduler Queued events for site my_site
2021-04-19 10:34:46,447 DEBUG scheduler Queued events for site my_site
2021-04-19 10:35:46,862 DEBUG scheduler Queued events for site my_site
2021-04-19 10:36:47,368 DEBUG scheduler Queued events for site my_site
2021-04-19 10:36:50,037 INFO scheduler Scheduled Job Start: frappe.monitor.flush for my_site
2021-04-19 10:36:50,237 INFO scheduler Scheduled Job Complete: frappe.monitor.flush for my_site
2021-04-19 10:36:50,335 INFO scheduler Scheduled Job Start: frappe.utils.global_search.sync_global_search for my_site
2021-04-19 10:36:50,543 INFO scheduler Scheduled Job Complete: frappe.utils.global_search.sync_global_search for my_site
2021-04-19 10:36:50,641 INFO scheduler Scheduled Job Start: frappe.integrations.doctype.razorpay_settings.razorpay_settings.capture_payment for my_site
2021-04-19 10:36:51,159 INFO scheduler Scheduled Job Complete: frappe.integrations.doctype.razorpay_settings.razorpay_settings.capture_payment for my_site
2021-04-19 10:36:51,251 INFO scheduler Scheduled Job Start: frappe.email.doctype.email_account.email_account.notify_unreplied for my_site
2021-04-19 10:36:51,656 INFO scheduler Scheduled Job Complete: frappe.email.doctype.email_account.email_account.notify_unreplied for my_site
2021-04-19 10:36:51,750 INFO scheduler Scheduled Job Start: frappe.email.doctype.email_account.email_account.pull for my_site
2021-04-19 10:36:52,174 INFO scheduler Scheduled Job Complete: frappe.email.doctype.email_account.email_account.pull for my_site
2021-04-19 10:36:52,270 INFO scheduler Scheduled Job Start: frappe.email.queue.flush for my_site
2021-04-19 10:36:52,622 INFO scheduler Scheduled Job Complete: frappe.email.queue.flush for my_site
2021-04-19 10:37:47,811 DEBUG scheduler Queued events for site my_site
2021-04-19 10:38:48,164 DEBUG scheduler Queued events for site my_site
2021-04-19 10:39:48,578 DEBUG scheduler Queued events for site my_site
2021-04-19 10:40:49,266 DEBUG scheduler Queued events for site my_site
2021-04-19 10:40:51,921 INFO scheduler Scheduled Job Start: frappe.monitor.flush for my_site
2021-04-19 10:40:52,147 INFO scheduler Scheduled Job Complete: frappe.monitor.flush for my_site
2021-04-19 10:40:52,270 INFO scheduler Scheduled Job Start: frappe.utils.global_search.sync_global_search for my_site
2021-04-19 10:40:52,473 INFO scheduler Scheduled Job Complete: frappe.utils.global_search.sync_global_search for my_site
2021-04-19 10:40:52,571 INFO scheduler Scheduled Job Start: frappe.integrations.doctype.razorpay_settings.razorpay_settings.capture_payment for my_site
2021-04-19 10:40:53,280 INFO scheduler Scheduled Job Complete: frappe.integrations.doctype.razorpay_settings.razorpay_settings.capture_payment for my_site
2021-04-19 10:40:53,382 INFO scheduler Scheduled Job Start: frappe.email.doctype.email_account.email_account.notify_unreplied for my_site
2021-04-19 10:40:53,835 INFO scheduler Scheduled Job Complete: frappe.email.doctype.email_account.email_account.notify_unreplied for my_site
2021-04-19 10:40:53,939 INFO scheduler Scheduled Job Start: frappe.email.doctype.email_account.email_account.pull for my_site
2021-04-19 10:40:54,353 INFO scheduler Scheduled Job Complete: frappe.email.doctype.email_account.email_account.pull for my_site
2021-04-19 10:40:54,448 INFO scheduler Scheduled Job Start: frappe.email.queue.flush for my_site
2021-04-19 10:40:54,852 INFO scheduler Scheduled Job Complete: frappe.email.queue.flush for my_site
2021-04-19 10:41:49,718 DEBUG scheduler Queued events for site my_site
2021-04-19 10:42:50,135 DEBUG scheduler Queued events for site my_site
2021-04-19 10:43:50,539 DEBUG scheduler Queued events for site my_site
2021-04-19 10:44:51,267 DEBUG scheduler Queued events for site my_site
2021-04-19 10:44:53,625 INFO scheduler Scheduled Job Start: frappe.monitor.flush for my_site
2021-04-19 10:44:53,804 INFO scheduler Scheduled Job Complete: frappe.monitor.flush for my_site
2021-04-19 10:44:53,889 INFO scheduler Scheduled Job Start: frappe.utils.global_search.sync_global_search for my_site
2021-04-19 10:44:54,073 INFO scheduler Scheduled Job Complete: frappe.utils.global_search.sync_global_search for my_site
2021-04-19 10:44:54,159 INFO scheduler Scheduled Job Start: frappe.integrations.doctype.razorpay_settings.razorpay_settings.capture_payment for my_site
2021-04-19 10:44:54,605 INFO scheduler Scheduled Job Complete: frappe.integrations.doctype.razorpay_settings.razorpay_settings.capture_payment for my_site
2021-04-19 10:44:54,693 INFO scheduler Scheduled Job Start: frappe.email.doctype.email_account.email_account.notify_unreplied for my_site
2021-04-19 10:44:55,096 INFO scheduler Scheduled Job Complete: frappe.email.doctype.email_account.email_account.notify_unreplied for my_site
2021-04-19 10:44:55,189 INFO scheduler Scheduled Job Start: frappe.email.doctype.email_account.email_account.pull for my_site
2021-04-19 10:44:55,604 INFO scheduler Scheduled Job Complete: frappe.email.doctype.email_account.email_account.pull for my_site
2021-04-19 10:44:55,698 INFO scheduler Scheduled Job Start: frappe.email.queue.flush for my_site
2021-04-19 10:44:56,047 INFO scheduler Scheduled Job Complete: frappe.email.queue.flush for my_site
2021-04-19 10:45:51,906 DEBUG scheduler Queued events for site my_site
2021-04-19 10:45:53,789 INFO scheduler Scheduled Job Start: frappe.twofactor.delete_all_barcodes_for_users for my_site
2021-04-19 10:45:54,334 INFO scheduler Scheduled Job Complete: frappe.twofactor.delete_all_barcodes_for_users for my_site
2021-04-19 10:45:54,441 INFO scheduler Scheduled Job Start: frappe.website.doctype.web_page.web_page.check_publish_status for my_site
2021-04-19 10:45:55,049 INFO scheduler Scheduled Job Complete: frappe.website.doctype.web_page.web_page.check_publish_status for my_site
2021-04-19 10:45:55,175 INFO scheduler Scheduled Job Start: frappe.oauth.delete_oauth2_data for my_site
2021-04-19 10:45:55,730 INFO scheduler Scheduled Job Complete: frappe.oauth.delete_oauth2_data for my_site
2021-04-19 10:46:52,363 DEBUG scheduler Queued events for site my_site
2021-04-19 10:47:52,853 DEBUG scheduler Queued events for site my_site
2021-04-19 10:48:53,410 DEBUG scheduler Queued events for site my_site
2021-04-19 10:48:55,946 INFO scheduler Scheduled Job Start: frappe.monitor.flush for my_site
2021-04-19 10:48:56,153 INFO scheduler Scheduled Job Complete: frappe.monitor.flush for my_site
2021-04-19 10:48:56,245 INFO scheduler Scheduled Job Start: frappe.utils.global_search.sync_global_search for my_site
2021-04-19 10:48:56,455 INFO scheduler Scheduled Job Complete: frappe.utils.global_search.sync_global_search for my_site
2021-04-19 10:48:56,558 INFO scheduler Scheduled Job Start: frappe.integrations.doctype.razorpay_settings.razorpay_settings.capture_payment for my_site
2021-04-19 10:48:57,103 INFO scheduler Scheduled Job Complete: frappe.integrations.doctype.razorpay_settings.razorpay_settings.capture_payment for my_site
2021-04-19 10:48:57,186 INFO scheduler Scheduled Job Start: frappe.email.doctype.email_account.email_account.notify_unreplied for my_site
2021-04-19 10:48:57,537 INFO scheduler Scheduled Job Complete: frappe.email.doctype.email_account.email_account.notify_unreplied for my_site
2021-04-19 10:48:57,620 INFO scheduler Scheduled Job Start: frappe.email.doctype.email_account.email_account.pull for my_site
2021-04-19 10:48:58,005 INFO scheduler Scheduled Job Complete: frappe.email.doctype.email_account.email_account.pull for my_site
2021-04-19 10:48:58,102 INFO scheduler Scheduled Job Start: frappe.email.queue.flush for my_site
2021-04-19 10:48:58,445 INFO scheduler Scheduled Job Complete: frappe.email.queue.flush for my_site
2021-04-19 10:49:53,825 DEBUG scheduler Queued events for site my_site
2021-04-19 10:50:54,136 DEBUG scheduler Queued events for site my_site
2021-04-19 10:51:54,520 DEBUG scheduler Queued events for site my_site
2021-04-19 10:52:55,000 DEBUG scheduler Queued events for site my_site
2021-04-19 10:52:57,328 INFO scheduler Scheduled Job Start: frappe.monitor.flush for my_site
2021-04-19 10:52:57,503 INFO scheduler Scheduled Job Complete: frappe.monitor.flush for my_site
2021-04-19 10:52:57,579 INFO scheduler Scheduled Job Start: frappe.utils.global_search.sync_global_search for my_site
2021-04-19 10:52:57,734 INFO scheduler Scheduled Job Complete: frappe.utils.global_search.sync_global_search for my_site
2021-04-19 10:52:57,809 INFO scheduler Scheduled Job Start: frappe.integrations.doctype.razorpay_settings.razorpay_settings.capture_payment for my_site
2021-04-19 10:52:58,210 INFO scheduler Scheduled Job Complete: frappe.integrations.doctype.razorpay_settings.razorpay_settings.capture_payment for my_site
2021-04-19 10:52:58,290 INFO scheduler Scheduled Job Start: frappe.email.doctype.email_account.email_account.notify_unreplied for my_site
2021-04-19 10:52:58,612 INFO scheduler Scheduled Job Complete: frappe.email.doctype.email_account.email_account.notify_unreplied for my_site
2021-04-19 10:52:58,688 INFO scheduler Scheduled Job Start: frappe.email.doctype.email_account.email_account.pull for my_site
2021-04-19 10:52:59,022 INFO scheduler Scheduled Job Complete: frappe.email.doctype.email_account.email_account.pull for my_site
2021-04-19 10:52:59,098 INFO scheduler Scheduled Job Start: frappe.email.queue.flush for my_site
2021-04-19 10:52:59,365 INFO scheduler Scheduled Job Complete: frappe.email.queue.flush for my_site
2021-04-19 10:53:55,628 DEBUG scheduler Queued events for site my_site
2021-04-19 10:54:55,987 DEBUG scheduler Queued events for site my_site
2021-04-19 10:55:56,340 DEBUG scheduler Queued events for site my_site
2021-04-19 10:56:56,804 DEBUG scheduler Queued events for site my_site
2021-04-19 10:56:58,759 INFO scheduler Scheduled Job Start: frappe.monitor.flush for my_site
2021-04-19 10:56:58,916 INFO scheduler Scheduled Job Complete: frappe.monitor.flush for my_site
2021-04-19 10:56:59,012 INFO scheduler Scheduled Job Start: frappe.utils.global_search.sync_global_search for my_site
2021-04-19 10:56:59,178 INFO scheduler Scheduled Job Complete: frappe.utils.global_search.sync_global_search for my_site
2021-04-19 10:56:59,252 INFO scheduler Scheduled Job Start: frappe.integrations.doctype.razorpay_settings.razorpay_settings.capture_payment for my_site
2021-04-19 10:56:59,639 INFO scheduler Scheduled Job Complete: frappe.integrations.doctype.razorpay_settings.razorpay_settings.capture_payment for my_site
2021-04-19 10:56:59,709 INFO scheduler Scheduled Job Start: frappe.email.doctype.email_account.email_account.notify_unreplied for my_site
2021-04-19 10:57:00,029 INFO scheduler Scheduled Job Complete: frappe.email.doctype.email_account.email_account.notify_unreplied for my_site
2021-04-19 10:57:00,101 INFO scheduler Scheduled Job Start: frappe.email.doctype.email_account.email_account.pull for my_site
2021-04-19 10:57:00,414 INFO scheduler Scheduled Job Complete: frappe.email.doctype.email_account.email_account.pull for my_site
2021-04-19 10:57:00,484 INFO scheduler Scheduled Job Start: frappe.email.queue.flush for my_site
2021-04-19 10:57:00,777 INFO scheduler Scheduled Job Complete: frappe.email.queue.flush for my_site
2021-04-19 10:57:57,425 DEBUG scheduler Queued events for site my_site
2021-04-19 10:58:57,750 DEBUG scheduler Queued events for site my_site
2021-04-19 10:59:58,140 DEBUG scheduler Queued events for site my_site
2021-04-19 11:00:59,085 DEBUG scheduler Queued events for site my_site
2021-04-19 11:01:07,525 INFO scheduler Scheduled Job Start: frappe.email.doctype.newsletter.newsletter.send_scheduled_email for my_site
2021-04-19 11:01:08,019 INFO scheduler Scheduled Job Complete: frappe.email.doctype.newsletter.newsletter.send_scheduled_email for my_site
2021-04-19 11:01:08,140 INFO scheduler Scheduled Job Start: frappe.integrations.doctype.google_calendar.google_calendar.sync for my_site
2021-04-19 11:01:08,848 INFO scheduler Scheduled Job Complete: frappe.integrations.doctype.google_calendar.google_calendar.sync for my_site
2021-04-19 11:01:09,031 INFO scheduler Scheduled Job Start: frappe.desk.form.document_follow.send_hourly_updates for my_site
2021-04-19 11:01:09,637 INFO scheduler Scheduled Job Complete: frappe.desk.form.document_follow.send_hourly_updates for my_site
2021-04-19 11:01:09,728 INFO scheduler Scheduled Job Start: frappe.deferred_insert.save_to_db for my_site
2021-04-19 11:01:10,117 INFO scheduler Scheduled Job Complete: frappe.deferred_insert.save_to_db for my_site
2021-04-19 11:01:10,235 INFO scheduler Scheduled Job Start: frappe.desk.page.backups.backups.delete_downloadable_backups for my_site
2021-04-19 11:01:10,802 INFO scheduler Scheduled Job Complete: frappe.desk.page.backups.backups.delete_downloadable_backups for my_site
2021-04-19 11:01:10,899 INFO scheduler Scheduled Job Start: frappe.utils.error.collect_error_snapshots for my_site
2021-04-19 11:01:11,299 INFO scheduler Scheduled Job Complete: frappe.utils.error.collect_error_snapshots for my_site
2021-04-19 11:01:11,393 INFO scheduler Scheduled Job Start: frappe.model.utils.user_settings.sync_user_settings for my_site
2021-04-19 11:01:11,864 INFO scheduler Scheduled Job Complete: frappe.model.utils.user_settings.sync_user_settings for my_site
2021-04-19 11:01:11,961 INFO scheduler Scheduled Job Start: frappe.model.utils.link_count.update_link_count for my_site
2021-04-19 11:01:12,385 INFO scheduler Scheduled Job Complete: frappe.model.utils.link_count.update_link_count for my_site
2021-04-19 11:01:12,473 INFO scheduler Scheduled Job Start: frappe.monitor.flush for my_site
2021-04-19 11:01:12,640 INFO scheduler Scheduled Job Complete: frappe.monitor.flush for my_site
2021-04-19 11:01:12,747 INFO scheduler Scheduled Job Start: frappe.utils.global_search.sync_global_search for my_site
2021-04-19 11:01:12,956 INFO scheduler Scheduled Job Complete: frappe.utils.global_search.sync_global_search for my_site
2021-04-19 11:01:13,066 INFO scheduler Scheduled Job Start: frappe.integrations.doctype.razorpay_settings.razorpay_settings.capture_payment for my_site
2021-04-19 11:01:13,513 INFO scheduler Scheduled Job Complete: frappe.integrations.doctype.razorpay_settings.razorpay_settings.capture_payment for my_site
2021-04-19 11:01:13,587 INFO scheduler Scheduled Job Start: frappe.email.doctype.email_account.email_account.notify_unreplied for my_site
2021-04-19 11:01:13,962 INFO scheduler Scheduled Job Complete: frappe.email.doctype.email_account.email_account.notify_unreplied for my_site
2021-04-19 11:01:14,049 INFO scheduler Scheduled Job Start: frappe.email.doctype.email_account.email_account.pull for my_site
2021-04-19 11:01:14,433 INFO scheduler Scheduled Job Complete: frappe.email.doctype.email_account.email_account.pull for my_site
2021-04-19 11:01:14,538 INFO scheduler Scheduled Job Start: frappe.email.queue.flush for my_site
2021-04-19 11:01:14,976 INFO scheduler Scheduled Job Complete: frappe.email.queue.flush for my_site
2021-04-19 11:01:15,084 INFO scheduler Scheduled Job Start: frappe.twofactor.delete_all_barcodes_for_users for my_site
2021-04-19 11:01:15,643 INFO scheduler Scheduled Job Complete: frappe.twofactor.delete_all_barcodes_for_users for my_site
2021-04-19 11:01:15,765 INFO scheduler Scheduled Job Start: frappe.website.doctype.web_page.web_page.check_publish_status for my_site
2021-04-19 11:01:16,295 INFO scheduler Scheduled Job Complete: frappe.website.doctype.web_page.web_page.check_publish_status for my_site
2021-04-19 11:01:16,378 INFO scheduler Scheduled Job Start: frappe.oauth.delete_oauth2_data for my_site
2021-04-19 11:01:16,838 INFO scheduler Scheduled Job Complete: frappe.oauth.delete_oauth2_data for my_site
2021-04-19 11:01:59,629 DEBUG scheduler Queued events for site my_site
2021-04-19 11:02:59,935 DEBUG scheduler Queued events for site my_site
2021-04-19 11:04:00,345 DEBUG scheduler Queued events for site my_site
2021-04-19 11:04:03,271 INFO scheduler Scheduled Job Start: frappe.monitor.flush for my_site
2021-04-19 11:04:03,427 INFO scheduler Scheduled Job Complete: frappe.monitor.flush for my_site
2021-04-19 11:04:03,499 INFO scheduler Scheduled Job Start: frappe.utils.global_search.sync_global_search for my_site
2021-04-19 11:04:03,656 INFO scheduler Scheduled Job Complete: frappe.utils.global_search.sync_global_search for my_site
2021-04-19 11:04:03,742 INFO scheduler Scheduled Job Start: frappe.integrations.doctype.razorpay_settings.razorpay_settings.capture_payment for my_site
2021-04-19 11:04:04,145 INFO scheduler Scheduled Job Complete: frappe.integrations.doctype.razorpay_settings.razorpay_settings.capture_payment for my_site
2021-04-19 11:04:04,224 INFO scheduler Scheduled Job Start: frappe.email.doctype.email_account.email_account.notify_unreplied for my_site
2021-04-19 11:04:04,545 INFO scheduler Scheduled Job Complete: frappe.email.doctype.email_account.email_account.notify_unreplied for my_site
2021-04-19 11:04:04,619 INFO scheduler Scheduled Job Start: frappe.email.doctype.email_account.email_account.pull for my_site
2021-04-19 11:04:04,948 INFO scheduler Scheduled Job Complete: frappe.email.doctype.email_account.email_account.pull for my_site
2021-04-19 11:04:05,022 INFO scheduler Scheduled Job Start: frappe.email.queue.flush for my_site
2021-04-19 11:04:05,280 INFO scheduler Scheduled Job Complete: frappe.email.queue.flush for my_site
2021-04-19 11:05:00,737 DEBUG scheduler Queued events for site my_site
2021-04-19 11:06:01,150 DEBUG scheduler Queued events for site my_site
2021-04-19 11:07:01,536 DEBUG scheduler Queued events for site my_site
2021-04-19 11:08:01,946 DEBUG scheduler Queued events for site my_site
2021-04-19 11:08:03,986 INFO scheduler Scheduled Job Start: frappe.monitor.flush for my_site
2021-04-19 11:08:04,140 INFO scheduler Scheduled Job Complete: frappe.monitor.flush for my_site
2021-04-19 11:08:04,223 INFO scheduler Scheduled Job Start: frappe.utils.global_search.sync_global_search for my_site
2021-04-19 11:08:04,388 INFO scheduler Scheduled Job Complete: frappe.utils.global_search.sync_global_search for my_site
2021-04-19 11:08:04,466 INFO scheduler Scheduled Job Start: frappe.integrations.doctype.razorpay_settings.razorpay_settings.capture_payment for my_site
2021-04-19 11:08:04,865 INFO scheduler Scheduled Job Complete: frappe.integrations.doctype.razorpay_settings.razorpay_settings.capture_payment for my_site
2021-04-19 11:08:04,935 INFO scheduler Scheduled Job Start: frappe.email.doctype.email_account.email_account.notify_unreplied for my_site
2021-04-19 11:08:05,249 INFO scheduler Scheduled Job Complete: frappe.email.doctype.email_account.email_account.notify_unreplied for my_site
2021-04-19 11:08:05,319 INFO scheduler Scheduled Job Start: frappe.email.doctype.email_account.email_account.pull for my_site
2021-04-19 11:08:05,660 INFO scheduler Scheduled Job Complete: frappe.email.doctype.email_account.email_account.pull for my_site
2021-04-19 11:08:05,740 INFO scheduler Scheduled Job Start: frappe.email.queue.flush for my_site
2021-04-19 11:08:06,002 INFO scheduler Scheduled Job Complete: frappe.email.queue.flush for my_site
2021-04-19 11:09:02,287 DEBUG scheduler Queued events for site my_site
2021-04-19 11:10:02,638 DEBUG scheduler Queued events for site my_site
2021-04-19 11:11:03,147 DEBUG scheduler Queued events for site my_site
2021-04-19 11:12:03,692 DEBUG scheduler Queued events for site my_site
2021-04-19 11:12:06,170 INFO scheduler Scheduled Job Start: frappe.monitor.flush for my_site
2021-04-19 11:12:06,364 INFO scheduler Scheduled Job Complete: frappe.monitor.flush for my_site
2021-04-19 11:12:06,446 INFO scheduler Scheduled Job Start: frappe.utils.global_search.sync_global_search for my_site
2021-04-19 11:12:06,624 INFO scheduler Scheduled Job Complete: frappe.utils.global_search.sync_global_search for my_site
2021-04-19 11:12:06,726 INFO scheduler Scheduled Job Start: frappe.integrations.doctype.razorpay_settings.razorpay_settings.capture_payment for my_site
2021-04-19 11:12:07,159 INFO scheduler Scheduled Job Complete: frappe.integrations.doctype.razorpay_settings.razorpay_settings.capture_payment for my_site
2021-04-19 11:12:07,228 INFO scheduler Scheduled Job Start: frappe.email.doctype.email_account.email_account.notify_unreplied for my_site
2021-04-19 11:12:07,556 INFO scheduler Scheduled Job Complete: frappe.email.doctype.email_account.email_account.notify_unreplied for my_site
2021-04-19 11:12:07,656 INFO scheduler Scheduled Job Start: frappe.email.doctype.email_account.email_account.pull for my_site
2021-04-19 11:12:08,023 INFO scheduler Scheduled Job Complete: frappe.email.doctype.email_account.email_account.pull for my_site
2021-04-19 11:12:08,096 INFO scheduler Scheduled Job Start: frappe.email.queue.flush for my_site
2021-04-19 11:12:08,359 INFO scheduler Scheduled Job Complete: frappe.email.queue.flush for my_site
2021-04-19 11:13:04,224 DEBUG scheduler Queued events for site my_site
2021-04-19 11:14:04,550 DEBUG scheduler Queued events for site my_site
2021-04-19 11:15:05,121 DEBUG scheduler Queued events for site my_site
2021-04-19 11:15:06,735 INFO scheduler Scheduled Job Start: frappe.twofactor.delete_all_barcodes_for_users for my_site
2021-04-19 11:15:07,155 INFO scheduler Scheduled Job Complete: frappe.twofactor.delete_all_barcodes_for_users for my_site
2021-04-19 11:15:07,240 INFO scheduler Scheduled Job Start: frappe.website.doctype.web_page.web_page.check_publish_status for my_site
2021-04-19 11:15:07,732 INFO scheduler Scheduled Job Complete: frappe.website.doctype.web_page.web_page.check_publish_status for my_site
2021-04-19 11:15:07,819 INFO scheduler Scheduled Job Start: frappe.oauth.delete_oauth2_data for my_site
2021-04-19 11:15:08,213 INFO scheduler Scheduled Job Complete: frappe.oauth.delete_oauth2_data for my_site
2021-04-19 11:16:06,063 DEBUG scheduler Queued events for site my_site
2021-04-19 11:16:08,846 INFO scheduler Scheduled Job Start: frappe.monitor.flush for my_site
2021-04-19 11:16:09,113 INFO scheduler Scheduled Job Complete: frappe.monitor.flush for my_site
2021-04-19 11:16:09,261 INFO scheduler Scheduled Job Start: frappe.utils.global_search.sync_global_search for my_site
2021-04-19 11:16:09,639 INFO scheduler Scheduled Job Complete: frappe.utils.global_search.sync_global_search for my_site
2021-04-19 11:16:09,797 INFO scheduler Scheduled Job Start: frappe.integrations.doctype.razorpay_settings.razorpay_settings.capture_payment for my_site
2021-04-19 11:16:10,684 INFO scheduler Scheduled Job Complete: frappe.integrations.doctype.razorpay_settings.razorpay_settings.capture_payment for my_site
2021-04-19 11:16:10,874 INFO scheduler Scheduled Job Start: frappe.email.doctype.email_account.email_account.notify_unreplied for my_site
2021-04-19 11:16:11,615 INFO scheduler Scheduled Job Complete: frappe.email.doctype.email_account.email_account.notify_unreplied for my_site
2021-04-19 11:16:11,784 INFO scheduler Scheduled Job Start: frappe.email.doctype.email_account.email_account.pull for my_site
2021-04-19 11:16:12,599 INFO scheduler Scheduled Job Complete: frappe.email.doctype.email_account.email_account.pull for my_site
2021-04-19 11:16:12,779 INFO scheduler Scheduled Job Start: frappe.email.queue.flush for my_site
2021-04-19 11:16:13,364 INFO scheduler Scheduled Job Complete: frappe.email.queue.flush for my_site
2021-04-19 11:17:06,451 DEBUG scheduler Queued events for site my_site
2021-04-19 11:18:06,953 DEBUG scheduler Queued events for site my_site
2021-04-19 11:19:07,384 DEBUG scheduler Queued events for site my_site
2021-04-19 11:20:07,913 DEBUG scheduler Queued events for site my_site
2021-04-19 11:20:10,408 INFO scheduler Scheduled Job Start: frappe.monitor.flush for my_site
2021-04-19 11:20:10,595 INFO scheduler Scheduled Job Complete: frappe.monitor.flush for my_site
2021-04-19 11:20:10,687 INFO scheduler Scheduled Job Start: frappe.utils.global_search.sync_global_search for my_site
2021-04-19 11:20:10,875 INFO scheduler Scheduled Job Complete: frappe.utils.global_search.sync_global_search for my_site
2021-04-19 11:20:10,966 INFO scheduler Scheduled Job Start: frappe.integrations.doctype.razorpay_settings.razorpay_settings.capture_payment for my_site
2021-04-19 11:20:11,422 INFO scheduler Scheduled Job Complete: frappe.integrations.doctype.razorpay_settings.razorpay_settings.capture_payment for my_site
2021-04-19 11:20:11,504 INFO scheduler Scheduled Job Start: frappe.email.doctype.email_account.email_account.notify_unreplied for my_site
2021-04-19 11:20:11,886 INFO scheduler Scheduled Job Complete: frappe.email.doctype.email_account.email_account.notify_unreplied for my_site
2021-04-19 11:20:11,989 INFO scheduler Scheduled Job Start: frappe.email.doctype.email_account.email_account.pull for my_site
2021-04-19 11:20:12,526 INFO scheduler Scheduled Job Complete: frappe.email.doctype.email_account.email_account.pull for my_site
2021-04-19 11:20:12,610 INFO scheduler Scheduled Job Start: frappe.email.queue.flush for my_site
2021-04-19 11:20:12,935 INFO scheduler Scheduled Job Complete: frappe.email.queue.flush for my_site
2021-04-19 11:21:08,412 DEBUG scheduler Queued events for site my_site
2021-04-19 11:22:08,851 DEBUG scheduler Queued events for site my_site
2021-04-19 11:23:09,315 DEBUG scheduler Queued events for site my_site
2021-04-19 11:24:10,082 DEBUG scheduler Queued events for site my_site
2021-04-19 11:24:12,688 INFO scheduler Scheduled Job Start: frappe.monitor.flush for my_site
2021-04-19 11:24:12,898 INFO scheduler Scheduled Job Complete: frappe.monitor.flush for my_site
2021-04-19 11:24:13,003 INFO scheduler Scheduled Job Start: frappe.utils.global_search.sync_global_search for my_site
2021-04-19 11:24:13,217 INFO scheduler Scheduled Job Complete: frappe.utils.global_search.sync_global_search for my_site
2021-04-19 11:24:13,321 INFO scheduler Scheduled Job Start: frappe.integrations.doctype.razorpay_settings.razorpay_settings.capture_payment for my_site
2021-04-19 11:24:14,007 INFO scheduler Scheduled Job Complete: frappe.integrations.doctype.razorpay_settings.razorpay_settings.capture_payment for my_site
2021-04-19 11:24:14,147 INFO scheduler Scheduled Job Start: frappe.email.doctype.email_account.email_account.notify_unreplied for my_site
2021-04-19 11:24:14,623 INFO scheduler Scheduled Job Complete: frappe.email.doctype.email_account.email_account.notify_unreplied for my_site
2021-04-19 11:24:14,727 INFO scheduler Scheduled Job Start: frappe.email.doctype.email_account.email_account.pull for my_site
2021-04-19 11:24:15,204 INFO scheduler Scheduled Job Complete: frappe.email.doctype.email_account.email_account.pull for my_site
2021-04-19 11:24:15,353 INFO scheduler Scheduled Job Start: frappe.email.queue.flush for my_site
2021-04-19 11:24:15,917 INFO scheduler Scheduled Job Complete: frappe.email.queue.flush for my_site
2021-04-19 11:25:10,475 DEBUG scheduler Queued events for site my_site
2021-04-19 11:26:10,848 DEBUG scheduler Queued events for site my_site
2021-04-19 11:27:11,204 DEBUG scheduler Queued events for site my_site
2021-04-19 11:28:11,793 DEBUG scheduler Queued events for site my_site
2021-04-19 11:28:14,422 INFO scheduler Scheduled Job Start: frappe.monitor.flush for my_site
2021-04-19 11:28:14,628 INFO scheduler Scheduled Job Complete: frappe.monitor.flush for my_site
2021-04-19 11:28:14,729 INFO scheduler Scheduled Job Start: frappe.utils.global_search.sync_global_search for my_site
2021-04-19 11:28:14,952 INFO scheduler Scheduled Job Complete: frappe.utils.global_search.sync_global_search for my_site
2021-04-19 11:28:15,062 INFO scheduler Scheduled Job Start: frappe.integrations.doctype.razorpay_settings.razorpay_settings.capture_payment for my_site
2021-04-19 11:28:15,577 INFO scheduler Scheduled Job Complete: frappe.integrations.doctype.razorpay_settings.razorpay_settings.capture_payment for my_site
2021-04-19 11:28:15,672 INFO scheduler Scheduled Job Start: frappe.email.doctype.email_account.email_account.notify_unreplied for my_site
2021-04-19 11:28:16,091 INFO scheduler Scheduled Job Complete: frappe.email.doctype.email_account.email_account.notify_unreplied for my_site
2021-04-19 11:28:16,194 INFO scheduler Scheduled Job Start: frappe.email.doctype.email_account.email_account.pull for my_site
2021-04-19 11:28:16,610 INFO scheduler Scheduled Job Complete: frappe.email.doctype.email_account.email_account.pull for my_site
2021-04-19 11:28:16,726 INFO scheduler Scheduled Job Start: frappe.email.queue.flush for my_site
2021-04-19 11:28:17,099 INFO scheduler Scheduled Job Complete: frappe.email.queue.flush for my_site
2021-04-19 11:29:12,227 DEBUG scheduler Queued events for site my_site
2021-04-19 11:30:12,718 DEBUG scheduler Queued events for site my_site
2021-04-19 11:30:14,721 INFO scheduler Scheduled Job Start: frappe.twofactor.delete_all_barcodes_for_users for my_site
2021-04-19 11:30:15,292 INFO scheduler Scheduled Job Complete: frappe.twofactor.delete_all_barcodes_for_users for my_site
2021-04-19 11:30:15,401 INFO scheduler Scheduled Job Start: frappe.website.doctype.web_page.web_page.check_publish_status for my_site
2021-04-19 11:30:16,023 INFO scheduler Scheduled Job Complete: frappe.website.doctype.web_page.web_page.check_publish_status for my_site
2021-04-19 11:30:16,140 INFO scheduler Scheduled Job Start: frappe.oauth.delete_oauth2_data for my_site
2021-04-19 11:30:16,681 INFO scheduler Scheduled Job Complete: frappe.oauth.delete_oauth2_data for my_site
2021-04-19 11:31:13,184 DEBUG scheduler Queued events for site my_site
2021-04-19 11:32:13,784 DEBUG scheduler Queued events for site my_site
2021-04-19 11:32:16,347 INFO scheduler Scheduled Job Start: frappe.monitor.flush for my_site
2021-04-19 11:32:16,554 INFO scheduler Scheduled Job Complete: frappe.monitor.flush for my_site
2021-04-19 11:32:16,655 INFO scheduler Scheduled Job Start: frappe.utils.global_search.sync_global_search for my_site
2021-04-19 11:32:16,850 INFO scheduler Scheduled Job Complete: frappe.utils.global_search.sync_global_search for my_site
2021-04-19 11:32:16,956 INFO scheduler Scheduled Job Start: frappe.integrations.doctype.razorpay_settings.razorpay_settings.capture_payment for my_site
2021-04-19 11:32:17,488 INFO scheduler Scheduled Job Complete: frappe.integrations.doctype.razorpay_settings.razorpay_settings.capture_payment for my_site
2021-04-19 11:32:17,588 INFO scheduler Scheduled Job Start: frappe.email.doctype.email_account.email_account.notify_unreplied for my_site
2021-04-19 11:32:18,028 INFO scheduler Scheduled Job Complete: frappe.email.doctype.email_account.email_account.notify_unreplied for my_site
2021-04-19 11:32:18,125 INFO scheduler Scheduled Job Start: frappe.email.doctype.email_account.email_account.pull for my_site
2021-04-19 11:32:18,527 INFO scheduler Scheduled Job Complete: frappe.email.doctype.email_account.email_account.pull for my_site
2021-04-19 11:32:18,610 INFO scheduler Scheduled Job Start: frappe.email.queue.flush for my_site
2021-04-19 11:32:18,915 INFO scheduler Scheduled Job Complete: frappe.email.queue.flush for my_site
2021-04-19 11:33:14,242 DEBUG scheduler Queued events for site my_site
2021-04-19 11:34:14,643 DEBUG scheduler Queued events for site my_site
2021-04-19 11:35:15,056 DEBUG scheduler Queued events for site my_site
2021-04-19 11:36:15,590 DEBUG scheduler Queued events for site my_site
2021-04-19 11:36:18,253 INFO scheduler Scheduled Job Start: frappe.monitor.flush for my_site
2021-04-19 11:36:18,455 INFO scheduler Scheduled Job Complete: frappe.monitor.flush for my_site
2021-04-19 11:36:18,554 INFO scheduler Scheduled Job Start: frappe.utils.global_search.sync_global_search for my_site
2021-04-19 11:36:18,772 INFO scheduler Scheduled Job Complete: frappe.utils.global_search.sync_global_search for my_site
2021-04-19 11:36:18,878 INFO scheduler Scheduled Job Start: frappe.integrations.doctype.razorpay_settings.razorpay_settings.capture_payment for my_site
2021-04-19 11:36:19,457 INFO scheduler Scheduled Job Complete: frappe.integrations.doctype.razorpay_settings.razorpay_settings.capture_payment for my_site
2021-04-19 11:36:19,561 INFO scheduler Scheduled Job Start: frappe.email.doctype.email_account.email_account.notify_unreplied for my_site
2021-04-19 11:36:20,006 INFO scheduler Scheduled Job Complete: frappe.email.doctype.email_account.email_account.notify_unreplied for my_site
2021-04-19 11:36:20,108 INFO scheduler Scheduled Job Start: frappe.email.doctype.email_account.email_account.pull for my_site
2021-04-19 11:36:20,539 INFO scheduler Scheduled Job Complete: frappe.email.doctype.email_account.email_account.pull for my_site
2021-04-19 11:36:20,643 INFO scheduler Scheduled Job Start: frappe.email.queue.flush for my_site
2021-04-19 11:36:21,004 INFO scheduler Scheduled Job Complete: frappe.email.queue.flush for my_site
2021-04-19 11:37:15,982 DEBUG scheduler Queued events for site my_site
2021-04-19 11:38:16,347 DEBUG scheduler Queued events for site my_site
2021-04-19 11:39:16,704 DEBUG scheduler Queued events for site my_site
2021-04-19 11:40:17,318 DEBUG scheduler Queued events for site my_site
2021-04-19 11:40:20,280 INFO scheduler Scheduled Job Start: frappe.monitor.flush for my_site
2021-04-19 11:40:20,481 INFO scheduler Scheduled Job Complete: frappe.monitor.flush for my_site
2021-04-19 11:40:20,567 INFO scheduler Scheduled Job Start: frappe.utils.global_search.sync_global_search for my_site
2021-04-19 11:40:20,744 INFO scheduler Scheduled Job Complete: frappe.utils.global_search.sync_global_search for my_site
2021-04-19 11:40:20,831 INFO scheduler Scheduled Job Start: frappe.integrations.doctype.razorpay_settings.razorpay_settings.capture_payment for my_site
2021-04-19 11:40:21,350 INFO scheduler Scheduled Job Complete: frappe.integrations.doctype.razorpay_settings.razorpay_settings.capture_payment for my_site
2021-04-19 11:40:21,436 INFO scheduler Scheduled Job Start: frappe.email.doctype.email_account.email_account.notify_unreplied for my_site
2021-04-19 11:40:21,799 INFO scheduler Scheduled Job Complete: frappe.email.doctype.email_account.email_account.notify_unreplied for my_site
2021-04-19 11:40:21,882 INFO scheduler Scheduled Job Start: frappe.email.doctype.email_account.email_account.pull for my_site
2021-04-19 11:40:22,258 INFO scheduler Scheduled Job Complete: frappe.email.doctype.email_account.email_account.pull for my_site
2021-04-19 11:40:22,349 INFO scheduler Scheduled Job Start: frappe.email.queue.flush for my_site
2021-04-19 11:40:22,707 INFO scheduler Scheduled Job Complete: frappe.email.queue.flush for my_site
2021-04-19 11:41:17,873 DEBUG scheduler Queued events for site my_site
2021-04-19 11:42:18,252 DEBUG scheduler Queued events for site my_site
2021-04-19 11:43:18,736 DEBUG scheduler Queued events for site my_site
2021-04-19 11:44:19,383 DEBUG scheduler Queued events for site my_site
2021-04-19 11:44:21,513 INFO scheduler Scheduled Job Start: frappe.monitor.flush for my_site
2021-04-19 11:44:21,682 INFO scheduler Scheduled Job Complete: frappe.monitor.flush for my_site
2021-04-19 11:44:21,759 INFO scheduler Scheduled Job Start: frappe.utils.global_search.sync_global_search for my_site
2021-04-19 11:44:21,927 INFO scheduler Scheduled Job Complete: frappe.utils.global_search.sync_global_search for my_site
2021-04-19 11:44:22,070 INFO scheduler Scheduled Job Start: frappe.integrations.doctype.razorpay_settings.razorpay_settings.capture_payment for my_site
2021-04-19 11:44:22,515 INFO scheduler Scheduled Job Complete: frappe.integrations.doctype.razorpay_settings.razorpay_settings.capture_payment for my_site
2021-04-19 11:44:22,596 INFO scheduler Scheduled Job Start: frappe.email.doctype.email_account.email_account.notify_unreplied for my_site
2021-04-19 11:44:23,066 INFO scheduler Scheduled Job Complete: frappe.email.doctype.email_account.email_account.notify_unreplied for my_site
2021-04-19 11:44:23,163 INFO scheduler Scheduled Job Start: frappe.email.doctype.email_account.email_account.pull for my_site
2021-04-19 11:44:23,499 INFO scheduler Scheduled Job Complete: frappe.email.doctype.email_account.email_account.pull for my_site
2021-04-19 11:44:23,619 INFO scheduler Scheduled Job Start: frappe.email.queue.flush for my_site
2021-04-19 11:44:23,947 INFO scheduler Scheduled Job Complete: frappe.email.queue.flush for my_site
2021-04-19 11:45:19,873 DEBUG scheduler Queued events for site my_site
2021-04-19 11:45:21,570 INFO scheduler Scheduled Job Start: frappe.twofactor.delete_all_barcodes_for_users for my_site
2021-04-19 11:45:22,010 INFO scheduler Scheduled Job Complete: frappe.twofactor.delete_all_barcodes_for_users for my_site
2021-04-19 11:45:22,104 INFO scheduler Scheduled Job Start: frappe.website.doctype.web_page.web_page.check_publish_status for my_site
2021-04-19 11:45:22,686 INFO scheduler Scheduled Job Complete: frappe.website.doctype.web_page.web_page.check_publish_status for my_site
2021-04-19 11:45:22,784 INFO scheduler Scheduled Job Start: frappe.oauth.delete_oauth2_data for my_site
2021-04-19 11:45:23,249 INFO scheduler Scheduled Job Complete: frappe.oauth.delete_oauth2_data for my_site
2021-04-19 11:46:20,209 DEBUG scheduler Queued events for site my_site
2021-04-19 11:47:20,616 DEBUG scheduler Queued events for site my_site
2021-04-19 11:48:21,342 DEBUG scheduler Queued events for site my_site
2021-04-19 11:48:23,439 INFO scheduler Scheduled Job Start: frappe.monitor.flush for my_site
2021-04-19 11:48:23,603 INFO scheduler Scheduled Job Complete: frappe.monitor.flush for my_site
2021-04-19 11:48:23,675 INFO scheduler Scheduled Job Start: frappe.utils.global_search.sync_global_search for my_site
2021-04-19 11:48:23,829 INFO scheduler Scheduled Job Complete: frappe.utils.global_search.sync_global_search for my_site
2021-04-19 11:48:23,905 INFO scheduler Scheduled Job Start: frappe.integrations.doctype.razorpay_settings.razorpay_settings.capture_payment for my_site
2021-04-19 11:48:24,331 INFO scheduler Scheduled Job Complete: frappe.integrations.doctype.razorpay_settings.razorpay_settings.capture_payment for my_site
2021-04-19 11:48:24,416 INFO scheduler Scheduled Job Start: frappe.email.doctype.email_account.email_account.notify_unreplied for my_site
2021-04-19 11:48:24,739 INFO scheduler Scheduled Job Complete: frappe.email.doctype.email_account.email_account.notify_unreplied for my_site
2021-04-19 11:48:24,811 INFO scheduler Scheduled Job Start: frappe.email.doctype.email_account.email_account.pull for my_site
2021-04-19 11:48:25,146 INFO scheduler Scheduled Job Complete: frappe.email.doctype.email_account.email_account.pull for my_site
2021-04-19 11:48:25,216 INFO scheduler Scheduled Job Start: frappe.email.queue.flush for my_site
2021-04-19 11:48:25,495 INFO scheduler Scheduled Job Complete: frappe.email.queue.flush for my_site
2021-04-19 11:49:21,683 DEBUG scheduler Queued events for site my_site
2021-04-19 11:50:22,089 DEBUG scheduler Queued events for site my_site
