2021-04-21 23:18:58,346 DEBUG scheduler Queued events for site my_site
2021-04-21 23:19:58,698 DEBUG scheduler Queued events for site my_site
2021-04-21 23:20:59,196 DEBUG scheduler Queued events for site my_site
2021-04-21 23:21:01,203 INFO scheduler Scheduled Job Start: frappe.monitor.flush for my_site
2021-04-21 23:21:01,392 INFO scheduler Scheduled Job Complete: frappe.monitor.flush for my_site
2021-04-21 23:21:01,474 INFO scheduler Scheduled Job Start: frappe.utils.global_search.sync_global_search for my_site
2021-04-21 23:21:01,650 INFO scheduler Scheduled Job Complete: frappe.utils.global_search.sync_global_search for my_site
2021-04-21 23:21:01,728 INFO scheduler Scheduled Job Start: frappe.integrations.doctype.razorpay_settings.razorpay_settings.capture_payment for my_site
2021-04-21 23:21:02,167 INFO scheduler Scheduled Job Complete: frappe.integrations.doctype.razorpay_settings.razorpay_settings.capture_payment for my_site
2021-04-21 23:21:02,237 INFO scheduler Scheduled Job Start: frappe.email.doctype.email_account.email_account.notify_unreplied for my_site
2021-04-21 23:21:02,538 INFO scheduler Scheduled Job Complete: frappe.email.doctype.email_account.email_account.notify_unreplied for my_site
2021-04-21 23:21:02,611 INFO scheduler Scheduled Job Start: frappe.email.doctype.email_account.email_account.pull for my_site
2021-04-21 23:21:02,949 INFO scheduler Scheduled Job Complete: frappe.email.doctype.email_account.email_account.pull for my_site
2021-04-21 23:21:03,023 INFO scheduler Scheduled Job Start: frappe.email.queue.flush for my_site
2021-04-21 23:21:03,293 INFO scheduler Scheduled Job Complete: frappe.email.queue.flush for my_site
2021-04-21 23:21:59,608 DEBUG scheduler Queued events for site my_site
2021-04-21 23:22:59,923 DEBUG scheduler Queued events for site my_site
2021-04-21 23:24:00,527 DEBUG scheduler Queued events for site my_site
2021-04-21 23:24:02,487 INFO scheduler Scheduled Job Start: frappe.monitor.flush for my_site
2021-04-21 23:24:02,641 INFO scheduler Scheduled Job Complete: frappe.monitor.flush for my_site
2021-04-21 23:24:02,720 INFO scheduler Scheduled Job Start: frappe.utils.global_search.sync_global_search for my_site
2021-04-21 23:24:02,873 INFO scheduler Scheduled Job Complete: frappe.utils.global_search.sync_global_search for my_site
2021-04-21 23:24:02,947 INFO scheduler Scheduled Job Start: frappe.integrations.doctype.razorpay_settings.razorpay_settings.capture_payment for my_site
2021-04-21 23:24:03,354 INFO scheduler Scheduled Job Complete: frappe.integrations.doctype.razorpay_settings.razorpay_settings.capture_payment for my_site
2021-04-21 23:24:03,429 INFO scheduler Scheduled Job Start: frappe.email.doctype.email_account.email_account.notify_unreplied for my_site
2021-04-21 23:24:03,805 INFO scheduler Scheduled Job Complete: frappe.email.doctype.email_account.email_account.notify_unreplied for my_site
2021-04-21 23:24:03,905 INFO scheduler Scheduled Job Start: frappe.email.doctype.email_account.email_account.pull for my_site
2021-04-21 23:24:04,308 INFO scheduler Scheduled Job Complete: frappe.email.doctype.email_account.email_account.pull for my_site
2021-04-21 23:24:04,402 INFO scheduler Scheduled Job Start: frappe.email.queue.flush for my_site
2021-04-21 23:24:04,673 INFO scheduler Scheduled Job Complete: frappe.email.queue.flush for my_site
2021-04-21 23:25:00,880 DEBUG scheduler Queued events for site my_site
2021-04-21 23:26:01,294 DEBUG scheduler Queued events for site my_site
2021-04-21 23:27:01,627 DEBUG scheduler Queued events for site my_site
2021-04-21 23:28:02,178 DEBUG scheduler Queued events for site my_site
2021-04-21 23:28:04,420 INFO scheduler Scheduled Job Start: frappe.monitor.flush for my_site
2021-04-21 23:28:04,578 INFO scheduler Scheduled Job Complete: frappe.monitor.flush for my_site
2021-04-21 23:28:04,646 INFO scheduler Scheduled Job Start: frappe.utils.global_search.sync_global_search for my_site
2021-04-21 23:28:04,797 INFO scheduler Scheduled Job Complete: frappe.utils.global_search.sync_global_search for my_site
2021-04-21 23:28:04,873 INFO scheduler Scheduled Job Start: frappe.integrations.doctype.razorpay_settings.razorpay_settings.capture_payment for my_site
2021-04-21 23:28:05,273 INFO scheduler Scheduled Job Complete: frappe.integrations.doctype.razorpay_settings.razorpay_settings.capture_payment for my_site
2021-04-21 23:28:05,343 INFO scheduler Scheduled Job Start: frappe.email.doctype.email_account.email_account.notify_unreplied for my_site
2021-04-21 23:28:05,646 INFO scheduler Scheduled Job Complete: frappe.email.doctype.email_account.email_account.notify_unreplied for my_site
2021-04-21 23:28:05,721 INFO scheduler Scheduled Job Start: frappe.email.doctype.email_account.email_account.pull for my_site
2021-04-21 23:28:06,042 INFO scheduler Scheduled Job Complete: frappe.email.doctype.email_account.email_account.pull for my_site
2021-04-21 23:28:06,111 INFO scheduler Scheduled Job Start: frappe.email.queue.flush for my_site
2021-04-21 23:28:06,378 INFO scheduler Scheduled Job Complete: frappe.email.queue.flush for my_site
2021-04-21 23:29:02,622 DEBUG scheduler Queued events for site my_site
2021-04-21 23:30:03,009 DEBUG scheduler Queued events for site my_site
2021-04-21 23:30:04,691 INFO scheduler Scheduled Job Start: frappe.twofactor.delete_all_barcodes_for_users for my_site
2021-04-21 23:30:05,134 INFO scheduler Scheduled Job Complete: frappe.twofactor.delete_all_barcodes_for_users for my_site
2021-04-21 23:30:05,228 INFO scheduler Scheduled Job Start: frappe.website.doctype.web_page.web_page.check_publish_status for my_site
2021-04-21 23:30:05,712 INFO scheduler Scheduled Job Complete: frappe.website.doctype.web_page.web_page.check_publish_status for my_site
2021-04-21 23:30:05,800 INFO scheduler Scheduled Job Start: frappe.oauth.delete_oauth2_data for my_site
2021-04-21 23:30:06,226 INFO scheduler Scheduled Job Complete: frappe.oauth.delete_oauth2_data for my_site
2021-04-21 23:31:03,371 DEBUG scheduler Queued events for site my_site
2021-04-21 23:32:03,791 DEBUG scheduler Queued events for site my_site
2021-04-21 23:32:05,952 INFO scheduler Scheduled Job Start: frappe.monitor.flush for my_site
2021-04-21 23:32:06,132 INFO scheduler Scheduled Job Complete: frappe.monitor.flush for my_site
2021-04-21 23:32:06,232 INFO scheduler Scheduled Job Start: frappe.utils.global_search.sync_global_search for my_site
2021-04-21 23:32:06,397 INFO scheduler Scheduled Job Complete: frappe.utils.global_search.sync_global_search for my_site
2021-04-21 23:32:06,468 INFO scheduler Scheduled Job Start: frappe.integrations.doctype.razorpay_settings.razorpay_settings.capture_payment for my_site
2021-04-21 23:32:06,883 INFO scheduler Scheduled Job Complete: frappe.integrations.doctype.razorpay_settings.razorpay_settings.capture_payment for my_site
2021-04-21 23:32:06,958 INFO scheduler Scheduled Job Start: frappe.email.doctype.email_account.email_account.notify_unreplied for my_site
2021-04-21 23:32:07,288 INFO scheduler Scheduled Job Complete: frappe.email.doctype.email_account.email_account.notify_unreplied for my_site
2021-04-21 23:32:07,358 INFO scheduler Scheduled Job Start: frappe.email.doctype.email_account.email_account.pull for my_site
2021-04-21 23:32:07,822 INFO scheduler Scheduled Job Complete: frappe.email.doctype.email_account.email_account.pull for my_site
2021-04-21 23:32:07,895 INFO scheduler Scheduled Job Start: frappe.email.queue.flush for my_site
2021-04-21 23:32:08,209 INFO scheduler Scheduled Job Complete: frappe.email.queue.flush for my_site
2021-04-21 23:33:04,184 DEBUG scheduler Queued events for site my_site
2021-04-21 23:34:04,513 DEBUG scheduler Queued events for site my_site
2021-04-21 23:35:04,861 DEBUG scheduler Queued events for site my_site
2021-04-21 23:36:05,383 DEBUG scheduler Queued events for site my_site
2021-04-21 23:36:07,318 INFO scheduler Scheduled Job Start: frappe.monitor.flush for my_site
2021-04-21 23:36:07,475 INFO scheduler Scheduled Job Complete: frappe.monitor.flush for my_site
2021-04-21 23:36:07,550 INFO scheduler Scheduled Job Start: frappe.utils.global_search.sync_global_search for my_site
2021-04-21 23:36:07,705 INFO scheduler Scheduled Job Complete: frappe.utils.global_search.sync_global_search for my_site
2021-04-21 23:36:07,779 INFO scheduler Scheduled Job Start: frappe.integrations.doctype.razorpay_settings.razorpay_settings.capture_payment for my_site
2021-04-21 23:36:08,173 INFO scheduler Scheduled Job Complete: frappe.integrations.doctype.razorpay_settings.razorpay_settings.capture_payment for my_site
2021-04-21 23:36:08,247 INFO scheduler Scheduled Job Start: frappe.email.doctype.email_account.email_account.notify_unreplied for my_site
2021-04-21 23:36:08,559 INFO scheduler Scheduled Job Complete: frappe.email.doctype.email_account.email_account.notify_unreplied for my_site
2021-04-21 23:36:08,632 INFO scheduler Scheduled Job Start: frappe.email.doctype.email_account.email_account.pull for my_site
2021-04-21 23:36:09,004 INFO scheduler Scheduled Job Complete: frappe.email.doctype.email_account.email_account.pull for my_site
2021-04-21 23:36:09,094 INFO scheduler Scheduled Job Start: frappe.email.queue.flush for my_site
2021-04-21 23:36:09,376 INFO scheduler Scheduled Job Complete: frappe.email.queue.flush for my_site
2021-04-21 23:37:05,724 DEBUG scheduler Queued events for site my_site
2021-04-21 23:38:06,041 DEBUG scheduler Queued events for site my_site
2021-04-21 23:39:06,356 DEBUG scheduler Queued events for site my_site
2021-04-21 23:40:06,818 DEBUG scheduler Queued events for site my_site
2021-04-21 23:40:08,904 INFO scheduler Scheduled Job Start: frappe.monitor.flush for my_site
2021-04-21 23:40:09,068 INFO scheduler Scheduled Job Complete: frappe.monitor.flush for my_site
2021-04-21 23:40:09,143 INFO scheduler Scheduled Job Start: frappe.utils.global_search.sync_global_search for my_site
2021-04-21 23:40:09,347 INFO scheduler Scheduled Job Complete: frappe.utils.global_search.sync_global_search for my_site
2021-04-21 23:40:09,422 INFO scheduler Scheduled Job Start: frappe.integrations.doctype.razorpay_settings.razorpay_settings.capture_payment for my_site
2021-04-21 23:40:09,938 INFO scheduler Scheduled Job Complete: frappe.integrations.doctype.razorpay_settings.razorpay_settings.capture_payment for my_site
2021-04-21 23:40:10,010 INFO scheduler Scheduled Job Start: frappe.email.doctype.email_account.email_account.notify_unreplied for my_site
2021-04-21 23:40:10,343 INFO scheduler Scheduled Job Complete: frappe.email.doctype.email_account.email_account.notify_unreplied for my_site
2021-04-21 23:40:10,417 INFO scheduler Scheduled Job Start: frappe.email.doctype.email_account.email_account.pull for my_site
2021-04-21 23:40:10,829 INFO scheduler Scheduled Job Complete: frappe.email.doctype.email_account.email_account.pull for my_site
2021-04-21 23:40:10,913 INFO scheduler Scheduled Job Start: frappe.email.queue.flush for my_site
2021-04-21 23:40:11,411 INFO scheduler Scheduled Job Complete: frappe.email.queue.flush for my_site
2021-04-21 23:41:07,264 DEBUG scheduler Queued events for site my_site
2021-04-21 23:42:07,624 DEBUG scheduler Queued events for site my_site
2021-04-21 23:43:08,126 DEBUG scheduler Queued events for site my_site
2021-04-21 23:44:08,629 DEBUG scheduler Queued events for site my_site
2021-04-21 23:44:10,843 INFO scheduler Scheduled Job Start: frappe.monitor.flush for my_site
2021-04-21 23:44:11,014 INFO scheduler Scheduled Job Complete: frappe.monitor.flush for my_site
2021-04-21 23:44:11,099 INFO scheduler Scheduled Job Start: frappe.utils.global_search.sync_global_search for my_site
2021-04-21 23:44:11,261 INFO scheduler Scheduled Job Complete: frappe.utils.global_search.sync_global_search for my_site
2021-04-21 23:44:11,346 INFO scheduler Scheduled Job Start: frappe.integrations.doctype.razorpay_settings.razorpay_settings.capture_payment for my_site
2021-04-21 23:44:11,818 INFO scheduler Scheduled Job Complete: frappe.integrations.doctype.razorpay_settings.razorpay_settings.capture_payment for my_site
2021-04-21 23:44:11,888 INFO scheduler Scheduled Job Start: frappe.email.doctype.email_account.email_account.notify_unreplied for my_site
2021-04-21 23:44:12,256 INFO scheduler Scheduled Job Complete: frappe.email.doctype.email_account.email_account.notify_unreplied for my_site
2021-04-21 23:44:12,376 INFO scheduler Scheduled Job Start: frappe.email.doctype.email_account.email_account.pull for my_site
2021-04-21 23:44:12,709 INFO scheduler Scheduled Job Complete: frappe.email.doctype.email_account.email_account.pull for my_site
2021-04-21 23:44:12,787 INFO scheduler Scheduled Job Start: frappe.email.queue.flush for my_site
2021-04-21 23:44:13,107 INFO scheduler Scheduled Job Complete: frappe.email.queue.flush for my_site
2021-04-21 23:45:09,334 DEBUG scheduler Queued events for site my_site
2021-04-21 23:45:11,155 INFO scheduler Scheduled Job Start: frappe.twofactor.delete_all_barcodes_for_users for my_site
2021-04-21 23:45:11,616 INFO scheduler Scheduled Job Complete: frappe.twofactor.delete_all_barcodes_for_users for my_site
2021-04-21 23:45:11,719 INFO scheduler Scheduled Job Start: frappe.website.doctype.web_page.web_page.check_publish_status for my_site
2021-04-21 23:45:12,191 INFO scheduler Scheduled Job Complete: frappe.website.doctype.web_page.web_page.check_publish_status for my_site
2021-04-21 23:45:12,299 INFO scheduler Scheduled Job Start: frappe.oauth.delete_oauth2_data for my_site
2021-04-21 23:45:12,777 INFO scheduler Scheduled Job Complete: frappe.oauth.delete_oauth2_data for my_site
2021-04-21 23:46:09,702 DEBUG scheduler Queued events for site my_site
2021-04-21 23:47:10,027 DEBUG scheduler Queued events for site my_site
2021-04-21 23:48:10,521 DEBUG scheduler Queued events for site my_site
2021-04-21 23:48:12,795 INFO scheduler Scheduled Job Start: frappe.monitor.flush for my_site
2021-04-21 23:48:12,966 INFO scheduler Scheduled Job Complete: frappe.monitor.flush for my_site
2021-04-21 23:48:13,040 INFO scheduler Scheduled Job Start: frappe.utils.global_search.sync_global_search for my_site
2021-04-21 23:48:13,204 INFO scheduler Scheduled Job Complete: frappe.utils.global_search.sync_global_search for my_site
2021-04-21 23:48:13,278 INFO scheduler Scheduled Job Start: frappe.integrations.doctype.razorpay_settings.razorpay_settings.capture_payment for my_site
2021-04-21 23:48:13,674 INFO scheduler Scheduled Job Complete: frappe.integrations.doctype.razorpay_settings.razorpay_settings.capture_payment for my_site
2021-04-21 23:48:13,754 INFO scheduler Scheduled Job Start: frappe.email.doctype.email_account.email_account.notify_unreplied for my_site
2021-04-21 23:48:14,082 INFO scheduler Scheduled Job Complete: frappe.email.doctype.email_account.email_account.notify_unreplied for my_site
2021-04-21 23:48:14,173 INFO scheduler Scheduled Job Start: frappe.email.doctype.email_account.email_account.pull for my_site
2021-04-21 23:48:14,498 INFO scheduler Scheduled Job Complete: frappe.email.doctype.email_account.email_account.pull for my_site
2021-04-21 23:48:14,570 INFO scheduler Scheduled Job Start: frappe.email.queue.flush for my_site
2021-04-21 23:48:14,842 INFO scheduler Scheduled Job Complete: frappe.email.queue.flush for my_site
2021-04-21 23:49:10,886 DEBUG scheduler Queued events for site my_site
2021-04-21 23:50:11,287 DEBUG scheduler Queued events for site my_site
2021-04-21 23:51:11,599 DEBUG scheduler Queued events for site my_site
2021-04-21 23:52:12,028 DEBUG scheduler Queued events for site my_site
2021-04-21 23:52:14,661 INFO scheduler Scheduled Job Start: frappe.monitor.flush for my_site
2021-04-21 23:52:14,832 INFO scheduler Scheduled Job Complete: frappe.monitor.flush for my_site
2021-04-21 23:52:14,909 INFO scheduler Scheduled Job Start: frappe.utils.global_search.sync_global_search for my_site
2021-04-21 23:52:15,065 INFO scheduler Scheduled Job Complete: frappe.utils.global_search.sync_global_search for my_site
2021-04-21 23:52:15,138 INFO scheduler Scheduled Job Start: frappe.integrations.doctype.razorpay_settings.razorpay_settings.capture_payment for my_site
2021-04-21 23:52:15,526 INFO scheduler Scheduled Job Complete: frappe.integrations.doctype.razorpay_settings.razorpay_settings.capture_payment for my_site
2021-04-21 23:52:15,595 INFO scheduler Scheduled Job Start: frappe.email.doctype.email_account.email_account.notify_unreplied for my_site
2021-04-21 23:52:15,899 INFO scheduler Scheduled Job Complete: frappe.email.doctype.email_account.email_account.notify_unreplied for my_site
2021-04-21 23:52:15,968 INFO scheduler Scheduled Job Start: frappe.email.doctype.email_account.email_account.pull for my_site
2021-04-21 23:52:16,330 INFO scheduler Scheduled Job Complete: frappe.email.doctype.email_account.email_account.pull for my_site
2021-04-21 23:52:16,415 INFO scheduler Scheduled Job Start: frappe.email.queue.flush for my_site
2021-04-21 23:52:16,694 INFO scheduler Scheduled Job Complete: frappe.email.queue.flush for my_site
2021-04-21 23:53:12,375 DEBUG scheduler Queued events for site my_site
2021-04-21 23:54:12,743 DEBUG scheduler Queued events for site my_site
2021-04-21 23:55:13,111 DEBUG scheduler Queued events for site my_site
2021-04-21 23:56:13,670 DEBUG scheduler Queued events for site my_site
2021-04-21 23:56:16,004 INFO scheduler Scheduled Job Start: frappe.monitor.flush for my_site
2021-04-21 23:56:16,202 INFO scheduler Scheduled Job Complete: frappe.monitor.flush for my_site
2021-04-21 23:56:16,286 INFO scheduler Scheduled Job Start: frappe.utils.global_search.sync_global_search for my_site
2021-04-21 23:56:16,477 INFO scheduler Scheduled Job Complete: frappe.utils.global_search.sync_global_search for my_site
2021-04-21 23:56:16,569 INFO scheduler Scheduled Job Start: frappe.integrations.doctype.razorpay_settings.razorpay_settings.capture_payment for my_site
2021-04-21 23:56:17,049 INFO scheduler Scheduled Job Complete: frappe.integrations.doctype.razorpay_settings.razorpay_settings.capture_payment for my_site
2021-04-21 23:56:17,145 INFO scheduler Scheduled Job Start: frappe.email.doctype.email_account.email_account.notify_unreplied for my_site
2021-04-21 23:56:17,514 INFO scheduler Scheduled Job Complete: frappe.email.doctype.email_account.email_account.notify_unreplied for my_site
2021-04-21 23:56:17,604 INFO scheduler Scheduled Job Start: frappe.email.doctype.email_account.email_account.pull for my_site
2021-04-21 23:56:17,994 INFO scheduler Scheduled Job Complete: frappe.email.doctype.email_account.email_account.pull for my_site
2021-04-21 23:56:18,082 INFO scheduler Scheduled Job Start: frappe.email.queue.flush for my_site
2021-04-21 23:56:18,401 INFO scheduler Scheduled Job Complete: frappe.email.queue.flush for my_site
2021-04-21 23:57:14,076 DEBUG scheduler Queued events for site my_site
2021-04-21 23:58:14,393 DEBUG scheduler Queued events for site my_site
2021-04-21 23:59:14,806 DEBUG scheduler Queued events for site my_site
2021-04-22 00:00:17,124 DEBUG scheduler Queued events for site my_site
2021-04-22 00:00:19,830 INFO scheduler Scheduled Job Start: frappe.integrations.doctype.google_drive.google_drive.daily_backup for my_site
2021-04-22 00:00:20,564 INFO scheduler Scheduled Job Complete: frappe.integrations.doctype.google_drive.google_drive.daily_backup for my_site
2021-04-22 00:00:20,688 INFO scheduler Scheduled Job Start: frappe.integrations.doctype.s3_backup_settings.s3_backup_settings.take_backups_daily for my_site
2021-04-22 00:00:21,324 INFO scheduler Scheduled Job Complete: frappe.integrations.doctype.s3_backup_settings.s3_backup_settings.take_backups_daily for my_site
2021-04-22 00:00:21,472 INFO scheduler Scheduled Job Start: frappe.utils.change_log.check_for_update for my_site
2021-04-22 00:00:23,810 INFO scheduler Scheduled Job Failed: frappe.utils.change_log.check_for_update for my_site
2021-04-22 00:00:23,933 INFO scheduler Scheduled Job Start: frappe.integrations.doctype.dropbox_settings.dropbox_settings.take_backups_daily for my_site
2021-04-22 00:00:24,791 INFO scheduler Scheduled Job Complete: frappe.integrations.doctype.dropbox_settings.dropbox_settings.take_backups_daily for my_site
2021-04-22 00:00:38,465 INFO scheduler Scheduled Job Start: frappe.core.doctype.log_settings.log_settings.run_log_clean_up for my_site
2021-04-22 00:00:38,892 INFO scheduler Scheduled Job Complete: frappe.core.doctype.log_settings.log_settings.run_log_clean_up for my_site
2021-04-22 00:00:39,008 INFO scheduler Scheduled Job Start: frappe.core.doctype.prepared_report.prepared_report.delete_expired_prepared_reports for my_site
2021-04-22 00:00:39,543 INFO scheduler Scheduled Job Complete: frappe.core.doctype.prepared_report.prepared_report.delete_expired_prepared_reports for my_site
2021-04-22 00:00:39,640 INFO scheduler Scheduled Job Start: frappe.email.doctype.unhandled_email.unhandled_email.remove_old_unhandled_emails for my_site
2021-04-22 00:00:40,050 INFO scheduler Scheduled Job Complete: frappe.email.doctype.unhandled_email.unhandled_email.remove_old_unhandled_emails for my_site
2021-04-22 00:00:40,178 INFO scheduler Scheduled Job Start: frappe.automation.doctype.auto_repeat.auto_repeat.set_auto_repeat_as_completed for my_site
2021-04-22 00:00:40,648 INFO scheduler Scheduled Job Complete: frappe.automation.doctype.auto_repeat.auto_repeat.set_auto_repeat_as_completed for my_site
2021-04-22 00:00:40,740 INFO scheduler Scheduled Job Start: frappe.automation.doctype.auto_repeat.auto_repeat.make_auto_repeat_entry for my_site
2021-04-22 00:00:41,196 INFO scheduler Scheduled Job Complete: frappe.automation.doctype.auto_repeat.auto_repeat.make_auto_repeat_entry for my_site
2021-04-22 00:00:41,279 INFO scheduler Scheduled Job Start: frappe.integrations.doctype.google_contacts.google_contacts.sync for my_site
2021-04-22 00:00:41,838 INFO scheduler Scheduled Job Complete: frappe.integrations.doctype.google_contacts.google_contacts.sync for my_site
2021-04-22 00:00:41,929 INFO scheduler Scheduled Job Start: frappe.social.doctype.energy_point_settings.energy_point_settings.allocate_review_points for my_site
2021-04-22 00:00:42,532 INFO scheduler Scheduled Job Complete: frappe.social.doctype.energy_point_settings.energy_point_settings.allocate_review_points for my_site
2021-04-22 00:00:42,672 INFO scheduler Scheduled Job Start: frappe.desk.form.document_follow.send_daily_updates for my_site
2021-04-22 00:00:43,210 INFO scheduler Scheduled Job Complete: frappe.desk.form.document_follow.send_daily_updates for my_site
2021-04-22 00:00:43,306 INFO scheduler Scheduled Job Start: frappe.website.doctype.personal_data_deletion_request.personal_data_deletion_request.remove_unverified_record for my_site
2021-04-22 00:00:43,695 INFO scheduler Scheduled Job Complete: frappe.website.doctype.personal_data_deletion_request.personal_data_deletion_request.remove_unverified_record for my_site
2021-04-22 00:00:43,794 INFO scheduler Scheduled Job Start: frappe.email.doctype.auto_email_report.auto_email_report.send_daily for my_site
2021-04-22 00:00:44,827 INFO scheduler Scheduled Job Complete: frappe.email.doctype.auto_email_report.auto_email_report.send_daily for my_site
2021-04-22 00:00:44,957 INFO scheduler Scheduled Job Start: frappe.utils.scheduler.restrict_scheduler_events_if_dormant for my_site
2021-04-22 00:00:45,361 INFO scheduler Scheduled Job Failed: frappe.utils.scheduler.restrict_scheduler_events_if_dormant for my_site
2021-04-22 00:00:45,465 INFO scheduler Scheduled Job Start: frappe.realtime.remove_old_task_logs for my_site
2021-04-22 00:00:45,862 INFO scheduler Scheduled Job Complete: frappe.realtime.remove_old_task_logs for my_site
2021-04-22 00:00:45,957 INFO scheduler Scheduled Job Start: frappe.email.doctype.notification.notification.trigger_daily_alerts for my_site
2021-04-22 00:00:46,387 INFO scheduler Scheduled Job Complete: frappe.email.doctype.notification.notification.trigger_daily_alerts for my_site
2021-04-22 00:00:46,473 INFO scheduler Scheduled Job Start: frappe.sessions.clear_expired_sessions for my_site
2021-04-22 00:00:46,864 INFO scheduler Scheduled Job Complete: frappe.sessions.clear_expired_sessions for my_site
2021-04-22 00:00:46,950 INFO scheduler Scheduled Job Start: frappe.desk.doctype.event.event.send_event_digest for my_site
2021-04-22 00:00:47,510 INFO scheduler Scheduled Job Complete: frappe.desk.doctype.event.event.send_event_digest for my_site
2021-04-22 00:00:47,633 INFO scheduler Scheduled Job Start: frappe.core.doctype.error_log.error_log.set_old_logs_as_seen for my_site
2021-04-22 00:00:48,209 INFO scheduler Scheduled Job Complete: frappe.core.doctype.error_log.error_log.set_old_logs_as_seen for my_site
2021-04-22 00:00:48,317 INFO scheduler Scheduled Job Start: frappe.desk.notifications.clear_notifications for my_site
2021-04-22 00:00:48,705 INFO scheduler Scheduled Job Complete: frappe.desk.notifications.clear_notifications for my_site
2021-04-22 00:00:48,797 INFO scheduler Scheduled Job Start: frappe.email.queue.set_expiry_for_email_queue for my_site
2021-04-22 00:00:49,315 INFO scheduler Scheduled Job Complete: frappe.email.queue.set_expiry_for_email_queue for my_site
2021-04-22 00:00:49,416 INFO scheduler Scheduled Job Start: frappe.email.doctype.newsletter.newsletter.send_scheduled_email for my_site
2021-04-22 00:00:49,884 INFO scheduler Scheduled Job Complete: frappe.email.doctype.newsletter.newsletter.send_scheduled_email for my_site
2021-04-22 00:00:49,978 INFO scheduler Scheduled Job Start: frappe.integrations.doctype.google_calendar.google_calendar.sync for my_site
2021-04-22 00:00:50,621 INFO scheduler Scheduled Job Complete: frappe.integrations.doctype.google_calendar.google_calendar.sync for my_site
2021-04-22 00:00:50,718 INFO scheduler Scheduled Job Start: frappe.desk.form.document_follow.send_hourly_updates for my_site
2021-04-22 00:00:51,142 INFO scheduler Scheduled Job Complete: frappe.desk.form.document_follow.send_hourly_updates for my_site
2021-04-22 00:00:51,230 INFO scheduler Scheduled Job Start: frappe.deferred_insert.save_to_db for my_site
2021-04-22 00:00:51,655 INFO scheduler Scheduled Job Complete: frappe.deferred_insert.save_to_db for my_site
2021-04-22 00:00:51,742 INFO scheduler Scheduled Job Start: frappe.desk.page.backups.backups.delete_downloadable_backups for my_site
2021-04-22 00:00:52,279 INFO scheduler Scheduled Job Complete: frappe.desk.page.backups.backups.delete_downloadable_backups for my_site
2021-04-22 00:00:52,392 INFO scheduler Scheduled Job Start: frappe.utils.error.collect_error_snapshots for my_site
2021-04-22 00:00:52,821 INFO scheduler Scheduled Job Complete: frappe.utils.error.collect_error_snapshots for my_site
2021-04-22 00:00:52,915 INFO scheduler Scheduled Job Start: frappe.model.utils.user_settings.sync_user_settings for my_site
2021-04-22 00:00:53,301 INFO scheduler Scheduled Job Complete: frappe.model.utils.user_settings.sync_user_settings for my_site
2021-04-22 00:00:53,391 INFO scheduler Scheduled Job Start: frappe.model.utils.link_count.update_link_count for my_site
2021-04-22 00:00:53,781 INFO scheduler Scheduled Job Complete: frappe.model.utils.link_count.update_link_count for my_site
2021-04-22 00:00:53,869 INFO scheduler Scheduled Job Start: frappe.monitor.flush for my_site
2021-04-22 00:00:54,023 INFO scheduler Scheduled Job Complete: frappe.monitor.flush for my_site
2021-04-22 00:00:54,097 INFO scheduler Scheduled Job Start: frappe.utils.global_search.sync_global_search for my_site
2021-04-22 00:00:54,264 INFO scheduler Scheduled Job Complete: frappe.utils.global_search.sync_global_search for my_site
2021-04-22 00:00:54,337 INFO scheduler Scheduled Job Start: frappe.integrations.doctype.razorpay_settings.razorpay_settings.capture_payment for my_site
2021-04-22 00:00:54,793 INFO scheduler Scheduled Job Complete: frappe.integrations.doctype.razorpay_settings.razorpay_settings.capture_payment for my_site
2021-04-22 00:00:54,891 INFO scheduler Scheduled Job Start: frappe.email.doctype.email_account.email_account.notify_unreplied for my_site
2021-04-22 00:00:55,222 INFO scheduler Scheduled Job Complete: frappe.email.doctype.email_account.email_account.notify_unreplied for my_site
2021-04-22 00:00:55,295 INFO scheduler Scheduled Job Start: frappe.email.doctype.email_account.email_account.pull for my_site
2021-04-22 00:00:55,614 INFO scheduler Scheduled Job Complete: frappe.email.doctype.email_account.email_account.pull for my_site
2021-04-22 00:00:55,684 INFO scheduler Scheduled Job Start: frappe.email.queue.flush for my_site
2021-04-22 00:00:55,966 INFO scheduler Scheduled Job Complete: frappe.email.queue.flush for my_site
2021-04-22 00:00:56,039 INFO scheduler Scheduled Job Start: frappe.twofactor.delete_all_barcodes_for_users for my_site
2021-04-22 00:00:56,485 INFO scheduler Scheduled Job Complete: frappe.twofactor.delete_all_barcodes_for_users for my_site
2021-04-22 00:00:56,572 INFO scheduler Scheduled Job Start: frappe.website.doctype.web_page.web_page.check_publish_status for my_site
2021-04-22 00:00:57,034 INFO scheduler Scheduled Job Complete: frappe.website.doctype.web_page.web_page.check_publish_status for my_site
2021-04-22 00:00:57,123 INFO scheduler Scheduled Job Start: frappe.oauth.delete_oauth2_data for my_site
2021-04-22 00:00:57,544 INFO scheduler Scheduled Job Complete: frappe.oauth.delete_oauth2_data for my_site
2021-04-22 00:01:17,490 DEBUG scheduler Queued events for site my_site
2021-04-22 00:02:18,042 DEBUG scheduler Queued events for site my_site
2021-04-22 00:03:18,375 DEBUG scheduler Queued events for site my_site
2021-04-22 00:04:18,794 DEBUG scheduler Queued events for site my_site
2021-04-22 00:04:21,515 INFO scheduler Scheduled Job Start: frappe.monitor.flush for my_site
2021-04-22 00:04:21,868 INFO scheduler Scheduled Job Complete: frappe.monitor.flush for my_site
2021-04-22 00:04:22,029 INFO scheduler Scheduled Job Start: frappe.utils.global_search.sync_global_search for my_site
2021-04-22 00:04:22,388 INFO scheduler Scheduled Job Complete: frappe.utils.global_search.sync_global_search for my_site
2021-04-22 00:04:22,551 INFO scheduler Scheduled Job Start: frappe.integrations.doctype.razorpay_settings.razorpay_settings.capture_payment for my_site
2021-04-22 00:04:23,275 INFO scheduler Scheduled Job Complete: frappe.integrations.doctype.razorpay_settings.razorpay_settings.capture_payment for my_site
2021-04-22 00:04:23,370 INFO scheduler Scheduled Job Start: frappe.email.doctype.email_account.email_account.notify_unreplied for my_site
2021-04-22 00:04:23,735 INFO scheduler Scheduled Job Complete: frappe.email.doctype.email_account.email_account.notify_unreplied for my_site
2021-04-22 00:04:23,831 INFO scheduler Scheduled Job Start: frappe.email.doctype.email_account.email_account.pull for my_site
2021-04-22 00:04:24,232 INFO scheduler Scheduled Job Complete: frappe.email.doctype.email_account.email_account.pull for my_site
2021-04-22 00:04:24,352 INFO scheduler Scheduled Job Start: frappe.email.queue.flush for my_site
2021-04-22 00:04:24,741 INFO scheduler Scheduled Job Complete: frappe.email.queue.flush for my_site
2021-04-22 12:37:01,035 DEBUG scheduler Queued events for site my_site
2021-04-22 12:37:10,028 INFO scheduler Scheduled Job Start: frappe.email.doctype.newsletter.newsletter.send_scheduled_email for my_site
2021-04-22 12:37:10,827 INFO scheduler Scheduled Job Complete: frappe.email.doctype.newsletter.newsletter.send_scheduled_email for my_site
2021-04-22 12:37:10,911 INFO scheduler Scheduled Job Start: frappe.integrations.doctype.google_calendar.google_calendar.sync for my_site
2021-04-22 12:37:11,542 INFO scheduler Scheduled Job Complete: frappe.integrations.doctype.google_calendar.google_calendar.sync for my_site
2021-04-22 12:37:11,632 INFO scheduler Scheduled Job Start: frappe.desk.form.document_follow.send_hourly_updates for my_site
2021-04-22 12:37:12,130 INFO scheduler Scheduled Job Complete: frappe.desk.form.document_follow.send_hourly_updates for my_site
2021-04-22 12:37:12,234 INFO scheduler Scheduled Job Start: frappe.deferred_insert.save_to_db for my_site
2021-04-22 12:37:12,616 INFO scheduler Scheduled Job Complete: frappe.deferred_insert.save_to_db for my_site
2021-04-22 12:37:12,703 INFO scheduler Scheduled Job Start: frappe.desk.page.backups.backups.delete_downloadable_backups for my_site
2021-04-22 12:37:13,179 INFO scheduler Scheduled Job Complete: frappe.desk.page.backups.backups.delete_downloadable_backups for my_site
2021-04-22 12:37:13,277 INFO scheduler Scheduled Job Start: frappe.utils.error.collect_error_snapshots for my_site
2021-04-22 12:37:13,703 INFO scheduler Scheduled Job Complete: frappe.utils.error.collect_error_snapshots for my_site
2021-04-22 12:37:13,800 INFO scheduler Scheduled Job Start: frappe.model.utils.user_settings.sync_user_settings for my_site
2021-04-22 12:37:14,177 INFO scheduler Scheduled Job Complete: frappe.model.utils.user_settings.sync_user_settings for my_site
2021-04-22 12:37:14,270 INFO scheduler Scheduled Job Start: frappe.model.utils.link_count.update_link_count for my_site
2021-04-22 12:37:14,652 INFO scheduler Scheduled Job Complete: frappe.model.utils.link_count.update_link_count for my_site
2021-04-22 12:37:14,739 INFO scheduler Scheduled Job Start: frappe.monitor.flush for my_site
2021-04-22 12:37:14,921 INFO scheduler Scheduled Job Complete: frappe.monitor.flush for my_site
2021-04-22 12:37:14,995 INFO scheduler Scheduled Job Start: frappe.utils.global_search.sync_global_search for my_site
2021-04-22 12:37:15,149 INFO scheduler Scheduled Job Complete: frappe.utils.global_search.sync_global_search for my_site
2021-04-22 12:37:15,223 INFO scheduler Scheduled Job Start: frappe.integrations.doctype.razorpay_settings.razorpay_settings.capture_payment for my_site
2021-04-22 12:37:15,746 INFO scheduler Scheduled Job Complete: frappe.integrations.doctype.razorpay_settings.razorpay_settings.capture_payment for my_site
2021-04-22 12:37:15,861 INFO scheduler Scheduled Job Start: frappe.email.doctype.email_account.email_account.notify_unreplied for my_site
2021-04-22 12:37:16,286 INFO scheduler Scheduled Job Complete: frappe.email.doctype.email_account.email_account.notify_unreplied for my_site
2021-04-22 12:37:16,356 INFO scheduler Scheduled Job Start: frappe.email.doctype.email_account.email_account.pull for my_site
2021-04-22 12:37:16,674 INFO scheduler Scheduled Job Complete: frappe.email.doctype.email_account.email_account.pull for my_site
2021-04-22 12:37:16,745 INFO scheduler Scheduled Job Start: frappe.email.queue.flush for my_site
2021-04-22 12:37:17,007 INFO scheduler Scheduled Job Complete: frappe.email.queue.flush for my_site
2021-04-22 12:37:17,077 INFO scheduler Scheduled Job Start: frappe.twofactor.delete_all_barcodes_for_users for my_site
2021-04-22 12:37:17,536 INFO scheduler Scheduled Job Complete: frappe.twofactor.delete_all_barcodes_for_users for my_site
2021-04-22 12:37:17,624 INFO scheduler Scheduled Job Start: frappe.website.doctype.web_page.web_page.check_publish_status for my_site
2021-04-22 12:37:18,106 INFO scheduler Scheduled Job Complete: frappe.website.doctype.web_page.web_page.check_publish_status for my_site
2021-04-22 12:37:18,194 INFO scheduler Scheduled Job Start: frappe.oauth.delete_oauth2_data for my_site
2021-04-22 12:37:18,646 INFO scheduler Scheduled Job Complete: frappe.oauth.delete_oauth2_data for my_site
2021-04-22 12:38:01,380 DEBUG scheduler Queued events for site my_site
2021-04-22 12:39:01,781 DEBUG scheduler Queued events for site my_site
2021-04-22 12:40:02,496 DEBUG scheduler Queued events for site my_site
2021-04-22 12:40:05,648 INFO scheduler Scheduled Job Start: frappe.monitor.flush for my_site
2021-04-22 12:40:05,989 INFO scheduler Scheduled Job Complete: frappe.monitor.flush for my_site
2021-04-22 12:40:06,174 INFO scheduler Scheduled Job Start: frappe.utils.global_search.sync_global_search for my_site
2021-04-22 12:40:06,458 INFO scheduler Scheduled Job Complete: frappe.utils.global_search.sync_global_search for my_site
2021-04-22 12:40:06,597 INFO scheduler Scheduled Job Start: frappe.integrations.doctype.razorpay_settings.razorpay_settings.capture_payment for my_site
2021-04-22 12:40:07,329 INFO scheduler Scheduled Job Complete: frappe.integrations.doctype.razorpay_settings.razorpay_settings.capture_payment for my_site
2021-04-22 12:40:07,436 INFO scheduler Scheduled Job Start: frappe.email.doctype.email_account.email_account.notify_unreplied for my_site
2021-04-22 12:40:07,798 INFO scheduler Scheduled Job Complete: frappe.email.doctype.email_account.email_account.notify_unreplied for my_site
2021-04-22 12:40:07,874 INFO scheduler Scheduled Job Start: frappe.email.doctype.email_account.email_account.pull for my_site
2021-04-22 12:40:08,242 INFO scheduler Scheduled Job Complete: frappe.email.doctype.email_account.email_account.pull for my_site
2021-04-22 12:40:08,325 INFO scheduler Scheduled Job Start: frappe.email.queue.flush for my_site
2021-04-22 12:40:08,637 INFO scheduler Scheduled Job Complete: frappe.email.queue.flush for my_site
2021-04-22 12:41:02,876 DEBUG scheduler Queued events for site my_site
2021-04-22 12:42:03,639 DEBUG scheduler Queued events for site my_site
2021-04-22 12:43:04,093 DEBUG scheduler Queued events for site my_site
2021-04-22 12:44:04,509 DEBUG scheduler Queued events for site my_site
2021-04-22 12:44:06,435 INFO scheduler Scheduled Job Start: frappe.monitor.flush for my_site
2021-04-22 12:44:06,588 INFO scheduler Scheduled Job Complete: frappe.monitor.flush for my_site
2021-04-22 12:44:06,661 INFO scheduler Scheduled Job Start: frappe.utils.global_search.sync_global_search for my_site
2021-04-22 12:44:06,817 INFO scheduler Scheduled Job Complete: frappe.utils.global_search.sync_global_search for my_site
2021-04-22 12:44:06,894 INFO scheduler Scheduled Job Start: frappe.integrations.doctype.razorpay_settings.razorpay_settings.capture_payment for my_site
2021-04-22 12:44:07,272 INFO scheduler Scheduled Job Complete: frappe.integrations.doctype.razorpay_settings.razorpay_settings.capture_payment for my_site
2021-04-22 12:44:07,342 INFO scheduler Scheduled Job Start: frappe.email.doctype.email_account.email_account.notify_unreplied for my_site
2021-04-22 12:44:07,640 INFO scheduler Scheduled Job Complete: frappe.email.doctype.email_account.email_account.notify_unreplied for my_site
2021-04-22 12:44:07,727 INFO scheduler Scheduled Job Start: frappe.email.doctype.email_account.email_account.pull for my_site
2021-04-22 12:44:08,206 INFO scheduler Scheduled Job Complete: frappe.email.doctype.email_account.email_account.pull for my_site
2021-04-22 12:44:08,324 INFO scheduler Scheduled Job Start: frappe.email.queue.flush for my_site
2021-04-22 12:44:08,693 INFO scheduler Scheduled Job Complete: frappe.email.queue.flush for my_site
2021-04-22 12:45:04,950 DEBUG scheduler Queued events for site my_site
2021-04-22 12:45:06,514 INFO scheduler Scheduled Job Start: frappe.twofactor.delete_all_barcodes_for_users for my_site
2021-04-22 12:45:06,950 INFO scheduler Scheduled Job Complete: frappe.twofactor.delete_all_barcodes_for_users for my_site
2021-04-22 12:45:07,042 INFO scheduler Scheduled Job Start: frappe.website.doctype.web_page.web_page.check_publish_status for my_site
2021-04-22 12:45:07,527 INFO scheduler Scheduled Job Complete: frappe.website.doctype.web_page.web_page.check_publish_status for my_site
2021-04-22 12:45:07,653 INFO scheduler Scheduled Job Start: frappe.oauth.delete_oauth2_data for my_site
2021-04-22 12:45:08,109 INFO scheduler Scheduled Job Complete: frappe.oauth.delete_oauth2_data for my_site
2021-04-22 12:46:05,300 DEBUG scheduler Queued events for site my_site
2021-04-22 12:47:05,625 DEBUG scheduler Queued events for site my_site
2021-04-22 12:48:06,068 DEBUG scheduler Queued events for site my_site
2021-04-22 12:48:08,046 INFO scheduler Scheduled Job Start: frappe.monitor.flush for my_site
2021-04-22 12:48:08,202 INFO scheduler Scheduled Job Complete: frappe.monitor.flush for my_site
2021-04-22 12:48:08,279 INFO scheduler Scheduled Job Start: frappe.utils.global_search.sync_global_search for my_site
2021-04-22 12:48:08,443 INFO scheduler Scheduled Job Complete: frappe.utils.global_search.sync_global_search for my_site
2021-04-22 12:48:08,521 INFO scheduler Scheduled Job Start: frappe.integrations.doctype.razorpay_settings.razorpay_settings.capture_payment for my_site
2021-04-22 12:48:08,928 INFO scheduler Scheduled Job Complete: frappe.integrations.doctype.razorpay_settings.razorpay_settings.capture_payment for my_site
2021-04-22 12:48:09,000 INFO scheduler Scheduled Job Start: frappe.email.doctype.email_account.email_account.notify_unreplied for my_site
2021-04-22 12:48:09,315 INFO scheduler Scheduled Job Complete: frappe.email.doctype.email_account.email_account.notify_unreplied for my_site
2021-04-22 12:48:09,386 INFO scheduler Scheduled Job Start: frappe.email.doctype.email_account.email_account.pull for my_site
2021-04-22 12:48:09,716 INFO scheduler Scheduled Job Complete: frappe.email.doctype.email_account.email_account.pull for my_site
2021-04-22 12:48:09,794 INFO scheduler Scheduled Job Start: frappe.email.queue.flush for my_site
2021-04-22 12:48:10,066 INFO scheduler Scheduled Job Complete: frappe.email.queue.flush for my_site
2021-04-22 12:49:06,412 DEBUG scheduler Queued events for site my_site
2021-04-22 12:50:06,753 DEBUG scheduler Queued events for site my_site
2021-04-22 12:51:07,161 DEBUG scheduler Queued events for site my_site
2021-04-22 12:52:07,617 DEBUG scheduler Queued events for site my_site
2021-04-22 12:52:09,570 INFO scheduler Scheduled Job Start: frappe.monitor.flush for my_site
2021-04-22 12:52:09,730 INFO scheduler Scheduled Job Complete: frappe.monitor.flush for my_site
2021-04-22 12:52:09,804 INFO scheduler Scheduled Job Start: frappe.utils.global_search.sync_global_search for my_site
2021-04-22 12:52:09,971 INFO scheduler Scheduled Job Complete: frappe.utils.global_search.sync_global_search for my_site
2021-04-22 12:52:10,044 INFO scheduler Scheduled Job Start: frappe.integrations.doctype.razorpay_settings.razorpay_settings.capture_payment for my_site
2021-04-22 12:52:10,458 INFO scheduler Scheduled Job Complete: frappe.integrations.doctype.razorpay_settings.razorpay_settings.capture_payment for my_site
2021-04-22 12:52:10,537 INFO scheduler Scheduled Job Start: frappe.email.doctype.email_account.email_account.notify_unreplied for my_site
2021-04-22 12:52:10,851 INFO scheduler Scheduled Job Complete: frappe.email.doctype.email_account.email_account.notify_unreplied for my_site
2021-04-22 12:52:10,926 INFO scheduler Scheduled Job Start: frappe.email.doctype.email_account.email_account.pull for my_site
2021-04-22 12:52:11,374 INFO scheduler Scheduled Job Complete: frappe.email.doctype.email_account.email_account.pull for my_site
2021-04-22 12:52:11,449 INFO scheduler Scheduled Job Start: frappe.email.queue.flush for my_site
2021-04-22 12:52:11,711 INFO scheduler Scheduled Job Complete: frappe.email.queue.flush for my_site
2021-04-22 12:53:07,954 DEBUG scheduler Queued events for site my_site
2021-04-22 12:54:08,327 DEBUG scheduler Queued events for site my_site
2021-04-22 12:55:08,643 DEBUG scheduler Queued events for site my_site
2021-04-22 12:56:09,060 DEBUG scheduler Queued events for site my_site
2021-04-22 12:56:11,192 INFO scheduler Scheduled Job Start: frappe.monitor.flush for my_site
2021-04-22 12:56:11,380 INFO scheduler Scheduled Job Complete: frappe.monitor.flush for my_site
2021-04-22 12:56:11,467 INFO scheduler Scheduled Job Start: frappe.utils.global_search.sync_global_search for my_site
2021-04-22 12:56:11,658 INFO scheduler Scheduled Job Complete: frappe.utils.global_search.sync_global_search for my_site
2021-04-22 12:56:11,730 INFO scheduler Scheduled Job Start: frappe.integrations.doctype.razorpay_settings.razorpay_settings.capture_payment for my_site
2021-04-22 12:56:12,163 INFO scheduler Scheduled Job Complete: frappe.integrations.doctype.razorpay_settings.razorpay_settings.capture_payment for my_site
2021-04-22 12:56:12,238 INFO scheduler Scheduled Job Start: frappe.email.doctype.email_account.email_account.notify_unreplied for my_site
2021-04-22 12:56:12,597 INFO scheduler Scheduled Job Complete: frappe.email.doctype.email_account.email_account.notify_unreplied for my_site
2021-04-22 12:56:12,686 INFO scheduler Scheduled Job Start: frappe.email.doctype.email_account.email_account.pull for my_site
2021-04-22 12:56:13,000 INFO scheduler Scheduled Job Complete: frappe.email.doctype.email_account.email_account.pull for my_site
2021-04-22 12:56:13,072 INFO scheduler Scheduled Job Start: frappe.email.queue.flush for my_site
2021-04-22 12:56:13,362 INFO scheduler Scheduled Job Complete: frappe.email.queue.flush for my_site
2021-04-22 12:57:09,414 DEBUG scheduler Queued events for site my_site
2021-04-22 12:58:09,731 DEBUG scheduler Queued events for site my_site
2021-04-22 12:59:10,149 DEBUG scheduler Queued events for site my_site
2021-04-22 13:00:11,073 DEBUG scheduler Queued events for site my_site
2021-04-22 13:00:21,311 INFO scheduler Scheduled Job Start: frappe.email.doctype.newsletter.newsletter.send_scheduled_email for my_site
2021-04-22 13:00:21,814 INFO scheduler Scheduled Job Complete: frappe.email.doctype.newsletter.newsletter.send_scheduled_email for my_site
2021-04-22 13:00:21,904 INFO scheduler Scheduled Job Start: frappe.integrations.doctype.google_calendar.google_calendar.sync for my_site
2021-04-22 13:00:22,562 INFO scheduler Scheduled Job Complete: frappe.integrations.doctype.google_calendar.google_calendar.sync for my_site
2021-04-22 13:00:22,647 INFO scheduler Scheduled Job Start: frappe.desk.form.document_follow.send_hourly_updates for my_site
2021-04-22 13:00:23,038 INFO scheduler Scheduled Job Complete: frappe.desk.form.document_follow.send_hourly_updates for my_site
2021-04-22 13:00:23,126 INFO scheduler Scheduled Job Start: frappe.deferred_insert.save_to_db for my_site
2021-04-22 13:00:23,563 INFO scheduler Scheduled Job Complete: frappe.deferred_insert.save_to_db for my_site
2021-04-22 13:00:23,663 INFO scheduler Scheduled Job Start: frappe.desk.page.backups.backups.delete_downloadable_backups for my_site
2021-04-22 13:00:24,188 INFO scheduler Scheduled Job Complete: frappe.desk.page.backups.backups.delete_downloadable_backups for my_site
2021-04-22 13:00:24,284 INFO scheduler Scheduled Job Start: frappe.utils.error.collect_error_snapshots for my_site
2021-04-22 13:00:24,796 INFO scheduler Scheduled Job Complete: frappe.utils.error.collect_error_snapshots for my_site
2021-04-22 13:00:24,926 INFO scheduler Scheduled Job Start: frappe.model.utils.user_settings.sync_user_settings for my_site
2021-04-22 13:00:25,437 INFO scheduler Scheduled Job Complete: frappe.model.utils.user_settings.sync_user_settings for my_site
2021-04-22 13:00:25,589 INFO scheduler Scheduled Job Start: frappe.model.utils.link_count.update_link_count for my_site
2021-04-22 13:00:25,996 INFO scheduler Scheduled Job Complete: frappe.model.utils.link_count.update_link_count for my_site
2021-04-22 13:00:26,090 INFO scheduler Scheduled Job Start: frappe.monitor.flush for my_site
2021-04-22 13:00:26,265 INFO scheduler Scheduled Job Complete: frappe.monitor.flush for my_site
2021-04-22 13:00:26,347 INFO scheduler Scheduled Job Start: frappe.utils.global_search.sync_global_search for my_site
2021-04-22 13:00:26,508 INFO scheduler Scheduled Job Complete: frappe.utils.global_search.sync_global_search for my_site
2021-04-22 13:00:26,591 INFO scheduler Scheduled Job Start: frappe.integrations.doctype.razorpay_settings.razorpay_settings.capture_payment for my_site
2021-04-22 13:00:26,982 INFO scheduler Scheduled Job Complete: frappe.integrations.doctype.razorpay_settings.razorpay_settings.capture_payment for my_site
2021-04-22 13:00:27,055 INFO scheduler Scheduled Job Start: frappe.email.doctype.email_account.email_account.notify_unreplied for my_site
2021-04-22 13:00:27,366 INFO scheduler Scheduled Job Complete: frappe.email.doctype.email_account.email_account.notify_unreplied for my_site
2021-04-22 13:00:27,436 INFO scheduler Scheduled Job Start: frappe.email.doctype.email_account.email_account.pull for my_site
2021-04-22 13:00:27,761 INFO scheduler Scheduled Job Complete: frappe.email.doctype.email_account.email_account.pull for my_site
2021-04-22 13:00:27,861 INFO scheduler Scheduled Job Start: frappe.email.queue.flush for my_site
2021-04-22 13:00:28,134 INFO scheduler Scheduled Job Complete: frappe.email.queue.flush for my_site
2021-04-22 13:00:28,204 INFO scheduler Scheduled Job Start: frappe.twofactor.delete_all_barcodes_for_users for my_site
2021-04-22 13:00:28,660 INFO scheduler Scheduled Job Complete: frappe.twofactor.delete_all_barcodes_for_users for my_site
2021-04-22 13:00:28,751 INFO scheduler Scheduled Job Start: frappe.website.doctype.web_page.web_page.check_publish_status for my_site
2021-04-22 13:00:29,220 INFO scheduler Scheduled Job Complete: frappe.website.doctype.web_page.web_page.check_publish_status for my_site
2021-04-22 13:00:29,313 INFO scheduler Scheduled Job Start: frappe.oauth.delete_oauth2_data for my_site
2021-04-22 13:00:29,714 INFO scheduler Scheduled Job Complete: frappe.oauth.delete_oauth2_data for my_site
2021-04-22 13:01:11,710 DEBUG scheduler Queued events for site my_site
2021-04-22 13:02:12,501 DEBUG scheduler Queued events for site my_site
2021-04-22 13:11:34,676 DEBUG scheduler Queued events for site my_site
2021-04-22 13:11:36,750 INFO scheduler Scheduled Job Start: frappe.monitor.flush for my_site
2021-04-22 13:11:36,929 INFO scheduler Scheduled Job Complete: frappe.monitor.flush for my_site
2021-04-22 13:11:37,014 INFO scheduler Scheduled Job Start: frappe.utils.global_search.sync_global_search for my_site
2021-04-22 13:11:37,174 INFO scheduler Scheduled Job Complete: frappe.utils.global_search.sync_global_search for my_site
2021-04-22 13:11:37,249 INFO scheduler Scheduled Job Start: frappe.integrations.doctype.razorpay_settings.razorpay_settings.capture_payment for my_site
2021-04-22 13:11:37,644 INFO scheduler Scheduled Job Complete: frappe.integrations.doctype.razorpay_settings.razorpay_settings.capture_payment for my_site
2021-04-22 13:11:37,719 INFO scheduler Scheduled Job Start: frappe.email.doctype.email_account.email_account.notify_unreplied for my_site
2021-04-22 13:11:38,028 INFO scheduler Scheduled Job Complete: frappe.email.doctype.email_account.email_account.notify_unreplied for my_site
2021-04-22 13:11:38,107 INFO scheduler Scheduled Job Start: frappe.email.doctype.email_account.email_account.pull for my_site
2021-04-22 13:11:38,460 INFO scheduler Scheduled Job Complete: frappe.email.doctype.email_account.email_account.pull for my_site
2021-04-22 13:11:38,623 INFO scheduler Scheduled Job Start: frappe.email.queue.flush for my_site
2021-04-22 13:11:38,972 INFO scheduler Scheduled Job Complete: frappe.email.queue.flush for my_site
2021-04-22 13:12:35,136 DEBUG scheduler Queued events for site my_site
2021-04-22 13:12:37,438 INFO scheduler Scheduled Job Start: frappe.monitor.flush for my_site
2021-04-22 13:12:37,652 INFO scheduler Scheduled Job Complete: frappe.monitor.flush for my_site
2021-04-22 13:12:37,744 INFO scheduler Scheduled Job Start: frappe.utils.global_search.sync_global_search for my_site
2021-04-22 13:12:37,909 INFO scheduler Scheduled Job Complete: frappe.utils.global_search.sync_global_search for my_site
2021-04-22 13:12:37,988 INFO scheduler Scheduled Job Start: frappe.integrations.doctype.razorpay_settings.razorpay_settings.capture_payment for my_site
2021-04-22 13:12:39,050 INFO scheduler Scheduled Job Complete: frappe.integrations.doctype.razorpay_settings.razorpay_settings.capture_payment for my_site
2021-04-22 13:12:39,156 INFO scheduler Scheduled Job Start: frappe.email.doctype.email_account.email_account.notify_unreplied for my_site
2021-04-22 13:12:39,501 INFO scheduler Scheduled Job Complete: frappe.email.doctype.email_account.email_account.notify_unreplied for my_site
2021-04-22 13:12:39,575 INFO scheduler Scheduled Job Start: frappe.email.doctype.email_account.email_account.pull for my_site
2021-04-22 13:12:39,902 INFO scheduler Scheduled Job Complete: frappe.email.doctype.email_account.email_account.pull for my_site
2021-04-22 13:12:39,975 INFO scheduler Scheduled Job Start: frappe.email.queue.flush for my_site
2021-04-22 13:12:40,254 INFO scheduler Scheduled Job Complete: frappe.email.queue.flush for my_site
2021-04-22 13:54:34,086 DEBUG scheduler Queued events for site my_site
2021-04-22 13:55:35,287 DEBUG scheduler Queued events for site my_site
2021-04-22 13:56:35,693 DEBUG scheduler Queued events for site my_site
2021-04-22 13:57:36,017 DEBUG scheduler Queued events for site my_site
2021-04-22 13:58:36,283 DEBUG scheduler Queued events for site my_site
2021-04-22 13:59:36,538 DEBUG scheduler Queued events for site my_site
2021-04-22 14:00:36,963 DEBUG scheduler Queued events for site my_site
2021-04-22 14:01:37,359 DEBUG scheduler Queued events for site my_site
2021-04-22 14:02:37,717 DEBUG scheduler Queued events for site my_site
2021-04-22 14:03:38,033 DEBUG scheduler Queued events for site my_site
2021-04-22 14:04:38,367 DEBUG scheduler Queued events for site my_site
2021-04-22 14:05:38,708 DEBUG scheduler Queued events for site my_site
2021-04-22 14:06:39,067 DEBUG scheduler Queued events for site my_site
2021-04-22 14:07:39,362 DEBUG scheduler Queued events for site my_site
2021-04-22 14:08:39,738 DEBUG scheduler Queued events for site my_site
2021-04-22 14:09:40,060 DEBUG scheduler Queued events for site my_site
2021-04-22 14:10:40,356 DEBUG scheduler Queued events for site my_site
2021-04-22 14:11:40,771 DEBUG scheduler Queued events for site my_site
2021-04-22 14:12:41,072 DEBUG scheduler Queued events for site my_site
2021-04-22 14:13:41,396 DEBUG scheduler Queued events for site my_site
2021-04-22 14:14:41,663 DEBUG scheduler Queued events for site my_site
2021-04-22 14:15:41,935 DEBUG scheduler Queued events for site my_site
2021-04-22 14:16:42,396 DEBUG scheduler Queued events for site my_site
2021-04-22 14:17:42,687 DEBUG scheduler Queued events for site my_site
2021-04-22 14:18:42,988 DEBUG scheduler Queued events for site my_site
2021-04-22 14:19:43,251 DEBUG scheduler Queued events for site my_site
2021-04-22 14:20:43,637 DEBUG scheduler Queued events for site my_site
2021-04-22 14:21:43,919 DEBUG scheduler Queued events for site my_site
2021-04-22 14:22:44,185 DEBUG scheduler Queued events for site my_site
2021-04-22 14:23:44,450 DEBUG scheduler Queued events for site my_site
2021-04-22 14:24:44,748 DEBUG scheduler Queued events for site my_site
2021-04-22 14:25:45,231 DEBUG scheduler Queued events for site my_site
2021-04-22 14:26:45,498 DEBUG scheduler Queued events for site my_site
2021-04-22 14:27:45,731 DEBUG scheduler Queued events for site my_site
2021-04-22 14:52:32,140 DEBUG scheduler Queued events for site my_site
2021-04-22 14:53:32,446 DEBUG scheduler Queued events for site my_site
2021-04-22 14:54:32,697 DEBUG scheduler Queued events for site my_site
2021-04-22 14:55:33,023 DEBUG scheduler Queued events for site my_site
2021-04-22 14:56:33,339 DEBUG scheduler Queued events for site my_site
2021-04-22 14:57:33,695 DEBUG scheduler Queued events for site my_site
2021-04-22 14:58:33,936 DEBUG scheduler Queued events for site my_site
2021-04-22 14:59:34,196 DEBUG scheduler Queued events for site my_site
2021-04-22 15:00:34,613 DEBUG scheduler Queued events for site my_site
2021-04-22 15:01:34,861 DEBUG scheduler Queued events for site my_site
2021-04-22 15:02:35,129 DEBUG scheduler Queued events for site my_site
2021-04-22 15:03:35,360 DEBUG scheduler Queued events for site my_site
2021-04-22 15:04:35,652 DEBUG scheduler Queued events for site my_site
2021-04-22 15:05:35,915 DEBUG scheduler Queued events for site my_site
2021-04-22 15:06:36,150 DEBUG scheduler Queued events for site my_site
2021-04-22 15:07:36,385 DEBUG scheduler Queued events for site my_site
2021-04-22 15:08:36,658 DEBUG scheduler Queued events for site my_site
2021-04-22 15:09:36,909 DEBUG scheduler Queued events for site my_site
2021-04-22 15:10:37,147 DEBUG scheduler Queued events for site my_site
2021-04-22 15:11:37,397 DEBUG scheduler Queued events for site my_site
2021-04-22 15:12:37,897 DEBUG scheduler Queued events for site my_site
2021-04-22 15:13:38,169 DEBUG scheduler Queued events for site my_site
2021-04-22 15:14:38,417 DEBUG scheduler Queued events for site my_site
2021-04-22 15:15:38,703 DEBUG scheduler Queued events for site my_site
2021-04-22 15:16:39,086 DEBUG scheduler Queued events for site my_site
2021-04-22 15:17:39,349 DEBUG scheduler Queued events for site my_site
2021-04-22 15:18:39,604 DEBUG scheduler Queued events for site my_site
2021-04-22 15:19:39,852 DEBUG scheduler Queued events for site my_site
2021-04-22 15:20:40,121 DEBUG scheduler Queued events for site my_site
2021-04-22 15:21:40,382 DEBUG scheduler Queued events for site my_site
2021-04-22 15:22:40,628 DEBUG scheduler Queued events for site my_site
2021-04-22 15:23:40,967 DEBUG scheduler Queued events for site my_site
2021-04-22 15:24:41,268 DEBUG scheduler Queued events for site my_site
2021-04-22 15:25:41,518 DEBUG scheduler Queued events for site my_site
2021-04-22 15:26:41,765 DEBUG scheduler Queued events for site my_site
2021-04-22 15:27:42,003 DEBUG scheduler Queued events for site my_site
2021-04-22 15:28:42,310 DEBUG scheduler Queued events for site my_site
2021-04-22 15:29:42,633 DEBUG scheduler Queued events for site my_site
2021-04-22 15:30:42,901 DEBUG scheduler Queued events for site my_site
2021-04-22 15:31:43,178 DEBUG scheduler Queued events for site my_site
2021-04-22 15:32:43,462 DEBUG scheduler Queued events for site my_site
2021-04-22 15:33:43,717 DEBUG scheduler Queued events for site my_site
2021-04-22 15:34:43,951 DEBUG scheduler Queued events for site my_site
2021-04-22 15:35:44,269 DEBUG scheduler Queued events for site my_site
2021-04-22 15:36:44,671 DEBUG scheduler Queued events for site my_site
2021-04-22 15:37:44,945 DEBUG scheduler Queued events for site my_site
2021-04-22 15:38:45,174 DEBUG scheduler Queued events for site my_site
2021-04-22 15:39:45,441 DEBUG scheduler Queued events for site my_site
2021-04-22 15:40:45,760 DEBUG scheduler Queued events for site my_site
2021-04-22 15:41:46,023 DEBUG scheduler Queued events for site my_site
2021-04-22 15:42:46,260 DEBUG scheduler Queued events for site my_site
2021-04-22 15:43:46,496 DEBUG scheduler Queued events for site my_site
2021-04-22 15:44:46,808 DEBUG scheduler Queued events for site my_site
2021-04-22 15:45:47,088 DEBUG scheduler Queued events for site my_site
2021-04-22 15:46:47,394 DEBUG scheduler Queued events for site my_site
2021-04-22 15:47:47,705 DEBUG scheduler Queued events for site my_site
2021-04-22 15:48:47,989 DEBUG scheduler Queued events for site my_site
2021-04-22 15:49:48,238 DEBUG scheduler Queued events for site my_site
2021-04-22 15:50:48,477 DEBUG scheduler Queued events for site my_site
2021-04-22 15:51:48,721 DEBUG scheduler Queued events for site my_site
2021-04-22 15:52:49,033 DEBUG scheduler Queued events for site my_site
2021-04-22 15:53:49,290 DEBUG scheduler Queued events for site my_site
2021-04-22 15:54:49,534 DEBUG scheduler Queued events for site my_site
2021-04-22 15:55:49,781 DEBUG scheduler Queued events for site my_site
2021-04-22 15:56:50,124 DEBUG scheduler Queued events for site my_site
2021-04-22 15:57:50,376 DEBUG scheduler Queued events for site my_site
2021-04-22 15:58:50,656 DEBUG scheduler Queued events for site my_site
2021-04-22 15:59:50,894 DEBUG scheduler Queued events for site my_site
2021-04-22 16:00:51,253 DEBUG scheduler Queued events for site my_site
2021-04-22 16:01:51,511 DEBUG scheduler Queued events for site my_site
2021-04-22 16:02:51,922 DEBUG scheduler Queued events for site my_site
2021-04-22 16:03:52,159 DEBUG scheduler Queued events for site my_site
2021-04-22 16:04:52,492 DEBUG scheduler Queued events for site my_site
2021-04-22 16:05:52,740 DEBUG scheduler Queued events for site my_site
2021-04-22 16:06:52,975 DEBUG scheduler Queued events for site my_site
2021-04-22 16:07:53,266 DEBUG scheduler Queued events for site my_site
2021-04-22 16:08:53,613 DEBUG scheduler Queued events for site my_site
2021-04-22 16:09:53,945 DEBUG scheduler Queued events for site my_site
2021-04-22 16:10:54,190 DEBUG scheduler Queued events for site my_site
2021-04-22 16:11:54,443 DEBUG scheduler Queued events for site my_site
2021-04-22 16:12:54,776 DEBUG scheduler Queued events for site my_site
2021-04-22 16:13:55,031 DEBUG scheduler Queued events for site my_site
2021-04-22 16:14:55,319 DEBUG scheduler Queued events for site my_site
2021-04-22 16:15:55,575 DEBUG scheduler Queued events for site my_site
2021-04-22 16:16:55,987 DEBUG scheduler Queued events for site my_site
2021-04-22 16:17:56,292 DEBUG scheduler Queued events for site my_site
2021-04-22 16:18:56,579 DEBUG scheduler Queued events for site my_site
2021-04-22 16:19:56,820 DEBUG scheduler Queued events for site my_site
2021-04-22 16:20:57,103 DEBUG scheduler Queued events for site my_site
2021-04-22 16:21:57,375 DEBUG scheduler Queued events for site my_site
2021-04-22 16:22:57,683 DEBUG scheduler Queued events for site my_site
2021-04-22 16:23:57,945 DEBUG scheduler Queued events for site my_site
2021-04-22 16:24:58,232 DEBUG scheduler Queued events for site my_site
2021-04-22 16:25:58,486 DEBUG scheduler Queued events for site my_site
2021-04-22 16:26:58,763 DEBUG scheduler Queued events for site my_site
2021-04-22 16:27:59,001 DEBUG scheduler Queued events for site my_site
2021-04-22 16:28:59,367 DEBUG scheduler Queued events for site my_site
2021-04-22 16:29:59,648 DEBUG scheduler Queued events for site my_site
2021-04-22 16:30:59,966 DEBUG scheduler Queued events for site my_site
2021-04-22 16:32:00,359 DEBUG scheduler Queued events for site my_site
2021-04-22 16:33:00,621 DEBUG scheduler Queued events for site my_site
2021-04-22 16:34:00,901 DEBUG scheduler Queued events for site my_site
2021-04-22 16:35:01,131 DEBUG scheduler Queued events for site my_site
2021-04-22 16:36:01,409 DEBUG scheduler Queued events for site my_site
2021-04-22 16:37:01,669 DEBUG scheduler Queued events for site my_site
2021-04-22 16:38:01,915 DEBUG scheduler Queued events for site my_site
2021-04-22 16:39:02,177 DEBUG scheduler Queued events for site my_site
2021-04-22 16:40:02,443 DEBUG scheduler Queued events for site my_site
2021-04-22 16:41:02,690 DEBUG scheduler Queued events for site my_site
2021-04-22 16:42:02,998 DEBUG scheduler Queued events for site my_site
2021-04-22 16:43:03,232 DEBUG scheduler Queued events for site my_site
2021-04-22 16:44:03,534 DEBUG scheduler Queued events for site my_site
2021-04-22 16:45:03,805 DEBUG scheduler Queued events for site my_site
2021-04-22 16:46:04,070 DEBUG scheduler Queued events for site my_site
2021-04-22 16:47:04,307 DEBUG scheduler Queued events for site my_site
2021-04-22 16:48:04,686 DEBUG scheduler Queued events for site my_site
2021-04-22 16:49:04,958 DEBUG scheduler Queued events for site my_site
2021-04-22 16:50:05,190 DEBUG scheduler Queued events for site my_site
2021-04-22 16:51:05,440 DEBUG scheduler Queued events for site my_site
2021-04-22 16:52:05,713 DEBUG scheduler Queued events for site my_site
2021-04-22 16:53:05,961 DEBUG scheduler Queued events for site my_site
2021-04-22 16:54:06,248 DEBUG scheduler Queued events for site my_site
2021-04-22 16:55:06,495 DEBUG scheduler Queued events for site my_site
2021-04-22 16:56:06,760 DEBUG scheduler Queued events for site my_site
2021-04-22 16:57:07,021 DEBUG scheduler Queued events for site my_site
2021-04-22 16:58:07,264 DEBUG scheduler Queued events for site my_site
2021-04-22 16:59:07,503 DEBUG scheduler Queued events for site my_site
2021-04-22 17:00:08,105 DEBUG scheduler Queued events for site my_site
2021-04-22 17:01:08,553 DEBUG scheduler Queued events for site my_site
2021-04-22 17:02:08,806 DEBUG scheduler Queued events for site my_site
2021-04-22 17:03:09,040 DEBUG scheduler Queued events for site my_site
2021-04-22 17:04:09,572 DEBUG scheduler Queued events for site my_site
2021-04-22 17:13:19,397 DEBUG scheduler Queued events for site my_site
2021-04-22 17:14:19,647 DEBUG scheduler Queued events for site my_site
2021-04-22 17:15:19,926 DEBUG scheduler Queued events for site my_site
2021-04-22 17:16:20,961 DEBUG scheduler Queued events for site my_site
2021-04-22 17:17:21,288 DEBUG scheduler Queued events for site my_site
2021-04-22 17:18:21,600 DEBUG scheduler Queued events for site my_site
2021-04-22 17:19:21,885 DEBUG scheduler Queued events for site my_site
2021-04-22 17:20:22,299 DEBUG scheduler Queued events for site my_site
2021-04-22 17:21:22,618 DEBUG scheduler Queued events for site my_site
2021-04-22 17:22:22,920 DEBUG scheduler Queued events for site my_site
2021-04-22 17:23:23,164 DEBUG scheduler Queued events for site my_site
2021-04-22 17:24:23,437 DEBUG scheduler Queued events for site my_site
2021-04-22 17:25:23,700 DEBUG scheduler Queued events for site my_site
2021-04-22 17:26:23,935 DEBUG scheduler Queued events for site my_site
2021-04-22 17:27:24,170 DEBUG scheduler Queued events for site my_site
2021-04-22 17:28:24,447 DEBUG scheduler Queued events for site my_site
2021-04-22 17:29:24,692 DEBUG scheduler Queued events for site my_site
2021-04-22 17:30:25,014 DEBUG scheduler Queued events for site my_site
2021-04-22 17:31:25,261 DEBUG scheduler Queued events for site my_site
2021-04-22 17:32:25,547 DEBUG scheduler Queued events for site my_site
2021-04-22 17:33:25,809 DEBUG scheduler Queued events for site my_site
2021-04-22 17:34:26,042 DEBUG scheduler Queued events for site my_site
2021-04-22 17:35:26,288 DEBUG scheduler Queued events for site my_site
2021-04-22 17:36:26,664 DEBUG scheduler Queued events for site my_site
2021-04-22 17:37:26,980 DEBUG scheduler Queued events for site my_site
2021-04-22 17:38:27,266 DEBUG scheduler Queued events for site my_site
2021-04-22 17:39:27,536 DEBUG scheduler Queued events for site my_site
2021-04-22 17:40:27,918 DEBUG scheduler Queued events for site my_site
2021-04-22 17:41:28,202 DEBUG scheduler Queued events for site my_site
2021-04-22 17:42:28,456 DEBUG scheduler Queued events for site my_site
2021-04-22 17:43:28,924 DEBUG scheduler Queued events for site my_site
2021-04-22 17:44:29,382 DEBUG scheduler Queued events for site my_site
2021-04-22 17:45:29,645 DEBUG scheduler Queued events for site my_site
2021-04-22 17:46:29,925 DEBUG scheduler Queued events for site my_site
2021-04-22 17:47:30,177 DEBUG scheduler Queued events for site my_site
2021-04-22 17:48:30,555 DEBUG scheduler Queued events for site my_site
2021-04-22 17:49:30,809 DEBUG scheduler Queued events for site my_site
2021-04-22 17:50:31,061 DEBUG scheduler Queued events for site my_site
2021-04-22 17:51:31,406 DEBUG scheduler Queued events for site my_site
2021-04-22 17:52:31,709 DEBUG scheduler Queued events for site my_site
2021-04-22 17:53:31,965 DEBUG scheduler Queued events for site my_site
2021-04-22 17:54:32,245 DEBUG scheduler Queued events for site my_site
2021-04-22 17:55:32,496 DEBUG scheduler Queued events for site my_site
2021-04-22 17:56:32,763 DEBUG scheduler Queued events for site my_site
2021-04-22 17:57:33,062 DEBUG scheduler Queued events for site my_site
2021-04-22 17:58:33,296 DEBUG scheduler Queued events for site my_site
2021-04-22 17:59:33,552 DEBUG scheduler Queued events for site my_site
2021-04-22 18:00:34,214 DEBUG scheduler Queued events for site my_site
2021-04-22 18:01:34,665 DEBUG scheduler Queued events for site my_site
2021-04-22 18:02:34,980 DEBUG scheduler Queued events for site my_site
2021-04-22 18:03:35,230 DEBUG scheduler Queued events for site my_site
2021-04-22 18:04:35,590 DEBUG scheduler Queued events for site my_site
2021-04-22 18:05:35,960 DEBUG scheduler Queued events for site my_site
2021-04-22 18:06:36,206 DEBUG scheduler Queued events for site my_site
2021-04-22 18:07:36,453 DEBUG scheduler Queued events for site my_site
2021-04-22 18:08:36,893 DEBUG scheduler Queued events for site my_site
2021-04-22 18:09:37,152 DEBUG scheduler Queued events for site my_site
2021-04-22 18:10:37,523 DEBUG scheduler Queued events for site my_site
2021-04-22 18:11:37,781 DEBUG scheduler Queued events for site my_site
2021-04-22 18:12:38,090 DEBUG scheduler Queued events for site my_site
2021-04-22 18:13:38,343 DEBUG scheduler Queued events for site my_site
2021-04-22 18:14:38,666 DEBUG scheduler Queued events for site my_site
2021-04-22 18:15:39,029 DEBUG scheduler Queued events for site my_site
2021-04-22 18:16:39,340 DEBUG scheduler Queued events for site my_site
2021-04-22 18:17:39,587 DEBUG scheduler Queued events for site my_site
2021-04-22 18:18:39,824 DEBUG scheduler Queued events for site my_site
2021-04-22 18:19:40,072 DEBUG scheduler Queued events for site my_site
2021-04-22 18:20:40,353 DEBUG scheduler Queued events for site my_site
2021-04-22 18:21:40,601 DEBUG scheduler Queued events for site my_site
2021-04-22 18:22:40,841 DEBUG scheduler Queued events for site my_site
2021-04-22 18:23:41,079 DEBUG scheduler Queued events for site my_site
2021-04-22 18:24:41,375 DEBUG scheduler Queued events for site my_site
2021-04-22 18:25:41,623 DEBUG scheduler Queued events for site my_site
2021-04-22 18:26:42,003 DEBUG scheduler Queued events for site my_site
2021-04-22 18:27:42,244 DEBUG scheduler Queued events for site my_site
2021-04-22 18:28:42,807 DEBUG scheduler Queued events for site my_site
2021-04-22 18:29:43,063 DEBUG scheduler Queued events for site my_site
2021-04-22 18:30:43,380 DEBUG scheduler Queued events for site my_site
2021-04-22 18:31:43,632 DEBUG scheduler Queued events for site my_site
2021-04-22 18:32:43,913 DEBUG scheduler Queued events for site my_site
2021-04-22 18:33:44,185 DEBUG scheduler Queued events for site my_site
2021-04-22 18:34:44,418 DEBUG scheduler Queued events for site my_site
2021-04-22 18:35:44,801 DEBUG scheduler Queued events for site my_site
2021-04-22 18:36:45,097 DEBUG scheduler Queued events for site my_site
2021-04-22 18:37:45,354 DEBUG scheduler Queued events for site my_site
2021-04-22 18:38:45,646 DEBUG scheduler Queued events for site my_site
2021-04-22 18:39:45,881 DEBUG scheduler Queued events for site my_site
2021-04-22 18:40:46,172 DEBUG scheduler Queued events for site my_site
2021-04-22 18:41:46,434 DEBUG scheduler Queued events for site my_site
2021-04-22 18:42:46,675 DEBUG scheduler Queued events for site my_site
2021-04-22 18:43:46,913 DEBUG scheduler Queued events for site my_site
2021-04-22 18:44:47,327 DEBUG scheduler Queued events for site my_site
2021-04-22 18:45:47,616 DEBUG scheduler Queued events for site my_site
2021-04-22 18:46:47,952 DEBUG scheduler Queued events for site my_site
2021-04-22 18:47:48,225 DEBUG scheduler Queued events for site my_site
2021-04-22 18:48:48,516 DEBUG scheduler Queued events for site my_site
2021-04-22 18:49:48,764 DEBUG scheduler Queued events for site my_site
2021-04-22 18:50:49,082 DEBUG scheduler Queued events for site my_site
2021-04-22 18:51:49,318 DEBUG scheduler Queued events for site my_site
2021-04-22 18:52:49,593 DEBUG scheduler Queued events for site my_site
2021-04-22 18:53:49,857 DEBUG scheduler Queued events for site my_site
2021-04-22 18:54:50,188 DEBUG scheduler Queued events for site my_site
2021-04-22 18:55:50,446 DEBUG scheduler Queued events for site my_site
2021-04-22 18:56:50,748 DEBUG scheduler Queued events for site my_site
2021-04-22 18:57:51,008 DEBUG scheduler Queued events for site my_site
2021-04-22 18:58:51,259 DEBUG scheduler Queued events for site my_site
2021-04-22 18:59:51,559 DEBUG scheduler Queued events for site my_site
2021-04-22 19:00:51,936 DEBUG scheduler Queued events for site my_site
2021-04-22 19:01:52,188 DEBUG scheduler Queued events for site my_site
2021-04-22 19:02:52,456 DEBUG scheduler Queued events for site my_site
2021-04-22 19:03:52,717 DEBUG scheduler Queued events for site my_site
2021-04-22 19:04:53,023 DEBUG scheduler Queued events for site my_site
2021-04-22 19:05:53,380 DEBUG scheduler Queued events for site my_site
2021-04-22 19:06:53,615 DEBUG scheduler Queued events for site my_site
2021-04-22 19:46:55,363 DEBUG scheduler Queued events for site my_site
2021-04-22 19:47:55,624 DEBUG scheduler Queued events for site my_site
2021-04-22 19:48:55,925 DEBUG scheduler Queued events for site my_site
2021-04-22 19:49:56,175 DEBUG scheduler Queued events for site my_site
2021-04-22 22:06:23,446 DEBUG scheduler Queued events for site my_site
2021-04-22 22:07:23,694 DEBUG scheduler Queued events for site my_site
2021-04-22 22:08:23,970 DEBUG scheduler Queued events for site my_site
2021-04-22 22:09:24,217 DEBUG scheduler Queued events for site my_site
2021-04-22 22:10:24,453 DEBUG scheduler Queued events for site my_site
2021-04-22 22:11:24,687 DEBUG scheduler Queued events for site my_site
2021-04-22 22:12:24,996 DEBUG scheduler Queued events for site my_site
2021-04-22 22:13:25,240 DEBUG scheduler Queued events for site my_site
2021-04-22 22:14:25,574 DEBUG scheduler Queued events for site my_site
2021-04-22 22:15:26,077 DEBUG scheduler Queued events for site my_site
2021-04-22 22:16:26,366 DEBUG scheduler Queued events for site my_site
2021-04-22 22:17:26,605 DEBUG scheduler Queued events for site my_site
2021-04-22 22:18:26,840 DEBUG scheduler Queued events for site my_site
2021-04-22 22:19:27,074 DEBUG scheduler Queued events for site my_site
2021-04-22 22:20:27,347 DEBUG scheduler Queued events for site my_site
2021-04-22 22:21:27,594 DEBUG scheduler Queued events for site my_site
2021-04-22 22:22:27,829 DEBUG scheduler Queued events for site my_site
2021-04-22 22:23:28,060 DEBUG scheduler Queued events for site my_site
2021-04-22 22:24:28,374 DEBUG scheduler Queued events for site my_site
2021-04-22 22:25:28,619 DEBUG scheduler Queued events for site my_site
2021-04-22 22:26:28,851 DEBUG scheduler Queued events for site my_site
2021-04-22 22:27:29,075 DEBUG scheduler Queued events for site my_site
2021-04-22 22:28:29,353 DEBUG scheduler Queued events for site my_site
2021-04-22 22:29:29,600 DEBUG scheduler Queued events for site my_site
2021-04-22 22:30:29,858 DEBUG scheduler Queued events for site my_site
2021-04-22 22:31:30,111 DEBUG scheduler Queued events for site my_site
2021-04-22 22:32:30,390 DEBUG scheduler Queued events for site my_site
2021-04-22 22:33:30,627 DEBUG scheduler Queued events for site my_site
2021-04-22 22:34:30,866 DEBUG scheduler Queued events for site my_site
2021-04-22 22:35:31,091 DEBUG scheduler Queued events for site my_site
2021-04-22 22:36:31,391 DEBUG scheduler Queued events for site my_site
2021-04-22 22:37:31,646 DEBUG scheduler Queued events for site my_site
2021-04-22 22:38:31,884 DEBUG scheduler Queued events for site my_site
2021-04-22 22:39:32,122 DEBUG scheduler Queued events for site my_site
2021-04-22 22:40:32,431 DEBUG scheduler Queued events for site my_site
2021-04-22 22:41:33,269 DEBUG scheduler Queued events for site my_site
2021-04-22 22:42:33,504 DEBUG scheduler Queued events for site my_site
2021-04-22 22:43:33,728 DEBUG scheduler Queued events for site my_site
2021-04-22 22:44:34,039 DEBUG scheduler Queued events for site my_site
2021-04-22 22:45:34,307 DEBUG scheduler Queued events for site my_site
2021-04-22 22:46:34,573 DEBUG scheduler Queued events for site my_site
2021-04-22 22:47:34,810 DEBUG scheduler Queued events for site my_site
2021-04-22 22:48:35,082 DEBUG scheduler Queued events for site my_site
2021-04-22 22:49:35,329 DEBUG scheduler Queued events for site my_site
2021-04-22 22:50:35,564 DEBUG scheduler Queued events for site my_site
2021-04-22 22:51:35,799 DEBUG scheduler Queued events for site my_site
2021-04-23 10:00:36,551 DEBUG scheduler Queued events for site my_site
2021-04-23 10:01:37,044 DEBUG scheduler Queued events for site my_site
2021-04-23 10:02:37,342 DEBUG scheduler Queued events for site my_site
2021-04-23 10:03:37,575 DEBUG scheduler Queued events for site my_site
2021-04-23 10:04:37,968 DEBUG scheduler Queued events for site my_site
2021-04-23 10:05:38,353 DEBUG scheduler Queued events for site my_site
2021-04-23 10:06:39,163 DEBUG scheduler Queued events for site my_site
2021-04-23 10:07:39,519 DEBUG scheduler Queued events for site my_site
2021-04-23 10:08:39,864 DEBUG scheduler Queued events for site my_site
2021-04-23 10:09:40,145 DEBUG scheduler Queued events for site my_site
2021-04-23 10:10:40,461 DEBUG scheduler Queued events for site my_site
2021-04-23 10:11:41,379 DEBUG scheduler Queued events for site my_site
2021-04-23 10:12:41,744 DEBUG scheduler Queued events for site my_site
2021-04-23 10:13:42,108 DEBUG scheduler Queued events for site my_site
2021-04-23 10:14:42,466 DEBUG scheduler Queued events for site my_site
2021-04-23 10:15:42,787 DEBUG scheduler Queued events for site my_site
2021-04-23 10:16:43,279 DEBUG scheduler Queued events for site my_site
2021-04-23 10:17:43,584 DEBUG scheduler Queued events for site my_site
2021-04-23 10:18:43,925 DEBUG scheduler Queued events for site my_site
2021-04-23 10:19:44,239 DEBUG scheduler Queued events for site my_site
2021-04-23 10:20:44,630 DEBUG scheduler Queued events for site my_site
2021-04-23 10:21:44,935 DEBUG scheduler Queued events for site my_site
2021-04-23 10:22:45,235 DEBUG scheduler Queued events for site my_site
2021-04-23 10:23:45,571 DEBUG scheduler Queued events for site my_site
2021-04-23 10:24:45,931 DEBUG scheduler Queued events for site my_site
2021-04-23 10:25:46,392 DEBUG scheduler Queued events for site my_site
2021-04-23 10:26:46,703 DEBUG scheduler Queued events for site my_site
2021-04-23 10:27:47,022 DEBUG scheduler Queued events for site my_site
2021-04-23 10:28:47,359 DEBUG scheduler Queued events for site my_site
2021-04-23 10:29:47,637 DEBUG scheduler Queued events for site my_site
2021-04-23 10:30:48,047 DEBUG scheduler Queued events for site my_site
2021-04-23 10:31:48,387 DEBUG scheduler Queued events for site my_site
2021-04-23 10:32:48,723 DEBUG scheduler Queued events for site my_site
2021-04-23 10:33:49,034 DEBUG scheduler Queued events for site my_site
2021-04-23 10:34:49,351 DEBUG scheduler Queued events for site my_site
2021-04-23 10:35:49,583 DEBUG scheduler Queued events for site my_site
2021-04-23 10:36:49,883 DEBUG scheduler Queued events for site my_site
2021-04-23 10:37:50,200 DEBUG scheduler Queued events for site my_site
2021-04-23 10:38:50,455 DEBUG scheduler Queued events for site my_site
2021-04-23 10:39:50,768 DEBUG scheduler Queued events for site my_site
2021-04-23 10:40:51,083 DEBUG scheduler Queued events for site my_site
2021-04-23 10:41:51,339 DEBUG scheduler Queued events for site my_site
2021-04-23 10:42:51,571 DEBUG scheduler Queued events for site my_site
2021-04-23 10:43:51,810 DEBUG scheduler Queued events for site my_site
2021-04-23 10:44:52,154 DEBUG scheduler Queued events for site my_site
2021-04-23 10:45:52,501 DEBUG scheduler Queued events for site my_site
2021-04-23 10:46:52,784 DEBUG scheduler Queued events for site my_site
2021-04-23 10:47:53,025 DEBUG scheduler Queued events for site my_site
2021-04-23 10:48:53,299 DEBUG scheduler Queued events for site my_site
2021-04-23 10:49:53,554 DEBUG scheduler Queued events for site my_site
2021-04-23 10:50:53,804 DEBUG scheduler Queued events for site my_site
2021-04-23 10:51:54,058 DEBUG scheduler Queued events for site my_site
2021-04-23 10:52:54,443 DEBUG scheduler Queued events for site my_site
2021-04-23 10:53:54,689 DEBUG scheduler Queued events for site my_site
2021-04-23 10:54:55,041 DEBUG scheduler Queued events for site my_site
2021-04-23 10:55:55,355 DEBUG scheduler Queued events for site my_site
2021-04-23 10:56:55,635 DEBUG scheduler Queued events for site my_site
2021-04-23 10:57:55,928 DEBUG scheduler Queued events for site my_site
2021-04-23 10:58:56,176 DEBUG scheduler Queued events for site my_site
2021-04-23 10:59:56,416 DEBUG scheduler Queued events for site my_site
2021-04-23 11:00:56,876 DEBUG scheduler Queued events for site my_site
2021-04-23 11:01:57,237 DEBUG scheduler Queued events for site my_site
2021-04-23 11:02:57,501 DEBUG scheduler Queued events for site my_site
2021-04-23 11:03:57,826 DEBUG scheduler Queued events for site my_site
2021-04-23 11:04:58,115 DEBUG scheduler Queued events for site my_site
2021-04-23 11:05:58,364 DEBUG scheduler Queued events for site my_site
2021-04-23 11:06:58,600 DEBUG scheduler Queued events for site my_site
2021-04-23 11:07:58,839 DEBUG scheduler Queued events for site my_site
2021-04-23 11:08:59,118 DEBUG scheduler Queued events for site my_site
2021-04-23 11:09:59,411 DEBUG scheduler Queued events for site my_site
2021-04-23 11:10:59,681 DEBUG scheduler Queued events for site my_site
2021-04-23 11:12:00,018 DEBUG scheduler Queued events for site my_site
2021-04-23 11:13:00,373 DEBUG scheduler Queued events for site my_site
2021-04-23 11:14:00,646 DEBUG scheduler Queued events for site my_site
2021-04-23 11:15:00,923 DEBUG scheduler Queued events for site my_site
2021-04-23 11:16:01,498 DEBUG scheduler Queued events for site my_site
2021-04-23 11:17:01,766 DEBUG scheduler Queued events for site my_site
2021-04-23 11:18:02,046 DEBUG scheduler Queued events for site my_site
2021-04-23 11:19:02,331 DEBUG scheduler Queued events for site my_site
2021-04-23 11:20:02,901 DEBUG scheduler Queued events for site my_site
2021-04-23 11:21:03,383 DEBUG scheduler Queued events for site my_site
2021-04-23 11:22:03,643 DEBUG scheduler Queued events for site my_site
2021-04-23 11:23:03,985 DEBUG scheduler Queued events for site my_site
2021-04-23 11:24:04,299 DEBUG scheduler Queued events for site my_site
2021-04-23 11:25:04,577 DEBUG scheduler Queued events for site my_site
2021-04-23 11:26:04,922 DEBUG scheduler Queued events for site my_site
2021-04-23 11:27:05,377 DEBUG scheduler Queued events for site my_site
2021-04-23 11:28:05,713 DEBUG scheduler Queued events for site my_site
2021-04-23 11:29:06,036 DEBUG scheduler Queued events for site my_site
2021-04-23 11:30:06,362 DEBUG scheduler Queued events for site my_site
2021-04-23 11:31:06,675 DEBUG scheduler Queued events for site my_site
2021-04-23 11:32:07,009 DEBUG scheduler Queued events for site my_site
2021-04-23 11:33:07,268 DEBUG scheduler Queued events for site my_site
2021-04-23 11:34:07,507 DEBUG scheduler Queued events for site my_site
2021-04-23 11:35:07,750 DEBUG scheduler Queued events for site my_site
2021-04-23 11:36:08,078 DEBUG scheduler Queued events for site my_site
2021-04-23 11:37:08,363 DEBUG scheduler Queued events for site my_site
2021-04-23 11:38:08,590 DEBUG scheduler Queued events for site my_site
2021-04-23 11:39:08,899 DEBUG scheduler Queued events for site my_site
2021-04-23 11:40:09,159 DEBUG scheduler Queued events for site my_site
2021-04-23 11:41:09,418 DEBUG scheduler Queued events for site my_site
2021-04-23 11:42:09,644 DEBUG scheduler Queued events for site my_site
2021-04-23 11:43:09,885 DEBUG scheduler Queued events for site my_site
2021-04-23 11:44:10,180 DEBUG scheduler Queued events for site my_site
2021-04-23 11:45:10,447 DEBUG scheduler Queued events for site my_site
2021-04-23 11:46:10,700 DEBUG scheduler Queued events for site my_site
2021-04-23 11:47:10,973 DEBUG scheduler Queued events for site my_site
2021-04-23 11:48:11,246 DEBUG scheduler Queued events for site my_site
2021-04-23 11:49:11,494 DEBUG scheduler Queued events for site my_site
2021-04-23 11:50:11,724 DEBUG scheduler Queued events for site my_site
2021-04-23 11:51:11,972 DEBUG scheduler Queued events for site my_site
2021-04-23 11:52:12,306 DEBUG scheduler Queued events for site my_site
2021-04-23 11:53:12,554 DEBUG scheduler Queued events for site my_site
2021-04-23 11:54:12,809 DEBUG scheduler Queued events for site my_site
2021-04-23 11:55:13,048 DEBUG scheduler Queued events for site my_site
2021-04-23 11:56:13,382 DEBUG scheduler Queued events for site my_site
2021-04-23 11:57:13,713 DEBUG scheduler Queued events for site my_site
2021-04-23 11:58:14,052 DEBUG scheduler Queued events for site my_site
2021-04-23 11:59:14,386 DEBUG scheduler Queued events for site my_site
2021-04-23 12:00:14,846 DEBUG scheduler Queued events for site my_site
2021-04-23 12:01:15,150 DEBUG scheduler Queued events for site my_site
2021-04-23 12:02:15,472 DEBUG scheduler Queued events for site my_site
2021-04-23 12:03:15,778 DEBUG scheduler Queued events for site my_site
2021-04-23 12:04:16,155 DEBUG scheduler Queued events for site my_site
2021-04-23 12:05:16,676 DEBUG scheduler Queued events for site my_site
2021-04-23 12:06:16,951 DEBUG scheduler Queued events for site my_site
2021-04-23 12:07:17,271 DEBUG scheduler Queued events for site my_site
2021-04-23 12:08:17,641 DEBUG scheduler Queued events for site my_site
2021-04-23 12:09:17,968 DEBUG scheduler Queued events for site my_site
2021-04-23 12:10:18,249 DEBUG scheduler Queued events for site my_site
2021-04-23 12:11:18,536 DEBUG scheduler Queued events for site my_site
2021-04-23 12:12:18,943 DEBUG scheduler Queued events for site my_site
2021-04-23 12:13:19,325 DEBUG scheduler Queued events for site my_site
2021-04-23 12:14:19,591 DEBUG scheduler Queued events for site my_site
2021-04-23 12:15:19,840 DEBUG scheduler Queued events for site my_site
2021-04-23 12:16:20,154 DEBUG scheduler Queued events for site my_site
2021-04-23 12:17:20,404 DEBUG scheduler Queued events for site my_site
2021-04-23 12:18:20,641 DEBUG scheduler Queued events for site my_site
2021-04-23 12:19:20,874 DEBUG scheduler Queued events for site my_site
2021-04-23 12:20:21,209 DEBUG scheduler Queued events for site my_site
2021-04-23 12:21:21,522 DEBUG scheduler Queued events for site my_site
2021-04-23 12:22:21,845 DEBUG scheduler Queued events for site my_site
2021-04-23 12:23:22,097 DEBUG scheduler Queued events for site my_site
2021-04-23 12:24:22,396 DEBUG scheduler Queued events for site my_site
2021-04-23 12:25:22,660 DEBUG scheduler Queued events for site my_site
2021-04-23 12:26:22,894 DEBUG scheduler Queued events for site my_site
2021-04-23 12:27:23,135 DEBUG scheduler Queued events for site my_site
2021-04-23 12:28:23,450 DEBUG scheduler Queued events for site my_site
2021-04-23 12:29:23,699 DEBUG scheduler Queued events for site my_site
2021-04-23 12:30:23,920 DEBUG scheduler Queued events for site my_site
2021-04-23 12:31:24,170 DEBUG scheduler Queued events for site my_site
2021-04-23 12:32:24,441 DEBUG scheduler Queued events for site my_site
2021-04-23 12:33:24,751 DEBUG scheduler Queued events for site my_site
2021-04-23 12:34:25,027 DEBUG scheduler Queued events for site my_site
2021-04-23 12:35:25,262 DEBUG scheduler Queued events for site my_site
2021-04-23 12:36:25,543 DEBUG scheduler Queued events for site my_site
2021-04-23 12:37:25,864 DEBUG scheduler Queued events for site my_site
2021-04-23 12:38:26,100 DEBUG scheduler Queued events for site my_site
2021-04-23 12:39:26,390 DEBUG scheduler Queued events for site my_site
2021-04-23 12:40:26,738 DEBUG scheduler Queued events for site my_site
2021-04-23 12:41:27,033 DEBUG scheduler Queued events for site my_site
2021-04-23 12:42:27,284 DEBUG scheduler Queued events for site my_site
2021-04-23 12:43:27,530 DEBUG scheduler Queued events for site my_site
2021-04-23 12:44:28,017 DEBUG scheduler Queued events for site my_site
2021-04-23 12:45:28,348 DEBUG scheduler Queued events for site my_site
2021-04-23 12:46:28,648 DEBUG scheduler Queued events for site my_site
2021-04-23 12:47:29,569 DEBUG scheduler Queued events for site my_site
2021-04-23 12:48:29,925 DEBUG scheduler Queued events for site my_site
2021-04-23 12:49:30,238 DEBUG scheduler Queued events for site my_site
2021-04-23 12:50:30,551 DEBUG scheduler Queued events for site my_site
2021-04-23 12:51:31,502 DEBUG scheduler Queued events for site my_site
2021-04-23 12:52:31,775 DEBUG scheduler Queued events for site my_site
2021-04-23 12:53:32,024 DEBUG scheduler Queued events for site my_site
2021-04-23 12:54:32,339 DEBUG scheduler Queued events for site my_site
2021-04-23 12:55:32,615 DEBUG scheduler Queued events for site my_site
2021-04-23 12:56:32,891 DEBUG scheduler Queued events for site my_site
2021-04-23 12:57:33,155 DEBUG scheduler Queued events for site my_site
2021-04-23 12:58:33,413 DEBUG scheduler Queued events for site my_site
2021-04-23 12:59:33,699 DEBUG scheduler Queued events for site my_site
2021-04-23 13:00:34,297 INFO scheduler Scheduled Job Start: frappe.integrations.doctype.google_drive.google_drive.daily_backup for my_site
2021-04-23 13:00:35,244 INFO scheduler Scheduled Job Complete: frappe.integrations.doctype.google_drive.google_drive.daily_backup for my_site
2021-04-23 13:00:35,271 DEBUG scheduler Queued events for site my_site
2021-04-23 13:00:35,366 INFO scheduler Scheduled Job Start: frappe.integrations.doctype.s3_backup_settings.s3_backup_settings.take_backups_daily for my_site
2021-04-23 13:00:35,926 INFO scheduler Scheduled Job Complete: frappe.integrations.doctype.s3_backup_settings.s3_backup_settings.take_backups_daily for my_site
2021-04-23 13:00:36,014 INFO scheduler Scheduled Job Start: frappe.utils.change_log.check_for_update for my_site
2021-04-23 13:00:39,587 INFO scheduler Scheduled Job Failed: frappe.utils.change_log.check_for_update for my_site
2021-04-23 13:00:39,684 INFO scheduler Scheduled Job Start: frappe.integrations.doctype.dropbox_settings.dropbox_settings.take_backups_daily for my_site
2021-04-23 13:00:40,395 INFO scheduler Scheduled Job Complete: frappe.integrations.doctype.dropbox_settings.dropbox_settings.take_backups_daily for my_site
2021-04-23 13:00:42,393 INFO scheduler Scheduled Job Start: frappe.core.doctype.log_settings.log_settings.run_log_clean_up for my_site
2021-04-23 13:00:42,839 INFO scheduler Scheduled Job Complete: frappe.core.doctype.log_settings.log_settings.run_log_clean_up for my_site
2021-04-23 13:00:42,923 INFO scheduler Scheduled Job Start: frappe.core.doctype.prepared_report.prepared_report.delete_expired_prepared_reports for my_site
2021-04-23 13:00:43,367 INFO scheduler Scheduled Job Complete: frappe.core.doctype.prepared_report.prepared_report.delete_expired_prepared_reports for my_site
2021-04-23 13:00:43,459 INFO scheduler Scheduled Job Start: frappe.email.doctype.unhandled_email.unhandled_email.remove_old_unhandled_emails for my_site
2021-04-23 13:00:43,844 INFO scheduler Scheduled Job Complete: frappe.email.doctype.unhandled_email.unhandled_email.remove_old_unhandled_emails for my_site
2021-04-23 13:00:43,928 INFO scheduler Scheduled Job Start: frappe.automation.doctype.auto_repeat.auto_repeat.set_auto_repeat_as_completed for my_site
2021-04-23 13:00:44,367 INFO scheduler Scheduled Job Complete: frappe.automation.doctype.auto_repeat.auto_repeat.set_auto_repeat_as_completed for my_site
2021-04-23 13:00:44,460 INFO scheduler Scheduled Job Start: frappe.automation.doctype.auto_repeat.auto_repeat.make_auto_repeat_entry for my_site
2021-04-23 13:00:44,881 INFO scheduler Scheduled Job Complete: frappe.automation.doctype.auto_repeat.auto_repeat.make_auto_repeat_entry for my_site
2021-04-23 13:00:44,967 INFO scheduler Scheduled Job Start: frappe.integrations.doctype.google_contacts.google_contacts.sync for my_site
2021-04-23 13:00:45,545 INFO scheduler Scheduled Job Complete: frappe.integrations.doctype.google_contacts.google_contacts.sync for my_site
2021-04-23 13:00:45,631 INFO scheduler Scheduled Job Start: frappe.social.doctype.energy_point_settings.energy_point_settings.allocate_review_points for my_site
2021-04-23 13:00:46,009 INFO scheduler Scheduled Job Complete: frappe.social.doctype.energy_point_settings.energy_point_settings.allocate_review_points for my_site
2021-04-23 13:00:46,099 INFO scheduler Scheduled Job Start: frappe.desk.form.document_follow.send_daily_updates for my_site
2021-04-23 13:00:46,482 INFO scheduler Scheduled Job Complete: frappe.desk.form.document_follow.send_daily_updates for my_site
2021-04-23 13:00:46,565 INFO scheduler Scheduled Job Start: frappe.website.doctype.personal_data_deletion_request.personal_data_deletion_request.remove_unverified_record for my_site
2021-04-23 13:00:46,942 INFO scheduler Scheduled Job Complete: frappe.website.doctype.personal_data_deletion_request.personal_data_deletion_request.remove_unverified_record for my_site
2021-04-23 13:00:47,028 INFO scheduler Scheduled Job Start: frappe.email.doctype.auto_email_report.auto_email_report.send_daily for my_site
2021-04-23 13:00:48,135 INFO scheduler Scheduled Job Complete: frappe.email.doctype.auto_email_report.auto_email_report.send_daily for my_site
2021-04-23 13:00:48,226 INFO scheduler Scheduled Job Start: frappe.utils.scheduler.restrict_scheduler_events_if_dormant for my_site
2021-04-23 13:00:48,607 INFO scheduler Scheduled Job Failed: frappe.utils.scheduler.restrict_scheduler_events_if_dormant for my_site
2021-04-23 13:00:48,693 INFO scheduler Scheduled Job Start: frappe.realtime.remove_old_task_logs for my_site
2021-04-23 13:00:49,072 INFO scheduler Scheduled Job Complete: frappe.realtime.remove_old_task_logs for my_site
2021-04-23 13:00:49,158 INFO scheduler Scheduled Job Start: frappe.email.doctype.notification.notification.trigger_daily_alerts for my_site
2021-04-23 13:00:49,555 INFO scheduler Scheduled Job Complete: frappe.email.doctype.notification.notification.trigger_daily_alerts for my_site
2021-04-23 13:00:49,637 INFO scheduler Scheduled Job Start: frappe.sessions.clear_expired_sessions for my_site
2021-04-23 13:00:50,025 INFO scheduler Scheduled Job Complete: frappe.sessions.clear_expired_sessions for my_site
2021-04-23 13:00:50,116 INFO scheduler Scheduled Job Start: frappe.desk.doctype.event.event.send_event_digest for my_site
2021-04-23 13:00:50,530 INFO scheduler Scheduled Job Complete: frappe.desk.doctype.event.event.send_event_digest for my_site
2021-04-23 13:00:50,621 INFO scheduler Scheduled Job Start: frappe.core.doctype.error_log.error_log.set_old_logs_as_seen for my_site
2021-04-23 13:00:51,000 INFO scheduler Scheduled Job Complete: frappe.core.doctype.error_log.error_log.set_old_logs_as_seen for my_site
2021-04-23 13:00:51,085 INFO scheduler Scheduled Job Start: frappe.desk.notifications.clear_notifications for my_site
2021-04-23 13:00:51,463 INFO scheduler Scheduled Job Complete: frappe.desk.notifications.clear_notifications for my_site
2021-04-23 13:00:51,549 INFO scheduler Scheduled Job Start: frappe.email.queue.set_expiry_for_email_queue for my_site
2021-04-23 13:00:51,943 INFO scheduler Scheduled Job Complete: frappe.email.queue.set_expiry_for_email_queue for my_site
2021-04-23 13:00:52,029 INFO scheduler Scheduled Job Start: frappe.email.doctype.newsletter.newsletter.send_scheduled_email for my_site
2021-04-23 13:00:52,477 INFO scheduler Scheduled Job Complete: frappe.email.doctype.newsletter.newsletter.send_scheduled_email for my_site
2021-04-23 13:00:52,562 INFO scheduler Scheduled Job Start: frappe.integrations.doctype.google_calendar.google_calendar.sync for my_site
2021-04-23 13:00:53,335 INFO scheduler Scheduled Job Complete: frappe.integrations.doctype.google_calendar.google_calendar.sync for my_site
2021-04-23 13:00:53,445 INFO scheduler Scheduled Job Start: frappe.desk.form.document_follow.send_hourly_updates for my_site
2021-04-23 13:00:53,965 INFO scheduler Scheduled Job Complete: frappe.desk.form.document_follow.send_hourly_updates for my_site
2021-04-23 13:00:54,053 INFO scheduler Scheduled Job Start: frappe.deferred_insert.save_to_db for my_site
2021-04-23 13:00:54,477 INFO scheduler Scheduled Job Complete: frappe.deferred_insert.save_to_db for my_site
2021-04-23 13:00:54,603 INFO scheduler Scheduled Job Start: frappe.desk.page.backups.backups.delete_downloadable_backups for my_site
2021-04-23 13:00:55,084 INFO scheduler Scheduled Job Complete: frappe.desk.page.backups.backups.delete_downloadable_backups for my_site
2021-04-23 13:00:55,172 INFO scheduler Scheduled Job Start: frappe.utils.error.collect_error_snapshots for my_site
2021-04-23 13:00:55,581 INFO scheduler Scheduled Job Complete: frappe.utils.error.collect_error_snapshots for my_site
2021-04-23 13:00:55,704 INFO scheduler Scheduled Job Start: frappe.model.utils.user_settings.sync_user_settings for my_site
2021-04-23 13:00:56,176 INFO scheduler Scheduled Job Complete: frappe.model.utils.user_settings.sync_user_settings for my_site
2021-04-23 13:00:56,263 INFO scheduler Scheduled Job Start: frappe.model.utils.link_count.update_link_count for my_site
2021-04-23 13:00:56,660 INFO scheduler Scheduled Job Complete: frappe.model.utils.link_count.update_link_count for my_site
2021-04-23 13:00:56,787 INFO scheduler Scheduled Job Start: frappe.monitor.flush for my_site
2021-04-23 13:00:56,983 INFO scheduler Scheduled Job Complete: frappe.monitor.flush for my_site
2021-04-23 13:00:57,065 INFO scheduler Scheduled Job Start: frappe.utils.global_search.sync_global_search for my_site
2021-04-23 13:00:57,259 INFO scheduler Scheduled Job Complete: frappe.utils.global_search.sync_global_search for my_site
2021-04-23 13:00:57,334 INFO scheduler Scheduled Job Start: frappe.integrations.doctype.razorpay_settings.razorpay_settings.capture_payment for my_site
2021-04-23 13:00:57,778 INFO scheduler Scheduled Job Complete: frappe.integrations.doctype.razorpay_settings.razorpay_settings.capture_payment for my_site
2021-04-23 13:00:57,873 INFO scheduler Scheduled Job Start: frappe.email.doctype.email_account.email_account.notify_unreplied for my_site
2021-04-23 13:00:58,227 INFO scheduler Scheduled Job Complete: frappe.email.doctype.email_account.email_account.notify_unreplied for my_site
2021-04-23 13:00:58,338 INFO scheduler Scheduled Job Start: frappe.email.doctype.email_account.email_account.pull for my_site
2021-04-23 13:00:58,764 INFO scheduler Scheduled Job Complete: frappe.email.doctype.email_account.email_account.pull for my_site
2021-04-23 13:00:58,840 INFO scheduler Scheduled Job Start: frappe.email.queue.flush for my_site
2021-04-23 13:00:59,160 INFO scheduler Scheduled Job Complete: frappe.email.queue.flush for my_site
2021-04-23 13:00:59,235 INFO scheduler Scheduled Job Start: frappe.twofactor.delete_all_barcodes_for_users for my_site
2021-04-23 13:00:59,715 INFO scheduler Scheduled Job Complete: frappe.twofactor.delete_all_barcodes_for_users for my_site
2021-04-23 13:00:59,838 INFO scheduler Scheduled Job Start: frappe.website.doctype.web_page.web_page.check_publish_status for my_site
2021-04-23 13:01:00,319 INFO scheduler Scheduled Job Complete: frappe.website.doctype.web_page.web_page.check_publish_status for my_site
2021-04-23 13:01:00,413 INFO scheduler Scheduled Job Start: frappe.oauth.delete_oauth2_data for my_site
2021-04-23 13:01:00,819 INFO scheduler Scheduled Job Complete: frappe.oauth.delete_oauth2_data for my_site
2021-04-23 13:01:35,519 DEBUG scheduler Queued events for site my_site
2021-04-23 13:02:35,763 DEBUG scheduler Queued events for site my_site
2021-04-23 13:03:36,120 DEBUG scheduler Queued events for site my_site
2021-04-23 13:04:36,437 DEBUG scheduler Queued events for site my_site
2021-04-23 13:05:36,710 DEBUG scheduler Queued events for site my_site
2021-04-23 13:06:36,986 DEBUG scheduler Queued events for site my_site
2021-04-23 13:07:37,248 DEBUG scheduler Queued events for site my_site
2021-04-23 13:08:37,685 DEBUG scheduler Queued events for site my_site
2021-04-23 13:09:38,086 DEBUG scheduler Queued events for site my_site
2021-04-23 13:10:38,356 DEBUG scheduler Queued events for site my_site
2021-04-23 13:11:38,708 DEBUG scheduler Queued events for site my_site
2021-04-23 13:12:39,142 DEBUG scheduler Queued events for site my_site
