2021-04-20 19:49:27,338 DEBUG scheduler Queued events for site my_site
2021-04-20 21:56:21,037 DEBUG scheduler Queued events for site my_site
2021-04-20 21:56:29,390 INFO scheduler Scheduled Job Start: frappe.email.doctype.newsletter.newsletter.send_scheduled_email for my_site
2021-04-20 21:56:29,859 INFO scheduler Scheduled Job Complete: frappe.email.doctype.newsletter.newsletter.send_scheduled_email for my_site
2021-04-20 21:56:29,954 INFO scheduler Scheduled Job Start: frappe.integrations.doctype.google_calendar.google_calendar.sync for my_site
2021-04-20 21:56:30,582 INFO scheduler Scheduled Job Complete: frappe.integrations.doctype.google_calendar.google_calendar.sync for my_site
2021-04-20 21:56:30,683 INFO scheduler Scheduled Job Start: frappe.desk.form.document_follow.send_hourly_updates for my_site
2021-04-20 21:56:31,084 INFO scheduler Scheduled Job Complete: frappe.desk.form.document_follow.send_hourly_updates for my_site
2021-04-20 21:56:31,169 INFO scheduler Scheduled Job Start: frappe.deferred_insert.save_to_db for my_site
2021-04-20 21:56:31,557 INFO scheduler Scheduled Job Complete: frappe.deferred_insert.save_to_db for my_site
2021-04-20 21:56:31,648 INFO scheduler Scheduled Job Start: frappe.desk.page.backups.backups.delete_downloadable_backups for my_site
2021-04-20 21:56:32,064 INFO scheduler Scheduled Job Complete: frappe.desk.page.backups.backups.delete_downloadable_backups for my_site
2021-04-20 21:56:32,153 INFO scheduler Scheduled Job Start: frappe.utils.error.collect_error_snapshots for my_site
2021-04-20 21:56:32,675 INFO scheduler Scheduled Job Complete: frappe.utils.error.collect_error_snapshots for my_site
2021-04-20 21:56:32,806 INFO scheduler Scheduled Job Start: frappe.model.utils.user_settings.sync_user_settings for my_site
2021-04-20 21:56:33,345 INFO scheduler Scheduled Job Complete: frappe.model.utils.user_settings.sync_user_settings for my_site
2021-04-20 21:56:33,440 INFO scheduler Scheduled Job Start: frappe.model.utils.link_count.update_link_count for my_site
2021-04-20 21:56:33,920 INFO scheduler Scheduled Job Complete: frappe.model.utils.link_count.update_link_count for my_site
2021-04-20 21:56:34,012 INFO scheduler Scheduled Job Start: frappe.monitor.flush for my_site
2021-04-20 21:56:34,181 INFO scheduler Scheduled Job Complete: frappe.monitor.flush for my_site
2021-04-20 21:56:34,253 INFO scheduler Scheduled Job Start: frappe.utils.global_search.sync_global_search for my_site
2021-04-20 21:56:34,412 INFO scheduler Scheduled Job Complete: frappe.utils.global_search.sync_global_search for my_site
2021-04-20 21:56:34,489 INFO scheduler Scheduled Job Start: frappe.integrations.doctype.razorpay_settings.razorpay_settings.capture_payment for my_site
2021-04-20 21:56:34,894 INFO scheduler Scheduled Job Complete: frappe.integrations.doctype.razorpay_settings.razorpay_settings.capture_payment for my_site
2021-04-20 21:56:34,966 INFO scheduler Scheduled Job Start: frappe.email.doctype.email_account.email_account.notify_unreplied for my_site
2021-04-20 21:56:35,272 INFO scheduler Scheduled Job Complete: frappe.email.doctype.email_account.email_account.notify_unreplied for my_site
2021-04-20 21:56:35,346 INFO scheduler Scheduled Job Start: frappe.email.doctype.email_account.email_account.pull for my_site
2021-04-20 21:56:35,676 INFO scheduler Scheduled Job Complete: frappe.email.doctype.email_account.email_account.pull for my_site
2021-04-20 21:56:35,749 INFO scheduler Scheduled Job Start: frappe.email.queue.flush for my_site
2021-04-20 21:56:36,011 INFO scheduler Scheduled Job Complete: frappe.email.queue.flush for my_site
2021-04-20 21:56:36,085 INFO scheduler Scheduled Job Start: frappe.twofactor.delete_all_barcodes_for_users for my_site
2021-04-20 21:56:36,514 INFO scheduler Scheduled Job Complete: frappe.twofactor.delete_all_barcodes_for_users for my_site
2021-04-20 21:56:36,599 INFO scheduler Scheduled Job Start: frappe.website.doctype.web_page.web_page.check_publish_status for my_site
2021-04-20 21:56:37,051 INFO scheduler Scheduled Job Complete: frappe.website.doctype.web_page.web_page.check_publish_status for my_site
2021-04-20 21:56:37,138 INFO scheduler Scheduled Job Start: frappe.oauth.delete_oauth2_data for my_site
2021-04-20 21:56:37,557 INFO scheduler Scheduled Job Complete: frappe.oauth.delete_oauth2_data for my_site
2021-04-20 21:57:21,391 DEBUG scheduler Queued events for site my_site
2021-04-20 21:58:21,730 DEBUG scheduler Queued events for site my_site
2021-04-20 21:59:22,093 DEBUG scheduler Queued events for site my_site
2021-04-20 22:00:22,794 DEBUG scheduler Queued events for site my_site
2021-04-20 22:00:30,215 INFO scheduler Scheduled Job Start: frappe.email.doctype.newsletter.newsletter.send_scheduled_email for my_site
2021-04-20 22:00:30,675 INFO scheduler Scheduled Job Complete: frappe.email.doctype.newsletter.newsletter.send_scheduled_email for my_site
2021-04-20 22:00:30,761 INFO scheduler Scheduled Job Start: frappe.integrations.doctype.google_calendar.google_calendar.sync for my_site
2021-04-20 22:00:31,311 INFO scheduler Scheduled Job Complete: frappe.integrations.doctype.google_calendar.google_calendar.sync for my_site
2021-04-20 22:00:31,396 INFO scheduler Scheduled Job Start: frappe.desk.form.document_follow.send_hourly_updates for my_site
2021-04-20 22:00:31,797 INFO scheduler Scheduled Job Complete: frappe.desk.form.document_follow.send_hourly_updates for my_site
2021-04-20 22:00:31,884 INFO scheduler Scheduled Job Start: frappe.deferred_insert.save_to_db for my_site
2021-04-20 22:00:32,273 INFO scheduler Scheduled Job Complete: frappe.deferred_insert.save_to_db for my_site
2021-04-20 22:00:32,358 INFO scheduler Scheduled Job Start: frappe.desk.page.backups.backups.delete_downloadable_backups for my_site
2021-04-20 22:00:32,773 INFO scheduler Scheduled Job Complete: frappe.desk.page.backups.backups.delete_downloadable_backups for my_site
2021-04-20 22:00:32,865 INFO scheduler Scheduled Job Start: frappe.utils.error.collect_error_snapshots for my_site
2021-04-20 22:00:33,252 INFO scheduler Scheduled Job Complete: frappe.utils.error.collect_error_snapshots for my_site
2021-04-20 22:00:33,350 INFO scheduler Scheduled Job Start: frappe.model.utils.user_settings.sync_user_settings for my_site
2021-04-20 22:00:33,741 INFO scheduler Scheduled Job Complete: frappe.model.utils.user_settings.sync_user_settings for my_site
2021-04-20 22:00:33,829 INFO scheduler Scheduled Job Start: frappe.model.utils.link_count.update_link_count for my_site
2021-04-20 22:00:34,219 INFO scheduler Scheduled Job Complete: frappe.model.utils.link_count.update_link_count for my_site
2021-04-20 22:00:34,306 INFO scheduler Scheduled Job Start: frappe.monitor.flush for my_site
2021-04-20 22:00:34,467 INFO scheduler Scheduled Job Complete: frappe.monitor.flush for my_site
2021-04-20 22:00:34,542 INFO scheduler Scheduled Job Start: frappe.utils.global_search.sync_global_search for my_site
2021-04-20 22:00:34,712 INFO scheduler Scheduled Job Complete: frappe.utils.global_search.sync_global_search for my_site
2021-04-20 22:00:34,786 INFO scheduler Scheduled Job Start: frappe.integrations.doctype.razorpay_settings.razorpay_settings.capture_payment for my_site
2021-04-20 22:00:35,179 INFO scheduler Scheduled Job Complete: frappe.integrations.doctype.razorpay_settings.razorpay_settings.capture_payment for my_site
2021-04-20 22:00:35,251 INFO scheduler Scheduled Job Start: frappe.email.doctype.email_account.email_account.notify_unreplied for my_site
2021-04-20 22:00:35,563 INFO scheduler Scheduled Job Complete: frappe.email.doctype.email_account.email_account.notify_unreplied for my_site
2021-04-20 22:00:35,635 INFO scheduler Scheduled Job Start: frappe.email.doctype.email_account.email_account.pull for my_site
2021-04-20 22:00:35,957 INFO scheduler Scheduled Job Complete: frappe.email.doctype.email_account.email_account.pull for my_site
2021-04-20 22:00:36,033 INFO scheduler Scheduled Job Start: frappe.email.queue.flush for my_site
2021-04-20 22:00:36,304 INFO scheduler Scheduled Job Complete: frappe.email.queue.flush for my_site
2021-04-20 22:00:36,378 INFO scheduler Scheduled Job Start: frappe.twofactor.delete_all_barcodes_for_users for my_site
2021-04-20 22:00:36,798 INFO scheduler Scheduled Job Complete: frappe.twofactor.delete_all_barcodes_for_users for my_site
2021-04-20 22:00:36,881 INFO scheduler Scheduled Job Start: frappe.website.doctype.web_page.web_page.check_publish_status for my_site
2021-04-20 22:00:37,356 INFO scheduler Scheduled Job Complete: frappe.website.doctype.web_page.web_page.check_publish_status for my_site
2021-04-20 22:00:37,446 INFO scheduler Scheduled Job Start: frappe.oauth.delete_oauth2_data for my_site
2021-04-20 22:00:37,854 INFO scheduler Scheduled Job Complete: frappe.oauth.delete_oauth2_data for my_site
2021-04-20 22:01:23,142 DEBUG scheduler Queued events for site my_site
2021-04-20 22:02:23,453 DEBUG scheduler Queued events for site my_site
2021-04-20 22:03:23,760 DEBUG scheduler Queued events for site my_site
2021-04-20 22:04:24,225 DEBUG scheduler Queued events for site my_site
2021-04-20 22:04:26,146 INFO scheduler Scheduled Job Start: frappe.monitor.flush for my_site
2021-04-20 22:04:26,314 INFO scheduler Scheduled Job Complete: frappe.monitor.flush for my_site
2021-04-20 22:04:26,390 INFO scheduler Scheduled Job Start: frappe.utils.global_search.sync_global_search for my_site
2021-04-20 22:04:26,545 INFO scheduler Scheduled Job Complete: frappe.utils.global_search.sync_global_search for my_site
2021-04-20 22:04:26,621 INFO scheduler Scheduled Job Start: frappe.integrations.doctype.razorpay_settings.razorpay_settings.capture_payment for my_site
2021-04-20 22:04:27,007 INFO scheduler Scheduled Job Complete: frappe.integrations.doctype.razorpay_settings.razorpay_settings.capture_payment for my_site
2021-04-20 22:04:27,080 INFO scheduler Scheduled Job Start: frappe.email.doctype.email_account.email_account.notify_unreplied for my_site
2021-04-20 22:04:27,421 INFO scheduler Scheduled Job Complete: frappe.email.doctype.email_account.email_account.notify_unreplied for my_site
2021-04-20 22:04:27,494 INFO scheduler Scheduled Job Start: frappe.email.doctype.email_account.email_account.pull for my_site
2021-04-20 22:04:27,815 INFO scheduler Scheduled Job Complete: frappe.email.doctype.email_account.email_account.pull for my_site
2021-04-20 22:04:27,887 INFO scheduler Scheduled Job Start: frappe.email.queue.flush for my_site
2021-04-20 22:04:28,152 INFO scheduler Scheduled Job Complete: frappe.email.queue.flush for my_site
2021-04-20 22:05:24,596 DEBUG scheduler Queued events for site my_site
2021-04-20 22:06:24,909 DEBUG scheduler Queued events for site my_site
2021-04-20 22:07:25,224 DEBUG scheduler Queued events for site my_site
2021-04-20 22:08:25,637 DEBUG scheduler Queued events for site my_site
2021-04-20 22:08:27,603 INFO scheduler Scheduled Job Start: frappe.monitor.flush for my_site
2021-04-20 22:08:27,758 INFO scheduler Scheduled Job Complete: frappe.monitor.flush for my_site
2021-04-20 22:08:27,833 INFO scheduler Scheduled Job Start: frappe.utils.global_search.sync_global_search for my_site
2021-04-20 22:08:27,990 INFO scheduler Scheduled Job Complete: frappe.utils.global_search.sync_global_search for my_site
2021-04-20 22:08:28,074 INFO scheduler Scheduled Job Start: frappe.integrations.doctype.razorpay_settings.razorpay_settings.capture_payment for my_site
2021-04-20 22:08:28,462 INFO scheduler Scheduled Job Complete: frappe.integrations.doctype.razorpay_settings.razorpay_settings.capture_payment for my_site
2021-04-20 22:08:28,537 INFO scheduler Scheduled Job Start: frappe.email.doctype.email_account.email_account.notify_unreplied for my_site
2021-04-20 22:08:28,853 INFO scheduler Scheduled Job Complete: frappe.email.doctype.email_account.email_account.notify_unreplied for my_site
2021-04-20 22:08:28,924 INFO scheduler Scheduled Job Start: frappe.email.doctype.email_account.email_account.pull for my_site
2021-04-20 22:08:29,243 INFO scheduler Scheduled Job Complete: frappe.email.doctype.email_account.email_account.pull for my_site
2021-04-20 22:08:29,315 INFO scheduler Scheduled Job Start: frappe.email.queue.flush for my_site
2021-04-20 22:08:29,596 INFO scheduler Scheduled Job Complete: frappe.email.queue.flush for my_site
2021-04-20 22:09:25,988 DEBUG scheduler Queued events for site my_site
2021-04-20 22:10:26,309 DEBUG scheduler Queued events for site my_site
2021-04-20 22:11:26,628 DEBUG scheduler Queued events for site my_site
2021-04-20 22:12:27,055 DEBUG scheduler Queued events for site my_site
2021-04-20 22:12:29,059 INFO scheduler Scheduled Job Start: frappe.monitor.flush for my_site
2021-04-20 22:12:29,218 INFO scheduler Scheduled Job Complete: frappe.monitor.flush for my_site
2021-04-20 22:12:29,292 INFO scheduler Scheduled Job Start: frappe.utils.global_search.sync_global_search for my_site
2021-04-20 22:12:29,453 INFO scheduler Scheduled Job Complete: frappe.utils.global_search.sync_global_search for my_site
2021-04-20 22:12:29,535 INFO scheduler Scheduled Job Start: frappe.integrations.doctype.razorpay_settings.razorpay_settings.capture_payment for my_site
2021-04-20 22:12:29,937 INFO scheduler Scheduled Job Complete: frappe.integrations.doctype.razorpay_settings.razorpay_settings.capture_payment for my_site
2021-04-20 22:12:30,008 INFO scheduler Scheduled Job Start: frappe.email.doctype.email_account.email_account.notify_unreplied for my_site
2021-04-20 22:12:30,317 INFO scheduler Scheduled Job Complete: frappe.email.doctype.email_account.email_account.notify_unreplied for my_site
2021-04-20 22:12:30,391 INFO scheduler Scheduled Job Start: frappe.email.doctype.email_account.email_account.pull for my_site
2021-04-20 22:12:30,734 INFO scheduler Scheduled Job Complete: frappe.email.doctype.email_account.email_account.pull for my_site
2021-04-20 22:12:30,805 INFO scheduler Scheduled Job Start: frappe.email.queue.flush for my_site
2021-04-20 22:12:31,075 INFO scheduler Scheduled Job Complete: frappe.email.queue.flush for my_site
2021-04-20 22:13:27,398 DEBUG scheduler Queued events for site my_site
2021-04-20 22:14:27,713 DEBUG scheduler Queued events for site my_site
2021-04-20 22:15:28,085 DEBUG scheduler Queued events for site my_site
2021-04-20 22:15:29,562 INFO scheduler Scheduled Job Start: frappe.twofactor.delete_all_barcodes_for_users for my_site
2021-04-20 22:15:29,981 INFO scheduler Scheduled Job Complete: frappe.twofactor.delete_all_barcodes_for_users for my_site
2021-04-20 22:15:30,068 INFO scheduler Scheduled Job Start: frappe.website.doctype.web_page.web_page.check_publish_status for my_site
2021-04-20 22:15:30,538 INFO scheduler Scheduled Job Complete: frappe.website.doctype.web_page.web_page.check_publish_status for my_site
2021-04-20 22:15:30,625 INFO scheduler Scheduled Job Start: frappe.oauth.delete_oauth2_data for my_site
2021-04-20 22:15:31,035 INFO scheduler Scheduled Job Complete: frappe.oauth.delete_oauth2_data for my_site
2021-04-20 22:16:28,538 DEBUG scheduler Queued events for site my_site
2021-04-20 22:16:30,462 INFO scheduler Scheduled Job Start: frappe.monitor.flush for my_site
2021-04-20 22:16:30,621 INFO scheduler Scheduled Job Complete: frappe.monitor.flush for my_site
2021-04-20 22:16:30,699 INFO scheduler Scheduled Job Start: frappe.utils.global_search.sync_global_search for my_site
2021-04-20 22:16:30,851 INFO scheduler Scheduled Job Complete: frappe.utils.global_search.sync_global_search for my_site
2021-04-20 22:16:30,928 INFO scheduler Scheduled Job Start: frappe.integrations.doctype.razorpay_settings.razorpay_settings.capture_payment for my_site
2021-04-20 22:16:31,313 INFO scheduler Scheduled Job Complete: frappe.integrations.doctype.razorpay_settings.razorpay_settings.capture_payment for my_site
2021-04-20 22:16:31,383 INFO scheduler Scheduled Job Start: frappe.email.doctype.email_account.email_account.notify_unreplied for my_site
2021-04-20 22:16:31,690 INFO scheduler Scheduled Job Complete: frappe.email.doctype.email_account.email_account.notify_unreplied for my_site
2021-04-20 22:16:31,777 INFO scheduler Scheduled Job Start: frappe.email.doctype.email_account.email_account.pull for my_site
2021-04-20 22:16:32,103 INFO scheduler Scheduled Job Complete: frappe.email.doctype.email_account.email_account.pull for my_site
2021-04-20 22:16:32,180 INFO scheduler Scheduled Job Start: frappe.email.queue.flush for my_site
2021-04-20 22:16:32,445 INFO scheduler Scheduled Job Complete: frappe.email.queue.flush for my_site
2021-04-20 22:17:28,894 DEBUG scheduler Queued events for site my_site
2021-04-20 22:18:29,210 DEBUG scheduler Queued events for site my_site
2021-04-20 22:19:29,528 DEBUG scheduler Queued events for site my_site
2021-04-20 22:20:29,962 DEBUG scheduler Queued events for site my_site
2021-04-20 22:20:31,890 INFO scheduler Scheduled Job Start: frappe.monitor.flush for my_site
2021-04-20 22:20:32,046 INFO scheduler Scheduled Job Complete: frappe.monitor.flush for my_site
2021-04-20 22:20:32,121 INFO scheduler Scheduled Job Start: frappe.utils.global_search.sync_global_search for my_site
2021-04-20 22:20:32,276 INFO scheduler Scheduled Job Complete: frappe.utils.global_search.sync_global_search for my_site
2021-04-20 22:20:32,348 INFO scheduler Scheduled Job Start: frappe.integrations.doctype.razorpay_settings.razorpay_settings.capture_payment for my_site
2021-04-20 22:20:32,745 INFO scheduler Scheduled Job Complete: frappe.integrations.doctype.razorpay_settings.razorpay_settings.capture_payment for my_site
2021-04-20 22:20:32,816 INFO scheduler Scheduled Job Start: frappe.email.doctype.email_account.email_account.notify_unreplied for my_site
2021-04-20 22:20:33,121 INFO scheduler Scheduled Job Complete: frappe.email.doctype.email_account.email_account.notify_unreplied for my_site
2021-04-20 22:20:33,193 INFO scheduler Scheduled Job Start: frappe.email.doctype.email_account.email_account.pull for my_site
2021-04-20 22:20:33,524 INFO scheduler Scheduled Job Complete: frappe.email.doctype.email_account.email_account.pull for my_site
2021-04-20 22:20:33,596 INFO scheduler Scheduled Job Start: frappe.email.queue.flush for my_site
2021-04-20 22:20:33,862 INFO scheduler Scheduled Job Complete: frappe.email.queue.flush for my_site
2021-04-20 22:21:30,306 DEBUG scheduler Queued events for site my_site
2021-04-20 22:22:30,627 DEBUG scheduler Queued events for site my_site
2021-04-20 22:23:30,939 DEBUG scheduler Queued events for site my_site
2021-04-20 22:24:31,337 DEBUG scheduler Queued events for site my_site
2021-04-20 22:24:33,292 INFO scheduler Scheduled Job Start: frappe.monitor.flush for my_site
2021-04-20 22:24:33,457 INFO scheduler Scheduled Job Complete: frappe.monitor.flush for my_site
2021-04-20 22:24:33,531 INFO scheduler Scheduled Job Start: frappe.utils.global_search.sync_global_search for my_site
2021-04-20 22:24:33,689 INFO scheduler Scheduled Job Complete: frappe.utils.global_search.sync_global_search for my_site
2021-04-20 22:24:33,764 INFO scheduler Scheduled Job Start: frappe.integrations.doctype.razorpay_settings.razorpay_settings.capture_payment for my_site
2021-04-20 22:24:34,154 INFO scheduler Scheduled Job Complete: frappe.integrations.doctype.razorpay_settings.razorpay_settings.capture_payment for my_site
2021-04-20 22:24:34,228 INFO scheduler Scheduled Job Start: frappe.email.doctype.email_account.email_account.notify_unreplied for my_site
2021-04-20 22:24:34,544 INFO scheduler Scheduled Job Complete: frappe.email.doctype.email_account.email_account.notify_unreplied for my_site
2021-04-20 22:24:34,615 INFO scheduler Scheduled Job Start: frappe.email.doctype.email_account.email_account.pull for my_site
2021-04-20 22:24:34,937 INFO scheduler Scheduled Job Complete: frappe.email.doctype.email_account.email_account.pull for my_site
2021-04-20 22:24:35,009 INFO scheduler Scheduled Job Start: frappe.email.queue.flush for my_site
2021-04-20 22:24:35,271 INFO scheduler Scheduled Job Complete: frappe.email.queue.flush for my_site
2021-04-20 22:25:31,686 DEBUG scheduler Queued events for site my_site
2021-04-20 22:26:32,011 DEBUG scheduler Queued events for site my_site
2021-04-20 22:27:32,324 DEBUG scheduler Queued events for site my_site
2021-04-20 22:28:32,802 DEBUG scheduler Queued events for site my_site
2021-04-20 22:28:34,725 INFO scheduler Scheduled Job Start: frappe.monitor.flush for my_site
2021-04-20 22:28:34,878 INFO scheduler Scheduled Job Complete: frappe.monitor.flush for my_site
2021-04-20 22:28:34,953 INFO scheduler Scheduled Job Start: frappe.utils.global_search.sync_global_search for my_site
2021-04-20 22:28:35,106 INFO scheduler Scheduled Job Complete: frappe.utils.global_search.sync_global_search for my_site
2021-04-20 22:28:35,181 INFO scheduler Scheduled Job Start: frappe.integrations.doctype.razorpay_settings.razorpay_settings.capture_payment for my_site
2021-04-20 22:28:35,573 INFO scheduler Scheduled Job Complete: frappe.integrations.doctype.razorpay_settings.razorpay_settings.capture_payment for my_site
2021-04-20 22:28:35,646 INFO scheduler Scheduled Job Start: frappe.email.doctype.email_account.email_account.notify_unreplied for my_site
2021-04-20 22:28:35,955 INFO scheduler Scheduled Job Complete: frappe.email.doctype.email_account.email_account.notify_unreplied for my_site
2021-04-20 22:28:36,026 INFO scheduler Scheduled Job Start: frappe.email.doctype.email_account.email_account.pull for my_site
2021-04-20 22:28:36,350 INFO scheduler Scheduled Job Complete: frappe.email.doctype.email_account.email_account.pull for my_site
2021-04-20 22:28:36,425 INFO scheduler Scheduled Job Start: frappe.email.queue.flush for my_site
2021-04-20 22:28:36,692 INFO scheduler Scheduled Job Complete: frappe.email.queue.flush for my_site
2021-04-20 22:29:33,148 DEBUG scheduler Queued events for site my_site
2021-04-20 22:30:33,652 DEBUG scheduler Queued events for site my_site
2021-04-20 22:30:35,120 INFO scheduler Scheduled Job Start: frappe.twofactor.delete_all_barcodes_for_users for my_site
2021-04-20 22:30:35,538 INFO scheduler Scheduled Job Complete: frappe.twofactor.delete_all_barcodes_for_users for my_site
2021-04-20 22:30:35,624 INFO scheduler Scheduled Job Start: frappe.website.doctype.web_page.web_page.check_publish_status for my_site
2021-04-20 22:30:36,084 INFO scheduler Scheduled Job Complete: frappe.website.doctype.web_page.web_page.check_publish_status for my_site
2021-04-20 22:30:36,173 INFO scheduler Scheduled Job Start: frappe.oauth.delete_oauth2_data for my_site
2021-04-20 22:30:36,576 INFO scheduler Scheduled Job Complete: frappe.oauth.delete_oauth2_data for my_site
2021-04-20 22:31:34,010 DEBUG scheduler Queued events for site my_site
2021-04-20 22:32:34,418 DEBUG scheduler Queued events for site my_site
2021-04-20 22:32:36,328 INFO scheduler Scheduled Job Start: frappe.monitor.flush for my_site
2021-04-20 22:32:36,482 INFO scheduler Scheduled Job Complete: frappe.monitor.flush for my_site
2021-04-20 22:32:36,554 INFO scheduler Scheduled Job Start: frappe.utils.global_search.sync_global_search for my_site
2021-04-20 22:32:36,716 INFO scheduler Scheduled Job Complete: frappe.utils.global_search.sync_global_search for my_site
2021-04-20 22:32:36,794 INFO scheduler Scheduled Job Start: frappe.integrations.doctype.razorpay_settings.razorpay_settings.capture_payment for my_site
2021-04-20 22:32:37,183 INFO scheduler Scheduled Job Complete: frappe.integrations.doctype.razorpay_settings.razorpay_settings.capture_payment for my_site
2021-04-20 22:32:37,258 INFO scheduler Scheduled Job Start: frappe.email.doctype.email_account.email_account.notify_unreplied for my_site
2021-04-20 22:32:37,578 INFO scheduler Scheduled Job Complete: frappe.email.doctype.email_account.email_account.notify_unreplied for my_site
2021-04-20 22:32:37,653 INFO scheduler Scheduled Job Start: frappe.email.doctype.email_account.email_account.pull for my_site
2021-04-20 22:32:37,980 INFO scheduler Scheduled Job Complete: frappe.email.doctype.email_account.email_account.pull for my_site
2021-04-20 22:32:38,053 INFO scheduler Scheduled Job Start: frappe.email.queue.flush for my_site
2021-04-20 22:32:38,315 INFO scheduler Scheduled Job Complete: frappe.email.queue.flush for my_site
2021-04-20 22:33:34,763 DEBUG scheduler Queued events for site my_site
2021-04-20 22:34:35,087 DEBUG scheduler Queued events for site my_site
2021-04-20 22:35:35,379 DEBUG scheduler Queued events for site my_site
2021-04-20 22:36:35,801 DEBUG scheduler Queued events for site my_site
2021-04-20 22:36:37,732 INFO scheduler Scheduled Job Start: frappe.monitor.flush for my_site
2021-04-20 22:36:37,890 INFO scheduler Scheduled Job Complete: frappe.monitor.flush for my_site
2021-04-20 22:36:37,966 INFO scheduler Scheduled Job Start: frappe.utils.global_search.sync_global_search for my_site
2021-04-20 22:36:38,128 INFO scheduler Scheduled Job Complete: frappe.utils.global_search.sync_global_search for my_site
2021-04-20 22:36:38,209 INFO scheduler Scheduled Job Start: frappe.integrations.doctype.razorpay_settings.razorpay_settings.capture_payment for my_site
2021-04-20 22:36:38,613 INFO scheduler Scheduled Job Complete: frappe.integrations.doctype.razorpay_settings.razorpay_settings.capture_payment for my_site
2021-04-20 22:36:38,689 INFO scheduler Scheduled Job Start: frappe.email.doctype.email_account.email_account.notify_unreplied for my_site
2021-04-20 22:36:39,010 INFO scheduler Scheduled Job Complete: frappe.email.doctype.email_account.email_account.notify_unreplied for my_site
2021-04-20 22:36:39,087 INFO scheduler Scheduled Job Start: frappe.email.doctype.email_account.email_account.pull for my_site
2021-04-20 22:36:39,415 INFO scheduler Scheduled Job Complete: frappe.email.doctype.email_account.email_account.pull for my_site
2021-04-20 22:36:39,490 INFO scheduler Scheduled Job Start: frappe.email.queue.flush for my_site
2021-04-20 22:36:39,763 INFO scheduler Scheduled Job Complete: frappe.email.queue.flush for my_site
2021-04-20 22:37:36,144 DEBUG scheduler Queued events for site my_site
2021-04-20 22:38:36,458 DEBUG scheduler Queued events for site my_site
2021-04-20 22:39:36,770 DEBUG scheduler Queued events for site my_site
2021-04-20 22:40:37,179 DEBUG scheduler Queued events for site my_site
2021-04-20 22:40:39,104 INFO scheduler Scheduled Job Start: frappe.monitor.flush for my_site
2021-04-20 22:40:39,261 INFO scheduler Scheduled Job Complete: frappe.monitor.flush for my_site
2021-04-20 22:40:39,335 INFO scheduler Scheduled Job Start: frappe.utils.global_search.sync_global_search for my_site
2021-04-20 22:40:39,489 INFO scheduler Scheduled Job Complete: frappe.utils.global_search.sync_global_search for my_site
2021-04-20 22:40:39,568 INFO scheduler Scheduled Job Start: frappe.integrations.doctype.razorpay_settings.razorpay_settings.capture_payment for my_site
2021-04-20 22:40:39,971 INFO scheduler Scheduled Job Complete: frappe.integrations.doctype.razorpay_settings.razorpay_settings.capture_payment for my_site
2021-04-20 22:40:40,045 INFO scheduler Scheduled Job Start: frappe.email.doctype.email_account.email_account.notify_unreplied for my_site
2021-04-20 22:40:40,371 INFO scheduler Scheduled Job Complete: frappe.email.doctype.email_account.email_account.notify_unreplied for my_site
2021-04-20 22:40:40,442 INFO scheduler Scheduled Job Start: frappe.email.doctype.email_account.email_account.pull for my_site
2021-04-20 22:40:40,764 INFO scheduler Scheduled Job Complete: frappe.email.doctype.email_account.email_account.pull for my_site
2021-04-20 22:40:40,833 INFO scheduler Scheduled Job Start: frappe.email.queue.flush for my_site
2021-04-20 22:40:41,101 INFO scheduler Scheduled Job Complete: frappe.email.queue.flush for my_site
2021-04-20 22:41:37,524 DEBUG scheduler Queued events for site my_site
2021-04-20 22:42:37,839 DEBUG scheduler Queued events for site my_site
2021-04-20 22:43:38,159 DEBUG scheduler Queued events for site my_site
2021-04-20 22:44:38,626 DEBUG scheduler Queued events for site my_site
2021-04-20 22:44:40,576 INFO scheduler Scheduled Job Start: frappe.monitor.flush for my_site
2021-04-20 22:44:40,731 INFO scheduler Scheduled Job Complete: frappe.monitor.flush for my_site
2021-04-20 22:44:40,806 INFO scheduler Scheduled Job Start: frappe.utils.global_search.sync_global_search for my_site
2021-04-20 22:44:40,961 INFO scheduler Scheduled Job Complete: frappe.utils.global_search.sync_global_search for my_site
2021-04-20 22:44:41,035 INFO scheduler Scheduled Job Start: frappe.integrations.doctype.razorpay_settings.razorpay_settings.capture_payment for my_site
2021-04-20 22:44:41,422 INFO scheduler Scheduled Job Complete: frappe.integrations.doctype.razorpay_settings.razorpay_settings.capture_payment for my_site
2021-04-20 22:44:41,493 INFO scheduler Scheduled Job Start: frappe.email.doctype.email_account.email_account.notify_unreplied for my_site
2021-04-20 22:44:41,808 INFO scheduler Scheduled Job Complete: frappe.email.doctype.email_account.email_account.notify_unreplied for my_site
2021-04-20 22:44:41,884 INFO scheduler Scheduled Job Start: frappe.email.doctype.email_account.email_account.pull for my_site
2021-04-20 22:44:42,208 INFO scheduler Scheduled Job Complete: frappe.email.doctype.email_account.email_account.pull for my_site
2021-04-20 22:44:42,281 INFO scheduler Scheduled Job Start: frappe.email.queue.flush for my_site
2021-04-20 22:44:42,547 INFO scheduler Scheduled Job Complete: frappe.email.queue.flush for my_site
2021-04-20 22:45:39,018 DEBUG scheduler Queued events for site my_site
2021-04-20 22:45:40,487 INFO scheduler Scheduled Job Start: frappe.twofactor.delete_all_barcodes_for_users for my_site
2021-04-20 22:45:40,926 INFO scheduler Scheduled Job Complete: frappe.twofactor.delete_all_barcodes_for_users for my_site
2021-04-20 22:45:41,016 INFO scheduler Scheduled Job Start: frappe.website.doctype.web_page.web_page.check_publish_status for my_site
2021-04-20 22:45:41,483 INFO scheduler Scheduled Job Complete: frappe.website.doctype.web_page.web_page.check_publish_status for my_site
2021-04-20 22:45:41,570 INFO scheduler Scheduled Job Start: frappe.oauth.delete_oauth2_data for my_site
2021-04-20 22:45:41,981 INFO scheduler Scheduled Job Complete: frappe.oauth.delete_oauth2_data for my_site
2021-04-20 22:46:39,369 DEBUG scheduler Queued events for site my_site
2021-04-20 22:47:39,686 DEBUG scheduler Queued events for site my_site
2021-04-20 22:48:40,160 DEBUG scheduler Queued events for site my_site
2021-04-20 22:48:42,072 INFO scheduler Scheduled Job Start: frappe.monitor.flush for my_site
2021-04-20 22:48:42,225 INFO scheduler Scheduled Job Complete: frappe.monitor.flush for my_site
2021-04-20 22:48:42,305 INFO scheduler Scheduled Job Start: frappe.utils.global_search.sync_global_search for my_site
2021-04-20 22:48:42,463 INFO scheduler Scheduled Job Complete: frappe.utils.global_search.sync_global_search for my_site
2021-04-20 22:48:42,543 INFO scheduler Scheduled Job Start: frappe.integrations.doctype.razorpay_settings.razorpay_settings.capture_payment for my_site
2021-04-20 22:48:42,932 INFO scheduler Scheduled Job Complete: frappe.integrations.doctype.razorpay_settings.razorpay_settings.capture_payment for my_site
2021-04-20 22:48:43,004 INFO scheduler Scheduled Job Start: frappe.email.doctype.email_account.email_account.notify_unreplied for my_site
2021-04-20 22:48:43,313 INFO scheduler Scheduled Job Complete: frappe.email.doctype.email_account.email_account.notify_unreplied for my_site
2021-04-20 22:48:43,388 INFO scheduler Scheduled Job Start: frappe.email.doctype.email_account.email_account.pull for my_site
2021-04-20 22:48:43,723 INFO scheduler Scheduled Job Complete: frappe.email.doctype.email_account.email_account.pull for my_site
2021-04-20 22:48:43,797 INFO scheduler Scheduled Job Start: frappe.email.queue.flush for my_site
2021-04-20 22:48:44,065 INFO scheduler Scheduled Job Complete: frappe.email.queue.flush for my_site
2021-04-20 22:49:40,501 DEBUG scheduler Queued events for site my_site
2021-04-20 22:50:40,820 DEBUG scheduler Queued events for site my_site
2021-04-20 22:51:41,137 DEBUG scheduler Queued events for site my_site
2021-04-20 22:52:41,544 DEBUG scheduler Queued events for site my_site
2021-04-20 22:52:43,484 INFO scheduler Scheduled Job Start: frappe.monitor.flush for my_site
2021-04-20 22:52:43,637 INFO scheduler Scheduled Job Complete: frappe.monitor.flush for my_site
2021-04-20 22:52:43,716 INFO scheduler Scheduled Job Start: frappe.utils.global_search.sync_global_search for my_site
2021-04-20 22:52:43,876 INFO scheduler Scheduled Job Complete: frappe.utils.global_search.sync_global_search for my_site
2021-04-20 22:52:43,954 INFO scheduler Scheduled Job Start: frappe.integrations.doctype.razorpay_settings.razorpay_settings.capture_payment for my_site
2021-04-20 22:52:44,345 INFO scheduler Scheduled Job Complete: frappe.integrations.doctype.razorpay_settings.razorpay_settings.capture_payment for my_site
2021-04-20 22:52:44,420 INFO scheduler Scheduled Job Start: frappe.email.doctype.email_account.email_account.notify_unreplied for my_site
2021-04-20 22:52:44,731 INFO scheduler Scheduled Job Complete: frappe.email.doctype.email_account.email_account.notify_unreplied for my_site
2021-04-20 22:52:44,803 INFO scheduler Scheduled Job Start: frappe.email.doctype.email_account.email_account.pull for my_site
2021-04-20 22:52:45,120 INFO scheduler Scheduled Job Complete: frappe.email.doctype.email_account.email_account.pull for my_site
2021-04-20 22:52:45,192 INFO scheduler Scheduled Job Start: frappe.email.queue.flush for my_site
2021-04-20 22:52:45,456 INFO scheduler Scheduled Job Complete: frappe.email.queue.flush for my_site
2021-04-20 22:53:41,889 DEBUG scheduler Queued events for site my_site
2021-04-20 22:54:42,197 DEBUG scheduler Queued events for site my_site
2021-04-20 22:55:42,513 DEBUG scheduler Queued events for site my_site
2021-04-20 22:56:43,019 DEBUG scheduler Queued events for site my_site
2021-04-20 22:56:44,942 INFO scheduler Scheduled Job Start: frappe.monitor.flush for my_site
2021-04-20 22:56:45,098 INFO scheduler Scheduled Job Complete: frappe.monitor.flush for my_site
2021-04-20 22:56:45,169 INFO scheduler Scheduled Job Start: frappe.utils.global_search.sync_global_search for my_site
2021-04-20 22:56:45,342 INFO scheduler Scheduled Job Complete: frappe.utils.global_search.sync_global_search for my_site
2021-04-20 22:56:45,421 INFO scheduler Scheduled Job Start: frappe.integrations.doctype.razorpay_settings.razorpay_settings.capture_payment for my_site
2021-04-20 22:56:45,826 INFO scheduler Scheduled Job Complete: frappe.integrations.doctype.razorpay_settings.razorpay_settings.capture_payment for my_site
2021-04-20 22:56:45,896 INFO scheduler Scheduled Job Start: frappe.email.doctype.email_account.email_account.notify_unreplied for my_site
2021-04-20 22:56:46,208 INFO scheduler Scheduled Job Complete: frappe.email.doctype.email_account.email_account.notify_unreplied for my_site
2021-04-20 22:56:46,278 INFO scheduler Scheduled Job Start: frappe.email.doctype.email_account.email_account.pull for my_site
2021-04-20 22:56:46,600 INFO scheduler Scheduled Job Complete: frappe.email.doctype.email_account.email_account.pull for my_site
2021-04-20 22:56:46,682 INFO scheduler Scheduled Job Start: frappe.email.queue.flush for my_site
2021-04-20 22:56:46,950 INFO scheduler Scheduled Job Complete: frappe.email.queue.flush for my_site
2021-04-20 22:57:43,373 DEBUG scheduler Queued events for site my_site
2021-04-20 22:58:43,707 DEBUG scheduler Queued events for site my_site
2021-04-20 22:59:44,026 DEBUG scheduler Queued events for site my_site
2021-04-20 23:00:44,798 DEBUG scheduler Queued events for site my_site
2021-04-20 23:00:52,434 INFO scheduler Scheduled Job Start: frappe.email.doctype.newsletter.newsletter.send_scheduled_email for my_site
2021-04-20 23:00:52,983 INFO scheduler Scheduled Job Complete: frappe.email.doctype.newsletter.newsletter.send_scheduled_email for my_site
2021-04-20 23:00:53,069 INFO scheduler Scheduled Job Start: frappe.integrations.doctype.google_calendar.google_calendar.sync for my_site
2021-04-20 23:00:53,725 INFO scheduler Scheduled Job Complete: frappe.integrations.doctype.google_calendar.google_calendar.sync for my_site
2021-04-20 23:00:53,824 INFO scheduler Scheduled Job Start: frappe.desk.form.document_follow.send_hourly_updates for my_site
2021-04-20 23:00:54,301 INFO scheduler Scheduled Job Complete: frappe.desk.form.document_follow.send_hourly_updates for my_site
2021-04-20 23:00:54,398 INFO scheduler Scheduled Job Start: frappe.deferred_insert.save_to_db for my_site
2021-04-20 23:00:54,796 INFO scheduler Scheduled Job Complete: frappe.deferred_insert.save_to_db for my_site
2021-04-20 23:00:54,903 INFO scheduler Scheduled Job Start: frappe.desk.page.backups.backups.delete_downloadable_backups for my_site
2021-04-20 23:00:55,341 INFO scheduler Scheduled Job Complete: frappe.desk.page.backups.backups.delete_downloadable_backups for my_site
2021-04-20 23:00:55,432 INFO scheduler Scheduled Job Start: frappe.utils.error.collect_error_snapshots for my_site
2021-04-20 23:00:55,866 INFO scheduler Scheduled Job Complete: frappe.utils.error.collect_error_snapshots for my_site
2021-04-20 23:00:55,968 INFO scheduler Scheduled Job Start: frappe.model.utils.user_settings.sync_user_settings for my_site
2021-04-20 23:00:56,384 INFO scheduler Scheduled Job Complete: frappe.model.utils.user_settings.sync_user_settings for my_site
2021-04-20 23:00:56,473 INFO scheduler Scheduled Job Start: frappe.model.utils.link_count.update_link_count for my_site
2021-04-20 23:00:56,900 INFO scheduler Scheduled Job Complete: frappe.model.utils.link_count.update_link_count for my_site
2021-04-20 23:00:56,986 INFO scheduler Scheduled Job Start: frappe.monitor.flush for my_site
2021-04-20 23:00:57,144 INFO scheduler Scheduled Job Complete: frappe.monitor.flush for my_site
2021-04-20 23:00:57,221 INFO scheduler Scheduled Job Start: frappe.utils.global_search.sync_global_search for my_site
2021-04-20 23:00:57,388 INFO scheduler Scheduled Job Complete: frappe.utils.global_search.sync_global_search for my_site
2021-04-20 23:00:57,472 INFO scheduler Scheduled Job Start: frappe.integrations.doctype.razorpay_settings.razorpay_settings.capture_payment for my_site
2021-04-20 23:00:57,948 INFO scheduler Scheduled Job Complete: frappe.integrations.doctype.razorpay_settings.razorpay_settings.capture_payment for my_site
2021-04-20 23:00:58,022 INFO scheduler Scheduled Job Start: frappe.email.doctype.email_account.email_account.notify_unreplied for my_site
2021-04-20 23:00:58,335 INFO scheduler Scheduled Job Complete: frappe.email.doctype.email_account.email_account.notify_unreplied for my_site
2021-04-20 23:00:58,411 INFO scheduler Scheduled Job Start: frappe.email.doctype.email_account.email_account.pull for my_site
2021-04-20 23:00:58,742 INFO scheduler Scheduled Job Complete: frappe.email.doctype.email_account.email_account.pull for my_site
2021-04-20 23:00:58,812 INFO scheduler Scheduled Job Start: frappe.email.queue.flush for my_site
2021-04-20 23:00:59,089 INFO scheduler Scheduled Job Complete: frappe.email.queue.flush for my_site
2021-04-20 23:00:59,161 INFO scheduler Scheduled Job Start: frappe.twofactor.delete_all_barcodes_for_users for my_site
2021-04-20 23:00:59,590 INFO scheduler Scheduled Job Complete: frappe.twofactor.delete_all_barcodes_for_users for my_site
2021-04-20 23:00:59,677 INFO scheduler Scheduled Job Start: frappe.website.doctype.web_page.web_page.check_publish_status for my_site
2021-04-20 23:01:00,166 INFO scheduler Scheduled Job Complete: frappe.website.doctype.web_page.web_page.check_publish_status for my_site
2021-04-20 23:01:00,254 INFO scheduler Scheduled Job Start: frappe.oauth.delete_oauth2_data for my_site
2021-04-20 23:01:00,702 INFO scheduler Scheduled Job Complete: frappe.oauth.delete_oauth2_data for my_site
2021-04-20 23:01:45,145 DEBUG scheduler Queued events for site my_site
2021-04-20 23:02:45,504 DEBUG scheduler Queued events for site my_site
2021-04-20 23:03:45,901 DEBUG scheduler Queued events for site my_site
2021-04-20 23:04:46,366 DEBUG scheduler Queued events for site my_site
2021-04-20 23:04:48,291 INFO scheduler Scheduled Job Start: frappe.monitor.flush for my_site
2021-04-20 23:04:48,447 INFO scheduler Scheduled Job Complete: frappe.monitor.flush for my_site
2021-04-20 23:04:48,520 INFO scheduler Scheduled Job Start: frappe.utils.global_search.sync_global_search for my_site
2021-04-20 23:04:48,677 INFO scheduler Scheduled Job Complete: frappe.utils.global_search.sync_global_search for my_site
2021-04-20 23:04:48,751 INFO scheduler Scheduled Job Start: frappe.integrations.doctype.razorpay_settings.razorpay_settings.capture_payment for my_site
2021-04-20 23:04:49,159 INFO scheduler Scheduled Job Complete: frappe.integrations.doctype.razorpay_settings.razorpay_settings.capture_payment for my_site
2021-04-20 23:04:49,229 INFO scheduler Scheduled Job Start: frappe.email.doctype.email_account.email_account.notify_unreplied for my_site
2021-04-20 23:04:49,553 INFO scheduler Scheduled Job Complete: frappe.email.doctype.email_account.email_account.notify_unreplied for my_site
2021-04-20 23:04:49,626 INFO scheduler Scheduled Job Start: frappe.email.doctype.email_account.email_account.pull for my_site
2021-04-20 23:04:49,963 INFO scheduler Scheduled Job Complete: frappe.email.doctype.email_account.email_account.pull for my_site
2021-04-20 23:04:50,040 INFO scheduler Scheduled Job Start: frappe.email.queue.flush for my_site
2021-04-20 23:04:50,308 INFO scheduler Scheduled Job Complete: frappe.email.queue.flush for my_site
2021-04-20 23:05:46,709 DEBUG scheduler Queued events for site my_site
2021-04-20 23:06:47,132 DEBUG scheduler Queued events for site my_site
2021-04-20 23:07:47,446 DEBUG scheduler Queued events for site my_site
2021-04-20 23:08:47,875 DEBUG scheduler Queued events for site my_site
2021-04-20 23:08:49,829 INFO scheduler Scheduled Job Start: frappe.monitor.flush for my_site
2021-04-20 23:08:49,984 INFO scheduler Scheduled Job Complete: frappe.monitor.flush for my_site
2021-04-20 23:08:50,059 INFO scheduler Scheduled Job Start: frappe.utils.global_search.sync_global_search for my_site
2021-04-20 23:08:50,215 INFO scheduler Scheduled Job Complete: frappe.utils.global_search.sync_global_search for my_site
2021-04-20 23:08:50,288 INFO scheduler Scheduled Job Start: frappe.integrations.doctype.razorpay_settings.razorpay_settings.capture_payment for my_site
2021-04-20 23:08:50,688 INFO scheduler Scheduled Job Complete: frappe.integrations.doctype.razorpay_settings.razorpay_settings.capture_payment for my_site
2021-04-20 23:08:50,758 INFO scheduler Scheduled Job Start: frappe.email.doctype.email_account.email_account.notify_unreplied for my_site
2021-04-20 23:08:51,064 INFO scheduler Scheduled Job Complete: frappe.email.doctype.email_account.email_account.notify_unreplied for my_site
2021-04-20 23:08:51,139 INFO scheduler Scheduled Job Start: frappe.email.doctype.email_account.email_account.pull for my_site
2021-04-20 23:08:51,455 INFO scheduler Scheduled Job Complete: frappe.email.doctype.email_account.email_account.pull for my_site
2021-04-20 23:08:51,528 INFO scheduler Scheduled Job Start: frappe.email.queue.flush for my_site
2021-04-20 23:08:51,796 INFO scheduler Scheduled Job Complete: frappe.email.queue.flush for my_site
2021-04-20 23:09:48,226 DEBUG scheduler Queued events for site my_site
2021-04-20 23:10:48,542 DEBUG scheduler Queued events for site my_site
2021-04-20 23:11:48,852 DEBUG scheduler Queued events for site my_site
2021-04-20 23:12:49,275 DEBUG scheduler Queued events for site my_site
2021-04-20 23:12:51,174 INFO scheduler Scheduled Job Start: frappe.monitor.flush for my_site
2021-04-20 23:12:51,327 INFO scheduler Scheduled Job Complete: frappe.monitor.flush for my_site
2021-04-20 23:12:51,398 INFO scheduler Scheduled Job Start: frappe.utils.global_search.sync_global_search for my_site
2021-04-20 23:12:51,552 INFO scheduler Scheduled Job Complete: frappe.utils.global_search.sync_global_search for my_site
2021-04-20 23:12:51,628 INFO scheduler Scheduled Job Start: frappe.integrations.doctype.razorpay_settings.razorpay_settings.capture_payment for my_site
2021-04-20 23:12:52,022 INFO scheduler Scheduled Job Complete: frappe.integrations.doctype.razorpay_settings.razorpay_settings.capture_payment for my_site
2021-04-20 23:12:52,095 INFO scheduler Scheduled Job Start: frappe.email.doctype.email_account.email_account.notify_unreplied for my_site
2021-04-20 23:12:52,403 INFO scheduler Scheduled Job Complete: frappe.email.doctype.email_account.email_account.notify_unreplied for my_site
2021-04-20 23:12:52,474 INFO scheduler Scheduled Job Start: frappe.email.doctype.email_account.email_account.pull for my_site
2021-04-20 23:12:52,794 INFO scheduler Scheduled Job Complete: frappe.email.doctype.email_account.email_account.pull for my_site
2021-04-20 23:12:52,865 INFO scheduler Scheduled Job Start: frappe.email.queue.flush for my_site
2021-04-20 23:12:53,137 INFO scheduler Scheduled Job Complete: frappe.email.queue.flush for my_site
2021-04-20 23:13:49,619 DEBUG scheduler Queued events for site my_site
2021-04-20 23:14:49,935 DEBUG scheduler Queued events for site my_site
2021-04-20 23:15:50,405 DEBUG scheduler Queued events for site my_site
2021-04-20 23:15:51,987 INFO scheduler Scheduled Job Start: frappe.twofactor.delete_all_barcodes_for_users for my_site
2021-04-20 23:15:52,427 INFO scheduler Scheduled Job Complete: frappe.twofactor.delete_all_barcodes_for_users for my_site
2021-04-20 23:15:52,513 INFO scheduler Scheduled Job Start: frappe.website.doctype.web_page.web_page.check_publish_status for my_site
2021-04-20 23:15:53,001 INFO scheduler Scheduled Job Complete: frappe.website.doctype.web_page.web_page.check_publish_status for my_site
2021-04-20 23:15:53,098 INFO scheduler Scheduled Job Start: frappe.oauth.delete_oauth2_data for my_site
2021-04-20 23:15:53,518 INFO scheduler Scheduled Job Complete: frappe.oauth.delete_oauth2_data for my_site
2021-04-20 23:16:50,928 DEBUG scheduler Queued events for site my_site
2021-04-20 23:16:52,880 INFO scheduler Scheduled Job Start: frappe.monitor.flush for my_site
2021-04-20 23:16:53,052 INFO scheduler Scheduled Job Complete: frappe.monitor.flush for my_site
2021-04-20 23:16:53,127 INFO scheduler Scheduled Job Start: frappe.utils.global_search.sync_global_search for my_site
2021-04-20 23:16:53,280 INFO scheduler Scheduled Job Complete: frappe.utils.global_search.sync_global_search for my_site
2021-04-20 23:16:53,356 INFO scheduler Scheduled Job Start: frappe.integrations.doctype.razorpay_settings.razorpay_settings.capture_payment for my_site
2021-04-20 23:16:53,772 INFO scheduler Scheduled Job Complete: frappe.integrations.doctype.razorpay_settings.razorpay_settings.capture_payment for my_site
2021-04-20 23:16:53,857 INFO scheduler Scheduled Job Start: frappe.email.doctype.email_account.email_account.notify_unreplied for my_site
2021-04-20 23:16:54,202 INFO scheduler Scheduled Job Complete: frappe.email.doctype.email_account.email_account.notify_unreplied for my_site
2021-04-20 23:16:54,275 INFO scheduler Scheduled Job Start: frappe.email.doctype.email_account.email_account.pull for my_site
2021-04-20 23:16:54,622 INFO scheduler Scheduled Job Complete: frappe.email.doctype.email_account.email_account.pull for my_site
2021-04-20 23:16:54,696 INFO scheduler Scheduled Job Start: frappe.email.queue.flush for my_site
2021-04-20 23:16:54,977 INFO scheduler Scheduled Job Complete: frappe.email.queue.flush for my_site
2021-04-20 23:17:51,289 DEBUG scheduler Queued events for site my_site
2021-04-20 23:18:51,830 DEBUG scheduler Queued events for site my_site
2021-04-20 23:19:52,172 DEBUG scheduler Queued events for site my_site
2021-04-20 23:20:52,596 DEBUG scheduler Queued events for site my_site
2021-04-20 23:20:54,562 INFO scheduler Scheduled Job Start: frappe.monitor.flush for my_site
2021-04-20 23:20:54,718 INFO scheduler Scheduled Job Complete: frappe.monitor.flush for my_site
2021-04-20 23:20:54,794 INFO scheduler Scheduled Job Start: frappe.utils.global_search.sync_global_search for my_site
2021-04-20 23:20:54,954 INFO scheduler Scheduled Job Complete: frappe.utils.global_search.sync_global_search for my_site
2021-04-20 23:20:55,033 INFO scheduler Scheduled Job Start: frappe.integrations.doctype.razorpay_settings.razorpay_settings.capture_payment for my_site
2021-04-20 23:20:55,432 INFO scheduler Scheduled Job Complete: frappe.integrations.doctype.razorpay_settings.razorpay_settings.capture_payment for my_site
2021-04-20 23:20:55,505 INFO scheduler Scheduled Job Start: frappe.email.doctype.email_account.email_account.notify_unreplied for my_site
2021-04-20 23:20:55,821 INFO scheduler Scheduled Job Complete: frappe.email.doctype.email_account.email_account.notify_unreplied for my_site
2021-04-20 23:20:55,901 INFO scheduler Scheduled Job Start: frappe.email.doctype.email_account.email_account.pull for my_site
2021-04-20 23:20:56,225 INFO scheduler Scheduled Job Complete: frappe.email.doctype.email_account.email_account.pull for my_site
2021-04-20 23:20:56,295 INFO scheduler Scheduled Job Start: frappe.email.queue.flush for my_site
2021-04-20 23:20:56,559 INFO scheduler Scheduled Job Complete: frappe.email.queue.flush for my_site
2021-04-20 23:21:52,945 DEBUG scheduler Queued events for site my_site
2021-04-20 23:22:53,249 DEBUG scheduler Queued events for site my_site
2021-04-20 23:23:53,688 DEBUG scheduler Queued events for site my_site
2021-04-20 23:24:54,153 DEBUG scheduler Queued events for site my_site
2021-04-20 23:24:56,423 INFO scheduler Scheduled Job Start: frappe.monitor.flush for my_site
2021-04-20 23:24:56,591 INFO scheduler Scheduled Job Complete: frappe.monitor.flush for my_site
2021-04-20 23:24:56,671 INFO scheduler Scheduled Job Start: frappe.utils.global_search.sync_global_search for my_site
2021-04-20 23:24:56,853 INFO scheduler Scheduled Job Complete: frappe.utils.global_search.sync_global_search for my_site
2021-04-20 23:24:56,940 INFO scheduler Scheduled Job Start: frappe.integrations.doctype.razorpay_settings.razorpay_settings.capture_payment for my_site
2021-04-20 23:24:57,338 INFO scheduler Scheduled Job Complete: frappe.integrations.doctype.razorpay_settings.razorpay_settings.capture_payment for my_site
2021-04-20 23:24:57,418 INFO scheduler Scheduled Job Start: frappe.email.doctype.email_account.email_account.notify_unreplied for my_site
2021-04-20 23:24:57,737 INFO scheduler Scheduled Job Complete: frappe.email.doctype.email_account.email_account.notify_unreplied for my_site
2021-04-20 23:24:57,812 INFO scheduler Scheduled Job Start: frappe.email.doctype.email_account.email_account.pull for my_site
2021-04-20 23:24:58,180 INFO scheduler Scheduled Job Complete: frappe.email.doctype.email_account.email_account.pull for my_site
2021-04-20 23:24:58,254 INFO scheduler Scheduled Job Start: frappe.email.queue.flush for my_site
2021-04-20 23:24:58,526 INFO scheduler Scheduled Job Complete: frappe.email.queue.flush for my_site
2021-04-20 23:25:54,511 DEBUG scheduler Queued events for site my_site
2021-04-20 23:26:54,834 DEBUG scheduler Queued events for site my_site
2021-04-20 23:27:55,155 DEBUG scheduler Queued events for site my_site
2021-04-20 23:28:55,762 DEBUG scheduler Queued events for site my_site
2021-04-20 23:28:57,890 INFO scheduler Scheduled Job Start: frappe.monitor.flush for my_site
2021-04-20 23:28:58,049 INFO scheduler Scheduled Job Complete: frappe.monitor.flush for my_site
2021-04-20 23:28:58,134 INFO scheduler Scheduled Job Start: frappe.utils.global_search.sync_global_search for my_site
2021-04-20 23:28:58,292 INFO scheduler Scheduled Job Complete: frappe.utils.global_search.sync_global_search for my_site
2021-04-20 23:28:58,369 INFO scheduler Scheduled Job Start: frappe.integrations.doctype.razorpay_settings.razorpay_settings.capture_payment for my_site
2021-04-20 23:28:58,801 INFO scheduler Scheduled Job Complete: frappe.integrations.doctype.razorpay_settings.razorpay_settings.capture_payment for my_site
2021-04-20 23:28:58,875 INFO scheduler Scheduled Job Start: frappe.email.doctype.email_account.email_account.notify_unreplied for my_site
2021-04-20 23:28:59,206 INFO scheduler Scheduled Job Complete: frappe.email.doctype.email_account.email_account.notify_unreplied for my_site
2021-04-20 23:28:59,278 INFO scheduler Scheduled Job Start: frappe.email.doctype.email_account.email_account.pull for my_site
2021-04-20 23:28:59,626 INFO scheduler Scheduled Job Complete: frappe.email.doctype.email_account.email_account.pull for my_site
2021-04-20 23:28:59,702 INFO scheduler Scheduled Job Start: frappe.email.queue.flush for my_site
2021-04-20 23:28:59,975 INFO scheduler Scheduled Job Complete: frappe.email.queue.flush for my_site
2021-04-20 23:29:56,112 DEBUG scheduler Queued events for site my_site
2021-04-20 23:30:56,476 DEBUG scheduler Queued events for site my_site
2021-04-20 23:30:58,007 INFO scheduler Scheduled Job Start: frappe.twofactor.delete_all_barcodes_for_users for my_site
2021-04-20 23:30:58,429 INFO scheduler Scheduled Job Complete: frappe.twofactor.delete_all_barcodes_for_users for my_site
2021-04-20 23:30:58,519 INFO scheduler Scheduled Job Start: frappe.website.doctype.web_page.web_page.check_publish_status for my_site
2021-04-20 23:30:58,988 INFO scheduler Scheduled Job Complete: frappe.website.doctype.web_page.web_page.check_publish_status for my_site
2021-04-20 23:30:59,073 INFO scheduler Scheduled Job Start: frappe.oauth.delete_oauth2_data for my_site
2021-04-20 23:30:59,483 INFO scheduler Scheduled Job Complete: frappe.oauth.delete_oauth2_data for my_site
2021-04-20 23:31:56,885 DEBUG scheduler Queued events for site my_site
2021-04-20 23:32:57,436 DEBUG scheduler Queued events for site my_site
2021-04-20 23:32:59,627 INFO scheduler Scheduled Job Start: frappe.monitor.flush for my_site
2021-04-20 23:32:59,800 INFO scheduler Scheduled Job Complete: frappe.monitor.flush for my_site
2021-04-20 23:32:59,883 INFO scheduler Scheduled Job Start: frappe.utils.global_search.sync_global_search for my_site
2021-04-20 23:33:00,046 INFO scheduler Scheduled Job Complete: frappe.utils.global_search.sync_global_search for my_site
2021-04-20 23:33:00,130 INFO scheduler Scheduled Job Start: frappe.integrations.doctype.razorpay_settings.razorpay_settings.capture_payment for my_site
2021-04-20 23:33:00,551 INFO scheduler Scheduled Job Complete: frappe.integrations.doctype.razorpay_settings.razorpay_settings.capture_payment for my_site
2021-04-20 23:33:00,634 INFO scheduler Scheduled Job Start: frappe.email.doctype.email_account.email_account.notify_unreplied for my_site
2021-04-20 23:33:00,969 INFO scheduler Scheduled Job Complete: frappe.email.doctype.email_account.email_account.notify_unreplied for my_site
2021-04-20 23:33:01,047 INFO scheduler Scheduled Job Start: frappe.email.doctype.email_account.email_account.pull for my_site
2021-04-20 23:33:01,387 INFO scheduler Scheduled Job Complete: frappe.email.doctype.email_account.email_account.pull for my_site
2021-04-20 23:33:01,463 INFO scheduler Scheduled Job Start: frappe.email.queue.flush for my_site
2021-04-20 23:33:01,752 INFO scheduler Scheduled Job Complete: frappe.email.queue.flush for my_site
2021-04-20 23:33:57,782 DEBUG scheduler Queued events for site my_site
2021-04-20 23:34:58,150 DEBUG scheduler Queued events for site my_site
2021-04-20 23:35:58,486 DEBUG scheduler Queued events for site my_site
2021-04-20 23:36:58,932 DEBUG scheduler Queued events for site my_site
2021-04-20 23:37:01,308 INFO scheduler Scheduled Job Start: frappe.monitor.flush for my_site
2021-04-20 23:37:01,516 INFO scheduler Scheduled Job Complete: frappe.monitor.flush for my_site
2021-04-20 23:37:01,596 INFO scheduler Scheduled Job Start: frappe.utils.global_search.sync_global_search for my_site
2021-04-20 23:37:01,834 INFO scheduler Scheduled Job Complete: frappe.utils.global_search.sync_global_search for my_site
2021-04-20 23:37:01,946 INFO scheduler Scheduled Job Start: frappe.integrations.doctype.razorpay_settings.razorpay_settings.capture_payment for my_site
2021-04-20 23:37:02,431 INFO scheduler Scheduled Job Complete: frappe.integrations.doctype.razorpay_settings.razorpay_settings.capture_payment for my_site
2021-04-20 23:37:02,513 INFO scheduler Scheduled Job Start: frappe.email.doctype.email_account.email_account.notify_unreplied for my_site
2021-04-20 23:37:02,855 INFO scheduler Scheduled Job Complete: frappe.email.doctype.email_account.email_account.notify_unreplied for my_site
2021-04-20 23:37:02,935 INFO scheduler Scheduled Job Start: frappe.email.doctype.email_account.email_account.pull for my_site
2021-04-20 23:37:03,262 INFO scheduler Scheduled Job Complete: frappe.email.doctype.email_account.email_account.pull for my_site
2021-04-20 23:37:03,340 INFO scheduler Scheduled Job Start: frappe.email.queue.flush for my_site
2021-04-20 23:37:03,778 INFO scheduler Scheduled Job Complete: frappe.email.queue.flush for my_site
2021-04-20 23:37:59,297 DEBUG scheduler Queued events for site my_site
2021-04-20 23:38:59,690 DEBUG scheduler Queued events for site my_site
2021-04-20 23:40:00,113 DEBUG scheduler Queued events for site my_site
2021-04-20 23:40:00,154 INFO scheduler Scheduled Job Start: frappe.monitor.flush for my_site
2021-04-20 23:40:00,321 INFO scheduler Scheduled Job Complete: frappe.monitor.flush for my_site
2021-04-20 23:40:00,401 INFO scheduler Scheduled Job Start: frappe.utils.global_search.sync_global_search for my_site
2021-04-20 23:40:00,567 INFO scheduler Scheduled Job Complete: frappe.utils.global_search.sync_global_search for my_site
2021-04-20 23:40:00,643 INFO scheduler Scheduled Job Start: frappe.integrations.doctype.razorpay_settings.razorpay_settings.capture_payment for my_site
2021-04-20 23:40:01,113 INFO scheduler Scheduled Job Complete: frappe.integrations.doctype.razorpay_settings.razorpay_settings.capture_payment for my_site
2021-04-20 23:40:01,193 INFO scheduler Scheduled Job Start: frappe.email.doctype.email_account.email_account.notify_unreplied for my_site
2021-04-20 23:40:01,549 INFO scheduler Scheduled Job Complete: frappe.email.doctype.email_account.email_account.notify_unreplied for my_site
2021-04-20 23:40:01,622 INFO scheduler Scheduled Job Start: frappe.email.doctype.email_account.email_account.pull for my_site
2021-04-20 23:40:01,970 INFO scheduler Scheduled Job Complete: frappe.email.doctype.email_account.email_account.pull for my_site
2021-04-20 23:40:02,056 INFO scheduler Scheduled Job Start: frappe.email.queue.flush for my_site
2021-04-20 23:40:02,430 INFO scheduler Scheduled Job Complete: frappe.email.queue.flush for my_site
2021-04-20 23:41:00,550 DEBUG scheduler Queued events for site my_site
2021-04-20 23:42:00,885 DEBUG scheduler Queued events for site my_site
2021-04-20 23:43:01,215 DEBUG scheduler Queued events for site my_site
2021-04-20 23:44:01,684 DEBUG scheduler Queued events for site my_site
2021-04-20 23:44:03,868 INFO scheduler Scheduled Job Start: frappe.monitor.flush for my_site
2021-04-20 23:44:04,067 INFO scheduler Scheduled Job Complete: frappe.monitor.flush for my_site
2021-04-20 23:44:04,142 INFO scheduler Scheduled Job Start: frappe.utils.global_search.sync_global_search for my_site
2021-04-20 23:44:04,341 INFO scheduler Scheduled Job Complete: frappe.utils.global_search.sync_global_search for my_site
2021-04-20 23:44:04,440 INFO scheduler Scheduled Job Start: frappe.integrations.doctype.razorpay_settings.razorpay_settings.capture_payment for my_site
2021-04-20 23:44:04,954 INFO scheduler Scheduled Job Complete: frappe.integrations.doctype.razorpay_settings.razorpay_settings.capture_payment for my_site
2021-04-20 23:44:05,039 INFO scheduler Scheduled Job Start: frappe.email.doctype.email_account.email_account.notify_unreplied for my_site
2021-04-20 23:44:05,378 INFO scheduler Scheduled Job Complete: frappe.email.doctype.email_account.email_account.notify_unreplied for my_site
2021-04-20 23:44:05,458 INFO scheduler Scheduled Job Start: frappe.email.doctype.email_account.email_account.pull for my_site
2021-04-20 23:44:05,790 INFO scheduler Scheduled Job Complete: frappe.email.doctype.email_account.email_account.pull for my_site
2021-04-20 23:44:05,861 INFO scheduler Scheduled Job Start: frappe.email.queue.flush for my_site
2021-04-20 23:44:06,130 INFO scheduler Scheduled Job Complete: frappe.email.queue.flush for my_site
2021-04-21 22:19:35,056 DEBUG scheduler Queued events for site my_site
2021-04-21 22:19:39,566 INFO scheduler Scheduled Job Start: frappe.integrations.doctype.google_drive.google_drive.daily_backup for my_site
2021-04-21 22:19:40,579 INFO scheduler Scheduled Job Complete: frappe.integrations.doctype.google_drive.google_drive.daily_backup for my_site
2021-04-21 22:19:40,675 INFO scheduler Scheduled Job Start: frappe.integrations.doctype.s3_backup_settings.s3_backup_settings.take_backups_daily for my_site
2021-04-21 22:19:41,157 INFO scheduler Scheduled Job Complete: frappe.integrations.doctype.s3_backup_settings.s3_backup_settings.take_backups_daily for my_site
2021-04-21 22:19:41,251 INFO scheduler Scheduled Job Start: frappe.utils.change_log.check_for_update for my_site
2021-04-21 22:19:43,083 INFO scheduler Scheduled Job Failed: frappe.utils.change_log.check_for_update for my_site
2021-04-21 22:19:43,221 INFO scheduler Scheduled Job Start: frappe.integrations.doctype.dropbox_settings.dropbox_settings.take_backups_daily for my_site
2021-04-21 22:19:44,323 INFO scheduler Scheduled Job Complete: frappe.integrations.doctype.dropbox_settings.dropbox_settings.take_backups_daily for my_site
2021-04-21 22:19:55,340 INFO scheduler Scheduled Job Start: frappe.core.doctype.log_settings.log_settings.run_log_clean_up for my_site
2021-04-21 22:19:55,785 INFO scheduler Scheduled Job Complete: frappe.core.doctype.log_settings.log_settings.run_log_clean_up for my_site
2021-04-21 22:19:55,872 INFO scheduler Scheduled Job Start: frappe.core.doctype.prepared_report.prepared_report.delete_expired_prepared_reports for my_site
2021-04-21 22:19:56,312 INFO scheduler Scheduled Job Complete: frappe.core.doctype.prepared_report.prepared_report.delete_expired_prepared_reports for my_site
2021-04-21 22:19:56,397 INFO scheduler Scheduled Job Start: frappe.email.doctype.unhandled_email.unhandled_email.remove_old_unhandled_emails for my_site
2021-04-21 22:19:56,800 INFO scheduler Scheduled Job Complete: frappe.email.doctype.unhandled_email.unhandled_email.remove_old_unhandled_emails for my_site
2021-04-21 22:19:56,902 INFO scheduler Scheduled Job Start: frappe.automation.doctype.auto_repeat.auto_repeat.set_auto_repeat_as_completed for my_site
2021-04-21 22:19:57,350 INFO scheduler Scheduled Job Complete: frappe.automation.doctype.auto_repeat.auto_repeat.set_auto_repeat_as_completed for my_site
2021-04-21 22:19:57,442 INFO scheduler Scheduled Job Start: frappe.automation.doctype.auto_repeat.auto_repeat.make_auto_repeat_entry for my_site
2021-04-21 22:19:57,912 INFO scheduler Scheduled Job Complete: frappe.automation.doctype.auto_repeat.auto_repeat.make_auto_repeat_entry for my_site
2021-04-21 22:19:58,002 INFO scheduler Scheduled Job Start: frappe.integrations.doctype.google_contacts.google_contacts.sync for my_site
2021-04-21 22:19:58,613 INFO scheduler Scheduled Job Complete: frappe.integrations.doctype.google_contacts.google_contacts.sync for my_site
2021-04-21 22:19:58,701 INFO scheduler Scheduled Job Start: frappe.social.doctype.energy_point_settings.energy_point_settings.allocate_review_points for my_site
2021-04-21 22:19:59,082 INFO scheduler Scheduled Job Complete: frappe.social.doctype.energy_point_settings.energy_point_settings.allocate_review_points for my_site
2021-04-21 22:19:59,240 INFO scheduler Scheduled Job Start: frappe.desk.form.document_follow.send_daily_updates for my_site
2021-04-21 22:19:59,997 INFO scheduler Scheduled Job Complete: frappe.desk.form.document_follow.send_daily_updates for my_site
2021-04-21 22:20:00,127 INFO scheduler Scheduled Job Start: frappe.website.doctype.personal_data_deletion_request.personal_data_deletion_request.remove_unverified_record for my_site
2021-04-21 22:20:00,571 INFO scheduler Scheduled Job Complete: frappe.website.doctype.personal_data_deletion_request.personal_data_deletion_request.remove_unverified_record for my_site
2021-04-21 22:20:00,716 INFO scheduler Scheduled Job Start: frappe.email.doctype.auto_email_report.auto_email_report.send_daily for my_site
2021-04-21 22:20:02,107 INFO scheduler Scheduled Job Complete: frappe.email.doctype.auto_email_report.auto_email_report.send_daily for my_site
2021-04-21 22:20:02,239 INFO scheduler Scheduled Job Start: frappe.utils.scheduler.restrict_scheduler_events_if_dormant for my_site
2021-04-21 22:20:02,933 INFO scheduler Scheduled Job Failed: frappe.utils.scheduler.restrict_scheduler_events_if_dormant for my_site
2021-04-21 22:20:03,093 INFO scheduler Scheduled Job Start: frappe.realtime.remove_old_task_logs for my_site
2021-04-21 22:20:03,788 INFO scheduler Scheduled Job Complete: frappe.realtime.remove_old_task_logs for my_site
2021-04-21 22:20:03,953 INFO scheduler Scheduled Job Start: frappe.email.doctype.notification.notification.trigger_daily_alerts for my_site
2021-04-21 22:20:04,539 INFO scheduler Scheduled Job Complete: frappe.email.doctype.notification.notification.trigger_daily_alerts for my_site
2021-04-21 22:20:04,652 INFO scheduler Scheduled Job Start: frappe.sessions.clear_expired_sessions for my_site
2021-04-21 22:20:05,303 INFO scheduler Scheduled Job Complete: frappe.sessions.clear_expired_sessions for my_site
2021-04-21 22:20:05,462 INFO scheduler Scheduled Job Start: frappe.desk.doctype.event.event.send_event_digest for my_site
2021-04-21 22:20:06,392 INFO scheduler Scheduled Job Complete: frappe.desk.doctype.event.event.send_event_digest for my_site
2021-04-21 22:20:06,557 INFO scheduler Scheduled Job Start: frappe.core.doctype.error_log.error_log.set_old_logs_as_seen for my_site
2021-04-21 22:20:07,242 INFO scheduler Scheduled Job Complete: frappe.core.doctype.error_log.error_log.set_old_logs_as_seen for my_site
2021-04-21 22:20:07,355 INFO scheduler Scheduled Job Start: frappe.desk.notifications.clear_notifications for my_site
2021-04-21 22:20:07,856 INFO scheduler Scheduled Job Complete: frappe.desk.notifications.clear_notifications for my_site
2021-04-21 22:20:07,959 INFO scheduler Scheduled Job Start: frappe.email.queue.set_expiry_for_email_queue for my_site
2021-04-21 22:20:08,416 INFO scheduler Scheduled Job Complete: frappe.email.queue.set_expiry_for_email_queue for my_site
2021-04-21 22:20:08,504 INFO scheduler Scheduled Job Start: frappe.email.doctype.newsletter.newsletter.send_scheduled_email for my_site
2021-04-21 22:20:09,138 INFO scheduler Scheduled Job Complete: frappe.email.doctype.newsletter.newsletter.send_scheduled_email for my_site
2021-04-21 22:20:09,236 INFO scheduler Scheduled Job Start: frappe.integrations.doctype.google_calendar.google_calendar.sync for my_site
2021-04-21 22:20:09,870 INFO scheduler Scheduled Job Complete: frappe.integrations.doctype.google_calendar.google_calendar.sync for my_site
2021-04-21 22:20:09,987 INFO scheduler Scheduled Job Start: frappe.desk.form.document_follow.send_hourly_updates for my_site
2021-04-21 22:20:10,389 INFO scheduler Scheduled Job Complete: frappe.desk.form.document_follow.send_hourly_updates for my_site
2021-04-21 22:20:10,513 INFO scheduler Scheduled Job Start: frappe.deferred_insert.save_to_db for my_site
2021-04-21 22:20:10,962 INFO scheduler Scheduled Job Complete: frappe.deferred_insert.save_to_db for my_site
2021-04-21 22:20:11,049 INFO scheduler Scheduled Job Start: frappe.desk.page.backups.backups.delete_downloadable_backups for my_site
2021-04-21 22:20:11,459 INFO scheduler Scheduled Job Complete: frappe.desk.page.backups.backups.delete_downloadable_backups for my_site
2021-04-21 22:20:11,544 INFO scheduler Scheduled Job Start: frappe.utils.error.collect_error_snapshots for my_site
2021-04-21 22:20:11,931 INFO scheduler Scheduled Job Complete: frappe.utils.error.collect_error_snapshots for my_site
2021-04-21 22:20:12,018 INFO scheduler Scheduled Job Start: frappe.model.utils.user_settings.sync_user_settings for my_site
2021-04-21 22:20:12,413 INFO scheduler Scheduled Job Complete: frappe.model.utils.user_settings.sync_user_settings for my_site
2021-04-21 22:20:12,509 INFO scheduler Scheduled Job Start: frappe.model.utils.link_count.update_link_count for my_site
2021-04-21 22:20:12,901 INFO scheduler Scheduled Job Complete: frappe.model.utils.link_count.update_link_count for my_site
2021-04-21 22:20:12,985 INFO scheduler Scheduled Job Start: frappe.monitor.flush for my_site
2021-04-21 22:20:13,143 INFO scheduler Scheduled Job Complete: frappe.monitor.flush for my_site
2021-04-21 22:20:13,224 INFO scheduler Scheduled Job Start: frappe.utils.global_search.sync_global_search for my_site
2021-04-21 22:20:13,384 INFO scheduler Scheduled Job Complete: frappe.utils.global_search.sync_global_search for my_site
2021-04-21 22:20:13,459 INFO scheduler Scheduled Job Start: frappe.integrations.doctype.razorpay_settings.razorpay_settings.capture_payment for my_site
2021-04-21 22:20:14,086 INFO scheduler Scheduled Job Complete: frappe.integrations.doctype.razorpay_settings.razorpay_settings.capture_payment for my_site
2021-04-21 22:20:14,160 INFO scheduler Scheduled Job Start: frappe.email.doctype.email_account.email_account.notify_unreplied for my_site
2021-04-21 22:20:14,605 INFO scheduler Scheduled Job Complete: frappe.email.doctype.email_account.email_account.notify_unreplied for my_site
2021-04-21 22:20:14,693 INFO scheduler Scheduled Job Start: frappe.email.doctype.email_account.email_account.pull for my_site
2021-04-21 22:20:15,072 INFO scheduler Scheduled Job Complete: frappe.email.doctype.email_account.email_account.pull for my_site
2021-04-21 22:20:15,151 INFO scheduler Scheduled Job Start: frappe.email.queue.flush for my_site
2021-04-21 22:20:15,414 INFO scheduler Scheduled Job Complete: frappe.email.queue.flush for my_site
2021-04-21 22:20:15,484 INFO scheduler Scheduled Job Start: frappe.twofactor.delete_all_barcodes_for_users for my_site
2021-04-21 22:20:15,894 INFO scheduler Scheduled Job Complete: frappe.twofactor.delete_all_barcodes_for_users for my_site
2021-04-21 22:20:15,974 INFO scheduler Scheduled Job Start: frappe.website.doctype.web_page.web_page.check_publish_status for my_site
2021-04-21 22:20:16,471 INFO scheduler Scheduled Job Complete: frappe.website.doctype.web_page.web_page.check_publish_status for my_site
2021-04-21 22:20:16,563 INFO scheduler Scheduled Job Start: frappe.oauth.delete_oauth2_data for my_site
2021-04-21 22:20:17,020 INFO scheduler Scheduled Job Complete: frappe.oauth.delete_oauth2_data for my_site
2021-04-21 22:20:35,624 DEBUG scheduler Queued events for site my_site
2021-04-21 22:21:35,972 DEBUG scheduler Queued events for site my_site
2021-04-21 22:22:36,291 DEBUG scheduler Queued events for site my_site
2021-04-21 22:23:36,651 DEBUG scheduler Queued events for site my_site
2021-04-21 22:24:37,093 DEBUG scheduler Queued events for site my_site
2021-04-21 22:24:39,483 INFO scheduler Scheduled Job Start: frappe.monitor.flush for my_site
2021-04-21 22:24:39,750 INFO scheduler Scheduled Job Complete: frappe.monitor.flush for my_site
2021-04-21 22:24:39,888 INFO scheduler Scheduled Job Start: frappe.utils.global_search.sync_global_search for my_site
2021-04-21 22:24:40,148 INFO scheduler Scheduled Job Complete: frappe.utils.global_search.sync_global_search for my_site
2021-04-21 22:24:40,279 INFO scheduler Scheduled Job Start: frappe.integrations.doctype.razorpay_settings.razorpay_settings.capture_payment for my_site
2021-04-21 22:24:40,959 INFO scheduler Scheduled Job Complete: frappe.integrations.doctype.razorpay_settings.razorpay_settings.capture_payment for my_site
2021-04-21 22:24:41,057 INFO scheduler Scheduled Job Start: frappe.email.doctype.email_account.email_account.notify_unreplied for my_site
2021-04-21 22:24:41,517 INFO scheduler Scheduled Job Complete: frappe.email.doctype.email_account.email_account.notify_unreplied for my_site
2021-04-21 22:24:41,657 INFO scheduler Scheduled Job Start: frappe.email.doctype.email_account.email_account.pull for my_site
2021-04-21 22:24:42,218 INFO scheduler Scheduled Job Complete: frappe.email.doctype.email_account.email_account.pull for my_site
2021-04-21 22:24:42,417 INFO scheduler Scheduled Job Start: frappe.email.queue.flush for my_site
2021-04-21 22:24:42,891 INFO scheduler Scheduled Job Complete: frappe.email.queue.flush for my_site
2021-04-21 22:25:37,442 DEBUG scheduler Queued events for site my_site
2021-04-21 22:26:37,755 DEBUG scheduler Queued events for site my_site
2021-04-21 22:27:38,160 DEBUG scheduler Queued events for site my_site
2021-04-21 22:28:38,671 DEBUG scheduler Queued events for site my_site
2021-04-21 22:28:40,950 INFO scheduler Scheduled Job Start: frappe.monitor.flush for my_site
2021-04-21 22:28:41,105 INFO scheduler Scheduled Job Complete: frappe.monitor.flush for my_site
2021-04-21 22:28:41,183 INFO scheduler Scheduled Job Start: frappe.utils.global_search.sync_global_search for my_site
2021-04-21 22:28:41,348 INFO scheduler Scheduled Job Complete: frappe.utils.global_search.sync_global_search for my_site
2021-04-21 22:28:41,424 INFO scheduler Scheduled Job Start: frappe.integrations.doctype.razorpay_settings.razorpay_settings.capture_payment for my_site
2021-04-21 22:28:41,834 INFO scheduler Scheduled Job Complete: frappe.integrations.doctype.razorpay_settings.razorpay_settings.capture_payment for my_site
2021-04-21 22:28:41,915 INFO scheduler Scheduled Job Start: frappe.email.doctype.email_account.email_account.notify_unreplied for my_site
2021-04-21 22:28:42,235 INFO scheduler Scheduled Job Complete: frappe.email.doctype.email_account.email_account.notify_unreplied for my_site
2021-04-21 22:28:42,327 INFO scheduler Scheduled Job Start: frappe.email.doctype.email_account.email_account.pull for my_site
2021-04-21 22:28:42,675 INFO scheduler Scheduled Job Complete: frappe.email.doctype.email_account.email_account.pull for my_site
2021-04-21 22:28:42,747 INFO scheduler Scheduled Job Start: frappe.email.queue.flush for my_site
2021-04-21 22:28:43,051 INFO scheduler Scheduled Job Complete: frappe.email.queue.flush for my_site
2021-04-21 22:29:39,256 DEBUG scheduler Queued events for site my_site
2021-04-21 22:30:39,736 DEBUG scheduler Queued events for site my_site
2021-04-21 22:30:41,672 INFO scheduler Scheduled Job Start: frappe.twofactor.delete_all_barcodes_for_users for my_site
2021-04-21 22:30:42,124 INFO scheduler Scheduled Job Complete: frappe.twofactor.delete_all_barcodes_for_users for my_site
2021-04-21 22:30:42,219 INFO scheduler Scheduled Job Start: frappe.website.doctype.web_page.web_page.check_publish_status for my_site
2021-04-21 22:30:42,715 INFO scheduler Scheduled Job Complete: frappe.website.doctype.web_page.web_page.check_publish_status for my_site
2021-04-21 22:30:42,802 INFO scheduler Scheduled Job Start: frappe.oauth.delete_oauth2_data for my_site
2021-04-21 22:30:43,215 INFO scheduler Scheduled Job Complete: frappe.oauth.delete_oauth2_data for my_site
2021-04-21 22:31:40,172 DEBUG scheduler Queued events for site my_site
2021-04-21 22:32:40,616 DEBUG scheduler Queued events for site my_site
2021-04-21 22:32:42,800 INFO scheduler Scheduled Job Start: frappe.monitor.flush for my_site
2021-04-21 22:32:42,952 INFO scheduler Scheduled Job Complete: frappe.monitor.flush for my_site
2021-04-21 22:32:43,024 INFO scheduler Scheduled Job Start: frappe.utils.global_search.sync_global_search for my_site
2021-04-21 22:32:43,181 INFO scheduler Scheduled Job Complete: frappe.utils.global_search.sync_global_search for my_site
2021-04-21 22:32:43,256 INFO scheduler Scheduled Job Start: frappe.integrations.doctype.razorpay_settings.razorpay_settings.capture_payment for my_site
2021-04-21 22:32:43,648 INFO scheduler Scheduled Job Complete: frappe.integrations.doctype.razorpay_settings.razorpay_settings.capture_payment for my_site
2021-04-21 22:32:43,719 INFO scheduler Scheduled Job Start: frappe.email.doctype.email_account.email_account.notify_unreplied for my_site
2021-04-21 22:32:44,023 INFO scheduler Scheduled Job Complete: frappe.email.doctype.email_account.email_account.notify_unreplied for my_site
2021-04-21 22:32:44,105 INFO scheduler Scheduled Job Start: frappe.email.doctype.email_account.email_account.pull for my_site
2021-04-21 22:32:44,421 INFO scheduler Scheduled Job Complete: frappe.email.doctype.email_account.email_account.pull for my_site
2021-04-21 22:32:44,493 INFO scheduler Scheduled Job Start: frappe.email.queue.flush for my_site
2021-04-21 22:32:44,759 INFO scheduler Scheduled Job Complete: frappe.email.queue.flush for my_site
2021-04-21 22:33:40,960 DEBUG scheduler Queued events for site my_site
2021-04-21 22:34:41,269 DEBUG scheduler Queued events for site my_site
2021-04-21 22:35:41,605 DEBUG scheduler Queued events for site my_site
2021-04-21 22:36:42,036 DEBUG scheduler Queued events for site my_site
2021-04-21 22:36:44,395 INFO scheduler Scheduled Job Start: frappe.monitor.flush for my_site
2021-04-21 22:36:44,600 INFO scheduler Scheduled Job Complete: frappe.monitor.flush for my_site
2021-04-21 22:36:44,700 INFO scheduler Scheduled Job Start: frappe.utils.global_search.sync_global_search for my_site
2021-04-21 22:36:44,911 INFO scheduler Scheduled Job Complete: frappe.utils.global_search.sync_global_search for my_site
2021-04-21 22:36:44,988 INFO scheduler Scheduled Job Start: frappe.integrations.doctype.razorpay_settings.razorpay_settings.capture_payment for my_site
2021-04-21 22:36:45,428 INFO scheduler Scheduled Job Complete: frappe.integrations.doctype.razorpay_settings.razorpay_settings.capture_payment for my_site
2021-04-21 22:36:45,517 INFO scheduler Scheduled Job Start: frappe.email.doctype.email_account.email_account.notify_unreplied for my_site
2021-04-21 22:36:45,886 INFO scheduler Scheduled Job Complete: frappe.email.doctype.email_account.email_account.notify_unreplied for my_site
2021-04-21 22:36:45,968 INFO scheduler Scheduled Job Start: frappe.email.doctype.email_account.email_account.pull for my_site
2021-04-21 22:36:46,327 INFO scheduler Scheduled Job Complete: frappe.email.doctype.email_account.email_account.pull for my_site
2021-04-21 22:36:46,408 INFO scheduler Scheduled Job Start: frappe.email.queue.flush for my_site
2021-04-21 22:36:46,688 INFO scheduler Scheduled Job Complete: frappe.email.queue.flush for my_site
2021-04-21 22:37:42,521 DEBUG scheduler Queued events for site my_site
2021-04-21 22:38:42,834 DEBUG scheduler Queued events for site my_site
2021-04-21 22:39:43,155 DEBUG scheduler Queued events for site my_site
2021-04-21 22:40:43,671 DEBUG scheduler Queued events for site my_site
2021-04-21 22:40:45,656 INFO scheduler Scheduled Job Start: frappe.monitor.flush for my_site
2021-04-21 22:40:45,829 INFO scheduler Scheduled Job Complete: frappe.monitor.flush for my_site
2021-04-21 22:40:45,903 INFO scheduler Scheduled Job Start: frappe.utils.global_search.sync_global_search for my_site
2021-04-21 22:40:46,082 INFO scheduler Scheduled Job Complete: frappe.utils.global_search.sync_global_search for my_site
2021-04-21 22:40:46,166 INFO scheduler Scheduled Job Start: frappe.integrations.doctype.razorpay_settings.razorpay_settings.capture_payment for my_site
2021-04-21 22:40:46,573 INFO scheduler Scheduled Job Complete: frappe.integrations.doctype.razorpay_settings.razorpay_settings.capture_payment for my_site
2021-04-21 22:40:46,645 INFO scheduler Scheduled Job Start: frappe.email.doctype.email_account.email_account.notify_unreplied for my_site
2021-04-21 22:40:46,971 INFO scheduler Scheduled Job Complete: frappe.email.doctype.email_account.email_account.notify_unreplied for my_site
2021-04-21 22:40:47,045 INFO scheduler Scheduled Job Start: frappe.email.doctype.email_account.email_account.pull for my_site
2021-04-21 22:40:47,362 INFO scheduler Scheduled Job Complete: frappe.email.doctype.email_account.email_account.pull for my_site
2021-04-21 22:40:47,439 INFO scheduler Scheduled Job Start: frappe.email.queue.flush for my_site
2021-04-21 22:40:47,728 INFO scheduler Scheduled Job Complete: frappe.email.queue.flush for my_site
2021-04-21 22:41:44,047 DEBUG scheduler Queued events for site my_site
2021-04-21 22:42:44,350 DEBUG scheduler Queued events for site my_site
2021-04-21 22:43:44,665 DEBUG scheduler Queued events for site my_site
2021-04-21 22:44:45,134 DEBUG scheduler Queued events for site my_site
2021-04-21 22:44:47,095 INFO scheduler Scheduled Job Start: frappe.monitor.flush for my_site
2021-04-21 22:44:47,257 INFO scheduler Scheduled Job Complete: frappe.monitor.flush for my_site
2021-04-21 22:44:47,342 INFO scheduler Scheduled Job Start: frappe.utils.global_search.sync_global_search for my_site
2021-04-21 22:44:47,512 INFO scheduler Scheduled Job Complete: frappe.utils.global_search.sync_global_search for my_site
2021-04-21 22:44:47,600 INFO scheduler Scheduled Job Start: frappe.integrations.doctype.razorpay_settings.razorpay_settings.capture_payment for my_site
2021-04-21 22:44:48,013 INFO scheduler Scheduled Job Complete: frappe.integrations.doctype.razorpay_settings.razorpay_settings.capture_payment for my_site
2021-04-21 22:44:48,093 INFO scheduler Scheduled Job Start: frappe.email.doctype.email_account.email_account.notify_unreplied for my_site
2021-04-21 22:44:48,425 INFO scheduler Scheduled Job Complete: frappe.email.doctype.email_account.email_account.notify_unreplied for my_site
2021-04-21 22:44:48,502 INFO scheduler Scheduled Job Start: frappe.email.doctype.email_account.email_account.pull for my_site
2021-04-21 22:44:48,841 INFO scheduler Scheduled Job Complete: frappe.email.doctype.email_account.email_account.pull for my_site
2021-04-21 22:44:48,917 INFO scheduler Scheduled Job Start: frappe.email.queue.flush for my_site
2021-04-21 22:44:49,180 INFO scheduler Scheduled Job Complete: frappe.email.queue.flush for my_site
2021-04-21 22:45:45,542 DEBUG scheduler Queued events for site my_site
2021-04-21 22:45:47,182 INFO scheduler Scheduled Job Start: frappe.twofactor.delete_all_barcodes_for_users for my_site
2021-04-21 22:45:47,617 INFO scheduler Scheduled Job Complete: frappe.twofactor.delete_all_barcodes_for_users for my_site
2021-04-21 22:45:47,708 INFO scheduler Scheduled Job Start: frappe.website.doctype.web_page.web_page.check_publish_status for my_site
2021-04-21 22:45:48,170 INFO scheduler Scheduled Job Complete: frappe.website.doctype.web_page.web_page.check_publish_status for my_site
2021-04-21 22:45:48,257 INFO scheduler Scheduled Job Start: frappe.oauth.delete_oauth2_data for my_site
2021-04-21 22:45:48,669 INFO scheduler Scheduled Job Complete: frappe.oauth.delete_oauth2_data for my_site
2021-04-21 22:46:45,890 DEBUG scheduler Queued events for site my_site
2021-04-21 22:47:46,208 DEBUG scheduler Queued events for site my_site
2021-04-21 22:48:46,637 DEBUG scheduler Queued events for site my_site
2021-04-21 22:48:48,586 INFO scheduler Scheduled Job Start: frappe.monitor.flush for my_site
2021-04-21 22:48:48,748 INFO scheduler Scheduled Job Complete: frappe.monitor.flush for my_site
2021-04-21 22:48:48,822 INFO scheduler Scheduled Job Start: frappe.utils.global_search.sync_global_search for my_site
2021-04-21 22:48:48,980 INFO scheduler Scheduled Job Complete: frappe.utils.global_search.sync_global_search for my_site
2021-04-21 22:48:49,056 INFO scheduler Scheduled Job Start: frappe.integrations.doctype.razorpay_settings.razorpay_settings.capture_payment for my_site
2021-04-21 22:48:49,450 INFO scheduler Scheduled Job Complete: frappe.integrations.doctype.razorpay_settings.razorpay_settings.capture_payment for my_site
2021-04-21 22:48:49,520 INFO scheduler Scheduled Job Start: frappe.email.doctype.email_account.email_account.notify_unreplied for my_site
2021-04-21 22:48:49,831 INFO scheduler Scheduled Job Complete: frappe.email.doctype.email_account.email_account.notify_unreplied for my_site
2021-04-21 22:48:49,900 INFO scheduler Scheduled Job Start: frappe.email.doctype.email_account.email_account.pull for my_site
2021-04-21 22:48:50,243 INFO scheduler Scheduled Job Complete: frappe.email.doctype.email_account.email_account.pull for my_site
2021-04-21 22:48:50,313 INFO scheduler Scheduled Job Start: frappe.email.queue.flush for my_site
2021-04-21 22:48:50,574 INFO scheduler Scheduled Job Complete: frappe.email.queue.flush for my_site
2021-04-21 22:49:46,980 DEBUG scheduler Queued events for site my_site
2021-04-21 22:50:47,320 DEBUG scheduler Queued events for site my_site
2021-04-21 22:51:47,675 DEBUG scheduler Queued events for site my_site
2021-04-21 22:52:48,116 DEBUG scheduler Queued events for site my_site
2021-04-21 22:52:50,031 INFO scheduler Scheduled Job Start: frappe.monitor.flush for my_site
2021-04-21 22:52:50,185 INFO scheduler Scheduled Job Complete: frappe.monitor.flush for my_site
2021-04-21 22:52:50,260 INFO scheduler Scheduled Job Start: frappe.utils.global_search.sync_global_search for my_site
2021-04-21 22:52:50,417 INFO scheduler Scheduled Job Complete: frappe.utils.global_search.sync_global_search for my_site
2021-04-21 22:52:50,498 INFO scheduler Scheduled Job Start: frappe.integrations.doctype.razorpay_settings.razorpay_settings.capture_payment for my_site
2021-04-21 22:52:50,887 INFO scheduler Scheduled Job Complete: frappe.integrations.doctype.razorpay_settings.razorpay_settings.capture_payment for my_site
2021-04-21 22:52:50,960 INFO scheduler Scheduled Job Start: frappe.email.doctype.email_account.email_account.notify_unreplied for my_site
2021-04-21 22:52:51,266 INFO scheduler Scheduled Job Complete: frappe.email.doctype.email_account.email_account.notify_unreplied for my_site
2021-04-21 22:52:51,336 INFO scheduler Scheduled Job Start: frappe.email.doctype.email_account.email_account.pull for my_site
2021-04-21 22:52:51,661 INFO scheduler Scheduled Job Complete: frappe.email.doctype.email_account.email_account.pull for my_site
2021-04-21 22:52:51,731 INFO scheduler Scheduled Job Start: frappe.email.queue.flush for my_site
2021-04-21 22:52:51,995 INFO scheduler Scheduled Job Complete: frappe.email.queue.flush for my_site
2021-04-21 22:53:48,466 DEBUG scheduler Queued events for site my_site
2021-04-21 22:54:48,803 DEBUG scheduler Queued events for site my_site
2021-04-21 22:55:49,121 DEBUG scheduler Queued events for site my_site
2021-04-21 22:56:49,532 DEBUG scheduler Queued events for site my_site
2021-04-21 22:56:51,423 INFO scheduler Scheduled Job Start: frappe.monitor.flush for my_site
2021-04-21 22:56:51,578 INFO scheduler Scheduled Job Complete: frappe.monitor.flush for my_site
2021-04-21 22:56:51,651 INFO scheduler Scheduled Job Start: frappe.utils.global_search.sync_global_search for my_site
2021-04-21 22:56:51,804 INFO scheduler Scheduled Job Complete: frappe.utils.global_search.sync_global_search for my_site
2021-04-21 22:56:51,873 INFO scheduler Scheduled Job Start: frappe.integrations.doctype.razorpay_settings.razorpay_settings.capture_payment for my_site
2021-04-21 22:56:52,257 INFO scheduler Scheduled Job Complete: frappe.integrations.doctype.razorpay_settings.razorpay_settings.capture_payment for my_site
2021-04-21 22:56:52,328 INFO scheduler Scheduled Job Start: frappe.email.doctype.email_account.email_account.notify_unreplied for my_site
2021-04-21 22:56:52,627 INFO scheduler Scheduled Job Complete: frappe.email.doctype.email_account.email_account.notify_unreplied for my_site
2021-04-21 22:56:52,697 INFO scheduler Scheduled Job Start: frappe.email.doctype.email_account.email_account.pull for my_site
2021-04-21 22:56:53,012 INFO scheduler Scheduled Job Complete: frappe.email.doctype.email_account.email_account.pull for my_site
2021-04-21 22:56:53,084 INFO scheduler Scheduled Job Start: frappe.email.queue.flush for my_site
2021-04-21 22:56:53,347 INFO scheduler Scheduled Job Complete: frappe.email.queue.flush for my_site
2021-04-21 22:57:49,878 DEBUG scheduler Queued events for site my_site
2021-04-21 22:58:50,199 DEBUG scheduler Queued events for site my_site
2021-04-21 22:59:50,527 DEBUG scheduler Queued events for site my_site
2021-04-21 23:00:51,648 DEBUG scheduler Queued events for site my_site
2021-04-21 23:01:02,187 INFO scheduler Scheduled Job Start: frappe.email.doctype.newsletter.newsletter.send_scheduled_email for my_site
2021-04-21 23:01:02,730 INFO scheduler Scheduled Job Complete: frappe.email.doctype.newsletter.newsletter.send_scheduled_email for my_site
2021-04-21 23:01:02,834 INFO scheduler Scheduled Job Start: frappe.integrations.doctype.google_calendar.google_calendar.sync for my_site
2021-04-21 23:01:03,475 INFO scheduler Scheduled Job Complete: frappe.integrations.doctype.google_calendar.google_calendar.sync for my_site
2021-04-21 23:01:03,570 INFO scheduler Scheduled Job Start: frappe.desk.form.document_follow.send_hourly_updates for my_site
2021-04-21 23:01:04,040 INFO scheduler Scheduled Job Complete: frappe.desk.form.document_follow.send_hourly_updates for my_site
2021-04-21 23:01:04,136 INFO scheduler Scheduled Job Start: frappe.deferred_insert.save_to_db for my_site
2021-04-21 23:01:04,532 INFO scheduler Scheduled Job Complete: frappe.deferred_insert.save_to_db for my_site
2021-04-21 23:01:04,639 INFO scheduler Scheduled Job Start: frappe.desk.page.backups.backups.delete_downloadable_backups for my_site
2021-04-21 23:01:05,241 INFO scheduler Scheduled Job Complete: frappe.desk.page.backups.backups.delete_downloadable_backups for my_site
2021-04-21 23:01:05,425 INFO scheduler Scheduled Job Start: frappe.utils.error.collect_error_snapshots for my_site
2021-04-21 23:01:06,165 INFO scheduler Scheduled Job Complete: frappe.utils.error.collect_error_snapshots for my_site
2021-04-21 23:01:06,265 INFO scheduler Scheduled Job Start: frappe.model.utils.user_settings.sync_user_settings for my_site
2021-04-21 23:01:06,683 INFO scheduler Scheduled Job Complete: frappe.model.utils.user_settings.sync_user_settings for my_site
2021-04-21 23:01:06,791 INFO scheduler Scheduled Job Start: frappe.model.utils.link_count.update_link_count for my_site
2021-04-21 23:01:07,208 INFO scheduler Scheduled Job Complete: frappe.model.utils.link_count.update_link_count for my_site
2021-04-21 23:01:07,308 INFO scheduler Scheduled Job Start: frappe.monitor.flush for my_site
2021-04-21 23:01:07,572 INFO scheduler Scheduled Job Complete: frappe.monitor.flush for my_site
2021-04-21 23:01:07,678 INFO scheduler Scheduled Job Start: frappe.utils.global_search.sync_global_search for my_site
2021-04-21 23:01:08,010 INFO scheduler Scheduled Job Complete: frappe.utils.global_search.sync_global_search for my_site
2021-04-21 23:01:08,168 INFO scheduler Scheduled Job Start: frappe.integrations.doctype.razorpay_settings.razorpay_settings.capture_payment for my_site
2021-04-21 23:01:08,749 INFO scheduler Scheduled Job Complete: frappe.integrations.doctype.razorpay_settings.razorpay_settings.capture_payment for my_site
2021-04-21 23:01:08,837 INFO scheduler Scheduled Job Start: frappe.email.doctype.email_account.email_account.notify_unreplied for my_site
2021-04-21 23:01:09,156 INFO scheduler Scheduled Job Complete: frappe.email.doctype.email_account.email_account.notify_unreplied for my_site
2021-04-21 23:01:09,228 INFO scheduler Scheduled Job Start: frappe.email.doctype.email_account.email_account.pull for my_site
2021-04-21 23:01:09,546 INFO scheduler Scheduled Job Complete: frappe.email.doctype.email_account.email_account.pull for my_site
2021-04-21 23:01:09,618 INFO scheduler Scheduled Job Start: frappe.email.queue.flush for my_site
2021-04-21 23:01:09,883 INFO scheduler Scheduled Job Complete: frappe.email.queue.flush for my_site
2021-04-21 23:01:09,959 INFO scheduler Scheduled Job Start: frappe.twofactor.delete_all_barcodes_for_users for my_site
2021-04-21 23:01:10,375 INFO scheduler Scheduled Job Complete: frappe.twofactor.delete_all_barcodes_for_users for my_site
2021-04-21 23:01:10,466 INFO scheduler Scheduled Job Start: frappe.website.doctype.web_page.web_page.check_publish_status for my_site
2021-04-21 23:01:10,940 INFO scheduler Scheduled Job Complete: frappe.website.doctype.web_page.web_page.check_publish_status for my_site
2021-04-21 23:01:11,024 INFO scheduler Scheduled Job Start: frappe.oauth.delete_oauth2_data for my_site
2021-04-21 23:01:11,487 INFO scheduler Scheduled Job Complete: frappe.oauth.delete_oauth2_data for my_site
2021-04-21 23:01:52,025 DEBUG scheduler Queued events for site my_site
2021-04-21 23:02:52,342 DEBUG scheduler Queued events for site my_site
2021-04-21 23:03:52,657 DEBUG scheduler Queued events for site my_site
2021-04-21 23:04:53,067 DEBUG scheduler Queued events for site my_site
2021-04-21 23:04:54,988 INFO scheduler Scheduled Job Start: frappe.monitor.flush for my_site
2021-04-21 23:04:55,142 INFO scheduler Scheduled Job Complete: frappe.monitor.flush for my_site
2021-04-21 23:04:55,216 INFO scheduler Scheduled Job Start: frappe.utils.global_search.sync_global_search for my_site
2021-04-21 23:04:55,377 INFO scheduler Scheduled Job Complete: frappe.utils.global_search.sync_global_search for my_site
2021-04-21 23:04:55,448 INFO scheduler Scheduled Job Start: frappe.integrations.doctype.razorpay_settings.razorpay_settings.capture_payment for my_site
2021-04-21 23:04:55,858 INFO scheduler Scheduled Job Complete: frappe.integrations.doctype.razorpay_settings.razorpay_settings.capture_payment for my_site
2021-04-21 23:04:55,929 INFO scheduler Scheduled Job Start: frappe.email.doctype.email_account.email_account.notify_unreplied for my_site
2021-04-21 23:04:56,249 INFO scheduler Scheduled Job Complete: frappe.email.doctype.email_account.email_account.notify_unreplied for my_site
2021-04-21 23:04:56,324 INFO scheduler Scheduled Job Start: frappe.email.doctype.email_account.email_account.pull for my_site
2021-04-21 23:04:56,642 INFO scheduler Scheduled Job Complete: frappe.email.doctype.email_account.email_account.pull for my_site
2021-04-21 23:04:56,714 INFO scheduler Scheduled Job Start: frappe.email.queue.flush for my_site
2021-04-21 23:04:56,991 INFO scheduler Scheduled Job Complete: frappe.email.queue.flush for my_site
2021-04-21 23:05:53,422 DEBUG scheduler Queued events for site my_site
2021-04-21 23:06:53,746 DEBUG scheduler Queued events for site my_site
2021-04-21 23:07:54,065 DEBUG scheduler Queued events for site my_site
2021-04-21 23:08:54,478 DEBUG scheduler Queued events for site my_site
2021-04-21 23:08:56,422 INFO scheduler Scheduled Job Start: frappe.monitor.flush for my_site
2021-04-21 23:08:56,574 INFO scheduler Scheduled Job Complete: frappe.monitor.flush for my_site
2021-04-21 23:08:56,645 INFO scheduler Scheduled Job Start: frappe.utils.global_search.sync_global_search for my_site
2021-04-21 23:08:56,801 INFO scheduler Scheduled Job Complete: frappe.utils.global_search.sync_global_search for my_site
2021-04-21 23:08:56,880 INFO scheduler Scheduled Job Start: frappe.integrations.doctype.razorpay_settings.razorpay_settings.capture_payment for my_site
2021-04-21 23:08:57,274 INFO scheduler Scheduled Job Complete: frappe.integrations.doctype.razorpay_settings.razorpay_settings.capture_payment for my_site
2021-04-21 23:08:57,352 INFO scheduler Scheduled Job Start: frappe.email.doctype.email_account.email_account.notify_unreplied for my_site
2021-04-21 23:08:57,659 INFO scheduler Scheduled Job Complete: frappe.email.doctype.email_account.email_account.notify_unreplied for my_site
2021-04-21 23:08:57,731 INFO scheduler Scheduled Job Start: frappe.email.doctype.email_account.email_account.pull for my_site
2021-04-21 23:08:58,056 INFO scheduler Scheduled Job Complete: frappe.email.doctype.email_account.email_account.pull for my_site
2021-04-21 23:08:58,127 INFO scheduler Scheduled Job Start: frappe.email.queue.flush for my_site
2021-04-21 23:08:58,395 INFO scheduler Scheduled Job Complete: frappe.email.queue.flush for my_site
2021-04-21 23:09:54,826 DEBUG scheduler Queued events for site my_site
2021-04-21 23:10:55,303 DEBUG scheduler Queued events for site my_site
2021-04-21 23:11:55,655 DEBUG scheduler Queued events for site my_site
2021-04-21 23:12:56,153 DEBUG scheduler Queued events for site my_site
2021-04-21 23:12:58,653 INFO scheduler Scheduled Job Start: frappe.monitor.flush for my_site
2021-04-21 23:12:58,815 INFO scheduler Scheduled Job Complete: frappe.monitor.flush for my_site
2021-04-21 23:12:58,900 INFO scheduler Scheduled Job Start: frappe.utils.global_search.sync_global_search for my_site
2021-04-21 23:12:59,127 INFO scheduler Scheduled Job Complete: frappe.utils.global_search.sync_global_search for my_site
2021-04-21 23:12:59,211 INFO scheduler Scheduled Job Start: frappe.integrations.doctype.razorpay_settings.razorpay_settings.capture_payment for my_site
2021-04-21 23:12:59,711 INFO scheduler Scheduled Job Complete: frappe.integrations.doctype.razorpay_settings.razorpay_settings.capture_payment for my_site
2021-04-21 23:12:59,791 INFO scheduler Scheduled Job Start: frappe.email.doctype.email_account.email_account.notify_unreplied for my_site
2021-04-21 23:13:00,144 INFO scheduler Scheduled Job Complete: frappe.email.doctype.email_account.email_account.notify_unreplied for my_site
2021-04-21 23:13:00,220 INFO scheduler Scheduled Job Start: frappe.email.doctype.email_account.email_account.pull for my_site
2021-04-21 23:13:00,595 INFO scheduler Scheduled Job Complete: frappe.email.doctype.email_account.email_account.pull for my_site
2021-04-21 23:13:00,669 INFO scheduler Scheduled Job Start: frappe.email.queue.flush for my_site
2021-04-21 23:13:00,953 INFO scheduler Scheduled Job Complete: frappe.email.queue.flush for my_site
2021-04-21 23:13:56,508 DEBUG scheduler Queued events for site my_site
2021-04-21 23:14:56,843 DEBUG scheduler Queued events for site my_site
2021-04-21 23:15:57,220 DEBUG scheduler Queued events for site my_site
2021-04-21 23:15:58,700 INFO scheduler Scheduled Job Start: frappe.twofactor.delete_all_barcodes_for_users for my_site
2021-04-21 23:15:59,168 INFO scheduler Scheduled Job Complete: frappe.twofactor.delete_all_barcodes_for_users for my_site
2021-04-21 23:15:59,255 INFO scheduler Scheduled Job Start: frappe.website.doctype.web_page.web_page.check_publish_status for my_site
2021-04-21 23:15:59,725 INFO scheduler Scheduled Job Complete: frappe.website.doctype.web_page.web_page.check_publish_status for my_site
2021-04-21 23:15:59,817 INFO scheduler Scheduled Job Start: frappe.oauth.delete_oauth2_data for my_site
2021-04-21 23:16:00,229 INFO scheduler Scheduled Job Complete: frappe.oauth.delete_oauth2_data for my_site
2021-04-21 23:16:57,679 DEBUG scheduler Queued events for site my_site
2021-04-21 23:16:59,608 INFO scheduler Scheduled Job Start: frappe.monitor.flush for my_site
2021-04-21 23:16:59,764 INFO scheduler Scheduled Job Complete: frappe.monitor.flush for my_site
2021-04-21 23:16:59,838 INFO scheduler Scheduled Job Start: frappe.utils.global_search.sync_global_search for my_site
2021-04-21 23:16:59,992 INFO scheduler Scheduled Job Complete: frappe.utils.global_search.sync_global_search for my_site
2021-04-21 23:17:00,068 INFO scheduler Scheduled Job Start: frappe.integrations.doctype.razorpay_settings.razorpay_settings.capture_payment for my_site
2021-04-21 23:17:00,471 INFO scheduler Scheduled Job Complete: frappe.integrations.doctype.razorpay_settings.razorpay_settings.capture_payment for my_site
2021-04-21 23:17:00,544 INFO scheduler Scheduled Job Start: frappe.email.doctype.email_account.email_account.notify_unreplied for my_site
2021-04-21 23:17:58,032 DEBUG scheduler Queued events for site my_site
