2021-04-19 15:32:41,260 DEBUG scheduler Queued events for site my_site
2021-04-19 15:32:43,462 INFO scheduler Scheduled Job Start: frappe.monitor.flush for my_site
2021-04-19 15:32:43,649 INFO scheduler Scheduled Job Complete: frappe.monitor.flush for my_site
2021-04-19 15:32:43,734 INFO scheduler Scheduled Job Start: frappe.utils.global_search.sync_global_search for my_site
2021-04-19 15:32:43,918 INFO scheduler Scheduled Job Complete: frappe.utils.global_search.sync_global_search for my_site
2021-04-19 15:32:43,999 INFO scheduler Scheduled Job Start: frappe.integrations.doctype.razorpay_settings.razorpay_settings.capture_payment for my_site
2021-04-19 15:32:44,446 INFO scheduler Scheduled Job Complete: frappe.integrations.doctype.razorpay_settings.razorpay_settings.capture_payment for my_site
2021-04-19 15:32:44,534 INFO scheduler Scheduled Job Start: frappe.email.doctype.email_account.email_account.notify_unreplied for my_site
2021-04-19 15:32:44,880 INFO scheduler Scheduled Job Complete: frappe.email.doctype.email_account.email_account.notify_unreplied for my_site
2021-04-19 15:32:44,963 INFO scheduler Scheduled Job Start: frappe.email.doctype.email_account.email_account.pull for my_site
2021-04-19 15:32:45,334 INFO scheduler Scheduled Job Complete: frappe.email.doctype.email_account.email_account.pull for my_site
2021-04-19 15:32:45,415 INFO scheduler Scheduled Job Start: frappe.email.queue.flush for my_site
2021-04-19 15:32:45,714 INFO scheduler Scheduled Job Complete: frappe.email.queue.flush for my_site
2021-04-19 15:33:41,651 DEBUG scheduler Queued events for site my_site
2021-04-19 15:34:41,961 DEBUG scheduler Queued events for site my_site
2021-04-20 16:20:33,922 DEBUG scheduler Queued events for site my_site
2021-04-20 16:20:36,749 INFO scheduler Scheduled Job Start: frappe.integrations.doctype.google_drive.google_drive.daily_backup for my_site
2021-04-20 16:20:37,642 INFO scheduler Scheduled Job Complete: frappe.integrations.doctype.google_drive.google_drive.daily_backup for my_site
2021-04-20 16:20:37,730 INFO scheduler Scheduled Job Start: frappe.integrations.doctype.s3_backup_settings.s3_backup_settings.take_backups_daily for my_site
2021-04-20 16:20:38,293 INFO scheduler Scheduled Job Complete: frappe.integrations.doctype.s3_backup_settings.s3_backup_settings.take_backups_daily for my_site
2021-04-20 16:20:38,387 INFO scheduler Scheduled Job Start: frappe.utils.change_log.check_for_update for my_site
2021-04-20 16:20:41,253 INFO scheduler Scheduled Job Failed: frappe.utils.change_log.check_for_update for my_site
2021-04-20 16:20:41,458 INFO scheduler Scheduled Job Start: frappe.integrations.doctype.dropbox_settings.dropbox_settings.take_backups_daily for my_site
2021-04-20 16:20:42,750 INFO scheduler Scheduled Job Complete: frappe.integrations.doctype.dropbox_settings.dropbox_settings.take_backups_daily for my_site
2021-04-20 16:20:55,387 INFO scheduler Scheduled Job Start: frappe.core.doctype.log_settings.log_settings.run_log_clean_up for my_site
2021-04-20 16:20:55,881 INFO scheduler Scheduled Job Complete: frappe.core.doctype.log_settings.log_settings.run_log_clean_up for my_site
2021-04-20 16:20:56,003 INFO scheduler Scheduled Job Start: frappe.core.doctype.prepared_report.prepared_report.delete_expired_prepared_reports for my_site
2021-04-20 16:20:56,482 INFO scheduler Scheduled Job Complete: frappe.core.doctype.prepared_report.prepared_report.delete_expired_prepared_reports for my_site
2021-04-20 16:20:56,596 INFO scheduler Scheduled Job Start: frappe.email.doctype.unhandled_email.unhandled_email.remove_old_unhandled_emails for my_site
2021-04-20 16:20:57,128 INFO scheduler Scheduled Job Complete: frappe.email.doctype.unhandled_email.unhandled_email.remove_old_unhandled_emails for my_site
2021-04-20 16:20:57,267 INFO scheduler Scheduled Job Start: frappe.automation.doctype.auto_repeat.auto_repeat.set_auto_repeat_as_completed for my_site
2021-04-20 16:20:58,068 INFO scheduler Scheduled Job Complete: frappe.automation.doctype.auto_repeat.auto_repeat.set_auto_repeat_as_completed for my_site
2021-04-20 16:20:58,209 INFO scheduler Scheduled Job Start: frappe.automation.doctype.auto_repeat.auto_repeat.make_auto_repeat_entry for my_site
2021-04-20 16:20:58,931 INFO scheduler Scheduled Job Complete: frappe.automation.doctype.auto_repeat.auto_repeat.make_auto_repeat_entry for my_site
2021-04-20 16:20:59,089 INFO scheduler Scheduled Job Start: frappe.integrations.doctype.google_contacts.google_contacts.sync for my_site
2021-04-20 16:21:00,044 INFO scheduler Scheduled Job Complete: frappe.integrations.doctype.google_contacts.google_contacts.sync for my_site
2021-04-20 16:21:00,202 INFO scheduler Scheduled Job Start: frappe.social.doctype.energy_point_settings.energy_point_settings.allocate_review_points for my_site
2021-04-20 16:21:01,043 INFO scheduler Scheduled Job Complete: frappe.social.doctype.energy_point_settings.energy_point_settings.allocate_review_points for my_site
2021-04-20 16:21:01,182 INFO scheduler Scheduled Job Start: frappe.desk.form.document_follow.send_daily_updates for my_site
2021-04-20 16:21:01,849 INFO scheduler Scheduled Job Complete: frappe.desk.form.document_follow.send_daily_updates for my_site
2021-04-20 16:21:01,980 INFO scheduler Scheduled Job Start: frappe.website.doctype.personal_data_deletion_request.personal_data_deletion_request.remove_unverified_record for my_site
2021-04-20 16:21:02,658 INFO scheduler Scheduled Job Complete: frappe.website.doctype.personal_data_deletion_request.personal_data_deletion_request.remove_unverified_record for my_site
2021-04-20 16:21:02,835 INFO scheduler Scheduled Job Start: frappe.email.doctype.auto_email_report.auto_email_report.send_daily for my_site
2021-04-20 16:21:04,076 INFO scheduler Scheduled Job Complete: frappe.email.doctype.auto_email_report.auto_email_report.send_daily for my_site
2021-04-20 16:21:04,166 INFO scheduler Scheduled Job Start: frappe.utils.scheduler.restrict_scheduler_events_if_dormant for my_site
2021-04-20 16:21:04,546 INFO scheduler Scheduled Job Failed: frappe.utils.scheduler.restrict_scheduler_events_if_dormant for my_site
2021-04-20 16:21:04,642 INFO scheduler Scheduled Job Start: frappe.realtime.remove_old_task_logs for my_site
2021-04-20 16:21:05,035 INFO scheduler Scheduled Job Complete: frappe.realtime.remove_old_task_logs for my_site
2021-04-20 16:21:05,124 INFO scheduler Scheduled Job Start: frappe.email.doctype.notification.notification.trigger_daily_alerts for my_site
2021-04-20 16:21:05,570 INFO scheduler Scheduled Job Complete: frappe.email.doctype.notification.notification.trigger_daily_alerts for my_site
2021-04-20 16:21:05,677 INFO scheduler Scheduled Job Start: frappe.sessions.clear_expired_sessions for my_site
2021-04-20 16:21:06,077 INFO scheduler Scheduled Job Complete: frappe.sessions.clear_expired_sessions for my_site
2021-04-20 16:21:06,179 INFO scheduler Scheduled Job Start: frappe.desk.doctype.event.event.send_event_digest for my_site
2021-04-20 16:21:06,645 INFO scheduler Scheduled Job Complete: frappe.desk.doctype.event.event.send_event_digest for my_site
2021-04-20 16:21:06,738 INFO scheduler Scheduled Job Start: frappe.core.doctype.error_log.error_log.set_old_logs_as_seen for my_site
2021-04-20 16:21:07,122 INFO scheduler Scheduled Job Complete: frappe.core.doctype.error_log.error_log.set_old_logs_as_seen for my_site
2021-04-20 16:21:07,213 INFO scheduler Scheduled Job Start: frappe.desk.notifications.clear_notifications for my_site
2021-04-20 16:21:07,619 INFO scheduler Scheduled Job Complete: frappe.desk.notifications.clear_notifications for my_site
2021-04-20 16:21:07,718 INFO scheduler Scheduled Job Start: frappe.email.queue.set_expiry_for_email_queue for my_site
2021-04-20 16:21:08,145 INFO scheduler Scheduled Job Complete: frappe.email.queue.set_expiry_for_email_queue for my_site
2021-04-20 16:21:08,243 INFO scheduler Scheduled Job Start: frappe.email.doctype.newsletter.newsletter.send_scheduled_email for my_site
2021-04-20 16:21:08,884 INFO scheduler Scheduled Job Complete: frappe.email.doctype.newsletter.newsletter.send_scheduled_email for my_site
2021-04-20 16:21:09,011 INFO scheduler Scheduled Job Start: frappe.integrations.doctype.google_calendar.google_calendar.sync for my_site
2021-04-20 16:21:10,020 INFO scheduler Scheduled Job Complete: frappe.integrations.doctype.google_calendar.google_calendar.sync for my_site
2021-04-20 16:21:10,140 INFO scheduler Scheduled Job Start: frappe.desk.form.document_follow.send_hourly_updates for my_site
2021-04-20 16:21:10,670 INFO scheduler Scheduled Job Complete: frappe.desk.form.document_follow.send_hourly_updates for my_site
2021-04-20 16:21:10,761 INFO scheduler Scheduled Job Start: frappe.deferred_insert.save_to_db for my_site
2021-04-20 16:21:11,175 INFO scheduler Scheduled Job Complete: frappe.deferred_insert.save_to_db for my_site
2021-04-20 16:21:11,272 INFO scheduler Scheduled Job Start: frappe.desk.page.backups.backups.delete_downloadable_backups for my_site
2021-04-20 16:21:11,834 INFO scheduler Scheduled Job Complete: frappe.desk.page.backups.backups.delete_downloadable_backups for my_site
2021-04-20 16:21:11,939 INFO scheduler Scheduled Job Start: frappe.utils.error.collect_error_snapshots for my_site
2021-04-20 16:21:12,604 INFO scheduler Scheduled Job Complete: frappe.utils.error.collect_error_snapshots for my_site
2021-04-20 16:21:12,717 INFO scheduler Scheduled Job Start: frappe.model.utils.user_settings.sync_user_settings for my_site
2021-04-20 16:21:13,123 INFO scheduler Scheduled Job Complete: frappe.model.utils.user_settings.sync_user_settings for my_site
2021-04-20 16:21:13,222 INFO scheduler Scheduled Job Start: frappe.model.utils.link_count.update_link_count for my_site
2021-04-20 16:21:13,619 INFO scheduler Scheduled Job Complete: frappe.model.utils.link_count.update_link_count for my_site
2021-04-20 16:21:13,725 INFO scheduler Scheduled Job Start: frappe.monitor.flush for my_site
2021-04-20 16:21:13,891 INFO scheduler Scheduled Job Complete: frappe.monitor.flush for my_site
2021-04-20 16:21:13,966 INFO scheduler Scheduled Job Start: frappe.utils.global_search.sync_global_search for my_site
2021-04-20 16:21:14,129 INFO scheduler Scheduled Job Complete: frappe.utils.global_search.sync_global_search for my_site
2021-04-20 16:21:14,207 INFO scheduler Scheduled Job Start: frappe.integrations.doctype.razorpay_settings.razorpay_settings.capture_payment for my_site
2021-04-20 16:21:14,702 INFO scheduler Scheduled Job Complete: frappe.integrations.doctype.razorpay_settings.razorpay_settings.capture_payment for my_site
2021-04-20 16:21:14,775 INFO scheduler Scheduled Job Start: frappe.email.doctype.email_account.email_account.notify_unreplied for my_site
2021-04-20 16:21:15,221 INFO scheduler Scheduled Job Complete: frappe.email.doctype.email_account.email_account.notify_unreplied for my_site
2021-04-20 16:21:15,307 INFO scheduler Scheduled Job Start: frappe.email.doctype.email_account.email_account.pull for my_site
2021-04-20 16:21:15,672 INFO scheduler Scheduled Job Complete: frappe.email.doctype.email_account.email_account.pull for my_site
2021-04-20 16:21:15,751 INFO scheduler Scheduled Job Start: frappe.email.queue.flush for my_site
2021-04-20 16:21:16,025 INFO scheduler Scheduled Job Complete: frappe.email.queue.flush for my_site
2021-04-20 16:21:16,112 INFO scheduler Scheduled Job Start: frappe.twofactor.delete_all_barcodes_for_users for my_site
2021-04-20 16:21:16,525 INFO scheduler Scheduled Job Complete: frappe.twofactor.delete_all_barcodes_for_users for my_site
2021-04-20 16:21:16,612 INFO scheduler Scheduled Job Start: frappe.website.doctype.web_page.web_page.check_publish_status for my_site
2021-04-20 16:21:17,114 INFO scheduler Scheduled Job Complete: frappe.website.doctype.web_page.web_page.check_publish_status for my_site
2021-04-20 16:21:17,200 INFO scheduler Scheduled Job Start: frappe.oauth.delete_oauth2_data for my_site
2021-04-20 16:21:17,675 INFO scheduler Scheduled Job Complete: frappe.oauth.delete_oauth2_data for my_site
2021-04-20 16:21:34,306 DEBUG scheduler Queued events for site my_site
2021-04-20 16:22:34,635 DEBUG scheduler Queued events for site my_site
2021-04-20 16:23:34,952 DEBUG scheduler Queued events for site my_site
2021-04-20 16:24:35,462 DEBUG scheduler Queued events for site my_site
2021-04-20 16:24:38,116 INFO scheduler Scheduled Job Start: frappe.monitor.flush for my_site
2021-04-20 16:24:38,398 INFO scheduler Scheduled Job Complete: frappe.monitor.flush for my_site
2021-04-20 16:24:38,538 INFO scheduler Scheduled Job Start: frappe.utils.global_search.sync_global_search for my_site
2021-04-20 16:24:38,745 INFO scheduler Scheduled Job Complete: frappe.utils.global_search.sync_global_search for my_site
2021-04-20 16:24:38,826 INFO scheduler Scheduled Job Start: frappe.integrations.doctype.razorpay_settings.razorpay_settings.capture_payment for my_site
2021-04-20 16:24:39,264 INFO scheduler Scheduled Job Complete: frappe.integrations.doctype.razorpay_settings.razorpay_settings.capture_payment for my_site
2021-04-20 16:24:39,358 INFO scheduler Scheduled Job Start: frappe.email.doctype.email_account.email_account.notify_unreplied for my_site
2021-04-20 16:24:39,756 INFO scheduler Scheduled Job Complete: frappe.email.doctype.email_account.email_account.notify_unreplied for my_site
2021-04-20 16:24:39,861 INFO scheduler Scheduled Job Start: frappe.email.doctype.email_account.email_account.pull for my_site
2021-04-20 16:24:40,231 INFO scheduler Scheduled Job Complete: frappe.email.doctype.email_account.email_account.pull for my_site
2021-04-20 16:24:40,306 INFO scheduler Scheduled Job Start: frappe.email.queue.flush for my_site
2021-04-20 16:24:40,640 INFO scheduler Scheduled Job Complete: frappe.email.queue.flush for my_site
2021-04-20 16:25:35,808 DEBUG scheduler Queued events for site my_site
2021-04-20 16:26:36,228 DEBUG scheduler Queued events for site my_site
2021-04-20 16:27:36,588 DEBUG scheduler Queued events for site my_site
2021-04-20 16:28:37,053 DEBUG scheduler Queued events for site my_site
2021-04-20 16:28:39,282 INFO scheduler Scheduled Job Start: frappe.monitor.flush for my_site
2021-04-20 16:28:39,528 INFO scheduler Scheduled Job Complete: frappe.monitor.flush for my_site
2021-04-20 16:28:39,612 INFO scheduler Scheduled Job Start: frappe.utils.global_search.sync_global_search for my_site
2021-04-20 16:28:39,787 INFO scheduler Scheduled Job Complete: frappe.utils.global_search.sync_global_search for my_site
2021-04-20 16:28:39,865 INFO scheduler Scheduled Job Start: frappe.integrations.doctype.razorpay_settings.razorpay_settings.capture_payment for my_site
2021-04-20 16:28:40,297 INFO scheduler Scheduled Job Complete: frappe.integrations.doctype.razorpay_settings.razorpay_settings.capture_payment for my_site
2021-04-20 16:28:40,379 INFO scheduler Scheduled Job Start: frappe.email.doctype.email_account.email_account.notify_unreplied for my_site
2021-04-20 16:28:40,816 INFO scheduler Scheduled Job Complete: frappe.email.doctype.email_account.email_account.notify_unreplied for my_site
2021-04-20 16:28:40,898 INFO scheduler Scheduled Job Start: frappe.email.doctype.email_account.email_account.pull for my_site
2021-04-20 16:28:41,266 INFO scheduler Scheduled Job Complete: frappe.email.doctype.email_account.email_account.pull for my_site
2021-04-20 16:28:41,367 INFO scheduler Scheduled Job Start: frappe.email.queue.flush for my_site
2021-04-20 16:28:41,669 INFO scheduler Scheduled Job Complete: frappe.email.queue.flush for my_site
2021-04-20 16:29:38,186 DEBUG scheduler Queued events for site my_site
2021-04-20 16:30:38,592 DEBUG scheduler Queued events for site my_site
2021-04-20 16:30:40,207 INFO scheduler Scheduled Job Start: frappe.twofactor.delete_all_barcodes_for_users for my_site
2021-04-20 16:30:40,652 INFO scheduler Scheduled Job Complete: frappe.twofactor.delete_all_barcodes_for_users for my_site
2021-04-20 16:30:40,771 INFO scheduler Scheduled Job Start: frappe.website.doctype.web_page.web_page.check_publish_status for my_site
2021-04-20 16:30:41,240 INFO scheduler Scheduled Job Complete: frappe.website.doctype.web_page.web_page.check_publish_status for my_site
2021-04-20 16:30:41,333 INFO scheduler Scheduled Job Start: frappe.oauth.delete_oauth2_data for my_site
2021-04-20 16:30:41,774 INFO scheduler Scheduled Job Complete: frappe.oauth.delete_oauth2_data for my_site
2021-04-20 16:31:38,948 DEBUG scheduler Queued events for site my_site
2021-04-20 16:32:39,527 DEBUG scheduler Queued events for site my_site
2021-04-20 16:32:42,257 INFO scheduler Scheduled Job Start: frappe.monitor.flush for my_site
2021-04-20 16:32:42,496 INFO scheduler Scheduled Job Complete: frappe.monitor.flush for my_site
2021-04-20 16:32:42,610 INFO scheduler Scheduled Job Start: frappe.utils.global_search.sync_global_search for my_site
2021-04-20 16:32:42,845 INFO scheduler Scheduled Job Complete: frappe.utils.global_search.sync_global_search for my_site
2021-04-20 16:32:42,954 INFO scheduler Scheduled Job Start: frappe.integrations.doctype.razorpay_settings.razorpay_settings.capture_payment for my_site
2021-04-20 16:32:43,493 INFO scheduler Scheduled Job Complete: frappe.integrations.doctype.razorpay_settings.razorpay_settings.capture_payment for my_site
2021-04-20 16:32:43,597 INFO scheduler Scheduled Job Start: frappe.email.doctype.email_account.email_account.notify_unreplied for my_site
2021-04-20 16:32:44,066 INFO scheduler Scheduled Job Complete: frappe.email.doctype.email_account.email_account.notify_unreplied for my_site
2021-04-20 16:32:44,169 INFO scheduler Scheduled Job Start: frappe.email.doctype.email_account.email_account.pull for my_site
2021-04-20 16:32:44,625 INFO scheduler Scheduled Job Complete: frappe.email.doctype.email_account.email_account.pull for my_site
2021-04-20 16:32:44,728 INFO scheduler Scheduled Job Start: frappe.email.queue.flush for my_site
2021-04-20 16:32:45,099 INFO scheduler Scheduled Job Complete: frappe.email.queue.flush for my_site
2021-04-20 16:33:40,051 DEBUG scheduler Queued events for site my_site
2021-04-20 16:34:40,422 DEBUG scheduler Queued events for site my_site
2021-04-20 16:35:40,742 DEBUG scheduler Queued events for site my_site
2021-04-20 16:36:41,242 DEBUG scheduler Queued events for site my_site
2021-04-20 16:36:44,743 INFO scheduler Scheduled Job Start: frappe.monitor.flush for my_site
2021-04-20 16:36:45,079 INFO scheduler Scheduled Job Complete: frappe.monitor.flush for my_site
2021-04-20 16:36:45,261 INFO scheduler Scheduled Job Start: frappe.utils.global_search.sync_global_search for my_site
2021-04-20 16:36:45,622 INFO scheduler Scheduled Job Complete: frappe.utils.global_search.sync_global_search for my_site
2021-04-20 16:36:45,848 INFO scheduler Scheduled Job Start: frappe.integrations.doctype.razorpay_settings.razorpay_settings.capture_payment for my_site
2021-04-20 16:36:46,603 INFO scheduler Scheduled Job Complete: frappe.integrations.doctype.razorpay_settings.razorpay_settings.capture_payment for my_site
2021-04-20 16:36:46,698 INFO scheduler Scheduled Job Start: frappe.email.doctype.email_account.email_account.notify_unreplied for my_site
2021-04-20 16:36:47,083 INFO scheduler Scheduled Job Complete: frappe.email.doctype.email_account.email_account.notify_unreplied for my_site
2021-04-20 16:36:47,184 INFO scheduler Scheduled Job Start: frappe.email.doctype.email_account.email_account.pull for my_site
2021-04-20 16:36:47,618 INFO scheduler Scheduled Job Complete: frappe.email.doctype.email_account.email_account.pull for my_site
2021-04-20 16:36:47,709 INFO scheduler Scheduled Job Start: frappe.email.queue.flush for my_site
2021-04-20 16:36:48,160 INFO scheduler Scheduled Job Complete: frappe.email.queue.flush for my_site
2021-04-20 16:37:41,595 DEBUG scheduler Queued events for site my_site
2021-04-20 16:38:41,994 DEBUG scheduler Queued events for site my_site
2021-04-20 16:39:42,507 DEBUG scheduler Queued events for site my_site
2021-04-20 16:40:42,975 DEBUG scheduler Queued events for site my_site
2021-04-20 16:40:45,314 INFO scheduler Scheduled Job Start: frappe.monitor.flush for my_site
2021-04-20 16:40:45,503 INFO scheduler Scheduled Job Complete: frappe.monitor.flush for my_site
2021-04-20 16:40:45,588 INFO scheduler Scheduled Job Start: frappe.utils.global_search.sync_global_search for my_site
2021-04-20 16:40:45,777 INFO scheduler Scheduled Job Complete: frappe.utils.global_search.sync_global_search for my_site
2021-04-20 16:40:45,859 INFO scheduler Scheduled Job Start: frappe.integrations.doctype.razorpay_settings.razorpay_settings.capture_payment for my_site
2021-04-20 16:40:46,344 INFO scheduler Scheduled Job Complete: frappe.integrations.doctype.razorpay_settings.razorpay_settings.capture_payment for my_site
2021-04-20 16:40:46,435 INFO scheduler Scheduled Job Start: frappe.email.doctype.email_account.email_account.notify_unreplied for my_site
2021-04-20 16:40:46,807 INFO scheduler Scheduled Job Complete: frappe.email.doctype.email_account.email_account.notify_unreplied for my_site
2021-04-20 16:40:46,886 INFO scheduler Scheduled Job Start: frappe.email.doctype.email_account.email_account.pull for my_site
2021-04-20 16:40:47,265 INFO scheduler Scheduled Job Complete: frappe.email.doctype.email_account.email_account.pull for my_site
2021-04-20 16:40:47,354 INFO scheduler Scheduled Job Start: frappe.email.queue.flush for my_site
2021-04-20 16:40:47,662 INFO scheduler Scheduled Job Complete: frappe.email.queue.flush for my_site
2021-04-20 16:41:43,373 DEBUG scheduler Queued events for site my_site
2021-04-20 16:42:43,774 DEBUG scheduler Queued events for site my_site
2021-04-20 16:43:44,145 DEBUG scheduler Queued events for site my_site
2021-04-20 16:44:44,676 DEBUG scheduler Queued events for site my_site
2021-04-20 16:44:46,847 INFO scheduler Scheduled Job Start: frappe.monitor.flush for my_site
2021-04-20 16:44:47,019 INFO scheduler Scheduled Job Complete: frappe.monitor.flush for my_site
2021-04-20 16:44:47,105 INFO scheduler Scheduled Job Start: frappe.utils.global_search.sync_global_search for my_site
2021-04-20 16:44:47,284 INFO scheduler Scheduled Job Complete: frappe.utils.global_search.sync_global_search for my_site
2021-04-20 16:44:47,384 INFO scheduler Scheduled Job Start: frappe.integrations.doctype.razorpay_settings.razorpay_settings.capture_payment for my_site
2021-04-20 16:44:47,867 INFO scheduler Scheduled Job Complete: frappe.integrations.doctype.razorpay_settings.razorpay_settings.capture_payment for my_site
2021-04-20 16:44:47,949 INFO scheduler Scheduled Job Start: frappe.email.doctype.email_account.email_account.notify_unreplied for my_site
2021-04-20 16:44:48,304 INFO scheduler Scheduled Job Complete: frappe.email.doctype.email_account.email_account.notify_unreplied for my_site
2021-04-20 16:44:48,406 INFO scheduler Scheduled Job Start: frappe.email.doctype.email_account.email_account.pull for my_site
2021-04-20 16:44:49,067 INFO scheduler Scheduled Job Complete: frappe.email.doctype.email_account.email_account.pull for my_site
2021-04-20 16:44:49,203 INFO scheduler Scheduled Job Start: frappe.email.queue.flush for my_site
2021-04-20 16:44:49,590 INFO scheduler Scheduled Job Complete: frappe.email.queue.flush for my_site
2021-04-20 16:45:45,118 DEBUG scheduler Queued events for site my_site
2021-04-20 16:45:46,881 INFO scheduler Scheduled Job Start: frappe.twofactor.delete_all_barcodes_for_users for my_site
2021-04-20 16:45:47,366 INFO scheduler Scheduled Job Complete: frappe.twofactor.delete_all_barcodes_for_users for my_site
2021-04-20 16:45:47,478 INFO scheduler Scheduled Job Start: frappe.website.doctype.web_page.web_page.check_publish_status for my_site
2021-04-20 16:45:48,146 INFO scheduler Scheduled Job Complete: frappe.website.doctype.web_page.web_page.check_publish_status for my_site
2021-04-20 16:45:48,282 INFO scheduler Scheduled Job Start: frappe.oauth.delete_oauth2_data for my_site
2021-04-20 16:45:48,997 INFO scheduler Scheduled Job Complete: frappe.oauth.delete_oauth2_data for my_site
2021-04-20 16:46:45,583 DEBUG scheduler Queued events for site my_site
2021-04-20 16:47:45,993 DEBUG scheduler Queued events for site my_site
2021-04-20 16:48:46,612 DEBUG scheduler Queued events for site my_site
2021-04-20 16:48:49,075 INFO scheduler Scheduled Job Start: frappe.monitor.flush for my_site
2021-04-20 16:48:49,280 INFO scheduler Scheduled Job Complete: frappe.monitor.flush for my_site
2021-04-20 16:48:49,372 INFO scheduler Scheduled Job Start: frappe.utils.global_search.sync_global_search for my_site
2021-04-20 16:48:49,580 INFO scheduler Scheduled Job Complete: frappe.utils.global_search.sync_global_search for my_site
2021-04-20 16:48:49,683 INFO scheduler Scheduled Job Start: frappe.integrations.doctype.razorpay_settings.razorpay_settings.capture_payment for my_site
2021-04-20 16:48:50,210 INFO scheduler Scheduled Job Complete: frappe.integrations.doctype.razorpay_settings.razorpay_settings.capture_payment for my_site
2021-04-20 16:48:50,311 INFO scheduler Scheduled Job Start: frappe.email.doctype.email_account.email_account.notify_unreplied for my_site
2021-04-20 16:48:50,744 INFO scheduler Scheduled Job Complete: frappe.email.doctype.email_account.email_account.notify_unreplied for my_site
2021-04-20 16:48:50,841 INFO scheduler Scheduled Job Start: frappe.email.doctype.email_account.email_account.pull for my_site
2021-04-20 16:48:51,265 INFO scheduler Scheduled Job Complete: frappe.email.doctype.email_account.email_account.pull for my_site
2021-04-20 16:48:51,391 INFO scheduler Scheduled Job Start: frappe.email.queue.flush for my_site
2021-04-20 16:48:51,842 INFO scheduler Scheduled Job Complete: frappe.email.queue.flush for my_site
2021-04-20 16:49:47,045 DEBUG scheduler Queued events for site my_site
2021-04-20 16:50:47,471 DEBUG scheduler Queued events for site my_site
2021-04-20 16:51:47,879 DEBUG scheduler Queued events for site my_site
2021-04-20 16:52:48,454 DEBUG scheduler Queued events for site my_site
2021-04-20 16:52:50,984 INFO scheduler Scheduled Job Start: frappe.monitor.flush for my_site
2021-04-20 16:52:51,219 INFO scheduler Scheduled Job Complete: frappe.monitor.flush for my_site
2021-04-20 16:52:51,323 INFO scheduler Scheduled Job Start: frappe.utils.global_search.sync_global_search for my_site
2021-04-20 16:52:51,535 INFO scheduler Scheduled Job Complete: frappe.utils.global_search.sync_global_search for my_site
2021-04-20 16:52:51,635 INFO scheduler Scheduled Job Start: frappe.integrations.doctype.razorpay_settings.razorpay_settings.capture_payment for my_site
2021-04-20 16:52:52,148 INFO scheduler Scheduled Job Complete: frappe.integrations.doctype.razorpay_settings.razorpay_settings.capture_payment for my_site
2021-04-20 16:52:52,255 INFO scheduler Scheduled Job Start: frappe.email.doctype.email_account.email_account.notify_unreplied for my_site
2021-04-20 16:52:52,612 INFO scheduler Scheduled Job Complete: frappe.email.doctype.email_account.email_account.notify_unreplied for my_site
2021-04-20 16:52:52,691 INFO scheduler Scheduled Job Start: frappe.email.doctype.email_account.email_account.pull for my_site
2021-04-20 16:52:53,087 INFO scheduler Scheduled Job Complete: frappe.email.doctype.email_account.email_account.pull for my_site
2021-04-20 16:52:53,175 INFO scheduler Scheduled Job Start: frappe.email.queue.flush for my_site
2021-04-20 16:52:53,506 INFO scheduler Scheduled Job Complete: frappe.email.queue.flush for my_site
2021-04-20 16:53:48,840 DEBUG scheduler Queued events for site my_site
2021-04-20 16:54:49,229 DEBUG scheduler Queued events for site my_site
2021-04-20 16:55:49,619 DEBUG scheduler Queued events for site my_site
2021-04-20 16:56:50,142 DEBUG scheduler Queued events for site my_site
2021-04-20 16:56:52,365 INFO scheduler Scheduled Job Start: frappe.monitor.flush for my_site
2021-04-20 16:56:52,525 INFO scheduler Scheduled Job Complete: frappe.monitor.flush for my_site
2021-04-20 16:56:52,599 INFO scheduler Scheduled Job Start: frappe.utils.global_search.sync_global_search for my_site
2021-04-20 16:56:52,756 INFO scheduler Scheduled Job Complete: frappe.utils.global_search.sync_global_search for my_site
2021-04-20 16:56:52,832 INFO scheduler Scheduled Job Start: frappe.integrations.doctype.razorpay_settings.razorpay_settings.capture_payment for my_site
2021-04-20 16:56:53,288 INFO scheduler Scheduled Job Complete: frappe.integrations.doctype.razorpay_settings.razorpay_settings.capture_payment for my_site
2021-04-20 16:56:53,397 INFO scheduler Scheduled Job Start: frappe.email.doctype.email_account.email_account.notify_unreplied for my_site
2021-04-20 16:56:53,722 INFO scheduler Scheduled Job Complete: frappe.email.doctype.email_account.email_account.notify_unreplied for my_site
2021-04-20 16:56:53,812 INFO scheduler Scheduled Job Start: frappe.email.doctype.email_account.email_account.pull for my_site
2021-04-20 16:56:54,170 INFO scheduler Scheduled Job Complete: frappe.email.doctype.email_account.email_account.pull for my_site
2021-04-20 16:56:54,243 INFO scheduler Scheduled Job Start: frappe.email.queue.flush for my_site
2021-04-20 16:56:54,537 INFO scheduler Scheduled Job Complete: frappe.email.queue.flush for my_site
2021-04-20 16:57:50,484 DEBUG scheduler Queued events for site my_site
2021-04-20 17:21:57,843 DEBUG scheduler Queued events for site my_site
2021-04-20 17:22:08,758 INFO scheduler Scheduled Job Start: frappe.email.doctype.newsletter.newsletter.send_scheduled_email for my_site
2021-04-20 17:22:09,370 INFO scheduler Scheduled Job Complete: frappe.email.doctype.newsletter.newsletter.send_scheduled_email for my_site
2021-04-20 17:22:09,462 INFO scheduler Scheduled Job Start: frappe.integrations.doctype.google_calendar.google_calendar.sync for my_site
2021-04-20 17:22:10,248 INFO scheduler Scheduled Job Complete: frappe.integrations.doctype.google_calendar.google_calendar.sync for my_site
2021-04-20 17:22:10,357 INFO scheduler Scheduled Job Start: frappe.desk.form.document_follow.send_hourly_updates for my_site
2021-04-20 17:22:10,771 INFO scheduler Scheduled Job Complete: frappe.desk.form.document_follow.send_hourly_updates for my_site
2021-04-20 17:22:10,861 INFO scheduler Scheduled Job Start: frappe.deferred_insert.save_to_db for my_site
2021-04-20 17:22:11,264 INFO scheduler Scheduled Job Complete: frappe.deferred_insert.save_to_db for my_site
2021-04-20 17:22:11,367 INFO scheduler Scheduled Job Start: frappe.desk.page.backups.backups.delete_downloadable_backups for my_site
2021-04-20 17:22:11,888 INFO scheduler Scheduled Job Complete: frappe.desk.page.backups.backups.delete_downloadable_backups for my_site
2021-04-20 17:22:11,979 INFO scheduler Scheduled Job Start: frappe.utils.error.collect_error_snapshots for my_site
2021-04-20 17:22:12,381 INFO scheduler Scheduled Job Complete: frappe.utils.error.collect_error_snapshots for my_site
2021-04-20 17:22:12,472 INFO scheduler Scheduled Job Start: frappe.model.utils.user_settings.sync_user_settings for my_site
2021-04-20 17:22:12,898 INFO scheduler Scheduled Job Complete: frappe.model.utils.user_settings.sync_user_settings for my_site
2021-04-20 17:22:13,022 INFO scheduler Scheduled Job Start: frappe.model.utils.link_count.update_link_count for my_site
2021-04-20 17:22:13,619 INFO scheduler Scheduled Job Complete: frappe.model.utils.link_count.update_link_count for my_site
2021-04-20 17:22:13,806 INFO scheduler Scheduled Job Start: frappe.monitor.flush for my_site
2021-04-20 17:22:14,141 INFO scheduler Scheduled Job Complete: frappe.monitor.flush for my_site
2021-04-20 17:22:14,261 INFO scheduler Scheduled Job Start: frappe.utils.global_search.sync_global_search for my_site
2021-04-20 17:22:14,489 INFO scheduler Scheduled Job Complete: frappe.utils.global_search.sync_global_search for my_site
2021-04-20 17:22:14,587 INFO scheduler Scheduled Job Start: frappe.integrations.doctype.razorpay_settings.razorpay_settings.capture_payment for my_site
2021-04-20 17:22:15,143 INFO scheduler Scheduled Job Complete: frappe.integrations.doctype.razorpay_settings.razorpay_settings.capture_payment for my_site
2021-04-20 17:22:15,242 INFO scheduler Scheduled Job Start: frappe.email.doctype.email_account.email_account.notify_unreplied for my_site
2021-04-20 17:22:15,627 INFO scheduler Scheduled Job Complete: frappe.email.doctype.email_account.email_account.notify_unreplied for my_site
2021-04-20 17:22:15,713 INFO scheduler Scheduled Job Start: frappe.email.doctype.email_account.email_account.pull for my_site
2021-04-20 17:22:16,123 INFO scheduler Scheduled Job Complete: frappe.email.doctype.email_account.email_account.pull for my_site
2021-04-20 17:22:16,224 INFO scheduler Scheduled Job Start: frappe.email.queue.flush for my_site
2021-04-20 17:22:16,590 INFO scheduler Scheduled Job Complete: frappe.email.queue.flush for my_site
2021-04-20 17:22:16,675 INFO scheduler Scheduled Job Start: frappe.twofactor.delete_all_barcodes_for_users for my_site
2021-04-20 17:22:17,221 INFO scheduler Scheduled Job Complete: frappe.twofactor.delete_all_barcodes_for_users for my_site
2021-04-20 17:22:17,345 INFO scheduler Scheduled Job Start: frappe.website.doctype.web_page.web_page.check_publish_status for my_site
2021-04-20 17:22:17,896 INFO scheduler Scheduled Job Complete: frappe.website.doctype.web_page.web_page.check_publish_status for my_site
2021-04-20 17:22:18,000 INFO scheduler Scheduled Job Start: frappe.oauth.delete_oauth2_data for my_site
2021-04-20 17:22:18,465 INFO scheduler Scheduled Job Complete: frappe.oauth.delete_oauth2_data for my_site
2021-04-20 17:22:58,523 DEBUG scheduler Queued events for site my_site
2021-04-20 17:23:58,981 DEBUG scheduler Queued events for site my_site
2021-04-20 17:24:59,436 DEBUG scheduler Queued events for site my_site
2021-04-20 17:25:01,868 INFO scheduler Scheduled Job Start: frappe.monitor.flush for my_site
2021-04-20 17:25:02,145 INFO scheduler Scheduled Job Complete: frappe.monitor.flush for my_site
2021-04-20 17:25:02,258 INFO scheduler Scheduled Job Start: frappe.utils.global_search.sync_global_search for my_site
2021-04-20 17:25:02,475 INFO scheduler Scheduled Job Complete: frappe.utils.global_search.sync_global_search for my_site
2021-04-20 17:25:02,576 INFO scheduler Scheduled Job Start: frappe.integrations.doctype.razorpay_settings.razorpay_settings.capture_payment for my_site
2021-04-20 17:25:03,105 INFO scheduler Scheduled Job Complete: frappe.integrations.doctype.razorpay_settings.razorpay_settings.capture_payment for my_site
2021-04-20 17:25:03,217 INFO scheduler Scheduled Job Start: frappe.email.doctype.email_account.email_account.notify_unreplied for my_site
2021-04-20 17:25:03,630 INFO scheduler Scheduled Job Complete: frappe.email.doctype.email_account.email_account.notify_unreplied for my_site
2021-04-20 17:25:03,727 INFO scheduler Scheduled Job Start: frappe.email.doctype.email_account.email_account.pull for my_site
2021-04-20 17:25:04,160 INFO scheduler Scheduled Job Complete: frappe.email.doctype.email_account.email_account.pull for my_site
2021-04-20 17:25:04,260 INFO scheduler Scheduled Job Start: frappe.email.queue.flush for my_site
2021-04-20 17:25:04,631 INFO scheduler Scheduled Job Complete: frappe.email.queue.flush for my_site
2021-04-20 17:25:59,976 DEBUG scheduler Queued events for site my_site
2021-04-20 17:27:00,641 DEBUG scheduler Queued events for site my_site
2021-04-20 17:28:01,305 DEBUG scheduler Queued events for site my_site
2021-04-20 17:28:03,880 INFO scheduler Scheduled Job Start: frappe.monitor.flush for my_site
2021-04-20 17:28:04,097 INFO scheduler Scheduled Job Complete: frappe.monitor.flush for my_site
2021-04-20 17:28:04,177 INFO scheduler Scheduled Job Start: frappe.utils.global_search.sync_global_search for my_site
2021-04-20 17:28:04,346 INFO scheduler Scheduled Job Complete: frappe.utils.global_search.sync_global_search for my_site
2021-04-20 17:28:04,455 INFO scheduler Scheduled Job Start: frappe.integrations.doctype.razorpay_settings.razorpay_settings.capture_payment for my_site
2021-04-20 17:28:05,082 INFO scheduler Scheduled Job Complete: frappe.integrations.doctype.razorpay_settings.razorpay_settings.capture_payment for my_site
2021-04-20 17:28:05,225 INFO scheduler Scheduled Job Start: frappe.email.doctype.email_account.email_account.notify_unreplied for my_site
2021-04-20 17:28:05,627 INFO scheduler Scheduled Job Complete: frappe.email.doctype.email_account.email_account.notify_unreplied for my_site
2021-04-20 17:28:05,776 INFO scheduler Scheduled Job Start: frappe.email.doctype.email_account.email_account.pull for my_site
2021-04-20 17:28:06,250 INFO scheduler Scheduled Job Complete: frappe.email.doctype.email_account.email_account.pull for my_site
2021-04-20 17:28:06,329 INFO scheduler Scheduled Job Start: frappe.email.queue.flush for my_site
2021-04-20 17:28:06,647 INFO scheduler Scheduled Job Complete: frappe.email.queue.flush for my_site
2021-04-20 17:29:01,806 DEBUG scheduler Queued events for site my_site
2021-04-20 17:30:02,275 DEBUG scheduler Queued events for site my_site
2021-04-20 17:30:04,323 INFO scheduler Scheduled Job Start: frappe.twofactor.delete_all_barcodes_for_users for my_site
2021-04-20 17:30:04,865 INFO scheduler Scheduled Job Complete: frappe.twofactor.delete_all_barcodes_for_users for my_site
2021-04-20 17:30:04,981 INFO scheduler Scheduled Job Start: frappe.website.doctype.web_page.web_page.check_publish_status for my_site
2021-04-20 17:30:05,583 INFO scheduler Scheduled Job Complete: frappe.website.doctype.web_page.web_page.check_publish_status for my_site
2021-04-20 17:30:05,687 INFO scheduler Scheduled Job Start: frappe.oauth.delete_oauth2_data for my_site
2021-04-20 17:30:06,220 INFO scheduler Scheduled Job Complete: frappe.oauth.delete_oauth2_data for my_site
2021-04-20 17:31:02,682 DEBUG scheduler Queued events for site my_site
2021-04-20 17:32:03,186 DEBUG scheduler Queued events for site my_site
2021-04-20 17:32:05,568 INFO scheduler Scheduled Job Start: frappe.monitor.flush for my_site
2021-04-20 17:32:05,755 INFO scheduler Scheduled Job Complete: frappe.monitor.flush for my_site
2021-04-20 17:32:05,843 INFO scheduler Scheduled Job Start: frappe.utils.global_search.sync_global_search for my_site
2021-04-20 17:32:06,033 INFO scheduler Scheduled Job Complete: frappe.utils.global_search.sync_global_search for my_site
2021-04-20 17:32:06,124 INFO scheduler Scheduled Job Start: frappe.integrations.doctype.razorpay_settings.razorpay_settings.capture_payment for my_site
2021-04-20 17:32:06,612 INFO scheduler Scheduled Job Complete: frappe.integrations.doctype.razorpay_settings.razorpay_settings.capture_payment for my_site
2021-04-20 17:32:06,708 INFO scheduler Scheduled Job Start: frappe.email.doctype.email_account.email_account.notify_unreplied for my_site
2021-04-20 17:32:07,089 INFO scheduler Scheduled Job Complete: frappe.email.doctype.email_account.email_account.notify_unreplied for my_site
2021-04-20 17:32:07,182 INFO scheduler Scheduled Job Start: frappe.email.doctype.email_account.email_account.pull for my_site
2021-04-20 17:32:07,582 INFO scheduler Scheduled Job Complete: frappe.email.doctype.email_account.email_account.pull for my_site
2021-04-20 17:32:07,674 INFO scheduler Scheduled Job Start: frappe.email.queue.flush for my_site
2021-04-20 17:32:08,028 INFO scheduler Scheduled Job Complete: frappe.email.queue.flush for my_site
2021-04-20 17:33:03,658 DEBUG scheduler Queued events for site my_site
2021-04-20 17:34:04,217 DEBUG scheduler Queued events for site my_site
2021-04-20 17:35:04,542 DEBUG scheduler Queued events for site my_site
2021-04-20 17:36:05,179 DEBUG scheduler Queued events for site my_site
2021-04-20 17:36:07,194 INFO scheduler Scheduled Job Start: frappe.monitor.flush for my_site
2021-04-20 17:36:07,352 INFO scheduler Scheduled Job Complete: frappe.monitor.flush for my_site
2021-04-20 17:36:07,428 INFO scheduler Scheduled Job Start: frappe.utils.global_search.sync_global_search for my_site
2021-04-20 17:36:07,589 INFO scheduler Scheduled Job Complete: frappe.utils.global_search.sync_global_search for my_site
2021-04-20 17:36:07,674 INFO scheduler Scheduled Job Start: frappe.integrations.doctype.razorpay_settings.razorpay_settings.capture_payment for my_site
2021-04-20 17:36:08,083 INFO scheduler Scheduled Job Complete: frappe.integrations.doctype.razorpay_settings.razorpay_settings.capture_payment for my_site
2021-04-20 17:36:08,158 INFO scheduler Scheduled Job Start: frappe.email.doctype.email_account.email_account.notify_unreplied for my_site
2021-04-20 17:36:08,484 INFO scheduler Scheduled Job Complete: frappe.email.doctype.email_account.email_account.notify_unreplied for my_site
2021-04-20 17:36:08,565 INFO scheduler Scheduled Job Start: frappe.email.doctype.email_account.email_account.pull for my_site
2021-04-20 17:36:08,895 INFO scheduler Scheduled Job Complete: frappe.email.doctype.email_account.email_account.pull for my_site
2021-04-20 17:36:08,970 INFO scheduler Scheduled Job Start: frappe.email.queue.flush for my_site
2021-04-20 17:36:09,243 INFO scheduler Scheduled Job Complete: frappe.email.queue.flush for my_site
2021-04-20 17:37:05,535 DEBUG scheduler Queued events for site my_site
2021-04-20 17:38:05,870 DEBUG scheduler Queued events for site my_site
2021-04-20 17:39:06,351 DEBUG scheduler Queued events for site my_site
2021-04-20 17:40:06,889 DEBUG scheduler Queued events for site my_site
2021-04-20 17:40:08,954 INFO scheduler Scheduled Job Start: frappe.monitor.flush for my_site
2021-04-20 17:40:09,114 INFO scheduler Scheduled Job Complete: frappe.monitor.flush for my_site
2021-04-20 17:40:09,188 INFO scheduler Scheduled Job Start: frappe.utils.global_search.sync_global_search for my_site
2021-04-20 17:40:09,350 INFO scheduler Scheduled Job Complete: frappe.utils.global_search.sync_global_search for my_site
2021-04-20 17:40:09,427 INFO scheduler Scheduled Job Start: frappe.integrations.doctype.razorpay_settings.razorpay_settings.capture_payment for my_site
2021-04-20 17:40:09,842 INFO scheduler Scheduled Job Complete: frappe.integrations.doctype.razorpay_settings.razorpay_settings.capture_payment for my_site
2021-04-20 17:40:09,923 INFO scheduler Scheduled Job Start: frappe.email.doctype.email_account.email_account.notify_unreplied for my_site
2021-04-20 17:40:10,234 INFO scheduler Scheduled Job Complete: frappe.email.doctype.email_account.email_account.notify_unreplied for my_site
2021-04-20 17:40:10,307 INFO scheduler Scheduled Job Start: frappe.email.doctype.email_account.email_account.pull for my_site
2021-04-20 17:40:10,648 INFO scheduler Scheduled Job Complete: frappe.email.doctype.email_account.email_account.pull for my_site
2021-04-20 17:40:10,728 INFO scheduler Scheduled Job Start: frappe.email.queue.flush for my_site
2021-04-20 17:40:11,011 INFO scheduler Scheduled Job Complete: frappe.email.queue.flush for my_site
2021-04-20 17:41:07,272 DEBUG scheduler Queued events for site my_site
2021-04-20 17:42:07,660 DEBUG scheduler Queued events for site my_site
2021-04-20 17:43:07,988 DEBUG scheduler Queued events for site my_site
2021-04-20 17:44:08,510 DEBUG scheduler Queued events for site my_site
2021-04-20 17:44:10,849 INFO scheduler Scheduled Job Start: frappe.monitor.flush for my_site
2021-04-20 17:44:11,014 INFO scheduler Scheduled Job Complete: frappe.monitor.flush for my_site
2021-04-20 17:44:11,091 INFO scheduler Scheduled Job Start: frappe.utils.global_search.sync_global_search for my_site
2021-04-20 17:44:11,256 INFO scheduler Scheduled Job Complete: frappe.utils.global_search.sync_global_search for my_site
2021-04-20 17:44:11,336 INFO scheduler Scheduled Job Start: frappe.integrations.doctype.razorpay_settings.razorpay_settings.capture_payment for my_site
2021-04-20 17:44:11,746 INFO scheduler Scheduled Job Complete: frappe.integrations.doctype.razorpay_settings.razorpay_settings.capture_payment for my_site
2021-04-20 17:44:11,823 INFO scheduler Scheduled Job Start: frappe.email.doctype.email_account.email_account.notify_unreplied for my_site
2021-04-20 17:44:12,153 INFO scheduler Scheduled Job Complete: frappe.email.doctype.email_account.email_account.notify_unreplied for my_site
2021-04-20 17:44:12,229 INFO scheduler Scheduled Job Start: frappe.email.doctype.email_account.email_account.pull for my_site
2021-04-20 17:44:12,562 INFO scheduler Scheduled Job Complete: frappe.email.doctype.email_account.email_account.pull for my_site
2021-04-20 17:44:12,637 INFO scheduler Scheduled Job Start: frappe.email.queue.flush for my_site
2021-04-20 17:44:12,915 INFO scheduler Scheduled Job Complete: frappe.email.queue.flush for my_site
2021-04-20 17:45:08,990 DEBUG scheduler Queued events for site my_site
2021-04-20 17:45:10,502 INFO scheduler Scheduled Job Start: frappe.twofactor.delete_all_barcodes_for_users for my_site
2021-04-20 17:45:10,960 INFO scheduler Scheduled Job Complete: frappe.twofactor.delete_all_barcodes_for_users for my_site
2021-04-20 17:45:11,058 INFO scheduler Scheduled Job Start: frappe.website.doctype.web_page.web_page.check_publish_status for my_site
2021-04-20 17:45:11,549 INFO scheduler Scheduled Job Complete: frappe.website.doctype.web_page.web_page.check_publish_status for my_site
2021-04-20 17:45:11,635 INFO scheduler Scheduled Job Start: frappe.oauth.delete_oauth2_data for my_site
2021-04-20 17:45:12,062 INFO scheduler Scheduled Job Complete: frappe.oauth.delete_oauth2_data for my_site
2021-04-20 17:46:09,348 DEBUG scheduler Queued events for site my_site
2021-04-20 17:47:09,701 DEBUG scheduler Queued events for site my_site
2021-04-20 17:48:10,153 DEBUG scheduler Queued events for site my_site
2021-04-20 17:48:12,100 INFO scheduler Scheduled Job Start: frappe.monitor.flush for my_site
2021-04-20 17:48:12,264 INFO scheduler Scheduled Job Complete: frappe.monitor.flush for my_site
2021-04-20 17:48:12,344 INFO scheduler Scheduled Job Start: frappe.utils.global_search.sync_global_search for my_site
2021-04-20 17:48:12,514 INFO scheduler Scheduled Job Complete: frappe.utils.global_search.sync_global_search for my_site
2021-04-20 17:48:12,593 INFO scheduler Scheduled Job Start: frappe.integrations.doctype.razorpay_settings.razorpay_settings.capture_payment for my_site
2021-04-20 17:48:13,003 INFO scheduler Scheduled Job Complete: frappe.integrations.doctype.razorpay_settings.razorpay_settings.capture_payment for my_site
2021-04-20 17:48:13,088 INFO scheduler Scheduled Job Start: frappe.email.doctype.email_account.email_account.notify_unreplied for my_site
2021-04-20 17:48:13,503 INFO scheduler Scheduled Job Complete: frappe.email.doctype.email_account.email_account.notify_unreplied for my_site
2021-04-20 17:48:13,583 INFO scheduler Scheduled Job Start: frappe.email.doctype.email_account.email_account.pull for my_site
2021-04-20 17:48:13,996 INFO scheduler Scheduled Job Complete: frappe.email.doctype.email_account.email_account.pull for my_site
2021-04-20 17:48:14,073 INFO scheduler Scheduled Job Start: frappe.email.queue.flush for my_site
2021-04-20 17:48:14,352 INFO scheduler Scheduled Job Complete: frappe.email.queue.flush for my_site
2021-04-20 17:49:10,522 DEBUG scheduler Queued events for site my_site
2021-04-20 17:50:10,898 DEBUG scheduler Queued events for site my_site
2021-04-20 17:51:11,211 DEBUG scheduler Queued events for site my_site
2021-04-20 17:52:11,709 DEBUG scheduler Queued events for site my_site
2021-04-20 17:52:13,956 INFO scheduler Scheduled Job Start: frappe.monitor.flush for my_site
2021-04-20 17:52:14,135 INFO scheduler Scheduled Job Complete: frappe.monitor.flush for my_site
2021-04-20 17:52:14,222 INFO scheduler Scheduled Job Start: frappe.utils.global_search.sync_global_search for my_site
2021-04-20 17:52:14,403 INFO scheduler Scheduled Job Complete: frappe.utils.global_search.sync_global_search for my_site
2021-04-20 17:52:14,493 INFO scheduler Scheduled Job Start: frappe.integrations.doctype.razorpay_settings.razorpay_settings.capture_payment for my_site
2021-04-20 17:52:14,950 INFO scheduler Scheduled Job Complete: frappe.integrations.doctype.razorpay_settings.razorpay_settings.capture_payment for my_site
2021-04-20 17:52:15,036 INFO scheduler Scheduled Job Start: frappe.email.doctype.email_account.email_account.notify_unreplied for my_site
2021-04-20 17:52:15,387 INFO scheduler Scheduled Job Complete: frappe.email.doctype.email_account.email_account.notify_unreplied for my_site
2021-04-20 17:52:15,472 INFO scheduler Scheduled Job Start: frappe.email.doctype.email_account.email_account.pull for my_site
2021-04-20 17:52:15,842 INFO scheduler Scheduled Job Complete: frappe.email.doctype.email_account.email_account.pull for my_site
2021-04-20 17:52:15,926 INFO scheduler Scheduled Job Start: frappe.email.queue.flush for my_site
2021-04-20 17:52:16,227 INFO scheduler Scheduled Job Complete: frappe.email.queue.flush for my_site
2021-04-20 17:53:12,118 DEBUG scheduler Queued events for site my_site
2021-04-20 17:54:12,472 DEBUG scheduler Queued events for site my_site
2021-04-20 17:55:12,849 DEBUG scheduler Queued events for site my_site
2021-04-20 17:56:13,410 DEBUG scheduler Queued events for site my_site
2021-04-20 17:56:15,590 INFO scheduler Scheduled Job Start: frappe.monitor.flush for my_site
2021-04-20 17:56:15,773 INFO scheduler Scheduled Job Complete: frappe.monitor.flush for my_site
2021-04-20 17:56:15,862 INFO scheduler Scheduled Job Start: frappe.utils.global_search.sync_global_search for my_site
2021-04-20 17:56:16,041 INFO scheduler Scheduled Job Complete: frappe.utils.global_search.sync_global_search for my_site
2021-04-20 17:56:16,124 INFO scheduler Scheduled Job Start: frappe.integrations.doctype.razorpay_settings.razorpay_settings.capture_payment for my_site
2021-04-20 17:56:16,570 INFO scheduler Scheduled Job Complete: frappe.integrations.doctype.razorpay_settings.razorpay_settings.capture_payment for my_site
2021-04-20 17:56:16,654 INFO scheduler Scheduled Job Start: frappe.email.doctype.email_account.email_account.notify_unreplied for my_site
2021-04-20 17:56:17,007 INFO scheduler Scheduled Job Complete: frappe.email.doctype.email_account.email_account.notify_unreplied for my_site
2021-04-20 17:56:17,096 INFO scheduler Scheduled Job Start: frappe.email.doctype.email_account.email_account.pull for my_site
2021-04-20 17:56:17,461 INFO scheduler Scheduled Job Complete: frappe.email.doctype.email_account.email_account.pull for my_site
2021-04-20 17:56:17,548 INFO scheduler Scheduled Job Start: frappe.email.queue.flush for my_site
2021-04-20 17:56:17,855 INFO scheduler Scheduled Job Complete: frappe.email.queue.flush for my_site
2021-04-20 17:57:13,822 DEBUG scheduler Queued events for site my_site
2021-04-20 17:58:14,188 DEBUG scheduler Queued events for site my_site
2021-04-20 17:59:14,562 DEBUG scheduler Queued events for site my_site
2021-04-20 18:00:15,507 DEBUG scheduler Queued events for site my_site
2021-04-20 18:00:22,965 INFO scheduler Scheduled Job Start: frappe.email.doctype.newsletter.newsletter.send_scheduled_email for my_site
2021-04-20 18:00:23,420 INFO scheduler Scheduled Job Complete: frappe.email.doctype.newsletter.newsletter.send_scheduled_email for my_site
2021-04-20 18:00:23,506 INFO scheduler Scheduled Job Start: frappe.integrations.doctype.google_calendar.google_calendar.sync for my_site
2021-04-20 18:00:24,054 INFO scheduler Scheduled Job Complete: frappe.integrations.doctype.google_calendar.google_calendar.sync for my_site
2021-04-20 18:00:24,142 INFO scheduler Scheduled Job Start: frappe.desk.form.document_follow.send_hourly_updates for my_site
2021-04-20 18:00:24,542 INFO scheduler Scheduled Job Complete: frappe.desk.form.document_follow.send_hourly_updates for my_site
2021-04-20 18:00:24,635 INFO scheduler Scheduled Job Start: frappe.deferred_insert.save_to_db for my_site
2021-04-20 18:00:25,015 INFO scheduler Scheduled Job Complete: frappe.deferred_insert.save_to_db for my_site
2021-04-20 18:00:25,102 INFO scheduler Scheduled Job Start: frappe.desk.page.backups.backups.delete_downloadable_backups for my_site
2021-04-20 18:00:25,502 INFO scheduler Scheduled Job Complete: frappe.desk.page.backups.backups.delete_downloadable_backups for my_site
2021-04-20 18:00:25,587 INFO scheduler Scheduled Job Start: frappe.utils.error.collect_error_snapshots for my_site
2021-04-20 18:00:25,978 INFO scheduler Scheduled Job Complete: frappe.utils.error.collect_error_snapshots for my_site
2021-04-20 18:00:26,063 INFO scheduler Scheduled Job Start: frappe.model.utils.user_settings.sync_user_settings for my_site
2021-04-20 18:00:26,444 INFO scheduler Scheduled Job Complete: frappe.model.utils.user_settings.sync_user_settings for my_site
2021-04-20 18:00:26,528 INFO scheduler Scheduled Job Start: frappe.model.utils.link_count.update_link_count for my_site
2021-04-20 18:00:26,915 INFO scheduler Scheduled Job Complete: frappe.model.utils.link_count.update_link_count for my_site
2021-04-20 18:00:27,002 INFO scheduler Scheduled Job Start: frappe.monitor.flush for my_site
2021-04-20 18:00:27,157 INFO scheduler Scheduled Job Complete: frappe.monitor.flush for my_site
2021-04-20 18:00:27,229 INFO scheduler Scheduled Job Start: frappe.utils.global_search.sync_global_search for my_site
2021-04-20 18:00:27,388 INFO scheduler Scheduled Job Complete: frappe.utils.global_search.sync_global_search for my_site
2021-04-20 18:00:27,464 INFO scheduler Scheduled Job Start: frappe.integrations.doctype.razorpay_settings.razorpay_settings.capture_payment for my_site
2021-04-20 18:00:27,858 INFO scheduler Scheduled Job Complete: frappe.integrations.doctype.razorpay_settings.razorpay_settings.capture_payment for my_site
2021-04-20 18:00:27,936 INFO scheduler Scheduled Job Start: frappe.email.doctype.email_account.email_account.notify_unreplied for my_site
2021-04-20 18:00:28,241 INFO scheduler Scheduled Job Complete: frappe.email.doctype.email_account.email_account.notify_unreplied for my_site
2021-04-20 18:00:28,312 INFO scheduler Scheduled Job Start: frappe.email.doctype.email_account.email_account.pull for my_site
2021-04-20 18:00:28,642 INFO scheduler Scheduled Job Complete: frappe.email.doctype.email_account.email_account.pull for my_site
2021-04-20 18:00:28,715 INFO scheduler Scheduled Job Start: frappe.email.queue.flush for my_site
2021-04-20 18:00:28,981 INFO scheduler Scheduled Job Complete: frappe.email.queue.flush for my_site
2021-04-20 18:00:29,062 INFO scheduler Scheduled Job Start: frappe.twofactor.delete_all_barcodes_for_users for my_site
2021-04-20 18:00:29,493 INFO scheduler Scheduled Job Complete: frappe.twofactor.delete_all_barcodes_for_users for my_site
2021-04-20 18:00:29,585 INFO scheduler Scheduled Job Start: frappe.website.doctype.web_page.web_page.check_publish_status for my_site
2021-04-20 18:00:30,049 INFO scheduler Scheduled Job Complete: frappe.website.doctype.web_page.web_page.check_publish_status for my_site
2021-04-20 18:00:30,139 INFO scheduler Scheduled Job Start: frappe.oauth.delete_oauth2_data for my_site
2021-04-20 18:00:30,551 INFO scheduler Scheduled Job Complete: frappe.oauth.delete_oauth2_data for my_site
2021-04-20 18:01:15,849 DEBUG scheduler Queued events for site my_site
2021-04-20 18:02:16,166 DEBUG scheduler Queued events for site my_site
2021-04-20 18:03:16,491 DEBUG scheduler Queued events for site my_site
2021-04-20 18:04:17,084 DEBUG scheduler Queued events for site my_site
2021-04-20 18:04:19,705 INFO scheduler Scheduled Job Start: frappe.monitor.flush for my_site
2021-04-20 18:04:19,956 INFO scheduler Scheduled Job Complete: frappe.monitor.flush for my_site
2021-04-20 18:04:20,048 INFO scheduler Scheduled Job Start: frappe.utils.global_search.sync_global_search for my_site
2021-04-20 18:04:20,283 INFO scheduler Scheduled Job Complete: frappe.utils.global_search.sync_global_search for my_site
2021-04-20 18:04:20,363 INFO scheduler Scheduled Job Start: frappe.integrations.doctype.razorpay_settings.razorpay_settings.capture_payment for my_site
2021-04-20 18:04:20,802 INFO scheduler Scheduled Job Complete: frappe.integrations.doctype.razorpay_settings.razorpay_settings.capture_payment for my_site
2021-04-20 18:04:20,889 INFO scheduler Scheduled Job Start: frappe.email.doctype.email_account.email_account.notify_unreplied for my_site
2021-04-20 18:04:21,206 INFO scheduler Scheduled Job Complete: frappe.email.doctype.email_account.email_account.notify_unreplied for my_site
2021-04-20 18:04:21,278 INFO scheduler Scheduled Job Start: frappe.email.doctype.email_account.email_account.pull for my_site
2021-04-20 18:04:21,612 INFO scheduler Scheduled Job Complete: frappe.email.doctype.email_account.email_account.pull for my_site
2021-04-20 18:04:21,689 INFO scheduler Scheduled Job Start: frappe.email.queue.flush for my_site
2021-04-20 18:04:21,962 INFO scheduler Scheduled Job Complete: frappe.email.queue.flush for my_site
2021-04-20 18:05:17,487 DEBUG scheduler Queued events for site my_site
2021-04-20 18:06:17,850 DEBUG scheduler Queued events for site my_site
2021-04-20 18:07:18,205 DEBUG scheduler Queued events for site my_site
2021-04-20 18:08:18,863 DEBUG scheduler Queued events for site my_site
2021-04-20 18:08:21,223 INFO scheduler Scheduled Job Start: frappe.monitor.flush for my_site
2021-04-20 18:08:21,418 INFO scheduler Scheduled Job Complete: frappe.monitor.flush for my_site
2021-04-20 18:08:21,510 INFO scheduler Scheduled Job Start: frappe.utils.global_search.sync_global_search for my_site
2021-04-20 18:08:21,700 INFO scheduler Scheduled Job Complete: frappe.utils.global_search.sync_global_search for my_site
2021-04-20 18:08:21,792 INFO scheduler Scheduled Job Start: frappe.integrations.doctype.razorpay_settings.razorpay_settings.capture_payment for my_site
2021-04-20 18:08:22,310 INFO scheduler Scheduled Job Complete: frappe.integrations.doctype.razorpay_settings.razorpay_settings.capture_payment for my_site
2021-04-20 18:08:22,411 INFO scheduler Scheduled Job Start: frappe.email.doctype.email_account.email_account.notify_unreplied for my_site
2021-04-20 18:08:22,771 INFO scheduler Scheduled Job Complete: frappe.email.doctype.email_account.email_account.notify_unreplied for my_site
2021-04-20 18:08:22,856 INFO scheduler Scheduled Job Start: frappe.email.doctype.email_account.email_account.pull for my_site
2021-04-20 18:08:23,234 INFO scheduler Scheduled Job Complete: frappe.email.doctype.email_account.email_account.pull for my_site
2021-04-20 18:08:23,320 INFO scheduler Scheduled Job Start: frappe.email.queue.flush for my_site
2021-04-20 18:08:23,635 INFO scheduler Scheduled Job Complete: frappe.email.queue.flush for my_site
2021-04-20 18:31:06,320 DEBUG scheduler Queued events for site my_site
2021-04-20 18:31:09,949 INFO scheduler Scheduled Job Start: frappe.monitor.flush for my_site
2021-04-20 18:31:10,166 INFO scheduler Scheduled Job Complete: frappe.monitor.flush for my_site
2021-04-20 18:31:10,253 INFO scheduler Scheduled Job Start: frappe.utils.global_search.sync_global_search for my_site
2021-04-20 18:31:10,449 INFO scheduler Scheduled Job Complete: frappe.utils.global_search.sync_global_search for my_site
2021-04-20 18:31:10,528 INFO scheduler Scheduled Job Start: frappe.integrations.doctype.razorpay_settings.razorpay_settings.capture_payment for my_site
2021-04-20 18:31:11,025 INFO scheduler Scheduled Job Complete: frappe.integrations.doctype.razorpay_settings.razorpay_settings.capture_payment for my_site
2021-04-20 18:31:11,109 INFO scheduler Scheduled Job Start: frappe.email.doctype.email_account.email_account.notify_unreplied for my_site
2021-04-20 18:31:11,452 INFO scheduler Scheduled Job Complete: frappe.email.doctype.email_account.email_account.notify_unreplied for my_site
2021-04-20 18:31:11,539 INFO scheduler Scheduled Job Start: frappe.email.doctype.email_account.email_account.pull for my_site
2021-04-20 18:31:11,905 INFO scheduler Scheduled Job Complete: frappe.email.doctype.email_account.email_account.pull for my_site
2021-04-20 18:31:11,980 INFO scheduler Scheduled Job Start: frappe.email.queue.flush for my_site
2021-04-20 18:31:12,293 INFO scheduler Scheduled Job Complete: frappe.email.queue.flush for my_site
2021-04-20 18:31:12,371 INFO scheduler Scheduled Job Start: frappe.twofactor.delete_all_barcodes_for_users for my_site
2021-04-20 18:31:12,801 INFO scheduler Scheduled Job Complete: frappe.twofactor.delete_all_barcodes_for_users for my_site
2021-04-20 18:31:12,896 INFO scheduler Scheduled Job Start: frappe.website.doctype.web_page.web_page.check_publish_status for my_site
2021-04-20 18:31:13,375 INFO scheduler Scheduled Job Complete: frappe.website.doctype.web_page.web_page.check_publish_status for my_site
2021-04-20 18:31:13,468 INFO scheduler Scheduled Job Start: frappe.oauth.delete_oauth2_data for my_site
2021-04-20 18:31:13,912 INFO scheduler Scheduled Job Complete: frappe.oauth.delete_oauth2_data for my_site
2021-04-20 18:32:06,814 DEBUG scheduler Queued events for site my_site
2021-04-20 18:32:08,774 INFO scheduler Scheduled Job Start: frappe.monitor.flush for my_site
2021-04-20 18:32:08,932 INFO scheduler Scheduled Job Complete: frappe.monitor.flush for my_site
2021-04-20 18:32:09,008 INFO scheduler Scheduled Job Start: frappe.utils.global_search.sync_global_search for my_site
2021-04-20 18:32:09,162 INFO scheduler Scheduled Job Complete: frappe.utils.global_search.sync_global_search for my_site
2021-04-20 18:32:09,236 INFO scheduler Scheduled Job Start: frappe.integrations.doctype.razorpay_settings.razorpay_settings.capture_payment for my_site
2021-04-20 18:32:09,637 INFO scheduler Scheduled Job Complete: frappe.integrations.doctype.razorpay_settings.razorpay_settings.capture_payment for my_site
2021-04-20 18:32:09,709 INFO scheduler Scheduled Job Start: frappe.email.doctype.email_account.email_account.notify_unreplied for my_site
2021-04-20 18:32:10,018 INFO scheduler Scheduled Job Complete: frappe.email.doctype.email_account.email_account.notify_unreplied for my_site
2021-04-20 18:32:10,089 INFO scheduler Scheduled Job Start: frappe.email.doctype.email_account.email_account.pull for my_site
2021-04-20 18:32:10,405 INFO scheduler Scheduled Job Complete: frappe.email.doctype.email_account.email_account.pull for my_site
2021-04-20 18:32:10,482 INFO scheduler Scheduled Job Start: frappe.email.queue.flush for my_site
2021-04-20 18:32:10,751 INFO scheduler Scheduled Job Complete: frappe.email.queue.flush for my_site
2021-04-20 18:33:07,159 DEBUG scheduler Queued events for site my_site
2021-04-20 18:34:07,491 DEBUG scheduler Queued events for site my_site
2021-04-20 18:35:07,805 DEBUG scheduler Queued events for site my_site
2021-04-20 18:36:08,211 DEBUG scheduler Queued events for site my_site
2021-04-20 18:36:10,153 INFO scheduler Scheduled Job Start: frappe.monitor.flush for my_site
2021-04-20 18:36:10,310 INFO scheduler Scheduled Job Complete: frappe.monitor.flush for my_site
2021-04-20 18:36:10,383 INFO scheduler Scheduled Job Start: frappe.utils.global_search.sync_global_search for my_site
2021-04-20 18:36:10,538 INFO scheduler Scheduled Job Complete: frappe.utils.global_search.sync_global_search for my_site
2021-04-20 18:36:10,616 INFO scheduler Scheduled Job Start: frappe.integrations.doctype.razorpay_settings.razorpay_settings.capture_payment for my_site
2021-04-20 18:36:11,004 INFO scheduler Scheduled Job Complete: frappe.integrations.doctype.razorpay_settings.razorpay_settings.capture_payment for my_site
2021-04-20 18:36:11,075 INFO scheduler Scheduled Job Start: frappe.email.doctype.email_account.email_account.notify_unreplied for my_site
2021-04-20 18:36:11,379 INFO scheduler Scheduled Job Complete: frappe.email.doctype.email_account.email_account.notify_unreplied for my_site
2021-04-20 18:36:11,456 INFO scheduler Scheduled Job Start: frappe.email.doctype.email_account.email_account.pull for my_site
2021-04-20 18:36:11,778 INFO scheduler Scheduled Job Complete: frappe.email.doctype.email_account.email_account.pull for my_site
2021-04-20 18:36:11,854 INFO scheduler Scheduled Job Start: frappe.email.queue.flush for my_site
2021-04-20 18:36:12,114 INFO scheduler Scheduled Job Complete: frappe.email.queue.flush for my_site
2021-04-20 18:37:08,565 DEBUG scheduler Queued events for site my_site
2021-04-20 18:38:08,890 DEBUG scheduler Queued events for site my_site
2021-04-20 18:39:09,209 DEBUG scheduler Queued events for site my_site
2021-04-20 18:40:09,843 DEBUG scheduler Queued events for site my_site
2021-04-20 18:40:11,977 INFO scheduler Scheduled Job Start: frappe.monitor.flush for my_site
2021-04-20 18:40:12,182 INFO scheduler Scheduled Job Complete: frappe.monitor.flush for my_site
2021-04-20 18:40:12,274 INFO scheduler Scheduled Job Start: frappe.utils.global_search.sync_global_search for my_site
2021-04-20 18:40:12,472 INFO scheduler Scheduled Job Complete: frappe.utils.global_search.sync_global_search for my_site
2021-04-20 18:40:12,576 INFO scheduler Scheduled Job Start: frappe.integrations.doctype.razorpay_settings.razorpay_settings.capture_payment for my_site
2021-04-20 18:40:13,118 INFO scheduler Scheduled Job Complete: frappe.integrations.doctype.razorpay_settings.razorpay_settings.capture_payment for my_site
2021-04-20 18:40:13,227 INFO scheduler Scheduled Job Start: frappe.email.doctype.email_account.email_account.notify_unreplied for my_site
2021-04-20 18:40:13,637 INFO scheduler Scheduled Job Complete: frappe.email.doctype.email_account.email_account.notify_unreplied for my_site
2021-04-20 18:40:13,713 INFO scheduler Scheduled Job Start: frappe.email.doctype.email_account.email_account.pull for my_site
2021-04-20 18:40:14,103 INFO scheduler Scheduled Job Complete: frappe.email.doctype.email_account.email_account.pull for my_site
2021-04-20 18:40:14,176 INFO scheduler Scheduled Job Start: frappe.email.queue.flush for my_site
2021-04-20 18:40:14,467 INFO scheduler Scheduled Job Complete: frappe.email.queue.flush for my_site
2021-04-20 18:41:56,438 DEBUG scheduler Queued events for site my_site
2021-04-20 18:42:57,073 DEBUG scheduler Queued events for site my_site
2021-04-20 18:43:57,390 DEBUG scheduler Queued events for site my_site
2021-04-20 18:44:57,955 DEBUG scheduler Queued events for site my_site
2021-04-20 18:45:00,457 INFO scheduler Scheduled Job Start: frappe.monitor.flush for my_site
2021-04-20 18:45:00,873 INFO scheduler Scheduled Job Complete: frappe.monitor.flush for my_site
2021-04-20 18:45:00,945 INFO scheduler Scheduled Job Start: frappe.utils.global_search.sync_global_search for my_site
2021-04-20 18:45:01,107 INFO scheduler Scheduled Job Complete: frappe.utils.global_search.sync_global_search for my_site
2021-04-20 18:45:01,185 INFO scheduler Scheduled Job Start: frappe.integrations.doctype.razorpay_settings.razorpay_settings.capture_payment for my_site
2021-04-20 18:45:01,658 INFO scheduler Scheduled Job Complete: frappe.integrations.doctype.razorpay_settings.razorpay_settings.capture_payment for my_site
2021-04-20 18:45:01,728 INFO scheduler Scheduled Job Start: frappe.email.doctype.email_account.email_account.notify_unreplied for my_site
2021-04-20 18:45:02,113 INFO scheduler Scheduled Job Complete: frappe.email.doctype.email_account.email_account.notify_unreplied for my_site
2021-04-20 18:45:02,186 INFO scheduler Scheduled Job Start: frappe.email.doctype.email_account.email_account.pull for my_site
2021-04-20 18:45:02,598 INFO scheduler Scheduled Job Complete: frappe.email.doctype.email_account.email_account.pull for my_site
2021-04-20 18:45:02,668 INFO scheduler Scheduled Job Start: frappe.email.queue.flush for my_site
2021-04-20 18:45:02,930 INFO scheduler Scheduled Job Complete: frappe.email.queue.flush for my_site
2021-04-20 18:45:58,420 DEBUG scheduler Queued events for site my_site
2021-04-20 18:46:00,147 INFO scheduler Scheduled Job Start: frappe.twofactor.delete_all_barcodes_for_users for my_site
2021-04-20 18:46:00,785 INFO scheduler Scheduled Job Complete: frappe.twofactor.delete_all_barcodes_for_users for my_site
2021-04-20 18:46:00,934 INFO scheduler Scheduled Job Start: frappe.website.doctype.web_page.web_page.check_publish_status for my_site
2021-04-20 18:46:01,902 INFO scheduler Scheduled Job Complete: frappe.website.doctype.web_page.web_page.check_publish_status for my_site
2021-04-20 18:46:01,989 INFO scheduler Scheduled Job Start: frappe.oauth.delete_oauth2_data for my_site
2021-04-20 18:46:02,475 INFO scheduler Scheduled Job Complete: frappe.oauth.delete_oauth2_data for my_site
2021-04-20 18:46:58,769 DEBUG scheduler Queued events for site my_site
2021-04-20 18:47:59,096 DEBUG scheduler Queued events for site my_site
2021-04-20 18:48:59,510 DEBUG scheduler Queued events for site my_site
2021-04-20 18:49:01,435 INFO scheduler Scheduled Job Start: frappe.monitor.flush for my_site
2021-04-20 18:49:01,592 INFO scheduler Scheduled Job Complete: frappe.monitor.flush for my_site
2021-04-20 18:49:01,665 INFO scheduler Scheduled Job Start: frappe.utils.global_search.sync_global_search for my_site
2021-04-20 18:49:01,820 INFO scheduler Scheduled Job Complete: frappe.utils.global_search.sync_global_search for my_site
2021-04-20 18:49:01,895 INFO scheduler Scheduled Job Start: frappe.integrations.doctype.razorpay_settings.razorpay_settings.capture_payment for my_site
2021-04-20 18:49:02,285 INFO scheduler Scheduled Job Complete: frappe.integrations.doctype.razorpay_settings.razorpay_settings.capture_payment for my_site
2021-04-20 18:49:02,357 INFO scheduler Scheduled Job Start: frappe.email.doctype.email_account.email_account.notify_unreplied for my_site
2021-04-20 18:49:02,671 INFO scheduler Scheduled Job Complete: frappe.email.doctype.email_account.email_account.notify_unreplied for my_site
2021-04-20 18:49:02,742 INFO scheduler Scheduled Job Start: frappe.email.doctype.email_account.email_account.pull for my_site
2021-04-20 18:49:03,066 INFO scheduler Scheduled Job Complete: frappe.email.doctype.email_account.email_account.pull for my_site
2021-04-20 18:49:03,137 INFO scheduler Scheduled Job Start: frappe.email.queue.flush for my_site
2021-04-20 18:49:03,406 INFO scheduler Scheduled Job Complete: frappe.email.queue.flush for my_site
2021-04-20 18:49:59,884 DEBUG scheduler Queued events for site my_site
2021-04-20 18:51:00,194 DEBUG scheduler Queued events for site my_site
2021-04-20 18:52:00,714 DEBUG scheduler Queued events for site my_site
2021-04-20 18:52:02,916 INFO scheduler Scheduled Job Start: frappe.monitor.flush for my_site
2021-04-20 18:52:03,073 INFO scheduler Scheduled Job Complete: frappe.monitor.flush for my_site
2021-04-20 18:52:03,145 INFO scheduler Scheduled Job Start: frappe.utils.global_search.sync_global_search for my_site
2021-04-20 18:52:03,298 INFO scheduler Scheduled Job Complete: frappe.utils.global_search.sync_global_search for my_site
2021-04-20 18:52:03,368 INFO scheduler Scheduled Job Start: frappe.integrations.doctype.razorpay_settings.razorpay_settings.capture_payment for my_site
2021-04-20 18:52:03,758 INFO scheduler Scheduled Job Complete: frappe.integrations.doctype.razorpay_settings.razorpay_settings.capture_payment for my_site
2021-04-20 18:52:03,831 INFO scheduler Scheduled Job Start: frappe.email.doctype.email_account.email_account.notify_unreplied for my_site
2021-04-20 18:52:04,135 INFO scheduler Scheduled Job Complete: frappe.email.doctype.email_account.email_account.notify_unreplied for my_site
2021-04-20 18:52:04,205 INFO scheduler Scheduled Job Start: frappe.email.doctype.email_account.email_account.pull for my_site
2021-04-20 18:52:04,530 INFO scheduler Scheduled Job Complete: frappe.email.doctype.email_account.email_account.pull for my_site
2021-04-20 18:52:04,601 INFO scheduler Scheduled Job Start: frappe.email.queue.flush for my_site
2021-04-20 18:52:04,866 INFO scheduler Scheduled Job Complete: frappe.email.queue.flush for my_site
2021-04-20 18:53:01,083 DEBUG scheduler Queued events for site my_site
2021-04-20 18:54:01,416 DEBUG scheduler Queued events for site my_site
2021-04-20 18:55:01,815 DEBUG scheduler Queued events for site my_site
2021-04-20 18:56:02,246 DEBUG scheduler Queued events for site my_site
2021-04-20 18:56:04,156 INFO scheduler Scheduled Job Start: frappe.monitor.flush for my_site
2021-04-20 18:56:04,311 INFO scheduler Scheduled Job Complete: frappe.monitor.flush for my_site
2021-04-20 18:56:04,383 INFO scheduler Scheduled Job Start: frappe.utils.global_search.sync_global_search for my_site
2021-04-20 18:56:04,612 INFO scheduler Scheduled Job Complete: frappe.utils.global_search.sync_global_search for my_site
2021-04-20 18:56:04,705 INFO scheduler Scheduled Job Start: frappe.integrations.doctype.razorpay_settings.razorpay_settings.capture_payment for my_site
2021-04-20 18:56:05,152 INFO scheduler Scheduled Job Complete: frappe.integrations.doctype.razorpay_settings.razorpay_settings.capture_payment for my_site
2021-04-20 18:56:05,227 INFO scheduler Scheduled Job Start: frappe.email.doctype.email_account.email_account.notify_unreplied for my_site
2021-04-20 18:56:05,679 INFO scheduler Scheduled Job Complete: frappe.email.doctype.email_account.email_account.notify_unreplied for my_site
2021-04-20 18:56:05,786 INFO scheduler Scheduled Job Start: frappe.email.doctype.email_account.email_account.pull for my_site
2021-04-20 18:56:06,212 INFO scheduler Scheduled Job Complete: frappe.email.doctype.email_account.email_account.pull for my_site
2021-04-20 18:56:06,284 INFO scheduler Scheduled Job Start: frappe.email.queue.flush for my_site
2021-04-20 18:56:06,578 INFO scheduler Scheduled Job Complete: frappe.email.queue.flush for my_site
2021-04-20 18:57:02,680 DEBUG scheduler Queued events for site my_site
2021-04-20 18:58:03,085 DEBUG scheduler Queued events for site my_site
2021-04-20 18:59:03,587 DEBUG scheduler Queued events for site my_site
2021-04-20 19:00:04,406 DEBUG scheduler Queued events for site my_site
2021-04-20 19:00:13,028 INFO scheduler Scheduled Job Start: frappe.email.doctype.newsletter.newsletter.send_scheduled_email for my_site
2021-04-20 19:00:13,526 INFO scheduler Scheduled Job Complete: frappe.email.doctype.newsletter.newsletter.send_scheduled_email for my_site
2021-04-20 19:00:13,611 INFO scheduler Scheduled Job Start: frappe.integrations.doctype.google_calendar.google_calendar.sync for my_site
2021-04-20 19:00:14,195 INFO scheduler Scheduled Job Complete: frappe.integrations.doctype.google_calendar.google_calendar.sync for my_site
2021-04-20 19:00:14,282 INFO scheduler Scheduled Job Start: frappe.desk.form.document_follow.send_hourly_updates for my_site
2021-04-20 19:00:14,703 INFO scheduler Scheduled Job Complete: frappe.desk.form.document_follow.send_hourly_updates for my_site
2021-04-20 19:00:14,789 INFO scheduler Scheduled Job Start: frappe.deferred_insert.save_to_db for my_site
2021-04-20 19:00:15,182 INFO scheduler Scheduled Job Complete: frappe.deferred_insert.save_to_db for my_site
2021-04-20 19:00:15,270 INFO scheduler Scheduled Job Start: frappe.desk.page.backups.backups.delete_downloadable_backups for my_site
2021-04-20 19:00:15,682 INFO scheduler Scheduled Job Complete: frappe.desk.page.backups.backups.delete_downloadable_backups for my_site
2021-04-20 19:00:15,776 INFO scheduler Scheduled Job Start: frappe.utils.error.collect_error_snapshots for my_site
2021-04-20 19:00:16,175 INFO scheduler Scheduled Job Complete: frappe.utils.error.collect_error_snapshots for my_site
2021-04-20 19:00:16,261 INFO scheduler Scheduled Job Start: frappe.model.utils.user_settings.sync_user_settings for my_site
2021-04-20 19:00:16,647 INFO scheduler Scheduled Job Complete: frappe.model.utils.user_settings.sync_user_settings for my_site
2021-04-20 19:00:16,735 INFO scheduler Scheduled Job Start: frappe.model.utils.link_count.update_link_count for my_site
2021-04-20 19:00:17,185 INFO scheduler Scheduled Job Complete: frappe.model.utils.link_count.update_link_count for my_site
2021-04-20 19:00:17,283 INFO scheduler Scheduled Job Start: frappe.monitor.flush for my_site
2021-04-20 19:00:17,476 INFO scheduler Scheduled Job Complete: frappe.monitor.flush for my_site
2021-04-20 19:00:17,553 INFO scheduler Scheduled Job Start: frappe.utils.global_search.sync_global_search for my_site
2021-04-20 19:00:17,709 INFO scheduler Scheduled Job Complete: frappe.utils.global_search.sync_global_search for my_site
2021-04-20 19:00:17,785 INFO scheduler Scheduled Job Start: frappe.integrations.doctype.razorpay_settings.razorpay_settings.capture_payment for my_site
2021-04-20 19:00:18,193 INFO scheduler Scheduled Job Complete: frappe.integrations.doctype.razorpay_settings.razorpay_settings.capture_payment for my_site
2021-04-20 19:00:18,266 INFO scheduler Scheduled Job Start: frappe.email.doctype.email_account.email_account.notify_unreplied for my_site
2021-04-20 19:00:18,588 INFO scheduler Scheduled Job Complete: frappe.email.doctype.email_account.email_account.notify_unreplied for my_site
2021-04-20 19:00:18,660 INFO scheduler Scheduled Job Start: frappe.email.doctype.email_account.email_account.pull for my_site
2021-04-20 19:00:19,001 INFO scheduler Scheduled Job Complete: frappe.email.doctype.email_account.email_account.pull for my_site
2021-04-20 19:00:19,075 INFO scheduler Scheduled Job Start: frappe.email.queue.flush for my_site
2021-04-20 19:00:19,338 INFO scheduler Scheduled Job Complete: frappe.email.queue.flush for my_site
2021-04-20 19:00:19,417 INFO scheduler Scheduled Job Start: frappe.twofactor.delete_all_barcodes_for_users for my_site
2021-04-20 19:00:19,833 INFO scheduler Scheduled Job Complete: frappe.twofactor.delete_all_barcodes_for_users for my_site
2021-04-20 19:00:19,918 INFO scheduler Scheduled Job Start: frappe.website.doctype.web_page.web_page.check_publish_status for my_site
2021-04-20 19:00:20,373 INFO scheduler Scheduled Job Complete: frappe.website.doctype.web_page.web_page.check_publish_status for my_site
2021-04-20 19:00:20,463 INFO scheduler Scheduled Job Start: frappe.oauth.delete_oauth2_data for my_site
2021-04-20 19:00:20,880 INFO scheduler Scheduled Job Complete: frappe.oauth.delete_oauth2_data for my_site
2021-04-20 19:01:04,766 DEBUG scheduler Queued events for site my_site
2021-04-20 19:02:05,081 DEBUG scheduler Queued events for site my_site
2021-04-20 19:03:05,405 DEBUG scheduler Queued events for site my_site
2021-04-20 19:04:05,940 DEBUG scheduler Queued events for site my_site
2021-04-20 19:04:08,834 INFO scheduler Scheduled Job Start: frappe.monitor.flush for my_site
2021-04-20 19:04:09,008 INFO scheduler Scheduled Job Complete: frappe.monitor.flush for my_site
2021-04-20 19:04:09,079 INFO scheduler Scheduled Job Start: frappe.utils.global_search.sync_global_search for my_site
2021-04-20 19:04:09,241 INFO scheduler Scheduled Job Complete: frappe.utils.global_search.sync_global_search for my_site
2021-04-20 19:04:09,318 INFO scheduler Scheduled Job Start: frappe.integrations.doctype.razorpay_settings.razorpay_settings.capture_payment for my_site
2021-04-20 19:04:09,730 INFO scheduler Scheduled Job Complete: frappe.integrations.doctype.razorpay_settings.razorpay_settings.capture_payment for my_site
2021-04-20 19:04:09,806 INFO scheduler Scheduled Job Start: frappe.email.doctype.email_account.email_account.notify_unreplied for my_site
2021-04-20 19:04:10,162 INFO scheduler Scheduled Job Complete: frappe.email.doctype.email_account.email_account.notify_unreplied for my_site
2021-04-20 19:04:10,235 INFO scheduler Scheduled Job Start: frappe.email.doctype.email_account.email_account.pull for my_site
2021-04-20 19:04:10,579 INFO scheduler Scheduled Job Complete: frappe.email.doctype.email_account.email_account.pull for my_site
2021-04-20 19:04:10,661 INFO scheduler Scheduled Job Start: frappe.email.queue.flush for my_site
2021-04-20 19:04:10,951 INFO scheduler Scheduled Job Complete: frappe.email.queue.flush for my_site
2021-04-20 19:05:06,284 DEBUG scheduler Queued events for site my_site
2021-04-20 19:06:06,605 DEBUG scheduler Queued events for site my_site
2021-04-20 19:07:06,926 DEBUG scheduler Queued events for site my_site
2021-04-20 19:08:07,354 DEBUG scheduler Queued events for site my_site
2021-04-20 19:08:09,259 INFO scheduler Scheduled Job Start: frappe.monitor.flush for my_site
2021-04-20 19:08:09,412 INFO scheduler Scheduled Job Complete: frappe.monitor.flush for my_site
2021-04-20 19:08:09,489 INFO scheduler Scheduled Job Start: frappe.utils.global_search.sync_global_search for my_site
2021-04-20 19:08:09,649 INFO scheduler Scheduled Job Complete: frappe.utils.global_search.sync_global_search for my_site
2021-04-20 19:08:09,724 INFO scheduler Scheduled Job Start: frappe.integrations.doctype.razorpay_settings.razorpay_settings.capture_payment for my_site
2021-04-20 19:08:10,108 INFO scheduler Scheduled Job Complete: frappe.integrations.doctype.razorpay_settings.razorpay_settings.capture_payment for my_site
2021-04-20 19:08:10,178 INFO scheduler Scheduled Job Start: frappe.email.doctype.email_account.email_account.notify_unreplied for my_site
2021-04-20 19:08:10,483 INFO scheduler Scheduled Job Complete: frappe.email.doctype.email_account.email_account.notify_unreplied for my_site
2021-04-20 19:08:10,556 INFO scheduler Scheduled Job Start: frappe.email.doctype.email_account.email_account.pull for my_site
2021-04-20 19:08:10,882 INFO scheduler Scheduled Job Complete: frappe.email.doctype.email_account.email_account.pull for my_site
2021-04-20 19:08:10,957 INFO scheduler Scheduled Job Start: frappe.email.queue.flush for my_site
2021-04-20 19:08:11,226 INFO scheduler Scheduled Job Complete: frappe.email.queue.flush for my_site
2021-04-20 19:09:07,709 DEBUG scheduler Queued events for site my_site
2021-04-20 19:10:08,029 DEBUG scheduler Queued events for site my_site
2021-04-20 19:11:08,344 DEBUG scheduler Queued events for site my_site
2021-04-20 19:12:08,796 DEBUG scheduler Queued events for site my_site
2021-04-20 19:12:10,692 INFO scheduler Scheduled Job Start: frappe.monitor.flush for my_site
2021-04-20 19:12:10,855 INFO scheduler Scheduled Job Complete: frappe.monitor.flush for my_site
2021-04-20 19:12:10,931 INFO scheduler Scheduled Job Start: frappe.utils.global_search.sync_global_search for my_site
2021-04-20 19:12:11,086 INFO scheduler Scheduled Job Complete: frappe.utils.global_search.sync_global_search for my_site
2021-04-20 19:12:11,160 INFO scheduler Scheduled Job Start: frappe.integrations.doctype.razorpay_settings.razorpay_settings.capture_payment for my_site
2021-04-20 19:12:11,557 INFO scheduler Scheduled Job Complete: frappe.integrations.doctype.razorpay_settings.razorpay_settings.capture_payment for my_site
2021-04-20 19:12:11,629 INFO scheduler Scheduled Job Start: frappe.email.doctype.email_account.email_account.notify_unreplied for my_site
2021-04-20 19:12:11,940 INFO scheduler Scheduled Job Complete: frappe.email.doctype.email_account.email_account.notify_unreplied for my_site
2021-04-20 19:12:12,012 INFO scheduler Scheduled Job Start: frappe.email.doctype.email_account.email_account.pull for my_site
2021-04-20 19:12:12,353 INFO scheduler Scheduled Job Complete: frappe.email.doctype.email_account.email_account.pull for my_site
2021-04-20 19:12:12,423 INFO scheduler Scheduled Job Start: frappe.email.queue.flush for my_site
2021-04-20 19:12:12,685 INFO scheduler Scheduled Job Complete: frappe.email.queue.flush for my_site
2021-04-20 19:13:09,135 DEBUG scheduler Queued events for site my_site
2021-04-20 19:14:09,449 DEBUG scheduler Queued events for site my_site
2021-04-20 19:15:09,806 DEBUG scheduler Queued events for site my_site
2021-04-20 19:15:11,310 INFO scheduler Scheduled Job Start: frappe.twofactor.delete_all_barcodes_for_users for my_site
2021-04-20 19:15:11,762 INFO scheduler Scheduled Job Complete: frappe.twofactor.delete_all_barcodes_for_users for my_site
2021-04-20 19:15:11,848 INFO scheduler Scheduled Job Start: frappe.website.doctype.web_page.web_page.check_publish_status for my_site
2021-04-20 19:15:12,324 INFO scheduler Scheduled Job Complete: frappe.website.doctype.web_page.web_page.check_publish_status for my_site
2021-04-20 19:15:12,421 INFO scheduler Scheduled Job Start: frappe.oauth.delete_oauth2_data for my_site
2021-04-20 19:15:12,839 INFO scheduler Scheduled Job Complete: frappe.oauth.delete_oauth2_data for my_site
2021-04-20 19:16:10,525 DEBUG scheduler Queued events for site my_site
2021-04-20 19:16:12,972 INFO scheduler Scheduled Job Start: frappe.monitor.flush for my_site
2021-04-20 19:16:13,216 INFO scheduler Scheduled Job Complete: frappe.monitor.flush for my_site
2021-04-20 19:16:13,385 INFO scheduler Scheduled Job Start: frappe.utils.global_search.sync_global_search for my_site
2021-04-20 19:16:13,683 INFO scheduler Scheduled Job Complete: frappe.utils.global_search.sync_global_search for my_site
2021-04-20 19:16:13,777 INFO scheduler Scheduled Job Start: frappe.integrations.doctype.razorpay_settings.razorpay_settings.capture_payment for my_site
2021-04-20 19:16:14,265 INFO scheduler Scheduled Job Complete: frappe.integrations.doctype.razorpay_settings.razorpay_settings.capture_payment for my_site
2021-04-20 19:16:14,353 INFO scheduler Scheduled Job Start: frappe.email.doctype.email_account.email_account.notify_unreplied for my_site
2021-04-20 19:16:14,910 INFO scheduler Scheduled Job Complete: frappe.email.doctype.email_account.email_account.notify_unreplied for my_site
2021-04-20 19:16:14,999 INFO scheduler Scheduled Job Start: frappe.email.doctype.email_account.email_account.pull for my_site
2021-04-20 19:16:15,378 INFO scheduler Scheduled Job Complete: frappe.email.doctype.email_account.email_account.pull for my_site
2021-04-20 19:16:15,452 INFO scheduler Scheduled Job Start: frappe.email.queue.flush for my_site
2021-04-20 19:16:15,737 INFO scheduler Scheduled Job Complete: frappe.email.queue.flush for my_site
2021-04-20 19:17:10,897 DEBUG scheduler Queued events for site my_site
2021-04-20 19:18:11,221 DEBUG scheduler Queued events for site my_site
2021-04-20 19:19:11,595 DEBUG scheduler Queued events for site my_site
2021-04-20 19:20:12,051 DEBUG scheduler Queued events for site my_site
2021-04-20 19:20:14,123 INFO scheduler Scheduled Job Start: frappe.monitor.flush for my_site
2021-04-20 19:20:14,296 INFO scheduler Scheduled Job Complete: frappe.monitor.flush for my_site
2021-04-20 19:20:14,373 INFO scheduler Scheduled Job Start: frappe.utils.global_search.sync_global_search for my_site
2021-04-20 19:20:14,534 INFO scheduler Scheduled Job Complete: frappe.utils.global_search.sync_global_search for my_site
2021-04-20 19:20:14,610 INFO scheduler Scheduled Job Start: frappe.integrations.doctype.razorpay_settings.razorpay_settings.capture_payment for my_site
2021-04-20 19:20:15,073 INFO scheduler Scheduled Job Complete: frappe.integrations.doctype.razorpay_settings.razorpay_settings.capture_payment for my_site
2021-04-20 19:20:15,154 INFO scheduler Scheduled Job Start: frappe.email.doctype.email_account.email_account.notify_unreplied for my_site
2021-04-20 19:20:15,476 INFO scheduler Scheduled Job Complete: frappe.email.doctype.email_account.email_account.notify_unreplied for my_site
2021-04-20 19:20:15,549 INFO scheduler Scheduled Job Start: frappe.email.doctype.email_account.email_account.pull for my_site
2021-04-20 19:20:15,909 INFO scheduler Scheduled Job Complete: frappe.email.doctype.email_account.email_account.pull for my_site
2021-04-20 19:20:15,981 INFO scheduler Scheduled Job Start: frappe.email.queue.flush for my_site
2021-04-20 19:20:16,277 INFO scheduler Scheduled Job Complete: frappe.email.queue.flush for my_site
2021-04-20 19:21:12,395 DEBUG scheduler Queued events for site my_site
2021-04-20 19:22:12,727 DEBUG scheduler Queued events for site my_site
2021-04-20 19:23:13,174 DEBUG scheduler Queued events for site my_site
2021-04-20 19:24:13,936 DEBUG scheduler Queued events for site my_site
2021-04-20 19:24:16,550 INFO scheduler Scheduled Job Start: frappe.monitor.flush for my_site
2021-04-20 19:24:16,720 INFO scheduler Scheduled Job Complete: frappe.monitor.flush for my_site
2021-04-20 19:24:16,799 INFO scheduler Scheduled Job Start: frappe.utils.global_search.sync_global_search for my_site
2021-04-20 19:24:16,961 INFO scheduler Scheduled Job Complete: frappe.utils.global_search.sync_global_search for my_site
2021-04-20 19:24:17,044 INFO scheduler Scheduled Job Start: frappe.integrations.doctype.razorpay_settings.razorpay_settings.capture_payment for my_site
2021-04-20 19:24:17,482 INFO scheduler Scheduled Job Complete: frappe.integrations.doctype.razorpay_settings.razorpay_settings.capture_payment for my_site
2021-04-20 19:24:17,558 INFO scheduler Scheduled Job Start: frappe.email.doctype.email_account.email_account.notify_unreplied for my_site
2021-04-20 19:24:17,909 INFO scheduler Scheduled Job Complete: frappe.email.doctype.email_account.email_account.notify_unreplied for my_site
2021-04-20 19:24:17,983 INFO scheduler Scheduled Job Start: frappe.email.doctype.email_account.email_account.pull for my_site
2021-04-20 19:24:18,320 INFO scheduler Scheduled Job Complete: frappe.email.doctype.email_account.email_account.pull for my_site
2021-04-20 19:24:18,402 INFO scheduler Scheduled Job Start: frappe.email.queue.flush for my_site
2021-04-20 19:24:18,679 INFO scheduler Scheduled Job Complete: frappe.email.queue.flush for my_site
2021-04-20 19:25:14,285 DEBUG scheduler Queued events for site my_site
2021-04-20 19:26:14,604 DEBUG scheduler Queued events for site my_site
2021-04-20 19:27:14,950 DEBUG scheduler Queued events for site my_site
2021-04-20 19:28:15,359 DEBUG scheduler Queued events for site my_site
2021-04-20 19:28:17,293 INFO scheduler Scheduled Job Start: frappe.monitor.flush for my_site
2021-04-20 19:28:17,448 INFO scheduler Scheduled Job Complete: frappe.monitor.flush for my_site
2021-04-20 19:28:17,525 INFO scheduler Scheduled Job Start: frappe.utils.global_search.sync_global_search for my_site
2021-04-20 19:28:17,687 INFO scheduler Scheduled Job Complete: frappe.utils.global_search.sync_global_search for my_site
2021-04-20 19:28:17,773 INFO scheduler Scheduled Job Start: frappe.integrations.doctype.razorpay_settings.razorpay_settings.capture_payment for my_site
2021-04-20 19:28:18,169 INFO scheduler Scheduled Job Complete: frappe.integrations.doctype.razorpay_settings.razorpay_settings.capture_payment for my_site
2021-04-20 19:28:18,243 INFO scheduler Scheduled Job Start: frappe.email.doctype.email_account.email_account.notify_unreplied for my_site
2021-04-20 19:28:18,566 INFO scheduler Scheduled Job Complete: frappe.email.doctype.email_account.email_account.notify_unreplied for my_site
2021-04-20 19:28:18,636 INFO scheduler Scheduled Job Start: frappe.email.doctype.email_account.email_account.pull for my_site
2021-04-20 19:28:18,962 INFO scheduler Scheduled Job Complete: frappe.email.doctype.email_account.email_account.pull for my_site
2021-04-20 19:28:19,035 INFO scheduler Scheduled Job Start: frappe.email.queue.flush for my_site
2021-04-20 19:28:19,312 INFO scheduler Scheduled Job Complete: frappe.email.queue.flush for my_site
2021-04-20 19:29:15,733 DEBUG scheduler Queued events for site my_site
2021-04-20 19:30:16,119 DEBUG scheduler Queued events for site my_site
2021-04-20 19:30:17,588 INFO scheduler Scheduled Job Start: frappe.twofactor.delete_all_barcodes_for_users for my_site
2021-04-20 19:30:18,005 INFO scheduler Scheduled Job Complete: frappe.twofactor.delete_all_barcodes_for_users for my_site
2021-04-20 19:30:18,092 INFO scheduler Scheduled Job Start: frappe.website.doctype.web_page.web_page.check_publish_status for my_site
2021-04-20 19:30:18,568 INFO scheduler Scheduled Job Complete: frappe.website.doctype.web_page.web_page.check_publish_status for my_site
2021-04-20 19:30:18,654 INFO scheduler Scheduled Job Start: frappe.oauth.delete_oauth2_data for my_site
2021-04-20 19:30:19,060 INFO scheduler Scheduled Job Complete: frappe.oauth.delete_oauth2_data for my_site
2021-04-20 19:31:16,464 DEBUG scheduler Queued events for site my_site
2021-04-20 19:32:16,930 DEBUG scheduler Queued events for site my_site
2021-04-20 19:32:19,092 INFO scheduler Scheduled Job Start: frappe.monitor.flush for my_site
2021-04-20 19:32:19,249 INFO scheduler Scheduled Job Complete: frappe.monitor.flush for my_site
2021-04-20 19:32:19,332 INFO scheduler Scheduled Job Start: frappe.utils.global_search.sync_global_search for my_site
2021-04-20 19:32:19,489 INFO scheduler Scheduled Job Complete: frappe.utils.global_search.sync_global_search for my_site
2021-04-20 19:32:19,561 INFO scheduler Scheduled Job Start: frappe.integrations.doctype.razorpay_settings.razorpay_settings.capture_payment for my_site
2021-04-20 19:32:19,952 INFO scheduler Scheduled Job Complete: frappe.integrations.doctype.razorpay_settings.razorpay_settings.capture_payment for my_site
2021-04-20 19:32:20,035 INFO scheduler Scheduled Job Start: frappe.email.doctype.email_account.email_account.notify_unreplied for my_site
2021-04-20 19:32:20,438 INFO scheduler Scheduled Job Complete: frappe.email.doctype.email_account.email_account.notify_unreplied for my_site
2021-04-20 19:32:20,537 INFO scheduler Scheduled Job Start: frappe.email.doctype.email_account.email_account.pull for my_site
2021-04-20 19:32:20,989 INFO scheduler Scheduled Job Complete: frappe.email.doctype.email_account.email_account.pull for my_site
2021-04-20 19:32:21,083 INFO scheduler Scheduled Job Start: frappe.email.queue.flush for my_site
2021-04-20 19:32:21,551 INFO scheduler Scheduled Job Complete: frappe.email.queue.flush for my_site
2021-04-20 19:33:17,280 DEBUG scheduler Queued events for site my_site
2021-04-20 19:34:17,595 DEBUG scheduler Queued events for site my_site
2021-04-20 19:35:18,071 DEBUG scheduler Queued events for site my_site
2021-04-20 19:36:18,615 DEBUG scheduler Queued events for site my_site
2021-04-20 19:36:20,770 INFO scheduler Scheduled Job Start: frappe.monitor.flush for my_site
2021-04-20 19:36:20,988 INFO scheduler Scheduled Job Complete: frappe.monitor.flush for my_site
2021-04-20 19:36:21,094 INFO scheduler Scheduled Job Start: frappe.utils.global_search.sync_global_search for my_site
2021-04-20 19:36:21,299 INFO scheduler Scheduled Job Complete: frappe.utils.global_search.sync_global_search for my_site
2021-04-20 19:36:21,398 INFO scheduler Scheduled Job Start: frappe.integrations.doctype.razorpay_settings.razorpay_settings.capture_payment for my_site
2021-04-20 19:36:21,815 INFO scheduler Scheduled Job Complete: frappe.integrations.doctype.razorpay_settings.razorpay_settings.capture_payment for my_site
2021-04-20 19:36:21,888 INFO scheduler Scheduled Job Start: frappe.email.doctype.email_account.email_account.notify_unreplied for my_site
2021-04-20 19:36:22,319 INFO scheduler Scheduled Job Complete: frappe.email.doctype.email_account.email_account.notify_unreplied for my_site
2021-04-20 19:36:22,415 INFO scheduler Scheduled Job Start: frappe.email.doctype.email_account.email_account.pull for my_site
2021-04-20 19:36:22,813 INFO scheduler Scheduled Job Complete: frappe.email.doctype.email_account.email_account.pull for my_site
2021-04-20 19:36:22,887 INFO scheduler Scheduled Job Start: frappe.email.queue.flush for my_site
2021-04-20 19:36:23,184 INFO scheduler Scheduled Job Complete: frappe.email.queue.flush for my_site
2021-04-20 19:37:19,237 DEBUG scheduler Queued events for site my_site
2021-04-20 19:38:19,565 DEBUG scheduler Queued events for site my_site
2021-04-20 19:39:19,970 DEBUG scheduler Queued events for site my_site
2021-04-20 19:40:20,536 DEBUG scheduler Queued events for site my_site
2021-04-20 19:40:22,682 INFO scheduler Scheduled Job Start: frappe.monitor.flush for my_site
2021-04-20 19:40:22,837 INFO scheduler Scheduled Job Complete: frappe.monitor.flush for my_site
2021-04-20 19:40:22,912 INFO scheduler Scheduled Job Start: frappe.utils.global_search.sync_global_search for my_site
2021-04-20 19:40:23,072 INFO scheduler Scheduled Job Complete: frappe.utils.global_search.sync_global_search for my_site
2021-04-20 19:40:23,143 INFO scheduler Scheduled Job Start: frappe.integrations.doctype.razorpay_settings.razorpay_settings.capture_payment for my_site
2021-04-20 19:40:23,534 INFO scheduler Scheduled Job Complete: frappe.integrations.doctype.razorpay_settings.razorpay_settings.capture_payment for my_site
2021-04-20 19:40:23,613 INFO scheduler Scheduled Job Start: frappe.email.doctype.email_account.email_account.notify_unreplied for my_site
2021-04-20 19:40:23,936 INFO scheduler Scheduled Job Complete: frappe.email.doctype.email_account.email_account.notify_unreplied for my_site
2021-04-20 19:40:24,022 INFO scheduler Scheduled Job Start: frappe.email.doctype.email_account.email_account.pull for my_site
2021-04-20 19:40:24,365 INFO scheduler Scheduled Job Complete: frappe.email.doctype.email_account.email_account.pull for my_site
2021-04-20 19:40:24,441 INFO scheduler Scheduled Job Start: frappe.email.queue.flush for my_site
2021-04-20 19:40:24,718 INFO scheduler Scheduled Job Complete: frappe.email.queue.flush for my_site
2021-04-20 19:41:20,926 DEBUG scheduler Queued events for site my_site
2021-04-20 19:42:21,256 DEBUG scheduler Queued events for site my_site
2021-04-20 19:43:24,261 DEBUG scheduler Queued events for site my_site
2021-04-20 19:44:25,163 DEBUG scheduler Queued events for site my_site
2021-04-20 19:44:28,004 INFO scheduler Scheduled Job Start: frappe.monitor.flush for my_site
2021-04-20 19:44:28,205 INFO scheduler Scheduled Job Complete: frappe.monitor.flush for my_site
2021-04-20 19:44:28,307 INFO scheduler Scheduled Job Start: frappe.utils.global_search.sync_global_search for my_site
2021-04-20 19:44:28,567 INFO scheduler Scheduled Job Complete: frappe.utils.global_search.sync_global_search for my_site
2021-04-20 19:44:28,746 INFO scheduler Scheduled Job Start: frappe.integrations.doctype.razorpay_settings.razorpay_settings.capture_payment for my_site
2021-04-20 19:44:29,576 INFO scheduler Scheduled Job Complete: frappe.integrations.doctype.razorpay_settings.razorpay_settings.capture_payment for my_site
2021-04-20 19:44:29,707 INFO scheduler Scheduled Job Start: frappe.email.doctype.email_account.email_account.notify_unreplied for my_site
2021-04-20 19:44:30,306 INFO scheduler Scheduled Job Complete: frappe.email.doctype.email_account.email_account.notify_unreplied for my_site
2021-04-20 19:44:30,416 INFO scheduler Scheduled Job Start: frappe.email.doctype.email_account.email_account.pull for my_site
2021-04-20 19:44:30,822 INFO scheduler Scheduled Job Complete: frappe.email.doctype.email_account.email_account.pull for my_site
2021-04-20 19:44:30,911 INFO scheduler Scheduled Job Start: frappe.email.queue.flush for my_site
2021-04-20 19:44:31,323 INFO scheduler Scheduled Job Complete: frappe.email.queue.flush for my_site
2021-04-20 19:45:25,630 DEBUG scheduler Queued events for site my_site
2021-04-20 19:45:27,650 INFO scheduler Scheduled Job Start: frappe.twofactor.delete_all_barcodes_for_users for my_site
2021-04-20 19:45:28,252 INFO scheduler Scheduled Job Complete: frappe.twofactor.delete_all_barcodes_for_users for my_site
2021-04-20 19:45:28,350 INFO scheduler Scheduled Job Start: frappe.website.doctype.web_page.web_page.check_publish_status for my_site
2021-04-20 19:45:28,896 INFO scheduler Scheduled Job Complete: frappe.website.doctype.web_page.web_page.check_publish_status for my_site
2021-04-20 19:45:29,003 INFO scheduler Scheduled Job Start: frappe.oauth.delete_oauth2_data for my_site
2021-04-20 19:45:29,503 INFO scheduler Scheduled Job Complete: frappe.oauth.delete_oauth2_data for my_site
2021-04-20 19:46:26,075 DEBUG scheduler Queued events for site my_site
2021-04-20 19:47:26,436 DEBUG scheduler Queued events for site my_site
2021-04-20 19:48:26,933 DEBUG scheduler Queued events for site my_site
2021-04-20 19:48:29,531 INFO scheduler Scheduled Job Start: frappe.monitor.flush for my_site
2021-04-20 19:48:29,728 INFO scheduler Scheduled Job Complete: frappe.monitor.flush for my_site
