2021-04-21 22:26:37,641 DEBUG scheduler Queued events for site meeting.dev
2021-04-21 22:27:38,041 DEBUG scheduler Queued events for site meeting.dev
2021-04-21 22:28:38,497 DEBUG scheduler Queued events for site meeting.dev
2021-04-21 22:28:38,530 INFO scheduler Scheduled Job Start: frappe.monitor.flush for meeting.dev
2021-04-21 22:28:38,853 INFO scheduler Scheduled Job Complete: frappe.monitor.flush for meeting.dev
2021-04-21 22:28:38,927 INFO scheduler Scheduled Job Start: frappe.utils.global_search.sync_global_search for meeting.dev
2021-04-21 22:28:39,082 INFO scheduler Scheduled Job Complete: frappe.utils.global_search.sync_global_search for meeting.dev
2021-04-21 22:28:39,159 INFO scheduler Scheduled Job Start: frappe.integrations.doctype.razorpay_settings.razorpay_settings.capture_payment for meeting.dev
2021-04-21 22:28:39,648 INFO scheduler Scheduled Job Complete: frappe.integrations.doctype.razorpay_settings.razorpay_settings.capture_payment for meeting.dev
2021-04-21 22:28:39,718 INFO scheduler Scheduled Job Start: frappe.email.doctype.email_account.email_account.notify_unreplied for meeting.dev
2021-04-21 22:28:40,118 INFO scheduler Scheduled Job Complete: frappe.email.doctype.email_account.email_account.notify_unreplied for meeting.dev
2021-04-21 22:28:40,188 INFO scheduler Scheduled Job Start: frappe.email.doctype.email_account.email_account.pull for meeting.dev
2021-04-21 22:28:40,527 INFO scheduler Scheduled Job Complete: frappe.email.doctype.email_account.email_account.pull for meeting.dev
2021-04-21 22:28:40,607 INFO scheduler Scheduled Job Start: frappe.email.queue.flush for meeting.dev
2021-04-21 22:28:40,870 INFO scheduler Scheduled Job Complete: frappe.email.queue.flush for meeting.dev
2021-04-21 22:29:39,061 DEBUG scheduler Queued events for site meeting.dev
2021-04-21 22:30:39,496 DEBUG scheduler Queued events for site meeting.dev
2021-04-21 22:30:39,577 INFO scheduler Scheduled Job Start: frappe.twofactor.delete_all_barcodes_for_users for meeting.dev
2021-04-21 22:30:40,232 INFO scheduler Scheduled Job Complete: frappe.twofactor.delete_all_barcodes_for_users for meeting.dev
2021-04-21 22:30:40,319 INFO scheduler Scheduled Job Start: frappe.website.doctype.web_page.web_page.check_publish_status for meeting.dev
2021-04-21 22:30:40,953 INFO scheduler Scheduled Job Complete: frappe.website.doctype.web_page.web_page.check_publish_status for meeting.dev
2021-04-21 22:30:41,058 INFO scheduler Scheduled Job Start: frappe.oauth.delete_oauth2_data for meeting.dev
2021-04-21 22:30:41,579 INFO scheduler Scheduled Job Complete: frappe.oauth.delete_oauth2_data for meeting.dev
2021-04-21 22:31:40,042 DEBUG scheduler Queued events for site meeting.dev
2021-04-21 22:32:40,407 DEBUG scheduler Queued events for site meeting.dev
2021-04-21 22:32:40,437 INFO scheduler Scheduled Job Start: frappe.monitor.flush for meeting.dev
2021-04-21 22:32:40,763 INFO scheduler Scheduled Job Complete: frappe.monitor.flush for meeting.dev
2021-04-21 22:32:40,835 INFO scheduler Scheduled Job Start: frappe.utils.global_search.sync_global_search for meeting.dev
2021-04-21 22:32:40,993 INFO scheduler Scheduled Job Complete: frappe.utils.global_search.sync_global_search for meeting.dev
2021-04-21 22:32:41,062 INFO scheduler Scheduled Job Start: frappe.integrations.doctype.razorpay_settings.razorpay_settings.capture_payment for meeting.dev
2021-04-21 22:32:41,542 INFO scheduler Scheduled Job Complete: frappe.integrations.doctype.razorpay_settings.razorpay_settings.capture_payment for meeting.dev
2021-04-21 22:32:41,618 INFO scheduler Scheduled Job Start: frappe.email.doctype.email_account.email_account.notify_unreplied for meeting.dev
2021-04-21 22:32:42,002 INFO scheduler Scheduled Job Complete: frappe.email.doctype.email_account.email_account.notify_unreplied for meeting.dev
2021-04-21 22:32:42,072 INFO scheduler Scheduled Job Start: frappe.email.doctype.email_account.email_account.pull for meeting.dev
2021-04-21 22:32:42,397 INFO scheduler Scheduled Job Complete: frappe.email.doctype.email_account.email_account.pull for meeting.dev
2021-04-21 22:32:42,466 INFO scheduler Scheduled Job Start: frappe.email.queue.flush for meeting.dev
2021-04-21 22:32:42,731 INFO scheduler Scheduled Job Complete: frappe.email.queue.flush for meeting.dev
2021-04-21 22:33:40,835 DEBUG scheduler Queued events for site meeting.dev
2021-04-21 22:34:41,157 DEBUG scheduler Queued events for site meeting.dev
2021-04-21 22:35:41,476 DEBUG scheduler Queued events for site meeting.dev
2021-04-21 22:36:41,832 DEBUG scheduler Queued events for site meeting.dev
2021-04-21 22:36:41,865 INFO scheduler Scheduled Job Start: frappe.monitor.flush for meeting.dev
2021-04-21 22:36:42,069 INFO scheduler Scheduled Job Complete: frappe.monitor.flush for meeting.dev
2021-04-21 22:36:42,144 INFO scheduler Scheduled Job Start: frappe.utils.global_search.sync_global_search for meeting.dev
2021-04-21 22:36:42,304 INFO scheduler Scheduled Job Complete: frappe.utils.global_search.sync_global_search for meeting.dev
2021-04-21 22:36:42,439 INFO scheduler Scheduled Job Start: frappe.integrations.doctype.razorpay_settings.razorpay_settings.capture_payment for meeting.dev
2021-04-21 22:36:42,918 INFO scheduler Scheduled Job Complete: frappe.integrations.doctype.razorpay_settings.razorpay_settings.capture_payment for meeting.dev
2021-04-21 22:36:42,995 INFO scheduler Scheduled Job Start: frappe.email.doctype.email_account.email_account.notify_unreplied for meeting.dev
2021-04-21 22:36:43,435 INFO scheduler Scheduled Job Complete: frappe.email.doctype.email_account.email_account.notify_unreplied for meeting.dev
2021-04-21 22:36:43,542 INFO scheduler Scheduled Job Start: frappe.email.doctype.email_account.email_account.pull for meeting.dev
2021-04-21 22:36:43,913 INFO scheduler Scheduled Job Complete: frappe.email.doctype.email_account.email_account.pull for meeting.dev
2021-04-21 22:36:43,986 INFO scheduler Scheduled Job Start: frappe.email.queue.flush for meeting.dev
2021-04-21 22:36:44,301 INFO scheduler Scheduled Job Complete: frappe.email.queue.flush for meeting.dev
2021-04-21 22:37:42,337 DEBUG scheduler Queued events for site meeting.dev
2021-04-21 22:38:42,711 DEBUG scheduler Queued events for site meeting.dev
2021-04-21 22:39:43,039 DEBUG scheduler Queued events for site meeting.dev
2021-04-21 22:40:43,441 DEBUG scheduler Queued events for site meeting.dev
2021-04-21 22:40:43,487 INFO scheduler Scheduled Job Start: frappe.monitor.flush for meeting.dev
2021-04-21 22:40:43,693 INFO scheduler Scheduled Job Complete: frappe.monitor.flush for meeting.dev
2021-04-21 22:40:43,766 INFO scheduler Scheduled Job Start: frappe.utils.global_search.sync_global_search for meeting.dev
2021-04-21 22:40:43,927 INFO scheduler Scheduled Job Complete: frappe.utils.global_search.sync_global_search for meeting.dev
2021-04-21 22:40:43,998 INFO scheduler Scheduled Job Start: frappe.integrations.doctype.razorpay_settings.razorpay_settings.capture_payment for meeting.dev
2021-04-21 22:40:44,384 INFO scheduler Scheduled Job Complete: frappe.integrations.doctype.razorpay_settings.razorpay_settings.capture_payment for meeting.dev
2021-04-21 22:40:44,454 INFO scheduler Scheduled Job Start: frappe.email.doctype.email_account.email_account.notify_unreplied for meeting.dev
2021-04-21 22:40:44,767 INFO scheduler Scheduled Job Complete: frappe.email.doctype.email_account.email_account.notify_unreplied for meeting.dev
2021-04-21 22:40:44,842 INFO scheduler Scheduled Job Start: frappe.email.doctype.email_account.email_account.pull for meeting.dev
2021-04-21 22:40:45,217 INFO scheduler Scheduled Job Complete: frappe.email.doctype.email_account.email_account.pull for meeting.dev
2021-04-21 22:40:45,304 INFO scheduler Scheduled Job Start: frappe.email.queue.flush for meeting.dev
2021-04-21 22:40:45,584 INFO scheduler Scheduled Job Complete: frappe.email.queue.flush for meeting.dev
2021-04-21 22:41:43,889 DEBUG scheduler Queued events for site meeting.dev
2021-04-21 22:42:44,239 DEBUG scheduler Queued events for site meeting.dev
2021-04-21 22:43:44,550 DEBUG scheduler Queued events for site meeting.dev
2021-04-21 22:44:44,927 DEBUG scheduler Queued events for site meeting.dev
2021-04-21 22:44:44,960 INFO scheduler Scheduled Job Start: frappe.monitor.flush for meeting.dev
2021-04-21 22:44:45,163 INFO scheduler Scheduled Job Complete: frappe.monitor.flush for meeting.dev
2021-04-21 22:44:45,237 INFO scheduler Scheduled Job Start: frappe.utils.global_search.sync_global_search for meeting.dev
2021-04-21 22:44:45,401 INFO scheduler Scheduled Job Complete: frappe.utils.global_search.sync_global_search for meeting.dev
2021-04-21 22:44:45,472 INFO scheduler Scheduled Job Start: frappe.integrations.doctype.razorpay_settings.razorpay_settings.capture_payment for meeting.dev
2021-04-21 22:44:45,867 INFO scheduler Scheduled Job Complete: frappe.integrations.doctype.razorpay_settings.razorpay_settings.capture_payment for meeting.dev
2021-04-21 22:44:45,938 INFO scheduler Scheduled Job Start: frappe.email.doctype.email_account.email_account.notify_unreplied for meeting.dev
2021-04-21 22:44:46,242 INFO scheduler Scheduled Job Complete: frappe.email.doctype.email_account.email_account.notify_unreplied for meeting.dev
2021-04-21 22:44:46,338 INFO scheduler Scheduled Job Start: frappe.email.doctype.email_account.email_account.pull for meeting.dev
2021-04-21 22:44:46,669 INFO scheduler Scheduled Job Complete: frappe.email.doctype.email_account.email_account.pull for meeting.dev
2021-04-21 22:44:46,741 INFO scheduler Scheduled Job Start: frappe.email.queue.flush for meeting.dev
2021-04-21 22:44:47,021 INFO scheduler Scheduled Job Complete: frappe.email.queue.flush for meeting.dev
2021-04-21 22:45:45,364 DEBUG scheduler Queued events for site meeting.dev
2021-04-21 22:45:45,433 INFO scheduler Scheduled Job Start: frappe.twofactor.delete_all_barcodes_for_users for meeting.dev
2021-04-21 22:45:45,934 INFO scheduler Scheduled Job Complete: frappe.twofactor.delete_all_barcodes_for_users for meeting.dev
2021-04-21 22:45:46,021 INFO scheduler Scheduled Job Start: frappe.website.doctype.web_page.web_page.check_publish_status for meeting.dev
2021-04-21 22:45:46,534 INFO scheduler Scheduled Job Complete: frappe.website.doctype.web_page.web_page.check_publish_status for meeting.dev
2021-04-21 22:45:46,621 INFO scheduler Scheduled Job Start: frappe.oauth.delete_oauth2_data for meeting.dev
2021-04-21 22:45:47,083 INFO scheduler Scheduled Job Complete: frappe.oauth.delete_oauth2_data for meeting.dev
2021-04-21 22:46:45,762 DEBUG scheduler Queued events for site meeting.dev
2021-04-21 22:47:46,090 DEBUG scheduler Queued events for site meeting.dev
2021-04-21 22:48:46,440 DEBUG scheduler Queued events for site meeting.dev
2021-04-21 22:48:46,477 INFO scheduler Scheduled Job Start: frappe.monitor.flush for meeting.dev
2021-04-21 22:48:46,683 INFO scheduler Scheduled Job Complete: frappe.monitor.flush for meeting.dev
2021-04-21 22:48:46,767 INFO scheduler Scheduled Job Start: frappe.utils.global_search.sync_global_search for meeting.dev
2021-04-21 22:48:46,920 INFO scheduler Scheduled Job Complete: frappe.utils.global_search.sync_global_search for meeting.dev
2021-04-21 22:48:46,993 INFO scheduler Scheduled Job Start: frappe.integrations.doctype.razorpay_settings.razorpay_settings.capture_payment for meeting.dev
2021-04-21 22:48:47,389 INFO scheduler Scheduled Job Complete: frappe.integrations.doctype.razorpay_settings.razorpay_settings.capture_payment for meeting.dev
2021-04-21 22:48:47,461 INFO scheduler Scheduled Job Start: frappe.email.doctype.email_account.email_account.notify_unreplied for meeting.dev
2021-04-21 22:48:47,779 INFO scheduler Scheduled Job Complete: frappe.email.doctype.email_account.email_account.notify_unreplied for meeting.dev
2021-04-21 22:48:47,850 INFO scheduler Scheduled Job Start: frappe.email.doctype.email_account.email_account.pull for meeting.dev
2021-04-21 22:48:48,167 INFO scheduler Scheduled Job Complete: frappe.email.doctype.email_account.email_account.pull for meeting.dev
2021-04-21 22:48:48,247 INFO scheduler Scheduled Job Start: frappe.email.queue.flush for meeting.dev
2021-04-21 22:48:48,516 INFO scheduler Scheduled Job Complete: frappe.email.queue.flush for meeting.dev
2021-04-21 22:49:46,853 DEBUG scheduler Queued events for site meeting.dev
2021-04-21 22:50:47,186 DEBUG scheduler Queued events for site meeting.dev
2021-04-21 22:51:47,548 DEBUG scheduler Queued events for site meeting.dev
2021-04-21 22:52:47,914 DEBUG scheduler Queued events for site meeting.dev
2021-04-21 22:52:47,944 INFO scheduler Scheduled Job Start: frappe.monitor.flush for meeting.dev
2021-04-21 22:52:48,143 INFO scheduler Scheduled Job Complete: frappe.monitor.flush for meeting.dev
2021-04-21 22:52:48,212 INFO scheduler Scheduled Job Start: frappe.utils.global_search.sync_global_search for meeting.dev
2021-04-21 22:52:48,364 INFO scheduler Scheduled Job Complete: frappe.utils.global_search.sync_global_search for meeting.dev
2021-04-21 22:52:48,440 INFO scheduler Scheduled Job Start: frappe.integrations.doctype.razorpay_settings.razorpay_settings.capture_payment for meeting.dev
2021-04-21 22:52:48,835 INFO scheduler Scheduled Job Complete: frappe.integrations.doctype.razorpay_settings.razorpay_settings.capture_payment for meeting.dev
2021-04-21 22:52:48,909 INFO scheduler Scheduled Job Start: frappe.email.doctype.email_account.email_account.notify_unreplied for meeting.dev
2021-04-21 22:52:49,212 INFO scheduler Scheduled Job Complete: frappe.email.doctype.email_account.email_account.notify_unreplied for meeting.dev
2021-04-21 22:52:49,289 INFO scheduler Scheduled Job Start: frappe.email.doctype.email_account.email_account.pull for meeting.dev
2021-04-21 22:52:49,614 INFO scheduler Scheduled Job Complete: frappe.email.doctype.email_account.email_account.pull for meeting.dev
2021-04-21 22:52:49,685 INFO scheduler Scheduled Job Start: frappe.email.queue.flush for meeting.dev
2021-04-21 22:52:49,959 INFO scheduler Scheduled Job Complete: frappe.email.queue.flush for meeting.dev
2021-04-21 22:53:48,335 DEBUG scheduler Queued events for site meeting.dev
2021-04-21 22:54:48,687 DEBUG scheduler Queued events for site meeting.dev
2021-04-21 22:55:49,005 DEBUG scheduler Queued events for site meeting.dev
2021-04-21 22:56:49,353 DEBUG scheduler Queued events for site meeting.dev
2021-04-21 22:56:49,389 INFO scheduler Scheduled Job Start: frappe.monitor.flush for meeting.dev
2021-04-21 22:56:49,573 INFO scheduler Scheduled Job Complete: frappe.monitor.flush for meeting.dev
2021-04-21 22:56:49,642 INFO scheduler Scheduled Job Start: frappe.utils.global_search.sync_global_search for meeting.dev
2021-04-21 22:56:49,796 INFO scheduler Scheduled Job Complete: frappe.utils.global_search.sync_global_search for meeting.dev
2021-04-21 22:56:49,867 INFO scheduler Scheduled Job Start: frappe.integrations.doctype.razorpay_settings.razorpay_settings.capture_payment for meeting.dev
2021-04-21 22:56:50,252 INFO scheduler Scheduled Job Complete: frappe.integrations.doctype.razorpay_settings.razorpay_settings.capture_payment for meeting.dev
2021-04-21 22:56:50,324 INFO scheduler Scheduled Job Start: frappe.email.doctype.email_account.email_account.notify_unreplied for meeting.dev
2021-04-21 22:56:50,625 INFO scheduler Scheduled Job Complete: frappe.email.doctype.email_account.email_account.notify_unreplied for meeting.dev
2021-04-21 22:56:50,696 INFO scheduler Scheduled Job Start: frappe.email.doctype.email_account.email_account.pull for meeting.dev
2021-04-21 22:56:51,015 INFO scheduler Scheduled Job Complete: frappe.email.doctype.email_account.email_account.pull for meeting.dev
2021-04-21 22:56:51,087 INFO scheduler Scheduled Job Start: frappe.email.queue.flush for meeting.dev
2021-04-21 22:56:51,351 INFO scheduler Scheduled Job Complete: frappe.email.queue.flush for meeting.dev
2021-04-21 22:57:49,748 DEBUG scheduler Queued events for site meeting.dev
2021-04-21 22:58:50,087 DEBUG scheduler Queued events for site meeting.dev
2021-04-21 22:59:50,403 DEBUG scheduler Queued events for site meeting.dev
2021-04-21 23:00:51,162 INFO scheduler Scheduled Job Start: frappe.email.doctype.newsletter.newsletter.send_scheduled_email for meeting.dev
2021-04-21 23:00:51,245 DEBUG scheduler Queued events for site meeting.dev
2021-04-21 23:00:51,766 INFO scheduler Scheduled Job Complete: frappe.email.doctype.newsletter.newsletter.send_scheduled_email for meeting.dev
2021-04-21 23:00:51,852 INFO scheduler Scheduled Job Start: frappe.integrations.doctype.google_calendar.google_calendar.sync for meeting.dev
2021-04-21 23:00:52,640 INFO scheduler Scheduled Job Complete: frappe.integrations.doctype.google_calendar.google_calendar.sync for meeting.dev
2021-04-21 23:00:52,774 INFO scheduler Scheduled Job Start: frappe.desk.form.document_follow.send_hourly_updates for meeting.dev
2021-04-21 23:00:53,298 INFO scheduler Scheduled Job Complete: frappe.desk.form.document_follow.send_hourly_updates for meeting.dev
2021-04-21 23:00:53,384 INFO scheduler Scheduled Job Start: frappe.deferred_insert.save_to_db for meeting.dev
2021-04-21 23:00:54,049 INFO scheduler Scheduled Job Complete: frappe.deferred_insert.save_to_db for meeting.dev
2021-04-21 23:00:54,142 INFO scheduler Scheduled Job Start: frappe.desk.page.backups.backups.delete_downloadable_backups for meeting.dev
2021-04-21 23:00:54,923 INFO scheduler Scheduled Job Complete: frappe.desk.page.backups.backups.delete_downloadable_backups for meeting.dev
2021-04-21 23:00:55,106 INFO scheduler Scheduled Job Start: frappe.utils.error.collect_error_snapshots for meeting.dev
2021-04-21 23:00:56,102 INFO scheduler Scheduled Job Complete: frappe.utils.error.collect_error_snapshots for meeting.dev
2021-04-21 23:00:56,284 INFO scheduler Scheduled Job Start: frappe.model.utils.user_settings.sync_user_settings for meeting.dev
2021-04-21 23:00:56,980 INFO scheduler Scheduled Job Complete: frappe.model.utils.user_settings.sync_user_settings for meeting.dev
2021-04-21 23:00:57,092 INFO scheduler Scheduled Job Start: frappe.model.utils.link_count.update_link_count for meeting.dev
2021-04-21 23:00:57,641 INFO scheduler Scheduled Job Complete: frappe.model.utils.link_count.update_link_count for meeting.dev
2021-04-21 23:00:57,737 INFO scheduler Scheduled Job Start: frappe.monitor.flush for meeting.dev
2021-04-21 23:00:57,950 INFO scheduler Scheduled Job Complete: frappe.monitor.flush for meeting.dev
2021-04-21 23:00:58,044 INFO scheduler Scheduled Job Start: frappe.utils.global_search.sync_global_search for meeting.dev
2021-04-21 23:00:58,319 INFO scheduler Scheduled Job Complete: frappe.utils.global_search.sync_global_search for meeting.dev
2021-04-21 23:00:58,418 INFO scheduler Scheduled Job Start: frappe.integrations.doctype.razorpay_settings.razorpay_settings.capture_payment for meeting.dev
2021-04-21 23:00:59,049 INFO scheduler Scheduled Job Complete: frappe.integrations.doctype.razorpay_settings.razorpay_settings.capture_payment for meeting.dev
2021-04-21 23:00:59,141 INFO scheduler Scheduled Job Start: frappe.email.doctype.email_account.email_account.notify_unreplied for meeting.dev
2021-04-21 23:00:59,453 INFO scheduler Scheduled Job Complete: frappe.email.doctype.email_account.email_account.notify_unreplied for meeting.dev
2021-04-21 23:00:59,523 INFO scheduler Scheduled Job Start: frappe.email.doctype.email_account.email_account.pull for meeting.dev
2021-04-21 23:00:59,938 INFO scheduler Scheduled Job Complete: frappe.email.doctype.email_account.email_account.pull for meeting.dev
2021-04-21 23:01:00,014 INFO scheduler Scheduled Job Start: frappe.email.queue.flush for meeting.dev
2021-04-21 23:01:00,305 INFO scheduler Scheduled Job Complete: frappe.email.queue.flush for meeting.dev
2021-04-21 23:01:00,386 INFO scheduler Scheduled Job Start: frappe.twofactor.delete_all_barcodes_for_users for meeting.dev
2021-04-21 23:01:00,895 INFO scheduler Scheduled Job Complete: frappe.twofactor.delete_all_barcodes_for_users for meeting.dev
2021-04-21 23:01:00,985 INFO scheduler Scheduled Job Start: frappe.website.doctype.web_page.web_page.check_publish_status for meeting.dev
2021-04-21 23:01:01,586 INFO scheduler Scheduled Job Complete: frappe.website.doctype.web_page.web_page.check_publish_status for meeting.dev
2021-04-21 23:01:01,678 INFO scheduler Scheduled Job Start: frappe.oauth.delete_oauth2_data for meeting.dev
2021-04-21 23:01:02,099 INFO scheduler Scheduled Job Complete: frappe.oauth.delete_oauth2_data for meeting.dev
2021-04-21 23:01:51,864 DEBUG scheduler Queued events for site meeting.dev
2021-04-21 23:02:52,229 DEBUG scheduler Queued events for site meeting.dev
2021-04-21 23:03:52,542 DEBUG scheduler Queued events for site meeting.dev
2021-04-21 23:04:52,895 DEBUG scheduler Queued events for site meeting.dev
2021-04-21 23:04:52,926 INFO scheduler Scheduled Job Start: frappe.monitor.flush for meeting.dev
2021-04-21 23:04:53,108 INFO scheduler Scheduled Job Complete: frappe.monitor.flush for meeting.dev
2021-04-21 23:04:53,179 INFO scheduler Scheduled Job Start: frappe.utils.global_search.sync_global_search for meeting.dev
2021-04-21 23:04:53,342 INFO scheduler Scheduled Job Complete: frappe.utils.global_search.sync_global_search for meeting.dev
2021-04-21 23:04:53,412 INFO scheduler Scheduled Job Start: frappe.integrations.doctype.razorpay_settings.razorpay_settings.capture_payment for meeting.dev
2021-04-21 23:04:53,813 INFO scheduler Scheduled Job Complete: frappe.integrations.doctype.razorpay_settings.razorpay_settings.capture_payment for meeting.dev
2021-04-21 23:04:53,888 INFO scheduler Scheduled Job Start: frappe.email.doctype.email_account.email_account.notify_unreplied for meeting.dev
2021-04-21 23:04:54,188 INFO scheduler Scheduled Job Complete: frappe.email.doctype.email_account.email_account.notify_unreplied for meeting.dev
2021-04-21 23:04:54,259 INFO scheduler Scheduled Job Start: frappe.email.doctype.email_account.email_account.pull for meeting.dev
2021-04-21 23:04:54,587 INFO scheduler Scheduled Job Complete: frappe.email.doctype.email_account.email_account.pull for meeting.dev
2021-04-21 23:04:54,657 INFO scheduler Scheduled Job Start: frappe.email.queue.flush for meeting.dev
2021-04-21 23:04:54,918 INFO scheduler Scheduled Job Complete: frappe.email.queue.flush for meeting.dev
2021-04-21 23:05:53,287 DEBUG scheduler Queued events for site meeting.dev
2021-04-21 23:06:53,630 DEBUG scheduler Queued events for site meeting.dev
2021-04-21 23:07:53,949 DEBUG scheduler Queued events for site meeting.dev
2021-04-21 23:08:54,300 DEBUG scheduler Queued events for site meeting.dev
2021-04-21 23:08:54,333 INFO scheduler Scheduled Job Start: frappe.monitor.flush for meeting.dev
2021-04-21 23:08:54,515 INFO scheduler Scheduled Job Complete: frappe.monitor.flush for meeting.dev
2021-04-21 23:08:54,589 INFO scheduler Scheduled Job Start: frappe.utils.global_search.sync_global_search for meeting.dev
2021-04-21 23:08:54,748 INFO scheduler Scheduled Job Complete: frappe.utils.global_search.sync_global_search for meeting.dev
2021-04-21 23:08:54,825 INFO scheduler Scheduled Job Start: frappe.integrations.doctype.razorpay_settings.razorpay_settings.capture_payment for meeting.dev
2021-04-21 23:08:55,213 INFO scheduler Scheduled Job Complete: frappe.integrations.doctype.razorpay_settings.razorpay_settings.capture_payment for meeting.dev
2021-04-21 23:08:55,281 INFO scheduler Scheduled Job Start: frappe.email.doctype.email_account.email_account.notify_unreplied for meeting.dev
2021-04-21 23:08:55,594 INFO scheduler Scheduled Job Complete: frappe.email.doctype.email_account.email_account.notify_unreplied for meeting.dev
2021-04-21 23:08:55,666 INFO scheduler Scheduled Job Start: frappe.email.doctype.email_account.email_account.pull for meeting.dev
2021-04-21 23:08:56,007 INFO scheduler Scheduled Job Complete: frappe.email.doctype.email_account.email_account.pull for meeting.dev
2021-04-21 23:08:56,078 INFO scheduler Scheduled Job Start: frappe.email.queue.flush for meeting.dev
2021-04-21 23:08:56,350 INFO scheduler Scheduled Job Complete: frappe.email.queue.flush for meeting.dev
2021-04-21 23:09:54,689 DEBUG scheduler Queued events for site meeting.dev
2021-04-21 23:10:55,061 DEBUG scheduler Queued events for site meeting.dev
2021-04-21 23:11:55,508 DEBUG scheduler Queued events for site meeting.dev
2021-04-21 23:12:55,904 DEBUG scheduler Queued events for site meeting.dev
2021-04-21 23:12:55,936 INFO scheduler Scheduled Job Start: frappe.monitor.flush for meeting.dev
2021-04-21 23:12:56,182 INFO scheduler Scheduled Job Complete: frappe.monitor.flush for meeting.dev
2021-04-21 23:12:56,255 INFO scheduler Scheduled Job Start: frappe.utils.global_search.sync_global_search for meeting.dev
2021-04-21 23:12:56,427 INFO scheduler Scheduled Job Complete: frappe.utils.global_search.sync_global_search for meeting.dev
2021-04-21 23:12:56,514 INFO scheduler Scheduled Job Start: frappe.integrations.doctype.razorpay_settings.razorpay_settings.capture_payment for meeting.dev
2021-04-21 23:12:56,955 INFO scheduler Scheduled Job Complete: frappe.integrations.doctype.razorpay_settings.razorpay_settings.capture_payment for meeting.dev
2021-04-21 23:12:57,062 INFO scheduler Scheduled Job Start: frappe.email.doctype.email_account.email_account.notify_unreplied for meeting.dev
2021-04-21 23:12:57,613 INFO scheduler Scheduled Job Complete: frappe.email.doctype.email_account.email_account.notify_unreplied for meeting.dev
2021-04-21 23:12:57,716 INFO scheduler Scheduled Job Start: frappe.email.doctype.email_account.email_account.pull for meeting.dev
2021-04-21 23:12:58,179 INFO scheduler Scheduled Job Complete: frappe.email.doctype.email_account.email_account.pull for meeting.dev
2021-04-21 23:12:58,274 INFO scheduler Scheduled Job Start: frappe.email.queue.flush for meeting.dev
2021-04-21 23:12:58,574 INFO scheduler Scheduled Job Complete: frappe.email.queue.flush for meeting.dev
2021-04-21 23:13:56,380 DEBUG scheduler Queued events for site meeting.dev
2021-04-21 23:14:56,719 DEBUG scheduler Queued events for site meeting.dev
2021-04-21 23:15:57,061 DEBUG scheduler Queued events for site meeting.dev
2021-04-21 23:15:57,125 INFO scheduler Scheduled Job Start: frappe.twofactor.delete_all_barcodes_for_users for meeting.dev
2021-04-21 23:15:57,552 INFO scheduler Scheduled Job Complete: frappe.twofactor.delete_all_barcodes_for_users for meeting.dev
2021-04-21 23:15:57,645 INFO scheduler Scheduled Job Start: frappe.website.doctype.web_page.web_page.check_publish_status for meeting.dev
2021-04-21 23:15:58,115 INFO scheduler Scheduled Job Complete: frappe.website.doctype.web_page.web_page.check_publish_status for meeting.dev
2021-04-21 23:15:58,202 INFO scheduler Scheduled Job Start: frappe.oauth.delete_oauth2_data for meeting.dev
2021-04-21 23:15:58,610 INFO scheduler Scheduled Job Complete: frappe.oauth.delete_oauth2_data for meeting.dev
2021-04-21 23:16:57,467 DEBUG scheduler Queued events for site meeting.dev
2021-04-21 23:16:57,499 INFO scheduler Scheduled Job Start: frappe.monitor.flush for meeting.dev
2021-04-21 23:16:57,699 INFO scheduler Scheduled Job Complete: frappe.monitor.flush for meeting.dev
2021-04-21 23:16:57,773 INFO scheduler Scheduled Job Start: frappe.utils.global_search.sync_global_search for meeting.dev
2021-04-21 23:16:57,930 INFO scheduler Scheduled Job Complete: frappe.utils.global_search.sync_global_search for meeting.dev
2021-04-21 23:16:57,999 INFO scheduler Scheduled Job Start: frappe.integrations.doctype.razorpay_settings.razorpay_settings.capture_payment for meeting.dev
2021-04-21 23:16:58,388 INFO scheduler Scheduled Job Complete: frappe.integrations.doctype.razorpay_settings.razorpay_settings.capture_payment for meeting.dev
2021-04-21 23:16:58,461 INFO scheduler Scheduled Job Start: frappe.email.doctype.email_account.email_account.notify_unreplied for meeting.dev
2021-04-21 23:16:58,773 INFO scheduler Scheduled Job Complete: frappe.email.doctype.email_account.email_account.notify_unreplied for meeting.dev
2021-04-21 23:16:58,850 INFO scheduler Scheduled Job Start: frappe.email.doctype.email_account.email_account.pull for meeting.dev
2021-04-21 23:16:59,189 INFO scheduler Scheduled Job Complete: frappe.email.doctype.email_account.email_account.pull for meeting.dev
2021-04-21 23:16:59,262 INFO scheduler Scheduled Job Start: frappe.email.queue.flush for meeting.dev
2021-04-21 23:16:59,527 INFO scheduler Scheduled Job Complete: frappe.email.queue.flush for meeting.dev
2021-04-21 23:17:57,904 DEBUG scheduler Queued events for site meeting.dev
2021-04-21 23:18:58,233 DEBUG scheduler Queued events for site meeting.dev
2021-04-21 23:19:58,552 DEBUG scheduler Queued events for site meeting.dev
2021-04-21 23:20:58,943 DEBUG scheduler Queued events for site meeting.dev
2021-04-21 23:20:58,978 INFO scheduler Scheduled Job Start: frappe.monitor.flush for meeting.dev
2021-04-21 23:20:59,204 INFO scheduler Scheduled Job Complete: frappe.monitor.flush for meeting.dev
2021-04-21 23:20:59,292 INFO scheduler Scheduled Job Start: frappe.utils.global_search.sync_global_search for meeting.dev
2021-04-21 23:20:59,472 INFO scheduler Scheduled Job Complete: frappe.utils.global_search.sync_global_search for meeting.dev
2021-04-21 23:20:59,548 INFO scheduler Scheduled Job Start: frappe.integrations.doctype.razorpay_settings.razorpay_settings.capture_payment for meeting.dev
2021-04-21 23:20:59,948 INFO scheduler Scheduled Job Complete: frappe.integrations.doctype.razorpay_settings.razorpay_settings.capture_payment for meeting.dev
2021-04-21 23:21:00,024 INFO scheduler Scheduled Job Start: frappe.email.doctype.email_account.email_account.notify_unreplied for meeting.dev
2021-04-21 23:21:00,369 INFO scheduler Scheduled Job Complete: frappe.email.doctype.email_account.email_account.notify_unreplied for meeting.dev
2021-04-21 23:21:00,446 INFO scheduler Scheduled Job Start: frappe.email.doctype.email_account.email_account.pull for meeting.dev
2021-04-21 23:21:00,760 INFO scheduler Scheduled Job Complete: frappe.email.doctype.email_account.email_account.pull for meeting.dev
2021-04-21 23:21:00,845 INFO scheduler Scheduled Job Start: frappe.email.queue.flush for meeting.dev
2021-04-21 23:21:01,126 INFO scheduler Scheduled Job Complete: frappe.email.queue.flush for meeting.dev
2021-04-21 23:21:59,424 DEBUG scheduler Queued events for site meeting.dev
2021-04-21 23:22:59,809 DEBUG scheduler Queued events for site meeting.dev
2021-04-21 23:24:00,241 DEBUG scheduler Queued events for site meeting.dev
2021-04-21 23:24:00,277 INFO scheduler Scheduled Job Start: frappe.monitor.flush for meeting.dev
2021-04-21 23:24:00,544 INFO scheduler Scheduled Job Complete: frappe.monitor.flush for meeting.dev
2021-04-21 23:24:00,628 INFO scheduler Scheduled Job Start: frappe.utils.global_search.sync_global_search for meeting.dev
2021-04-21 23:24:00,801 INFO scheduler Scheduled Job Complete: frappe.utils.global_search.sync_global_search for meeting.dev
2021-04-21 23:24:00,876 INFO scheduler Scheduled Job Start: frappe.integrations.doctype.razorpay_settings.razorpay_settings.capture_payment for meeting.dev
2021-04-21 23:24:01,302 INFO scheduler Scheduled Job Complete: frappe.integrations.doctype.razorpay_settings.razorpay_settings.capture_payment for meeting.dev
2021-04-21 23:24:01,371 INFO scheduler Scheduled Job Start: frappe.email.doctype.email_account.email_account.notify_unreplied for meeting.dev
2021-04-21 23:24:01,676 INFO scheduler Scheduled Job Complete: frappe.email.doctype.email_account.email_account.notify_unreplied for meeting.dev
2021-04-21 23:24:01,748 INFO scheduler Scheduled Job Start: frappe.email.doctype.email_account.email_account.pull for meeting.dev
2021-04-21 23:24:02,071 INFO scheduler Scheduled Job Complete: frappe.email.doctype.email_account.email_account.pull for meeting.dev
2021-04-21 23:24:02,141 INFO scheduler Scheduled Job Start: frappe.email.queue.flush for meeting.dev
2021-04-21 23:24:02,411 INFO scheduler Scheduled Job Complete: frappe.email.queue.flush for meeting.dev
2021-04-21 23:25:00,748 DEBUG scheduler Queued events for site meeting.dev
2021-04-21 23:26:01,117 DEBUG scheduler Queued events for site meeting.dev
2021-04-21 23:27:01,504 DEBUG scheduler Queued events for site meeting.dev
2021-04-21 23:28:01,980 DEBUG scheduler Queued events for site meeting.dev
2021-04-21 23:28:02,008 INFO scheduler Scheduled Job Start: frappe.monitor.flush for meeting.dev
2021-04-21 23:28:02,337 INFO scheduler Scheduled Job Complete: frappe.monitor.flush for meeting.dev
2021-04-21 23:28:02,407 INFO scheduler Scheduled Job Start: frappe.utils.global_search.sync_global_search for meeting.dev
2021-04-21 23:28:02,570 INFO scheduler Scheduled Job Complete: frappe.utils.global_search.sync_global_search for meeting.dev
2021-04-21 23:28:02,641 INFO scheduler Scheduled Job Start: frappe.integrations.doctype.razorpay_settings.razorpay_settings.capture_payment for meeting.dev
2021-04-21 23:28:03,139 INFO scheduler Scheduled Job Complete: frappe.integrations.doctype.razorpay_settings.razorpay_settings.capture_payment for meeting.dev
2021-04-21 23:28:03,208 INFO scheduler Scheduled Job Start: frappe.email.doctype.email_account.email_account.notify_unreplied for meeting.dev
2021-04-21 23:28:03,612 INFO scheduler Scheduled Job Complete: frappe.email.doctype.email_account.email_account.notify_unreplied for meeting.dev
2021-04-21 23:28:03,686 INFO scheduler Scheduled Job Start: frappe.email.doctype.email_account.email_account.pull for meeting.dev
2021-04-21 23:28:04,017 INFO scheduler Scheduled Job Complete: frappe.email.doctype.email_account.email_account.pull for meeting.dev
2021-04-21 23:28:04,090 INFO scheduler Scheduled Job Start: frappe.email.queue.flush for meeting.dev
2021-04-21 23:28:04,351 INFO scheduler Scheduled Job Complete: frappe.email.queue.flush for meeting.dev
2021-04-21 23:29:02,494 DEBUG scheduler Queued events for site meeting.dev
2021-04-21 23:30:02,849 DEBUG scheduler Queued events for site meeting.dev
2021-04-21 23:30:02,917 INFO scheduler Scheduled Job Start: frappe.twofactor.delete_all_barcodes_for_users for meeting.dev
2021-04-21 23:30:03,422 INFO scheduler Scheduled Job Complete: frappe.twofactor.delete_all_barcodes_for_users for meeting.dev
2021-04-21 23:30:03,503 INFO scheduler Scheduled Job Start: frappe.website.doctype.web_page.web_page.check_publish_status for meeting.dev
2021-04-21 23:30:04,039 INFO scheduler Scheduled Job Complete: frappe.website.doctype.web_page.web_page.check_publish_status for meeting.dev
2021-04-21 23:30:04,124 INFO scheduler Scheduled Job Start: frappe.oauth.delete_oauth2_data for meeting.dev
2021-04-21 23:30:04,596 INFO scheduler Scheduled Job Complete: frappe.oauth.delete_oauth2_data for meeting.dev
2021-04-21 23:31:03,227 DEBUG scheduler Queued events for site meeting.dev
2021-04-21 23:32:03,615 DEBUG scheduler Queued events for site meeting.dev
2021-04-21 23:32:03,643 INFO scheduler Scheduled Job Start: frappe.monitor.flush for meeting.dev
2021-04-21 23:32:03,815 INFO scheduler Scheduled Job Complete: frappe.monitor.flush for meeting.dev
2021-04-21 23:32:03,890 INFO scheduler Scheduled Job Start: frappe.utils.global_search.sync_global_search for meeting.dev
2021-04-21 23:32:04,053 INFO scheduler Scheduled Job Complete: frappe.utils.global_search.sync_global_search for meeting.dev
2021-04-21 23:32:04,139 INFO scheduler Scheduled Job Start: frappe.integrations.doctype.razorpay_settings.razorpay_settings.capture_payment for meeting.dev
2021-04-21 23:32:04,671 INFO scheduler Scheduled Job Complete: frappe.integrations.doctype.razorpay_settings.razorpay_settings.capture_payment for meeting.dev
2021-04-21 23:32:04,753 INFO scheduler Scheduled Job Start: frappe.email.doctype.email_account.email_account.notify_unreplied for meeting.dev
2021-04-21 23:32:05,090 INFO scheduler Scheduled Job Complete: frappe.email.doctype.email_account.email_account.notify_unreplied for meeting.dev
2021-04-21 23:32:05,169 INFO scheduler Scheduled Job Start: frappe.email.doctype.email_account.email_account.pull for meeting.dev
2021-04-21 23:32:05,503 INFO scheduler Scheduled Job Complete: frappe.email.doctype.email_account.email_account.pull for meeting.dev
2021-04-21 23:32:05,576 INFO scheduler Scheduled Job Start: frappe.email.queue.flush for meeting.dev
2021-04-21 23:32:05,875 INFO scheduler Scheduled Job Complete: frappe.email.queue.flush for meeting.dev
2021-04-21 23:33:04,044 DEBUG scheduler Queued events for site meeting.dev
2021-04-21 23:34:04,386 DEBUG scheduler Queued events for site meeting.dev
2021-04-21 23:35:04,728 DEBUG scheduler Queued events for site meeting.dev
2021-04-21 23:36:05,105 DEBUG scheduler Queued events for site meeting.dev
2021-04-21 23:36:05,137 INFO scheduler Scheduled Job Start: frappe.monitor.flush for meeting.dev
2021-04-21 23:36:05,405 INFO scheduler Scheduled Job Complete: frappe.monitor.flush for meeting.dev
2021-04-21 23:36:05,497 INFO scheduler Scheduled Job Start: frappe.utils.global_search.sync_global_search for meeting.dev
2021-04-21 23:36:05,652 INFO scheduler Scheduled Job Complete: frappe.utils.global_search.sync_global_search for meeting.dev
2021-04-21 23:36:05,729 INFO scheduler Scheduled Job Start: frappe.integrations.doctype.razorpay_settings.razorpay_settings.capture_payment for meeting.dev
2021-04-21 23:36:06,123 INFO scheduler Scheduled Job Complete: frappe.integrations.doctype.razorpay_settings.razorpay_settings.capture_payment for meeting.dev
2021-04-21 23:36:06,195 INFO scheduler Scheduled Job Start: frappe.email.doctype.email_account.email_account.notify_unreplied for meeting.dev
2021-04-21 23:36:06,513 INFO scheduler Scheduled Job Complete: frappe.email.doctype.email_account.email_account.notify_unreplied for meeting.dev
2021-04-21 23:36:06,585 INFO scheduler Scheduled Job Start: frappe.email.doctype.email_account.email_account.pull for meeting.dev
2021-04-21 23:36:06,905 INFO scheduler Scheduled Job Complete: frappe.email.doctype.email_account.email_account.pull for meeting.dev
2021-04-21 23:36:06,978 INFO scheduler Scheduled Job Start: frappe.email.queue.flush for meeting.dev
2021-04-21 23:36:07,243 INFO scheduler Scheduled Job Complete: frappe.email.queue.flush for meeting.dev
2021-04-21 23:37:05,589 DEBUG scheduler Queued events for site meeting.dev
2021-04-21 23:38:05,925 DEBUG scheduler Queued events for site meeting.dev
2021-04-21 23:39:06,237 DEBUG scheduler Queued events for site meeting.dev
2021-04-21 23:40:06,618 DEBUG scheduler Queued events for site meeting.dev
2021-04-21 23:40:06,646 INFO scheduler Scheduled Job Start: frappe.monitor.flush for meeting.dev
2021-04-21 23:40:06,835 INFO scheduler Scheduled Job Complete: frappe.monitor.flush for meeting.dev
2021-04-21 23:40:06,917 INFO scheduler Scheduled Job Start: frappe.utils.global_search.sync_global_search for meeting.dev
2021-04-21 23:40:07,076 INFO scheduler Scheduled Job Complete: frappe.utils.global_search.sync_global_search for meeting.dev
2021-04-21 23:40:07,150 INFO scheduler Scheduled Job Start: frappe.integrations.doctype.razorpay_settings.razorpay_settings.capture_payment for meeting.dev
2021-04-21 23:40:07,557 INFO scheduler Scheduled Job Complete: frappe.integrations.doctype.razorpay_settings.razorpay_settings.capture_payment for meeting.dev
2021-04-21 23:40:07,630 INFO scheduler Scheduled Job Start: frappe.email.doctype.email_account.email_account.notify_unreplied for meeting.dev
2021-04-21 23:40:07,991 INFO scheduler Scheduled Job Complete: frappe.email.doctype.email_account.email_account.notify_unreplied for meeting.dev
2021-04-21 23:40:08,096 INFO scheduler Scheduled Job Start: frappe.email.doctype.email_account.email_account.pull for meeting.dev
2021-04-21 23:40:08,477 INFO scheduler Scheduled Job Complete: frappe.email.doctype.email_account.email_account.pull for meeting.dev
2021-04-21 23:40:08,552 INFO scheduler Scheduled Job Start: frappe.email.queue.flush for meeting.dev
2021-04-21 23:40:08,833 INFO scheduler Scheduled Job Complete: frappe.email.queue.flush for meeting.dev
2021-04-21 23:41:07,106 DEBUG scheduler Queued events for site meeting.dev
2021-04-21 23:42:07,482 DEBUG scheduler Queued events for site meeting.dev
2021-04-21 23:43:07,971 DEBUG scheduler Queued events for site meeting.dev
2021-04-21 23:44:08,359 DEBUG scheduler Queued events for site meeting.dev
2021-04-21 23:44:08,391 INFO scheduler Scheduled Job Start: frappe.monitor.flush for meeting.dev
2021-04-21 23:44:08,657 INFO scheduler Scheduled Job Complete: frappe.monitor.flush for meeting.dev
2021-04-21 23:44:08,735 INFO scheduler Scheduled Job Start: frappe.utils.global_search.sync_global_search for meeting.dev
2021-04-21 23:44:08,924 INFO scheduler Scheduled Job Complete: frappe.utils.global_search.sync_global_search for meeting.dev
2021-04-21 23:44:08,998 INFO scheduler Scheduled Job Start: frappe.integrations.doctype.razorpay_settings.razorpay_settings.capture_payment for meeting.dev
2021-04-21 23:44:09,397 INFO scheduler Scheduled Job Complete: frappe.integrations.doctype.razorpay_settings.razorpay_settings.capture_payment for meeting.dev
2021-04-21 23:44:09,514 INFO scheduler Scheduled Job Start: frappe.email.doctype.email_account.email_account.notify_unreplied for meeting.dev
2021-04-21 23:44:09,923 INFO scheduler Scheduled Job Complete: frappe.email.doctype.email_account.email_account.notify_unreplied for meeting.dev
2021-04-21 23:44:10,022 INFO scheduler Scheduled Job Start: frappe.email.doctype.email_account.email_account.pull for meeting.dev
2021-04-21 23:44:10,400 INFO scheduler Scheduled Job Complete: frappe.email.doctype.email_account.email_account.pull for meeting.dev
2021-04-21 23:44:10,478 INFO scheduler Scheduled Job Start: frappe.email.queue.flush for meeting.dev
2021-04-21 23:44:10,764 INFO scheduler Scheduled Job Complete: frappe.email.queue.flush for meeting.dev
2021-04-21 23:45:09,079 DEBUG scheduler Queued events for site meeting.dev
2021-04-21 23:45:09,175 INFO scheduler Scheduled Job Start: frappe.twofactor.delete_all_barcodes_for_users for meeting.dev
2021-04-21 23:45:09,827 INFO scheduler Scheduled Job Complete: frappe.twofactor.delete_all_barcodes_for_users for meeting.dev
2021-04-21 23:45:09,927 INFO scheduler Scheduled Job Start: frappe.website.doctype.web_page.web_page.check_publish_status for meeting.dev
2021-04-21 23:45:10,453 INFO scheduler Scheduled Job Complete: frappe.website.doctype.web_page.web_page.check_publish_status for meeting.dev
2021-04-21 23:45:10,545 INFO scheduler Scheduled Job Start: frappe.oauth.delete_oauth2_data for meeting.dev
2021-04-21 23:45:11,053 INFO scheduler Scheduled Job Complete: frappe.oauth.delete_oauth2_data for meeting.dev
2021-04-21 23:46:09,563 DEBUG scheduler Queued events for site meeting.dev
2021-04-21 23:47:09,912 DEBUG scheduler Queued events for site meeting.dev
2021-04-21 23:48:10,346 DEBUG scheduler Queued events for site meeting.dev
2021-04-21 23:48:10,378 INFO scheduler Scheduled Job Start: frappe.monitor.flush for meeting.dev
2021-04-21 23:48:10,686 INFO scheduler Scheduled Job Complete: frappe.monitor.flush for meeting.dev
2021-04-21 23:48:10,760 INFO scheduler Scheduled Job Start: frappe.utils.global_search.sync_global_search for meeting.dev
2021-04-21 23:48:10,920 INFO scheduler Scheduled Job Complete: frappe.utils.global_search.sync_global_search for meeting.dev
2021-04-21 23:48:10,996 INFO scheduler Scheduled Job Start: frappe.integrations.doctype.razorpay_settings.razorpay_settings.capture_payment for meeting.dev
2021-04-21 23:48:11,484 INFO scheduler Scheduled Job Complete: frappe.integrations.doctype.razorpay_settings.razorpay_settings.capture_payment for meeting.dev
2021-04-21 23:48:11,554 INFO scheduler Scheduled Job Start: frappe.email.doctype.email_account.email_account.notify_unreplied for meeting.dev
2021-04-21 23:48:11,964 INFO scheduler Scheduled Job Complete: frappe.email.doctype.email_account.email_account.notify_unreplied for meeting.dev
2021-04-21 23:48:12,036 INFO scheduler Scheduled Job Start: frappe.email.doctype.email_account.email_account.pull for meeting.dev
2021-04-21 23:48:12,373 INFO scheduler Scheduled Job Complete: frappe.email.doctype.email_account.email_account.pull for meeting.dev
2021-04-21 23:48:12,454 INFO scheduler Scheduled Job Start: frappe.email.queue.flush for meeting.dev
2021-04-21 23:48:12,725 INFO scheduler Scheduled Job Complete: frappe.email.queue.flush for meeting.dev
2021-04-21 23:49:10,745 DEBUG scheduler Queued events for site meeting.dev
2021-04-21 23:50:11,169 DEBUG scheduler Queued events for site meeting.dev
2021-04-21 23:51:11,484 DEBUG scheduler Queued events for site meeting.dev
2021-04-21 23:52:11,854 DEBUG scheduler Queued events for site meeting.dev
2021-04-21 23:52:11,886 INFO scheduler Scheduled Job Start: frappe.monitor.flush for meeting.dev
2021-04-21 23:52:12,187 INFO scheduler Scheduled Job Complete: frappe.monitor.flush for meeting.dev
2021-04-21 23:52:12,262 INFO scheduler Scheduled Job Start: frappe.utils.global_search.sync_global_search for meeting.dev
2021-04-21 23:52:12,428 INFO scheduler Scheduled Job Complete: frappe.utils.global_search.sync_global_search for meeting.dev
2021-04-21 23:52:12,506 INFO scheduler Scheduled Job Start: frappe.integrations.doctype.razorpay_settings.razorpay_settings.capture_payment for meeting.dev
2021-04-21 23:52:12,970 INFO scheduler Scheduled Job Complete: frappe.integrations.doctype.razorpay_settings.razorpay_settings.capture_payment for meeting.dev
2021-04-21 23:52:13,042 INFO scheduler Scheduled Job Start: frappe.email.doctype.email_account.email_account.notify_unreplied for meeting.dev
2021-04-21 23:52:13,460 INFO scheduler Scheduled Job Complete: frappe.email.doctype.email_account.email_account.notify_unreplied for meeting.dev
2021-04-21 23:52:13,556 INFO scheduler Scheduled Job Start: frappe.email.doctype.email_account.email_account.pull for meeting.dev
2021-04-21 23:52:14,186 INFO scheduler Scheduled Job Complete: frappe.email.doctype.email_account.email_account.pull for meeting.dev
2021-04-21 23:52:14,307 INFO scheduler Scheduled Job Start: frappe.email.queue.flush for meeting.dev
2021-04-21 23:52:14,593 INFO scheduler Scheduled Job Complete: frappe.email.queue.flush for meeting.dev
2021-04-21 23:53:12,236 DEBUG scheduler Queued events for site meeting.dev
2021-04-21 23:54:12,594 DEBUG scheduler Queued events for site meeting.dev
2021-04-21 23:55:12,972 DEBUG scheduler Queued events for site meeting.dev
2021-04-21 23:56:13,382 DEBUG scheduler Queued events for site meeting.dev
2021-04-21 23:56:13,429 INFO scheduler Scheduled Job Start: frappe.monitor.flush for meeting.dev
2021-04-21 23:56:13,690 INFO scheduler Scheduled Job Complete: frappe.monitor.flush for meeting.dev
2021-04-21 23:56:13,777 INFO scheduler Scheduled Job Start: frappe.utils.global_search.sync_global_search for meeting.dev
2021-04-21 23:56:13,969 INFO scheduler Scheduled Job Complete: frappe.utils.global_search.sync_global_search for meeting.dev
2021-04-21 23:56:14,064 INFO scheduler Scheduled Job Start: frappe.integrations.doctype.razorpay_settings.razorpay_settings.capture_payment for meeting.dev
2021-04-21 23:56:14,541 INFO scheduler Scheduled Job Complete: frappe.integrations.doctype.razorpay_settings.razorpay_settings.capture_payment for meeting.dev
2021-04-21 23:56:14,626 INFO scheduler Scheduled Job Start: frappe.email.doctype.email_account.email_account.notify_unreplied for meeting.dev
2021-04-21 23:56:14,995 INFO scheduler Scheduled Job Complete: frappe.email.doctype.email_account.email_account.notify_unreplied for meeting.dev
2021-04-21 23:56:15,089 INFO scheduler Scheduled Job Start: frappe.email.doctype.email_account.email_account.pull for meeting.dev
2021-04-21 23:56:15,487 INFO scheduler Scheduled Job Complete: frappe.email.doctype.email_account.email_account.pull for meeting.dev
2021-04-21 23:56:15,584 INFO scheduler Scheduled Job Start: frappe.email.queue.flush for meeting.dev
2021-04-21 23:56:15,911 INFO scheduler Scheduled Job Complete: frappe.email.queue.flush for meeting.dev
2021-04-21 23:57:13,907 DEBUG scheduler Queued events for site meeting.dev
2021-04-21 23:58:14,275 DEBUG scheduler Queued events for site meeting.dev
2021-04-21 23:59:14,663 DEBUG scheduler Queued events for site meeting.dev
2021-04-22 00:00:15,038 INFO scheduler Scheduled Job Start: frappe.integrations.doctype.google_drive.google_drive.daily_backup for meeting.dev
2021-04-22 00:00:15,089 INFO scheduler Scheduled Job Start: frappe.core.doctype.log_settings.log_settings.run_log_clean_up for meeting.dev
2021-04-22 00:00:15,739 DEBUG scheduler Queued events for site meeting.dev
2021-04-22 00:00:15,877 INFO scheduler Scheduled Job Complete: frappe.core.doctype.log_settings.log_settings.run_log_clean_up for meeting.dev
2021-04-22 00:00:15,917 INFO scheduler Scheduled Job Complete: frappe.integrations.doctype.google_drive.google_drive.daily_backup for meeting.dev
2021-04-22 00:00:15,998 INFO scheduler Scheduled Job Start: frappe.core.doctype.prepared_report.prepared_report.delete_expired_prepared_reports for meeting.dev
2021-04-22 00:00:16,038 INFO scheduler Scheduled Job Start: frappe.integrations.doctype.s3_backup_settings.s3_backup_settings.take_backups_daily for meeting.dev
2021-04-22 00:00:16,798 INFO scheduler Scheduled Job Complete: frappe.integrations.doctype.s3_backup_settings.s3_backup_settings.take_backups_daily for meeting.dev
2021-04-22 00:00:16,807 INFO scheduler Scheduled Job Complete: frappe.core.doctype.prepared_report.prepared_report.delete_expired_prepared_reports for meeting.dev
2021-04-22 00:00:16,902 INFO scheduler Scheduled Job Start: frappe.utils.change_log.check_for_update for meeting.dev
2021-04-22 00:00:16,945 INFO scheduler Scheduled Job Start: frappe.email.doctype.unhandled_email.unhandled_email.remove_old_unhandled_emails for meeting.dev
2021-04-22 00:00:17,640 INFO scheduler Scheduled Job Complete: frappe.email.doctype.unhandled_email.unhandled_email.remove_old_unhandled_emails for meeting.dev
2021-04-22 00:00:17,781 INFO scheduler Scheduled Job Start: frappe.automation.doctype.auto_repeat.auto_repeat.set_auto_repeat_as_completed for meeting.dev
2021-04-22 00:00:18,399 INFO scheduler Scheduled Job Complete: frappe.automation.doctype.auto_repeat.auto_repeat.set_auto_repeat_as_completed for meeting.dev
2021-04-22 00:00:18,491 INFO scheduler Scheduled Job Start: frappe.automation.doctype.auto_repeat.auto_repeat.make_auto_repeat_entry for meeting.dev
2021-04-22 00:00:18,680 INFO scheduler Scheduled Job Failed: frappe.utils.change_log.check_for_update for meeting.dev
2021-04-22 00:00:18,799 INFO scheduler Scheduled Job Start: frappe.integrations.doctype.dropbox_settings.dropbox_settings.take_backups_daily for meeting.dev
2021-04-22 00:00:19,023 INFO scheduler Scheduled Job Complete: frappe.automation.doctype.auto_repeat.auto_repeat.make_auto_repeat_entry for meeting.dev
2021-04-22 00:00:19,114 INFO scheduler Scheduled Job Start: frappe.integrations.doctype.google_contacts.google_contacts.sync for meeting.dev
2021-04-22 00:00:19,699 INFO scheduler Scheduled Job Complete: frappe.integrations.doctype.dropbox_settings.dropbox_settings.take_backups_daily for meeting.dev
2021-04-22 00:00:20,083 INFO scheduler Scheduled Job Complete: frappe.integrations.doctype.google_contacts.google_contacts.sync for meeting.dev
2021-04-22 00:00:20,212 INFO scheduler Scheduled Job Start: frappe.social.doctype.energy_point_settings.energy_point_settings.allocate_review_points for meeting.dev
2021-04-22 00:00:20,684 INFO scheduler Scheduled Job Complete: frappe.social.doctype.energy_point_settings.energy_point_settings.allocate_review_points for meeting.dev
2021-04-22 00:00:20,819 INFO scheduler Scheduled Job Start: frappe.desk.form.document_follow.send_daily_updates for meeting.dev
2021-04-22 00:00:21,404 INFO scheduler Scheduled Job Complete: frappe.desk.form.document_follow.send_daily_updates for meeting.dev
2021-04-22 00:00:21,598 INFO scheduler Scheduled Job Start: frappe.website.doctype.personal_data_deletion_request.personal_data_deletion_request.remove_unverified_record for meeting.dev
2021-04-22 00:00:22,436 INFO scheduler Scheduled Job Complete: frappe.website.doctype.personal_data_deletion_request.personal_data_deletion_request.remove_unverified_record for meeting.dev
2021-04-22 00:00:22,582 INFO scheduler Scheduled Job Start: frappe.email.doctype.auto_email_report.auto_email_report.send_daily for meeting.dev
2021-04-22 00:00:23,829 INFO scheduler Scheduled Job Complete: frappe.email.doctype.auto_email_report.auto_email_report.send_daily for meeting.dev
2021-04-22 00:00:23,949 INFO scheduler Scheduled Job Start: frappe.utils.scheduler.restrict_scheduler_events_if_dormant for meeting.dev
2021-04-22 00:00:24,474 INFO scheduler Scheduled Job Failed: frappe.utils.scheduler.restrict_scheduler_events_if_dormant for meeting.dev
2021-04-22 00:00:24,618 INFO scheduler Scheduled Job Start: frappe.realtime.remove_old_task_logs for meeting.dev
2021-04-22 00:00:25,100 INFO scheduler Scheduled Job Complete: frappe.realtime.remove_old_task_logs for meeting.dev
2021-04-22 00:00:25,196 INFO scheduler Scheduled Job Start: frappe.email.doctype.notification.notification.trigger_daily_alerts for meeting.dev
2021-04-22 00:00:25,665 INFO scheduler Scheduled Job Complete: frappe.email.doctype.notification.notification.trigger_daily_alerts for meeting.dev
2021-04-22 00:00:25,764 INFO scheduler Scheduled Job Start: frappe.sessions.clear_expired_sessions for meeting.dev
2021-04-22 00:00:26,344 INFO scheduler Scheduled Job Complete: frappe.sessions.clear_expired_sessions for meeting.dev
2021-04-22 00:00:26,434 INFO scheduler Scheduled Job Start: frappe.desk.doctype.event.event.send_event_digest for meeting.dev
2021-04-22 00:00:26,870 INFO scheduler Scheduled Job Complete: frappe.desk.doctype.event.event.send_event_digest for meeting.dev
2021-04-22 00:00:26,955 INFO scheduler Scheduled Job Start: frappe.core.doctype.error_log.error_log.set_old_logs_as_seen for meeting.dev
2021-04-22 00:00:27,366 INFO scheduler Scheduled Job Complete: frappe.core.doctype.error_log.error_log.set_old_logs_as_seen for meeting.dev
2021-04-22 00:00:27,452 INFO scheduler Scheduled Job Start: frappe.desk.notifications.clear_notifications for meeting.dev
2021-04-22 00:00:27,866 INFO scheduler Scheduled Job Complete: frappe.desk.notifications.clear_notifications for meeting.dev
2021-04-22 00:00:27,953 INFO scheduler Scheduled Job Start: frappe.email.queue.set_expiry_for_email_queue for meeting.dev
2021-04-22 00:00:28,433 INFO scheduler Scheduled Job Complete: frappe.email.queue.set_expiry_for_email_queue for meeting.dev
2021-04-22 00:00:28,567 INFO scheduler Scheduled Job Start: frappe.email.doctype.newsletter.newsletter.send_scheduled_email for meeting.dev
2021-04-22 00:00:29,147 INFO scheduler Scheduled Job Complete: frappe.email.doctype.newsletter.newsletter.send_scheduled_email for meeting.dev
2021-04-22 00:00:29,238 INFO scheduler Scheduled Job Start: frappe.integrations.doctype.google_calendar.google_calendar.sync for meeting.dev
2021-04-22 00:00:29,855 INFO scheduler Scheduled Job Complete: frappe.integrations.doctype.google_calendar.google_calendar.sync for meeting.dev
2021-04-22 00:00:29,948 INFO scheduler Scheduled Job Start: frappe.desk.form.document_follow.send_hourly_updates for meeting.dev
2021-04-22 00:00:30,397 INFO scheduler Scheduled Job Complete: frappe.desk.form.document_follow.send_hourly_updates for meeting.dev
2021-04-22 00:00:30,488 INFO scheduler Scheduled Job Start: frappe.deferred_insert.save_to_db for meeting.dev
2021-04-22 00:00:31,332 INFO scheduler Scheduled Job Complete: frappe.deferred_insert.save_to_db for meeting.dev
2021-04-22 00:00:31,422 INFO scheduler Scheduled Job Start: frappe.desk.page.backups.backups.delete_downloadable_backups for meeting.dev
2021-04-22 00:00:31,848 INFO scheduler Scheduled Job Complete: frappe.desk.page.backups.backups.delete_downloadable_backups for meeting.dev
2021-04-22 00:00:31,942 INFO scheduler Scheduled Job Start: frappe.utils.error.collect_error_snapshots for meeting.dev
2021-04-22 00:00:33,154 INFO scheduler Scheduled Job Complete: frappe.utils.error.collect_error_snapshots for meeting.dev
2021-04-22 00:00:33,255 INFO scheduler Scheduled Job Start: frappe.model.utils.user_settings.sync_user_settings for meeting.dev
2021-04-22 00:00:33,801 INFO scheduler Scheduled Job Complete: frappe.model.utils.user_settings.sync_user_settings for meeting.dev
2021-04-22 00:00:33,894 INFO scheduler Scheduled Job Start: frappe.model.utils.link_count.update_link_count for meeting.dev
2021-04-22 00:00:34,283 INFO scheduler Scheduled Job Complete: frappe.model.utils.link_count.update_link_count for meeting.dev
2021-04-22 00:00:34,376 INFO scheduler Scheduled Job Start: frappe.monitor.flush for meeting.dev
2021-04-22 00:00:34,535 INFO scheduler Scheduled Job Complete: frappe.monitor.flush for meeting.dev
2021-04-22 00:00:34,614 INFO scheduler Scheduled Job Start: frappe.utils.global_search.sync_global_search for meeting.dev
2021-04-22 00:00:34,777 INFO scheduler Scheduled Job Complete: frappe.utils.global_search.sync_global_search for meeting.dev
2021-04-22 00:00:34,854 INFO scheduler Scheduled Job Start: frappe.integrations.doctype.razorpay_settings.razorpay_settings.capture_payment for meeting.dev
2021-04-22 00:00:35,264 INFO scheduler Scheduled Job Complete: frappe.integrations.doctype.razorpay_settings.razorpay_settings.capture_payment for meeting.dev
2021-04-22 00:00:35,340 INFO scheduler Scheduled Job Start: frappe.email.doctype.email_account.email_account.notify_unreplied for meeting.dev
2021-04-22 00:00:35,667 INFO scheduler Scheduled Job Complete: frappe.email.doctype.email_account.email_account.notify_unreplied for meeting.dev
2021-04-22 00:00:35,744 INFO scheduler Scheduled Job Start: frappe.email.doctype.email_account.email_account.pull for meeting.dev
2021-04-22 00:00:36,101 INFO scheduler Scheduled Job Complete: frappe.email.doctype.email_account.email_account.pull for meeting.dev
2021-04-22 00:00:36,181 INFO scheduler Scheduled Job Start: frappe.email.queue.flush for meeting.dev
2021-04-22 00:00:36,461 INFO scheduler Scheduled Job Complete: frappe.email.queue.flush for meeting.dev
2021-04-22 00:00:36,533 INFO scheduler Scheduled Job Start: frappe.twofactor.delete_all_barcodes_for_users for meeting.dev
2021-04-22 00:00:36,970 INFO scheduler Scheduled Job Complete: frappe.twofactor.delete_all_barcodes_for_users for meeting.dev
2021-04-22 00:00:37,099 INFO scheduler Scheduled Job Start: frappe.website.doctype.web_page.web_page.check_publish_status for meeting.dev
2021-04-22 00:00:37,746 INFO scheduler Scheduled Job Complete: frappe.website.doctype.web_page.web_page.check_publish_status for meeting.dev
2021-04-22 00:00:37,864 INFO scheduler Scheduled Job Start: frappe.oauth.delete_oauth2_data for meeting.dev
2021-04-22 00:00:38,373 INFO scheduler Scheduled Job Complete: frappe.oauth.delete_oauth2_data for meeting.dev
2021-04-22 00:01:17,348 DEBUG scheduler Queued events for site meeting.dev
2021-04-22 00:02:17,908 DEBUG scheduler Queued events for site meeting.dev
2021-04-22 00:03:18,256 DEBUG scheduler Queued events for site meeting.dev
2021-04-22 00:04:18,611 DEBUG scheduler Queued events for site meeting.dev
2021-04-22 00:04:18,645 INFO scheduler Scheduled Job Start: frappe.monitor.flush for meeting.dev
2021-04-22 00:04:18,946 INFO scheduler Scheduled Job Complete: frappe.monitor.flush for meeting.dev
2021-04-22 00:04:19,022 INFO scheduler Scheduled Job Start: frappe.utils.global_search.sync_global_search for meeting.dev
2021-04-22 00:04:19,197 INFO scheduler Scheduled Job Complete: frappe.utils.global_search.sync_global_search for meeting.dev
2021-04-22 00:04:19,275 INFO scheduler Scheduled Job Start: frappe.integrations.doctype.razorpay_settings.razorpay_settings.capture_payment for meeting.dev
2021-04-22 00:04:19,774 INFO scheduler Scheduled Job Complete: frappe.integrations.doctype.razorpay_settings.razorpay_settings.capture_payment for meeting.dev
2021-04-22 00:04:19,851 INFO scheduler Scheduled Job Start: frappe.email.doctype.email_account.email_account.notify_unreplied for meeting.dev
2021-04-22 00:04:20,189 INFO scheduler Scheduled Job Complete: frappe.email.doctype.email_account.email_account.notify_unreplied for meeting.dev
2021-04-22 00:04:20,264 INFO scheduler Scheduled Job Start: frappe.email.doctype.email_account.email_account.pull for meeting.dev
2021-04-22 00:04:20,686 INFO scheduler Scheduled Job Complete: frappe.email.doctype.email_account.email_account.pull for meeting.dev
2021-04-22 00:04:20,805 INFO scheduler Scheduled Job Start: frappe.email.queue.flush for meeting.dev
2021-04-22 00:04:21,363 INFO scheduler Scheduled Job Complete: frappe.email.queue.flush for meeting.dev
2021-04-22 12:37:00,250 INFO scheduler Scheduled Job Start: frappe.email.doctype.newsletter.newsletter.send_scheduled_email for meeting.dev
2021-04-22 12:37:00,332 DEBUG scheduler Queued events for site meeting.dev
2021-04-22 12:37:01,034 INFO scheduler Scheduled Job Complete: frappe.email.doctype.newsletter.newsletter.send_scheduled_email for meeting.dev
2021-04-22 12:37:01,128 INFO scheduler Scheduled Job Start: frappe.integrations.doctype.google_calendar.google_calendar.sync for meeting.dev
2021-04-22 12:37:01,781 INFO scheduler Scheduled Job Complete: frappe.integrations.doctype.google_calendar.google_calendar.sync for meeting.dev
2021-04-22 12:37:01,871 INFO scheduler Scheduled Job Start: frappe.desk.form.document_follow.send_hourly_updates for meeting.dev
2021-04-22 12:37:02,427 INFO scheduler Scheduled Job Complete: frappe.desk.form.document_follow.send_hourly_updates for meeting.dev
2021-04-22 12:37:02,538 INFO scheduler Scheduled Job Start: frappe.deferred_insert.save_to_db for meeting.dev
2021-04-22 12:37:03,136 INFO scheduler Scheduled Job Complete: frappe.deferred_insert.save_to_db for meeting.dev
2021-04-22 12:37:03,237 INFO scheduler Scheduled Job Start: frappe.desk.page.backups.backups.delete_downloadable_backups for meeting.dev
2021-04-22 12:37:03,638 INFO scheduler Scheduled Job Complete: frappe.desk.page.backups.backups.delete_downloadable_backups for meeting.dev
2021-04-22 12:37:03,730 INFO scheduler Scheduled Job Start: frappe.utils.error.collect_error_snapshots for meeting.dev
2021-04-22 12:37:04,372 INFO scheduler Scheduled Job Complete: frappe.utils.error.collect_error_snapshots for meeting.dev
2021-04-22 12:37:04,461 INFO scheduler Scheduled Job Start: frappe.model.utils.user_settings.sync_user_settings for meeting.dev
2021-04-22 12:37:04,897 INFO scheduler Scheduled Job Complete: frappe.model.utils.user_settings.sync_user_settings for meeting.dev
2021-04-22 12:37:04,991 INFO scheduler Scheduled Job Start: frappe.model.utils.link_count.update_link_count for meeting.dev
2021-04-22 12:37:05,399 INFO scheduler Scheduled Job Complete: frappe.model.utils.link_count.update_link_count for meeting.dev
2021-04-22 12:37:05,514 INFO scheduler Scheduled Job Start: frappe.monitor.flush for meeting.dev
2021-04-22 12:37:05,686 INFO scheduler Scheduled Job Complete: frappe.monitor.flush for meeting.dev
2021-04-22 12:37:05,757 INFO scheduler Scheduled Job Start: frappe.utils.global_search.sync_global_search for meeting.dev
2021-04-22 12:37:05,923 INFO scheduler Scheduled Job Complete: frappe.utils.global_search.sync_global_search for meeting.dev
2021-04-22 12:37:06,009 INFO scheduler Scheduled Job Start: frappe.integrations.doctype.razorpay_settings.razorpay_settings.capture_payment for meeting.dev
2021-04-22 12:37:06,513 INFO scheduler Scheduled Job Complete: frappe.integrations.doctype.razorpay_settings.razorpay_settings.capture_payment for meeting.dev
2021-04-22 12:37:06,589 INFO scheduler Scheduled Job Start: frappe.email.doctype.email_account.email_account.notify_unreplied for meeting.dev
2021-04-22 12:37:07,001 INFO scheduler Scheduled Job Complete: frappe.email.doctype.email_account.email_account.notify_unreplied for meeting.dev
2021-04-22 12:37:07,077 INFO scheduler Scheduled Job Start: frappe.email.doctype.email_account.email_account.pull for meeting.dev
2021-04-22 12:37:07,448 INFO scheduler Scheduled Job Complete: frappe.email.doctype.email_account.email_account.pull for meeting.dev
2021-04-22 12:37:07,535 INFO scheduler Scheduled Job Start: frappe.email.queue.flush for meeting.dev
2021-04-22 12:37:07,852 INFO scheduler Scheduled Job Complete: frappe.email.queue.flush for meeting.dev
2021-04-22 12:37:07,957 INFO scheduler Scheduled Job Start: frappe.twofactor.delete_all_barcodes_for_users for meeting.dev
2021-04-22 12:37:08,516 INFO scheduler Scheduled Job Complete: frappe.twofactor.delete_all_barcodes_for_users for meeting.dev
2021-04-22 12:37:08,621 INFO scheduler Scheduled Job Start: frappe.website.doctype.web_page.web_page.check_publish_status for meeting.dev
2021-04-22 12:37:09,275 INFO scheduler Scheduled Job Complete: frappe.website.doctype.web_page.web_page.check_publish_status for meeting.dev
2021-04-22 12:37:09,383 INFO scheduler Scheduled Job Start: frappe.oauth.delete_oauth2_data for meeting.dev
2021-04-22 12:37:09,943 INFO scheduler Scheduled Job Complete: frappe.oauth.delete_oauth2_data for meeting.dev
2021-04-22 12:38:01,250 DEBUG scheduler Queued events for site meeting.dev
2021-04-22 12:39:01,656 DEBUG scheduler Queued events for site meeting.dev
2021-04-22 12:40:02,090 DEBUG scheduler Queued events for site meeting.dev
2021-04-22 12:40:02,129 INFO scheduler Scheduled Job Start: frappe.monitor.flush for meeting.dev
2021-04-22 12:40:02,458 INFO scheduler Scheduled Job Complete: frappe.monitor.flush for meeting.dev
2021-04-22 12:40:02,563 INFO scheduler Scheduled Job Start: frappe.utils.global_search.sync_global_search for meeting.dev
2021-04-22 12:40:02,766 INFO scheduler Scheduled Job Complete: frappe.utils.global_search.sync_global_search for meeting.dev
2021-04-22 12:40:02,845 INFO scheduler Scheduled Job Start: frappe.integrations.doctype.razorpay_settings.razorpay_settings.capture_payment for meeting.dev
2021-04-22 12:40:03,368 INFO scheduler Scheduled Job Complete: frappe.integrations.doctype.razorpay_settings.razorpay_settings.capture_payment for meeting.dev
2021-04-22 12:40:03,511 INFO scheduler Scheduled Job Start: frappe.email.doctype.email_account.email_account.notify_unreplied for meeting.dev
2021-04-22 12:40:04,105 INFO scheduler Scheduled Job Complete: frappe.email.doctype.email_account.email_account.notify_unreplied for meeting.dev
2021-04-22 12:40:04,212 INFO scheduler Scheduled Job Start: frappe.email.doctype.email_account.email_account.pull for meeting.dev
2021-04-22 12:40:04,842 INFO scheduler Scheduled Job Complete: frappe.email.doctype.email_account.email_account.pull for meeting.dev
2021-04-22 12:40:04,987 INFO scheduler Scheduled Job Start: frappe.email.queue.flush for meeting.dev
2021-04-22 12:40:05,517 INFO scheduler Scheduled Job Complete: frappe.email.queue.flush for meeting.dev
2021-04-22 12:41:02,743 DEBUG scheduler Queued events for site meeting.dev
2021-04-22 12:42:03,489 DEBUG scheduler Queued events for site meeting.dev
2021-04-22 12:43:03,925 DEBUG scheduler Queued events for site meeting.dev
2021-04-22 12:44:04,327 DEBUG scheduler Queued events for site meeting.dev
2021-04-22 12:44:04,357 INFO scheduler Scheduled Job Start: frappe.monitor.flush for meeting.dev
2021-04-22 12:44:04,531 INFO scheduler Scheduled Job Complete: frappe.monitor.flush for meeting.dev
2021-04-22 12:44:04,608 INFO scheduler Scheduled Job Start: frappe.utils.global_search.sync_global_search for meeting.dev
2021-04-22 12:44:04,763 INFO scheduler Scheduled Job Complete: frappe.utils.global_search.sync_global_search for meeting.dev
2021-04-22 12:44:04,838 INFO scheduler Scheduled Job Start: frappe.integrations.doctype.razorpay_settings.razorpay_settings.capture_payment for meeting.dev
2021-04-22 12:44:05,228 INFO scheduler Scheduled Job Complete: frappe.integrations.doctype.razorpay_settings.razorpay_settings.capture_payment for meeting.dev
2021-04-22 12:44:05,302 INFO scheduler Scheduled Job Start: frappe.email.doctype.email_account.email_account.notify_unreplied for meeting.dev
2021-04-22 12:44:05,605 INFO scheduler Scheduled Job Complete: frappe.email.doctype.email_account.email_account.notify_unreplied for meeting.dev
2021-04-22 12:44:05,675 INFO scheduler Scheduled Job Start: frappe.email.doctype.email_account.email_account.pull for meeting.dev
2021-04-22 12:44:05,996 INFO scheduler Scheduled Job Complete: frappe.email.doctype.email_account.email_account.pull for meeting.dev
2021-04-22 12:44:06,065 INFO scheduler Scheduled Job Start: frappe.email.queue.flush for meeting.dev
2021-04-22 12:44:06,363 INFO scheduler Scheduled Job Complete: frappe.email.queue.flush for meeting.dev
2021-04-22 12:45:04,758 DEBUG scheduler Queued events for site meeting.dev
2021-04-22 12:45:04,819 INFO scheduler Scheduled Job Start: frappe.twofactor.delete_all_barcodes_for_users for meeting.dev
2021-04-22 12:45:05,296 INFO scheduler Scheduled Job Complete: frappe.twofactor.delete_all_barcodes_for_users for meeting.dev
2021-04-22 12:45:05,383 INFO scheduler Scheduled Job Start: frappe.website.doctype.web_page.web_page.check_publish_status for meeting.dev
2021-04-22 12:45:05,880 INFO scheduler Scheduled Job Complete: frappe.website.doctype.web_page.web_page.check_publish_status for meeting.dev
2021-04-22 12:45:05,981 INFO scheduler Scheduled Job Start: frappe.oauth.delete_oauth2_data for meeting.dev
2021-04-22 12:45:06,418 INFO scheduler Scheduled Job Complete: frappe.oauth.delete_oauth2_data for meeting.dev
2021-04-22 12:46:05,167 DEBUG scheduler Queued events for site meeting.dev
2021-04-22 12:47:05,505 DEBUG scheduler Queued events for site meeting.dev
2021-04-22 12:48:05,881 DEBUG scheduler Queued events for site meeting.dev
2021-04-22 12:48:05,910 INFO scheduler Scheduled Job Start: frappe.monitor.flush for meeting.dev
2021-04-22 12:48:06,098 INFO scheduler Scheduled Job Complete: frappe.monitor.flush for meeting.dev
2021-04-22 12:48:06,167 INFO scheduler Scheduled Job Start: frappe.utils.global_search.sync_global_search for meeting.dev
2021-04-22 12:48:06,319 INFO scheduler Scheduled Job Complete: frappe.utils.global_search.sync_global_search for meeting.dev
2021-04-22 12:48:06,411 INFO scheduler Scheduled Job Start: frappe.integrations.doctype.razorpay_settings.razorpay_settings.capture_payment for meeting.dev
2021-04-22 12:48:06,801 INFO scheduler Scheduled Job Complete: frappe.integrations.doctype.razorpay_settings.razorpay_settings.capture_payment for meeting.dev
2021-04-22 12:48:06,874 INFO scheduler Scheduled Job Start: frappe.email.doctype.email_account.email_account.notify_unreplied for meeting.dev
2021-04-22 12:48:07,185 INFO scheduler Scheduled Job Complete: frappe.email.doctype.email_account.email_account.notify_unreplied for meeting.dev
2021-04-22 12:48:07,253 INFO scheduler Scheduled Job Start: frappe.email.doctype.email_account.email_account.pull for meeting.dev
2021-04-22 12:48:07,596 INFO scheduler Scheduled Job Complete: frappe.email.doctype.email_account.email_account.pull for meeting.dev
2021-04-22 12:48:07,669 INFO scheduler Scheduled Job Start: frappe.email.queue.flush for meeting.dev
2021-04-22 12:48:07,964 INFO scheduler Scheduled Job Complete: frappe.email.queue.flush for meeting.dev
2021-04-22 12:49:06,280 DEBUG scheduler Queued events for site meeting.dev
2021-04-22 12:50:06,617 DEBUG scheduler Queued events for site meeting.dev
2021-04-22 12:51:07,021 DEBUG scheduler Queued events for site meeting.dev
2021-04-22 12:52:07,419 DEBUG scheduler Queued events for site meeting.dev
2021-04-22 12:52:07,454 INFO scheduler Scheduled Job Start: frappe.monitor.flush for meeting.dev
2021-04-22 12:52:07,644 INFO scheduler Scheduled Job Complete: frappe.monitor.flush for meeting.dev
2021-04-22 12:52:07,721 INFO scheduler Scheduled Job Start: frappe.utils.global_search.sync_global_search for meeting.dev
2021-04-22 12:52:07,895 INFO scheduler Scheduled Job Complete: frappe.utils.global_search.sync_global_search for meeting.dev
2021-04-22 12:52:07,970 INFO scheduler Scheduled Job Start: frappe.integrations.doctype.razorpay_settings.razorpay_settings.capture_payment for meeting.dev
2021-04-22 12:52:08,368 INFO scheduler Scheduled Job Complete: frappe.integrations.doctype.razorpay_settings.razorpay_settings.capture_payment for meeting.dev
2021-04-22 12:52:08,443 INFO scheduler Scheduled Job Start: frappe.email.doctype.email_account.email_account.notify_unreplied for meeting.dev
2021-04-22 12:52:08,759 INFO scheduler Scheduled Job Complete: frappe.email.doctype.email_account.email_account.notify_unreplied for meeting.dev
2021-04-22 12:52:08,829 INFO scheduler Scheduled Job Start: frappe.email.doctype.email_account.email_account.pull for meeting.dev
2021-04-22 12:52:09,151 INFO scheduler Scheduled Job Complete: frappe.email.doctype.email_account.email_account.pull for meeting.dev
2021-04-22 12:52:09,226 INFO scheduler Scheduled Job Start: frappe.email.queue.flush for meeting.dev
2021-04-22 12:52:09,493 INFO scheduler Scheduled Job Complete: frappe.email.queue.flush for meeting.dev
2021-04-22 12:53:07,825 DEBUG scheduler Queued events for site meeting.dev
2021-04-22 12:54:08,210 DEBUG scheduler Queued events for site meeting.dev
2021-04-22 12:55:08,528 DEBUG scheduler Queued events for site meeting.dev
2021-04-22 12:56:08,879 DEBUG scheduler Queued events for site meeting.dev
2021-04-22 12:56:08,912 INFO scheduler Scheduled Job Start: frappe.monitor.flush for meeting.dev
2021-04-22 12:56:09,087 INFO scheduler Scheduled Job Complete: frappe.monitor.flush for meeting.dev
2021-04-22 12:56:09,166 INFO scheduler Scheduled Job Start: frappe.utils.global_search.sync_global_search for meeting.dev
2021-04-22 12:56:09,320 INFO scheduler Scheduled Job Complete: frappe.utils.global_search.sync_global_search for meeting.dev
2021-04-22 12:56:09,403 INFO scheduler Scheduled Job Start: frappe.integrations.doctype.razorpay_settings.razorpay_settings.capture_payment for meeting.dev
2021-04-22 12:56:09,887 INFO scheduler Scheduled Job Complete: frappe.integrations.doctype.razorpay_settings.razorpay_settings.capture_payment for meeting.dev
2021-04-22 12:56:09,958 INFO scheduler Scheduled Job Start: frappe.email.doctype.email_account.email_account.notify_unreplied for meeting.dev
2021-04-22 12:56:10,298 INFO scheduler Scheduled Job Complete: frappe.email.doctype.email_account.email_account.notify_unreplied for meeting.dev
2021-04-22 12:56:10,379 INFO scheduler Scheduled Job Start: frappe.email.doctype.email_account.email_account.pull for meeting.dev
2021-04-22 12:56:10,748 INFO scheduler Scheduled Job Complete: frappe.email.doctype.email_account.email_account.pull for meeting.dev
2021-04-22 12:56:10,827 INFO scheduler Scheduled Job Start: frappe.email.queue.flush for meeting.dev
2021-04-22 12:56:11,117 INFO scheduler Scheduled Job Complete: frappe.email.queue.flush for meeting.dev
2021-04-22 12:57:09,274 DEBUG scheduler Queued events for site meeting.dev
2021-04-22 12:58:09,616 DEBUG scheduler Queued events for site meeting.dev
2021-04-22 12:59:09,984 DEBUG scheduler Queued events for site meeting.dev
2021-04-22 13:00:10,473 INFO scheduler Scheduled Job Start: frappe.email.doctype.newsletter.newsletter.send_scheduled_email for meeting.dev
2021-04-22 13:00:10,581 DEBUG scheduler Queued events for site meeting.dev
2021-04-22 13:00:11,142 INFO scheduler Scheduled Job Complete: frappe.email.doctype.newsletter.newsletter.send_scheduled_email for meeting.dev
2021-04-22 13:00:11,235 INFO scheduler Scheduled Job Start: frappe.integrations.doctype.google_calendar.google_calendar.sync for meeting.dev
2021-04-22 13:00:11,946 INFO scheduler Scheduled Job Complete: frappe.integrations.doctype.google_calendar.google_calendar.sync for meeting.dev
2021-04-22 13:00:12,034 INFO scheduler Scheduled Job Start: frappe.desk.form.document_follow.send_hourly_updates for meeting.dev
2021-04-22 13:00:12,445 INFO scheduler Scheduled Job Complete: frappe.desk.form.document_follow.send_hourly_updates for meeting.dev
2021-04-22 13:00:12,530 INFO scheduler Scheduled Job Start: frappe.deferred_insert.save_to_db for meeting.dev
2021-04-22 13:00:13,172 INFO scheduler Scheduled Job Complete: frappe.deferred_insert.save_to_db for meeting.dev
2021-04-22 13:00:13,304 INFO scheduler Scheduled Job Start: frappe.desk.page.backups.backups.delete_downloadable_backups for meeting.dev
2021-04-22 13:00:14,139 INFO scheduler Scheduled Job Complete: frappe.desk.page.backups.backups.delete_downloadable_backups for meeting.dev
2021-04-22 13:00:14,311 INFO scheduler Scheduled Job Start: frappe.utils.error.collect_error_snapshots for meeting.dev
2021-04-22 13:00:15,103 INFO scheduler Scheduled Job Complete: frappe.utils.error.collect_error_snapshots for meeting.dev
2021-04-22 13:00:15,246 INFO scheduler Scheduled Job Start: frappe.model.utils.user_settings.sync_user_settings for meeting.dev
2021-04-22 13:00:15,774 INFO scheduler Scheduled Job Complete: frappe.model.utils.user_settings.sync_user_settings for meeting.dev
2021-04-22 13:00:15,865 INFO scheduler Scheduled Job Start: frappe.model.utils.link_count.update_link_count for meeting.dev
2021-04-22 13:00:16,270 INFO scheduler Scheduled Job Complete: frappe.model.utils.link_count.update_link_count for meeting.dev
2021-04-22 13:00:16,358 INFO scheduler Scheduled Job Start: frappe.monitor.flush for meeting.dev
2021-04-22 13:00:16,550 INFO scheduler Scheduled Job Complete: frappe.monitor.flush for meeting.dev
2021-04-22 13:00:16,663 INFO scheduler Scheduled Job Start: frappe.utils.global_search.sync_global_search for meeting.dev
2021-04-22 13:00:16,867 INFO scheduler Scheduled Job Complete: frappe.utils.global_search.sync_global_search for meeting.dev
2021-04-22 13:00:16,959 INFO scheduler Scheduled Job Start: frappe.integrations.doctype.razorpay_settings.razorpay_settings.capture_payment for meeting.dev
2021-04-22 13:00:17,517 INFO scheduler Scheduled Job Complete: frappe.integrations.doctype.razorpay_settings.razorpay_settings.capture_payment for meeting.dev
2021-04-22 13:00:17,600 INFO scheduler Scheduled Job Start: frappe.email.doctype.email_account.email_account.notify_unreplied for meeting.dev
2021-04-22 13:00:17,967 INFO scheduler Scheduled Job Complete: frappe.email.doctype.email_account.email_account.notify_unreplied for meeting.dev
2021-04-22 13:00:18,054 INFO scheduler Scheduled Job Start: frappe.email.doctype.email_account.email_account.pull for meeting.dev
2021-04-22 13:00:18,605 INFO scheduler Scheduled Job Complete: frappe.email.doctype.email_account.email_account.pull for meeting.dev
2021-04-22 13:00:18,765 INFO scheduler Scheduled Job Start: frappe.email.queue.flush for meeting.dev
2021-04-22 13:00:19,350 INFO scheduler Scheduled Job Complete: frappe.email.queue.flush for meeting.dev
2021-04-22 13:00:19,473 INFO scheduler Scheduled Job Start: frappe.twofactor.delete_all_barcodes_for_users for meeting.dev
2021-04-22 13:00:19,957 INFO scheduler Scheduled Job Complete: frappe.twofactor.delete_all_barcodes_for_users for meeting.dev
2021-04-22 13:00:20,096 INFO scheduler Scheduled Job Start: frappe.website.doctype.web_page.web_page.check_publish_status for meeting.dev
2021-04-22 13:00:20,698 INFO scheduler Scheduled Job Complete: frappe.website.doctype.web_page.web_page.check_publish_status for meeting.dev
2021-04-22 13:00:20,786 INFO scheduler Scheduled Job Start: frappe.oauth.delete_oauth2_data for meeting.dev
2021-04-22 13:00:21,219 INFO scheduler Scheduled Job Complete: frappe.oauth.delete_oauth2_data for meeting.dev
2021-04-22 13:01:11,477 DEBUG scheduler Queued events for site meeting.dev
2021-04-22 13:02:12,372 DEBUG scheduler Queued events for site meeting.dev
2021-04-22 13:11:34,291 DEBUG scheduler Queued events for site meeting.dev
2021-04-22 13:11:34,332 INFO scheduler Scheduled Job Start: frappe.monitor.flush for meeting.dev
2021-04-22 13:11:34,642 INFO scheduler Scheduled Job Complete: frappe.monitor.flush for meeting.dev
2021-04-22 13:11:34,736 INFO scheduler Scheduled Job Start: frappe.utils.global_search.sync_global_search for meeting.dev
2021-04-22 13:11:34,905 INFO scheduler Scheduled Job Complete: frappe.utils.global_search.sync_global_search for meeting.dev
2021-04-22 13:11:34,980 INFO scheduler Scheduled Job Start: frappe.integrations.doctype.razorpay_settings.razorpay_settings.capture_payment for meeting.dev
2021-04-22 13:11:35,445 INFO scheduler Scheduled Job Complete: frappe.integrations.doctype.razorpay_settings.razorpay_settings.capture_payment for meeting.dev
2021-04-22 13:11:35,524 INFO scheduler Scheduled Job Start: frappe.email.doctype.email_account.email_account.notify_unreplied for meeting.dev
2021-04-22 13:11:35,853 INFO scheduler Scheduled Job Complete: frappe.email.doctype.email_account.email_account.notify_unreplied for meeting.dev
2021-04-22 13:11:35,926 INFO scheduler Scheduled Job Start: frappe.email.doctype.email_account.email_account.pull for meeting.dev
2021-04-22 13:11:36,239 INFO scheduler Scheduled Job Complete: frappe.email.doctype.email_account.email_account.pull for meeting.dev
2021-04-22 13:11:36,317 INFO scheduler Scheduled Job Start: frappe.email.queue.flush for meeting.dev
2021-04-22 13:11:36,662 INFO scheduler Scheduled Job Complete: frappe.email.queue.flush for meeting.dev
2021-04-22 13:12:34,924 DEBUG scheduler Queued events for site meeting.dev
2021-04-22 13:12:34,965 INFO scheduler Scheduled Job Start: frappe.monitor.flush for meeting.dev
2021-04-22 13:12:35,150 INFO scheduler Scheduled Job Complete: frappe.monitor.flush for meeting.dev
2021-04-22 13:12:35,224 INFO scheduler Scheduled Job Start: frappe.utils.global_search.sync_global_search for meeting.dev
2021-04-22 13:12:35,429 INFO scheduler Scheduled Job Complete: frappe.utils.global_search.sync_global_search for meeting.dev
2021-04-22 13:12:35,500 INFO scheduler Scheduled Job Start: frappe.integrations.doctype.razorpay_settings.razorpay_settings.capture_payment for meeting.dev
2021-04-22 13:12:35,976 INFO scheduler Scheduled Job Complete: frappe.integrations.doctype.razorpay_settings.razorpay_settings.capture_payment for meeting.dev
2021-04-22 13:12:36,052 INFO scheduler Scheduled Job Start: frappe.email.doctype.email_account.email_account.notify_unreplied for meeting.dev
2021-04-22 13:12:36,422 INFO scheduler Scheduled Job Complete: frappe.email.doctype.email_account.email_account.notify_unreplied for meeting.dev
2021-04-22 13:12:36,506 INFO scheduler Scheduled Job Start: frappe.email.doctype.email_account.email_account.pull for meeting.dev
2021-04-22 13:12:36,892 INFO scheduler Scheduled Job Complete: frappe.email.doctype.email_account.email_account.pull for meeting.dev
2021-04-22 13:12:36,968 INFO scheduler Scheduled Job Start: frappe.email.queue.flush for meeting.dev
2021-04-22 13:12:37,324 INFO scheduler Scheduled Job Complete: frappe.email.queue.flush for meeting.dev
2021-04-22 13:54:33,992 INFO scheduler Scheduled Job Start: frappe.monitor.flush for meeting.dev
2021-04-22 13:54:33,995 DEBUG scheduler Queued events for site meeting.dev
2021-04-22 13:54:34,288 INFO scheduler Scheduled Job Complete: frappe.monitor.flush for meeting.dev
2021-04-22 13:54:34,403 INFO scheduler Scheduled Job Start: frappe.utils.global_search.sync_global_search for meeting.dev
2021-04-22 13:54:34,673 INFO scheduler Scheduled Job Complete: frappe.utils.global_search.sync_global_search for meeting.dev
2021-04-22 13:54:34,790 INFO scheduler Scheduled Job Start: frappe.integrations.doctype.razorpay_settings.razorpay_settings.capture_payment for meeting.dev
2021-04-22 13:54:35,405 INFO scheduler Scheduled Job Complete: frappe.integrations.doctype.razorpay_settings.razorpay_settings.capture_payment for meeting.dev
2021-04-22 13:54:35,494 INFO scheduler Scheduled Job Start: frappe.email.doctype.email_account.email_account.notify_unreplied for meeting.dev
2021-04-22 13:54:35,887 INFO scheduler Scheduled Job Complete: frappe.email.doctype.email_account.email_account.notify_unreplied for meeting.dev
2021-04-22 13:54:35,978 INFO scheduler Scheduled Job Start: frappe.email.doctype.email_account.email_account.pull for meeting.dev
2021-04-22 13:54:36,381 INFO scheduler Scheduled Job Complete: frappe.email.doctype.email_account.email_account.pull for meeting.dev
2021-04-22 13:54:36,470 INFO scheduler Scheduled Job Start: frappe.email.queue.flush for meeting.dev
2021-04-22 13:54:36,796 INFO scheduler Scheduled Job Complete: frappe.email.queue.flush for meeting.dev
2021-04-22 13:54:36,882 INFO scheduler Scheduled Job Start: frappe.twofactor.delete_all_barcodes_for_users for meeting.dev
2021-04-22 13:54:37,364 INFO scheduler Scheduled Job Complete: frappe.twofactor.delete_all_barcodes_for_users for meeting.dev
2021-04-22 13:54:37,455 INFO scheduler Scheduled Job Start: frappe.website.doctype.web_page.web_page.check_publish_status for meeting.dev
2021-04-22 13:54:37,985 INFO scheduler Scheduled Job Complete: frappe.website.doctype.web_page.web_page.check_publish_status for meeting.dev
2021-04-22 13:54:38,076 INFO scheduler Scheduled Job Start: frappe.oauth.delete_oauth2_data for meeting.dev
2021-04-22 13:54:38,500 INFO scheduler Scheduled Job Complete: frappe.oauth.delete_oauth2_data for meeting.dev
2021-04-22 13:55:35,239 DEBUG scheduler Queued events for site meeting.dev
2021-04-22 13:56:35,610 DEBUG scheduler Queued events for site meeting.dev
2021-04-22 13:56:35,655 INFO scheduler Scheduled Job Start: frappe.monitor.flush for meeting.dev
2021-04-22 13:56:35,874 INFO scheduler Scheduled Job Complete: frappe.monitor.flush for meeting.dev
2021-04-22 13:56:35,986 INFO scheduler Scheduled Job Start: frappe.utils.global_search.sync_global_search for meeting.dev
2021-04-22 13:56:36,189 INFO scheduler Scheduled Job Complete: frappe.utils.global_search.sync_global_search for meeting.dev
2021-04-22 13:56:36,288 INFO scheduler Scheduled Job Start: frappe.integrations.doctype.razorpay_settings.razorpay_settings.capture_payment for meeting.dev
2021-04-22 13:56:36,792 INFO scheduler Scheduled Job Complete: frappe.integrations.doctype.razorpay_settings.razorpay_settings.capture_payment for meeting.dev
2021-04-22 13:56:36,889 INFO scheduler Scheduled Job Start: frappe.email.doctype.email_account.email_account.notify_unreplied for meeting.dev
2021-04-22 13:56:37,389 INFO scheduler Scheduled Job Complete: frappe.email.doctype.email_account.email_account.notify_unreplied for meeting.dev
2021-04-22 13:56:37,476 INFO scheduler Scheduled Job Start: frappe.email.doctype.email_account.email_account.pull for meeting.dev
2021-04-22 13:56:37,919 INFO scheduler Scheduled Job Complete: frappe.email.doctype.email_account.email_account.pull for meeting.dev
2021-04-22 13:56:38,025 INFO scheduler Scheduled Job Start: frappe.email.queue.flush for meeting.dev
2021-04-22 13:56:38,451 INFO scheduler Scheduled Job Complete: frappe.email.queue.flush for meeting.dev
2021-04-22 13:57:35,983 DEBUG scheduler Queued events for site meeting.dev
2021-04-22 13:58:36,247 DEBUG scheduler Queued events for site meeting.dev
2021-04-22 13:59:36,495 DEBUG scheduler Queued events for site meeting.dev
2021-04-22 14:00:36,820 INFO scheduler Scheduled Job Start: frappe.email.doctype.newsletter.newsletter.send_scheduled_email for meeting.dev
2021-04-22 14:00:36,919 DEBUG scheduler Queued events for site meeting.dev
2021-04-22 14:00:37,367 INFO scheduler Scheduled Job Complete: frappe.email.doctype.newsletter.newsletter.send_scheduled_email for meeting.dev
2021-04-22 14:00:37,452 INFO scheduler Scheduled Job Start: frappe.integrations.doctype.google_calendar.google_calendar.sync for meeting.dev
2021-04-22 14:00:38,079 INFO scheduler Scheduled Job Complete: frappe.integrations.doctype.google_calendar.google_calendar.sync for meeting.dev
2021-04-22 14:00:38,172 INFO scheduler Scheduled Job Start: frappe.desk.form.document_follow.send_hourly_updates for meeting.dev
2021-04-22 14:00:38,617 INFO scheduler Scheduled Job Complete: frappe.desk.form.document_follow.send_hourly_updates for meeting.dev
2021-04-22 14:00:38,709 INFO scheduler Scheduled Job Start: frappe.deferred_insert.save_to_db for meeting.dev
2021-04-22 14:00:39,118 INFO scheduler Scheduled Job Complete: frappe.deferred_insert.save_to_db for meeting.dev
2021-04-22 14:00:39,213 INFO scheduler Scheduled Job Start: frappe.desk.page.backups.backups.delete_downloadable_backups for meeting.dev
2021-04-22 14:00:39,656 INFO scheduler Scheduled Job Complete: frappe.desk.page.backups.backups.delete_downloadable_backups for meeting.dev
2021-04-22 14:00:39,753 INFO scheduler Scheduled Job Start: frappe.utils.error.collect_error_snapshots for meeting.dev
2021-04-22 14:00:40,175 INFO scheduler Scheduled Job Complete: frappe.utils.error.collect_error_snapshots for meeting.dev
2021-04-22 14:00:40,278 INFO scheduler Scheduled Job Start: frappe.model.utils.user_settings.sync_user_settings for meeting.dev
2021-04-22 14:00:40,693 INFO scheduler Scheduled Job Complete: frappe.model.utils.user_settings.sync_user_settings for meeting.dev
2021-04-22 14:00:40,822 INFO scheduler Scheduled Job Start: frappe.model.utils.link_count.update_link_count for meeting.dev
2021-04-22 14:00:41,268 INFO scheduler Scheduled Job Complete: frappe.model.utils.link_count.update_link_count for meeting.dev
2021-04-22 14:00:41,373 INFO scheduler Scheduled Job Start: frappe.monitor.flush for meeting.dev
2021-04-22 14:00:41,565 INFO scheduler Scheduled Job Complete: frappe.monitor.flush for meeting.dev
2021-04-22 14:00:41,695 INFO scheduler Scheduled Job Start: frappe.utils.global_search.sync_global_search for meeting.dev
2021-04-22 14:00:41,874 INFO scheduler Scheduled Job Complete: frappe.utils.global_search.sync_global_search for meeting.dev
2021-04-22 14:00:41,998 INFO scheduler Scheduled Job Start: frappe.integrations.doctype.razorpay_settings.razorpay_settings.capture_payment for meeting.dev
2021-04-22 14:00:42,510 INFO scheduler Scheduled Job Complete: frappe.integrations.doctype.razorpay_settings.razorpay_settings.capture_payment for meeting.dev
2021-04-22 14:00:42,589 INFO scheduler Scheduled Job Start: frappe.email.doctype.email_account.email_account.notify_unreplied for meeting.dev
2021-04-22 14:00:42,986 INFO scheduler Scheduled Job Complete: frappe.email.doctype.email_account.email_account.notify_unreplied for meeting.dev
2021-04-22 14:00:43,103 INFO scheduler Scheduled Job Start: frappe.email.doctype.email_account.email_account.pull for meeting.dev
2021-04-22 14:00:43,542 INFO scheduler Scheduled Job Complete: frappe.email.doctype.email_account.email_account.pull for meeting.dev
2021-04-22 14:00:43,615 INFO scheduler Scheduled Job Start: frappe.email.queue.flush for meeting.dev
2021-04-22 14:00:43,894 INFO scheduler Scheduled Job Complete: frappe.email.queue.flush for meeting.dev
2021-04-22 14:00:43,974 INFO scheduler Scheduled Job Start: frappe.twofactor.delete_all_barcodes_for_users for meeting.dev
2021-04-22 14:00:44,467 INFO scheduler Scheduled Job Complete: frappe.twofactor.delete_all_barcodes_for_users for meeting.dev
2021-04-22 14:00:44,631 INFO scheduler Scheduled Job Start: frappe.website.doctype.web_page.web_page.check_publish_status for meeting.dev
2021-04-22 14:00:45,343 INFO scheduler Scheduled Job Complete: frappe.website.doctype.web_page.web_page.check_publish_status for meeting.dev
2021-04-22 14:00:45,468 INFO scheduler Scheduled Job Start: frappe.oauth.delete_oauth2_data for meeting.dev
2021-04-22 14:00:45,970 INFO scheduler Scheduled Job Complete: frappe.oauth.delete_oauth2_data for meeting.dev
2021-04-22 14:01:37,302 DEBUG scheduler Queued events for site meeting.dev
2021-04-22 14:02:37,671 DEBUG scheduler Queued events for site meeting.dev
2021-04-22 14:03:37,983 DEBUG scheduler Queued events for site meeting.dev
2021-04-22 14:04:38,310 DEBUG scheduler Queued events for site meeting.dev
2021-04-22 14:04:38,350 INFO scheduler Scheduled Job Start: frappe.monitor.flush for meeting.dev
2021-04-22 14:04:38,564 INFO scheduler Scheduled Job Complete: frappe.monitor.flush for meeting.dev
2021-04-22 14:04:38,659 INFO scheduler Scheduled Job Start: frappe.utils.global_search.sync_global_search for meeting.dev
2021-04-22 14:04:38,851 INFO scheduler Scheduled Job Complete: frappe.utils.global_search.sync_global_search for meeting.dev
2021-04-22 14:04:38,938 INFO scheduler Scheduled Job Start: frappe.integrations.doctype.razorpay_settings.razorpay_settings.capture_payment for meeting.dev
2021-04-22 14:04:39,483 INFO scheduler Scheduled Job Complete: frappe.integrations.doctype.razorpay_settings.razorpay_settings.capture_payment for meeting.dev
2021-04-22 14:04:39,595 INFO scheduler Scheduled Job Start: frappe.email.doctype.email_account.email_account.notify_unreplied for meeting.dev
2021-04-22 14:04:40,045 INFO scheduler Scheduled Job Complete: frappe.email.doctype.email_account.email_account.notify_unreplied for meeting.dev
2021-04-22 14:04:40,152 INFO scheduler Scheduled Job Start: frappe.email.doctype.email_account.email_account.pull for meeting.dev
2021-04-22 14:04:40,631 INFO scheduler Scheduled Job Complete: frappe.email.doctype.email_account.email_account.pull for meeting.dev
2021-04-22 14:04:40,734 INFO scheduler Scheduled Job Start: frappe.email.queue.flush for meeting.dev
2021-04-22 14:04:41,094 INFO scheduler Scheduled Job Complete: frappe.email.queue.flush for meeting.dev
2021-04-22 14:05:38,667 DEBUG scheduler Queued events for site meeting.dev
2021-04-22 14:06:39,004 DEBUG scheduler Queued events for site meeting.dev
2021-04-22 14:07:39,316 DEBUG scheduler Queued events for site meeting.dev
2021-04-22 14:08:39,680 DEBUG scheduler Queued events for site meeting.dev
2021-04-22 14:08:39,719 INFO scheduler Scheduled Job Start: frappe.monitor.flush for meeting.dev
2021-04-22 14:08:39,939 INFO scheduler Scheduled Job Complete: frappe.monitor.flush for meeting.dev
2021-04-22 14:08:40,040 INFO scheduler Scheduled Job Start: frappe.utils.global_search.sync_global_search for meeting.dev
2021-04-22 14:08:40,249 INFO scheduler Scheduled Job Complete: frappe.utils.global_search.sync_global_search for meeting.dev
2021-04-22 14:08:40,344 INFO scheduler Scheduled Job Start: frappe.integrations.doctype.razorpay_settings.razorpay_settings.capture_payment for meeting.dev
2021-04-22 14:08:40,901 INFO scheduler Scheduled Job Complete: frappe.integrations.doctype.razorpay_settings.razorpay_settings.capture_payment for meeting.dev
2021-04-22 14:08:41,005 INFO scheduler Scheduled Job Start: frappe.email.doctype.email_account.email_account.notify_unreplied for meeting.dev
2021-04-22 14:08:41,429 INFO scheduler Scheduled Job Complete: frappe.email.doctype.email_account.email_account.notify_unreplied for meeting.dev
2021-04-22 14:08:41,543 INFO scheduler Scheduled Job Start: frappe.email.doctype.email_account.email_account.pull for meeting.dev
2021-04-22 14:08:41,991 INFO scheduler Scheduled Job Complete: frappe.email.doctype.email_account.email_account.pull for meeting.dev
2021-04-22 14:08:42,091 INFO scheduler Scheduled Job Start: frappe.email.queue.flush for meeting.dev
2021-04-22 14:08:42,470 INFO scheduler Scheduled Job Complete: frappe.email.queue.flush for meeting.dev
2021-04-22 14:09:40,009 DEBUG scheduler Queued events for site meeting.dev
2021-04-22 14:10:40,306 DEBUG scheduler Queued events for site meeting.dev
2021-04-22 14:11:40,718 DEBUG scheduler Queued events for site meeting.dev
2021-04-22 14:12:41,027 DEBUG scheduler Queued events for site meeting.dev
2021-04-22 14:12:41,065 INFO scheduler Scheduled Job Start: frappe.monitor.flush for meeting.dev
2021-04-22 14:12:41,239 INFO scheduler Scheduled Job Complete: frappe.monitor.flush for meeting.dev
2021-04-22 14:12:41,337 INFO scheduler Scheduled Job Start: frappe.utils.global_search.sync_global_search for meeting.dev
2021-04-22 14:12:41,531 INFO scheduler Scheduled Job Complete: frappe.utils.global_search.sync_global_search for meeting.dev
2021-04-22 14:12:41,618 INFO scheduler Scheduled Job Start: frappe.integrations.doctype.razorpay_settings.razorpay_settings.capture_payment for meeting.dev
2021-04-22 14:12:42,071 INFO scheduler Scheduled Job Complete: frappe.integrations.doctype.razorpay_settings.razorpay_settings.capture_payment for meeting.dev
2021-04-22 14:12:42,155 INFO scheduler Scheduled Job Start: frappe.email.doctype.email_account.email_account.notify_unreplied for meeting.dev
2021-04-22 14:12:42,511 INFO scheduler Scheduled Job Complete: frappe.email.doctype.email_account.email_account.notify_unreplied for meeting.dev
2021-04-22 14:12:42,599 INFO scheduler Scheduled Job Start: frappe.email.doctype.email_account.email_account.pull for meeting.dev
2021-04-22 14:12:42,978 INFO scheduler Scheduled Job Complete: frappe.email.doctype.email_account.email_account.pull for meeting.dev
2021-04-22 14:12:43,057 INFO scheduler Scheduled Job Start: frappe.email.queue.flush for meeting.dev
2021-04-22 14:12:43,364 INFO scheduler Scheduled Job Complete: frappe.email.queue.flush for meeting.dev
2021-04-22 14:13:41,350 DEBUG scheduler Queued events for site meeting.dev
2021-04-22 14:14:41,621 DEBUG scheduler Queued events for site meeting.dev
2021-04-22 14:15:41,895 DEBUG scheduler Queued events for site meeting.dev
2021-04-22 14:15:41,966 INFO scheduler Scheduled Job Start: frappe.twofactor.delete_all_barcodes_for_users for meeting.dev
2021-04-22 14:15:42,524 INFO scheduler Scheduled Job Complete: frappe.twofactor.delete_all_barcodes_for_users for meeting.dev
2021-04-22 14:15:42,644 INFO scheduler Scheduled Job Start: frappe.website.doctype.web_page.web_page.check_publish_status for meeting.dev
2021-04-22 14:15:43,506 INFO scheduler Scheduled Job Complete: frappe.website.doctype.web_page.web_page.check_publish_status for meeting.dev
2021-04-22 14:15:43,615 INFO scheduler Scheduled Job Start: frappe.oauth.delete_oauth2_data for meeting.dev
2021-04-22 14:15:44,091 INFO scheduler Scheduled Job Complete: frappe.oauth.delete_oauth2_data for meeting.dev
2021-04-22 14:16:42,329 DEBUG scheduler Queued events for site meeting.dev
2021-04-22 14:16:42,372 INFO scheduler Scheduled Job Start: frappe.monitor.flush for meeting.dev
2021-04-22 14:16:42,599 INFO scheduler Scheduled Job Complete: frappe.monitor.flush for meeting.dev
2021-04-22 14:16:42,697 INFO scheduler Scheduled Job Start: frappe.utils.global_search.sync_global_search for meeting.dev
2021-04-22 14:16:42,907 INFO scheduler Scheduled Job Complete: frappe.utils.global_search.sync_global_search for meeting.dev
2021-04-22 14:16:43,014 INFO scheduler Scheduled Job Start: frappe.integrations.doctype.razorpay_settings.razorpay_settings.capture_payment for meeting.dev
2021-04-22 14:16:43,571 INFO scheduler Scheduled Job Complete: frappe.integrations.doctype.razorpay_settings.razorpay_settings.capture_payment for meeting.dev
2021-04-22 14:16:43,679 INFO scheduler Scheduled Job Start: frappe.email.doctype.email_account.email_account.notify_unreplied for meeting.dev
2021-04-22 14:16:44,055 INFO scheduler Scheduled Job Complete: frappe.email.doctype.email_account.email_account.notify_unreplied for meeting.dev
2021-04-22 14:16:44,140 INFO scheduler Scheduled Job Start: frappe.email.doctype.email_account.email_account.pull for meeting.dev
2021-04-22 14:16:44,560 INFO scheduler Scheduled Job Complete: frappe.email.doctype.email_account.email_account.pull for meeting.dev
2021-04-22 14:16:44,666 INFO scheduler Scheduled Job Start: frappe.email.queue.flush for meeting.dev
2021-04-22 14:16:45,031 INFO scheduler Scheduled Job Complete: frappe.email.queue.flush for meeting.dev
2021-04-22 14:17:42,639 DEBUG scheduler Queued events for site meeting.dev
2021-04-22 14:18:42,936 DEBUG scheduler Queued events for site meeting.dev
2021-04-22 14:19:43,210 DEBUG scheduler Queued events for site meeting.dev
2021-04-22 14:20:43,561 DEBUG scheduler Queued events for site meeting.dev
