2021-04-23 10:42:51,537 DEBUG scheduler Queued events for site meeting.dev
2021-04-23 10:43:51,776 DEBUG scheduler Queued events for site meeting.dev
2021-04-23 10:44:52,113 DEBUG scheduler Queued events for site meeting.dev
2021-04-23 10:44:52,145 INFO scheduler Scheduled Job Start: frappe.monitor.flush for meeting.dev
2021-04-23 10:44:52,313 INFO scheduler Scheduled Job Complete: frappe.monitor.flush for meeting.dev
2021-04-23 10:44:52,391 INFO scheduler Scheduled Job Start: frappe.utils.global_search.sync_global_search for meeting.dev
2021-04-23 10:44:52,545 INFO scheduler Scheduled Job Complete: frappe.utils.global_search.sync_global_search for meeting.dev
2021-04-23 10:44:52,640 INFO scheduler Scheduled Job Start: frappe.integrations.doctype.razorpay_settings.razorpay_settings.capture_payment for meeting.dev
2021-04-23 10:44:53,079 INFO scheduler Scheduled Job Complete: frappe.integrations.doctype.razorpay_settings.razorpay_settings.capture_payment for meeting.dev
2021-04-23 10:44:53,150 INFO scheduler Scheduled Job Start: frappe.email.doctype.email_account.email_account.notify_unreplied for meeting.dev
2021-04-23 10:44:53,454 INFO scheduler Scheduled Job Complete: frappe.email.doctype.email_account.email_account.notify_unreplied for meeting.dev
2021-04-23 10:44:53,530 INFO scheduler Scheduled Job Start: frappe.email.doctype.email_account.email_account.pull for meeting.dev
2021-04-23 10:44:53,915 INFO scheduler Scheduled Job Complete: frappe.email.doctype.email_account.email_account.pull for meeting.dev
2021-04-23 10:44:53,991 INFO scheduler Scheduled Job Start: frappe.email.queue.flush for meeting.dev
2021-04-23 10:44:54,282 INFO scheduler Scheduled Job Complete: frappe.email.queue.flush for meeting.dev
2021-04-23 10:45:52,425 DEBUG scheduler Queued events for site meeting.dev
2021-04-23 10:45:52,507 INFO scheduler Scheduled Job Start: frappe.twofactor.delete_all_barcodes_for_users for meeting.dev
2021-04-23 10:45:53,012 INFO scheduler Scheduled Job Complete: frappe.twofactor.delete_all_barcodes_for_users for meeting.dev
2021-04-23 10:45:53,098 INFO scheduler Scheduled Job Start: frappe.website.doctype.web_page.web_page.check_publish_status for meeting.dev
2021-04-23 10:45:53,568 INFO scheduler Scheduled Job Complete: frappe.website.doctype.web_page.web_page.check_publish_status for meeting.dev
2021-04-23 10:45:53,654 INFO scheduler Scheduled Job Start: frappe.oauth.delete_oauth2_data for meeting.dev
2021-04-23 10:45:54,056 INFO scheduler Scheduled Job Complete: frappe.oauth.delete_oauth2_data for meeting.dev
2021-04-23 10:46:52,749 DEBUG scheduler Queued events for site meeting.dev
2021-04-23 10:47:52,991 DEBUG scheduler Queued events for site meeting.dev
2021-04-23 10:48:53,257 DEBUG scheduler Queued events for site meeting.dev
2021-04-23 10:48:53,293 INFO scheduler Scheduled Job Start: frappe.monitor.flush for meeting.dev
2021-04-23 10:48:53,451 INFO scheduler Scheduled Job Complete: frappe.monitor.flush for meeting.dev
2021-04-23 10:48:53,527 INFO scheduler Scheduled Job Start: frappe.utils.global_search.sync_global_search for meeting.dev
2021-04-23 10:48:53,681 INFO scheduler Scheduled Job Complete: frappe.utils.global_search.sync_global_search for meeting.dev
2021-04-23 10:48:53,756 INFO scheduler Scheduled Job Start: frappe.integrations.doctype.razorpay_settings.razorpay_settings.capture_payment for meeting.dev
2021-04-23 10:48:54,163 INFO scheduler Scheduled Job Complete: frappe.integrations.doctype.razorpay_settings.razorpay_settings.capture_payment for meeting.dev
2021-04-23 10:48:54,237 INFO scheduler Scheduled Job Start: frappe.email.doctype.email_account.email_account.notify_unreplied for meeting.dev
2021-04-23 10:48:54,554 INFO scheduler Scheduled Job Complete: frappe.email.doctype.email_account.email_account.notify_unreplied for meeting.dev
2021-04-23 10:48:54,627 INFO scheduler Scheduled Job Start: frappe.email.doctype.email_account.email_account.pull for meeting.dev
2021-04-23 10:48:55,014 INFO scheduler Scheduled Job Complete: frappe.email.doctype.email_account.email_account.pull for meeting.dev
2021-04-23 10:48:55,088 INFO scheduler Scheduled Job Start: frappe.email.queue.flush for meeting.dev
2021-04-23 10:48:55,415 INFO scheduler Scheduled Job Complete: frappe.email.queue.flush for meeting.dev
2021-04-23 10:49:53,520 DEBUG scheduler Queued events for site meeting.dev
2021-04-23 10:50:53,768 DEBUG scheduler Queued events for site meeting.dev
2021-04-23 10:51:54,017 DEBUG scheduler Queued events for site meeting.dev
2021-04-23 10:52:54,385 DEBUG scheduler Queued events for site meeting.dev
2021-04-23 10:52:54,415 INFO scheduler Scheduled Job Start: frappe.monitor.flush for meeting.dev
2021-04-23 10:52:54,647 INFO scheduler Scheduled Job Complete: frappe.monitor.flush for meeting.dev
2021-04-23 10:52:54,748 INFO scheduler Scheduled Job Start: frappe.utils.global_search.sync_global_search for meeting.dev
2021-04-23 10:52:54,958 INFO scheduler Scheduled Job Complete: frappe.utils.global_search.sync_global_search for meeting.dev
2021-04-23 10:52:55,077 INFO scheduler Scheduled Job Start: frappe.integrations.doctype.razorpay_settings.razorpay_settings.capture_payment for meeting.dev
2021-04-23 10:52:55,623 INFO scheduler Scheduled Job Complete: frappe.integrations.doctype.razorpay_settings.razorpay_settings.capture_payment for meeting.dev
2021-04-23 10:52:55,714 INFO scheduler Scheduled Job Start: frappe.email.doctype.email_account.email_account.notify_unreplied for meeting.dev
2021-04-23 10:52:56,106 INFO scheduler Scheduled Job Complete: frappe.email.doctype.email_account.email_account.notify_unreplied for meeting.dev
2021-04-23 10:52:56,209 INFO scheduler Scheduled Job Start: frappe.email.doctype.email_account.email_account.pull for meeting.dev
2021-04-23 10:52:56,666 INFO scheduler Scheduled Job Complete: frappe.email.doctype.email_account.email_account.pull for meeting.dev
2021-04-23 10:52:56,768 INFO scheduler Scheduled Job Start: frappe.email.queue.flush for meeting.dev
2021-04-23 10:52:57,266 INFO scheduler Scheduled Job Complete: frappe.email.queue.flush for meeting.dev
2021-04-23 10:53:54,655 DEBUG scheduler Queued events for site meeting.dev
2021-04-23 10:54:54,974 DEBUG scheduler Queued events for site meeting.dev
2021-04-23 10:55:55,304 DEBUG scheduler Queued events for site meeting.dev
2021-04-23 10:56:55,596 DEBUG scheduler Queued events for site meeting.dev
2021-04-23 10:56:55,630 INFO scheduler Scheduled Job Start: frappe.monitor.flush for meeting.dev
2021-04-23 10:56:55,787 INFO scheduler Scheduled Job Complete: frappe.monitor.flush for meeting.dev
2021-04-23 10:56:55,861 INFO scheduler Scheduled Job Start: frappe.utils.global_search.sync_global_search for meeting.dev
2021-04-23 10:56:56,017 INFO scheduler Scheduled Job Complete: frappe.utils.global_search.sync_global_search for meeting.dev
2021-04-23 10:56:56,091 INFO scheduler Scheduled Job Start: frappe.integrations.doctype.razorpay_settings.razorpay_settings.capture_payment for meeting.dev
2021-04-23 10:56:56,479 INFO scheduler Scheduled Job Complete: frappe.integrations.doctype.razorpay_settings.razorpay_settings.capture_payment for meeting.dev
2021-04-23 10:56:56,550 INFO scheduler Scheduled Job Start: frappe.email.doctype.email_account.email_account.notify_unreplied for meeting.dev
2021-04-23 10:56:56,890 INFO scheduler Scheduled Job Complete: frappe.email.doctype.email_account.email_account.notify_unreplied for meeting.dev
2021-04-23 10:56:56,970 INFO scheduler Scheduled Job Start: frappe.email.doctype.email_account.email_account.pull for meeting.dev
2021-04-23 10:56:57,307 INFO scheduler Scheduled Job Complete: frappe.email.doctype.email_account.email_account.pull for meeting.dev
2021-04-23 10:56:57,393 INFO scheduler Scheduled Job Start: frappe.email.queue.flush for meeting.dev
2021-04-23 10:56:57,712 INFO scheduler Scheduled Job Complete: frappe.email.queue.flush for meeting.dev
2021-04-23 10:57:55,884 DEBUG scheduler Queued events for site meeting.dev
2021-04-23 10:58:56,134 DEBUG scheduler Queued events for site meeting.dev
2021-04-23 10:59:56,373 DEBUG scheduler Queued events for site meeting.dev
2021-04-23 11:00:56,705 INFO scheduler Scheduled Job Start: frappe.email.doctype.newsletter.newsletter.send_scheduled_email for meeting.dev
2021-04-23 11:00:56,807 DEBUG scheduler Queued events for site meeting.dev
2021-04-23 11:00:57,360 INFO scheduler Scheduled Job Complete: frappe.email.doctype.newsletter.newsletter.send_scheduled_email for meeting.dev
2021-04-23 11:00:57,454 INFO scheduler Scheduled Job Start: frappe.integrations.doctype.google_calendar.google_calendar.sync for meeting.dev
2021-04-23 11:00:58,086 INFO scheduler Scheduled Job Complete: frappe.integrations.doctype.google_calendar.google_calendar.sync for meeting.dev
2021-04-23 11:00:58,215 INFO scheduler Scheduled Job Start: frappe.desk.form.document_follow.send_hourly_updates for meeting.dev
2021-04-23 11:00:58,738 INFO scheduler Scheduled Job Complete: frappe.desk.form.document_follow.send_hourly_updates for meeting.dev
2021-04-23 11:00:58,825 INFO scheduler Scheduled Job Start: frappe.deferred_insert.save_to_db for meeting.dev
2021-04-23 11:00:59,264 INFO scheduler Scheduled Job Complete: frappe.deferred_insert.save_to_db for meeting.dev
2021-04-23 11:00:59,395 INFO scheduler Scheduled Job Start: frappe.desk.page.backups.backups.delete_downloadable_backups for meeting.dev
2021-04-23 11:01:00,149 INFO scheduler Scheduled Job Complete: frappe.desk.page.backups.backups.delete_downloadable_backups for meeting.dev
2021-04-23 11:01:00,290 INFO scheduler Scheduled Job Start: frappe.utils.error.collect_error_snapshots for meeting.dev
2021-04-23 11:01:00,784 INFO scheduler Scheduled Job Complete: frappe.utils.error.collect_error_snapshots for meeting.dev
2021-04-23 11:01:00,880 INFO scheduler Scheduled Job Start: frappe.model.utils.user_settings.sync_user_settings for meeting.dev
2021-04-23 11:01:01,301 INFO scheduler Scheduled Job Complete: frappe.model.utils.user_settings.sync_user_settings for meeting.dev
2021-04-23 11:01:01,449 INFO scheduler Scheduled Job Start: frappe.model.utils.link_count.update_link_count for meeting.dev
2021-04-23 11:01:01,930 INFO scheduler Scheduled Job Complete: frappe.model.utils.link_count.update_link_count for meeting.dev
2021-04-23 11:01:02,056 INFO scheduler Scheduled Job Start: frappe.monitor.flush for meeting.dev
2021-04-23 11:01:02,281 INFO scheduler Scheduled Job Complete: frappe.monitor.flush for meeting.dev
2021-04-23 11:01:02,374 INFO scheduler Scheduled Job Start: frappe.utils.global_search.sync_global_search for meeting.dev
2021-04-23 11:01:02,537 INFO scheduler Scheduled Job Complete: frappe.utils.global_search.sync_global_search for meeting.dev
2021-04-23 11:01:02,614 INFO scheduler Scheduled Job Start: frappe.integrations.doctype.razorpay_settings.razorpay_settings.capture_payment for meeting.dev
2021-04-23 11:01:03,029 INFO scheduler Scheduled Job Complete: frappe.integrations.doctype.razorpay_settings.razorpay_settings.capture_payment for meeting.dev
2021-04-23 11:01:03,115 INFO scheduler Scheduled Job Start: frappe.email.doctype.email_account.email_account.notify_unreplied for meeting.dev
2021-04-23 11:01:03,461 INFO scheduler Scheduled Job Complete: frappe.email.doctype.email_account.email_account.notify_unreplied for meeting.dev
2021-04-23 11:01:03,541 INFO scheduler Scheduled Job Start: frappe.email.doctype.email_account.email_account.pull for meeting.dev
2021-04-23 11:01:03,933 INFO scheduler Scheduled Job Complete: frappe.email.doctype.email_account.email_account.pull for meeting.dev
2021-04-23 11:01:04,008 INFO scheduler Scheduled Job Start: frappe.email.queue.flush for meeting.dev
2021-04-23 11:01:04,353 INFO scheduler Scheduled Job Complete: frappe.email.queue.flush for meeting.dev
2021-04-23 11:01:04,458 INFO scheduler Scheduled Job Start: frappe.twofactor.delete_all_barcodes_for_users for meeting.dev
2021-04-23 11:01:04,962 INFO scheduler Scheduled Job Complete: frappe.twofactor.delete_all_barcodes_for_users for meeting.dev
2021-04-23 11:01:05,098 INFO scheduler Scheduled Job Start: frappe.website.doctype.web_page.web_page.check_publish_status for meeting.dev
2021-04-23 11:01:05,739 INFO scheduler Scheduled Job Complete: frappe.website.doctype.web_page.web_page.check_publish_status for meeting.dev
2021-04-23 11:01:05,830 INFO scheduler Scheduled Job Start: frappe.oauth.delete_oauth2_data for meeting.dev
2021-04-23 11:01:06,345 INFO scheduler Scheduled Job Complete: frappe.oauth.delete_oauth2_data for meeting.dev
2021-04-23 11:01:57,199 DEBUG scheduler Queued events for site meeting.dev
2021-04-23 11:02:57,454 DEBUG scheduler Queued events for site meeting.dev
2021-04-23 11:03:57,777 DEBUG scheduler Queued events for site meeting.dev
2021-04-23 11:04:58,078 DEBUG scheduler Queued events for site meeting.dev
2021-04-23 11:04:58,110 INFO scheduler Scheduled Job Start: frappe.monitor.flush for meeting.dev
2021-04-23 11:04:58,266 INFO scheduler Scheduled Job Complete: frappe.monitor.flush for meeting.dev
2021-04-23 11:04:58,336 INFO scheduler Scheduled Job Start: frappe.utils.global_search.sync_global_search for meeting.dev
2021-04-23 11:04:58,487 INFO scheduler Scheduled Job Complete: frappe.utils.global_search.sync_global_search for meeting.dev
2021-04-23 11:04:58,563 INFO scheduler Scheduled Job Start: frappe.integrations.doctype.razorpay_settings.razorpay_settings.capture_payment for meeting.dev
2021-04-23 11:04:58,944 INFO scheduler Scheduled Job Complete: frappe.integrations.doctype.razorpay_settings.razorpay_settings.capture_payment for meeting.dev
2021-04-23 11:04:59,017 INFO scheduler Scheduled Job Start: frappe.email.doctype.email_account.email_account.notify_unreplied for meeting.dev
2021-04-23 11:04:59,412 INFO scheduler Scheduled Job Complete: frappe.email.doctype.email_account.email_account.notify_unreplied for meeting.dev
2021-04-23 11:04:59,491 INFO scheduler Scheduled Job Start: frappe.email.doctype.email_account.email_account.pull for meeting.dev
2021-04-23 11:04:59,919 INFO scheduler Scheduled Job Complete: frappe.email.doctype.email_account.email_account.pull for meeting.dev
2021-04-23 11:04:59,991 INFO scheduler Scheduled Job Start: frappe.email.queue.flush for meeting.dev
2021-04-23 11:05:00,288 INFO scheduler Scheduled Job Complete: frappe.email.queue.flush for meeting.dev
2021-04-23 11:05:58,331 DEBUG scheduler Queued events for site meeting.dev
2021-04-23 11:06:58,567 DEBUG scheduler Queued events for site meeting.dev
2021-04-23 11:07:58,805 DEBUG scheduler Queued events for site meeting.dev
2021-04-23 11:08:59,076 DEBUG scheduler Queued events for site meeting.dev
2021-04-23 11:08:59,111 INFO scheduler Scheduled Job Start: frappe.monitor.flush for meeting.dev
2021-04-23 11:08:59,275 INFO scheduler Scheduled Job Complete: frappe.monitor.flush for meeting.dev
2021-04-23 11:08:59,356 INFO scheduler Scheduled Job Start: frappe.utils.global_search.sync_global_search for meeting.dev
2021-04-23 11:08:59,526 INFO scheduler Scheduled Job Complete: frappe.utils.global_search.sync_global_search for meeting.dev
2021-04-23 11:08:59,605 INFO scheduler Scheduled Job Start: frappe.integrations.doctype.razorpay_settings.razorpay_settings.capture_payment for meeting.dev
2021-04-23 11:09:00,024 INFO scheduler Scheduled Job Complete: frappe.integrations.doctype.razorpay_settings.razorpay_settings.capture_payment for meeting.dev
2021-04-23 11:09:00,188 INFO scheduler Scheduled Job Start: frappe.email.doctype.email_account.email_account.notify_unreplied for meeting.dev
2021-04-23 11:09:00,526 INFO scheduler Scheduled Job Complete: frappe.email.doctype.email_account.email_account.notify_unreplied for meeting.dev
2021-04-23 11:09:00,605 INFO scheduler Scheduled Job Start: frappe.email.doctype.email_account.email_account.pull for meeting.dev
2021-04-23 11:09:00,947 INFO scheduler Scheduled Job Complete: frappe.email.doctype.email_account.email_account.pull for meeting.dev
2021-04-23 11:09:01,025 INFO scheduler Scheduled Job Start: frappe.email.queue.flush for meeting.dev
2021-04-23 11:09:01,342 INFO scheduler Scheduled Job Complete: frappe.email.queue.flush for meeting.dev
2021-04-23 11:09:59,367 DEBUG scheduler Queued events for site meeting.dev
2021-04-23 11:10:59,640 DEBUG scheduler Queued events for site meeting.dev
2021-04-23 11:11:59,938 DEBUG scheduler Queued events for site meeting.dev
2021-04-23 11:13:00,332 DEBUG scheduler Queued events for site meeting.dev
2021-04-23 11:13:00,368 INFO scheduler Scheduled Job Start: frappe.monitor.flush for meeting.dev
2021-04-23 11:13:00,591 INFO scheduler Scheduled Job Complete: frappe.monitor.flush for meeting.dev
2021-04-23 11:13:00,703 INFO scheduler Scheduled Job Start: frappe.utils.global_search.sync_global_search for meeting.dev
2021-04-23 11:13:00,924 INFO scheduler Scheduled Job Complete: frappe.utils.global_search.sync_global_search for meeting.dev
2021-04-23 11:13:01,034 INFO scheduler Scheduled Job Start: frappe.integrations.doctype.razorpay_settings.razorpay_settings.capture_payment for meeting.dev
2021-04-23 11:13:01,605 INFO scheduler Scheduled Job Complete: frappe.integrations.doctype.razorpay_settings.razorpay_settings.capture_payment for meeting.dev
2021-04-23 11:13:01,682 INFO scheduler Scheduled Job Start: frappe.email.doctype.email_account.email_account.notify_unreplied for meeting.dev
2021-04-23 11:13:02,035 INFO scheduler Scheduled Job Complete: frappe.email.doctype.email_account.email_account.notify_unreplied for meeting.dev
2021-04-23 11:13:02,107 INFO scheduler Scheduled Job Start: frappe.email.doctype.email_account.email_account.pull for meeting.dev
2021-04-23 11:13:02,450 INFO scheduler Scheduled Job Complete: frappe.email.doctype.email_account.email_account.pull for meeting.dev
2021-04-23 11:13:02,532 INFO scheduler Scheduled Job Start: frappe.email.queue.flush for meeting.dev
2021-04-23 11:13:02,835 INFO scheduler Scheduled Job Complete: frappe.email.queue.flush for meeting.dev
2021-04-23 11:14:00,612 DEBUG scheduler Queued events for site meeting.dev
2021-04-23 11:15:00,874 DEBUG scheduler Queued events for site meeting.dev
2021-04-23 11:15:00,943 INFO scheduler Scheduled Job Start: frappe.twofactor.delete_all_barcodes_for_users for meeting.dev
2021-04-23 11:15:01,408 INFO scheduler Scheduled Job Complete: frappe.twofactor.delete_all_barcodes_for_users for meeting.dev
2021-04-23 11:15:01,493 INFO scheduler Scheduled Job Start: frappe.website.doctype.web_page.web_page.check_publish_status for meeting.dev
2021-04-23 11:15:02,007 INFO scheduler Scheduled Job Complete: frappe.website.doctype.web_page.web_page.check_publish_status for meeting.dev
2021-04-23 11:15:02,106 INFO scheduler Scheduled Job Start: frappe.oauth.delete_oauth2_data for meeting.dev
2021-04-23 11:15:02,563 INFO scheduler Scheduled Job Complete: frappe.oauth.delete_oauth2_data for meeting.dev
2021-04-23 11:16:01,414 DEBUG scheduler Queued events for site meeting.dev
2021-04-23 11:16:01,452 INFO scheduler Scheduled Job Start: frappe.monitor.flush for meeting.dev
2021-04-23 11:16:01,768 INFO scheduler Scheduled Job Complete: frappe.monitor.flush for meeting.dev
2021-04-23 11:16:01,872 INFO scheduler Scheduled Job Start: frappe.utils.global_search.sync_global_search for meeting.dev
2021-04-23 11:16:02,067 INFO scheduler Scheduled Job Complete: frappe.utils.global_search.sync_global_search for meeting.dev
2021-04-23 11:16:02,151 INFO scheduler Scheduled Job Start: frappe.integrations.doctype.razorpay_settings.razorpay_settings.capture_payment for meeting.dev
2021-04-23 11:16:02,701 INFO scheduler Scheduled Job Complete: frappe.integrations.doctype.razorpay_settings.razorpay_settings.capture_payment for meeting.dev
2021-04-23 11:16:02,788 INFO scheduler Scheduled Job Start: frappe.email.doctype.email_account.email_account.notify_unreplied for meeting.dev
2021-04-23 11:16:03,279 INFO scheduler Scheduled Job Complete: frappe.email.doctype.email_account.email_account.notify_unreplied for meeting.dev
2021-04-23 11:16:03,393 INFO scheduler Scheduled Job Start: frappe.email.doctype.email_account.email_account.pull for meeting.dev
2021-04-23 11:16:04,095 INFO scheduler Scheduled Job Complete: frappe.email.doctype.email_account.email_account.pull for meeting.dev
2021-04-23 11:16:04,262 INFO scheduler Scheduled Job Start: frappe.email.queue.flush for meeting.dev
2021-04-23 11:16:04,815 INFO scheduler Scheduled Job Complete: frappe.email.queue.flush for meeting.dev
2021-04-23 11:17:01,727 DEBUG scheduler Queued events for site meeting.dev
2021-04-23 11:18:02,009 DEBUG scheduler Queued events for site meeting.dev
2021-04-23 11:19:02,278 DEBUG scheduler Queued events for site meeting.dev
2021-04-23 11:20:02,794 DEBUG scheduler Queued events for site meeting.dev
2021-04-23 11:20:02,860 INFO scheduler Scheduled Job Start: frappe.monitor.flush for meeting.dev
2021-04-23 11:20:03,218 INFO scheduler Scheduled Job Complete: frappe.monitor.flush for meeting.dev
2021-04-23 11:20:03,377 INFO scheduler Scheduled Job Start: frappe.utils.global_search.sync_global_search for meeting.dev
2021-04-23 11:20:03,773 INFO scheduler Scheduled Job Complete: frappe.utils.global_search.sync_global_search for meeting.dev
2021-04-23 11:20:03,943 INFO scheduler Scheduled Job Start: frappe.integrations.doctype.razorpay_settings.razorpay_settings.capture_payment for meeting.dev
2021-04-23 11:20:04,850 INFO scheduler Scheduled Job Complete: frappe.integrations.doctype.razorpay_settings.razorpay_settings.capture_payment for meeting.dev
2021-04-23 11:20:05,024 INFO scheduler Scheduled Job Start: frappe.email.doctype.email_account.email_account.notify_unreplied for meeting.dev
2021-04-23 11:20:05,680 INFO scheduler Scheduled Job Complete: frappe.email.doctype.email_account.email_account.notify_unreplied for meeting.dev
2021-04-23 11:20:05,861 INFO scheduler Scheduled Job Start: frappe.email.doctype.email_account.email_account.pull for meeting.dev
2021-04-23 11:20:06,617 INFO scheduler Scheduled Job Complete: frappe.email.doctype.email_account.email_account.pull for meeting.dev
2021-04-23 11:20:06,797 INFO scheduler Scheduled Job Start: frappe.email.queue.flush for meeting.dev
2021-04-23 11:20:07,446 INFO scheduler Scheduled Job Complete: frappe.email.queue.flush for meeting.dev
2021-04-23 11:21:03,270 DEBUG scheduler Queued events for site meeting.dev
2021-04-23 11:22:03,604 DEBUG scheduler Queued events for site meeting.dev
2021-04-23 11:23:03,894 DEBUG scheduler Queued events for site meeting.dev
2021-04-23 11:24:04,255 DEBUG scheduler Queued events for site meeting.dev
2021-04-23 11:24:04,280 INFO scheduler Scheduled Job Start: frappe.monitor.flush for meeting.dev
2021-04-23 11:24:04,461 INFO scheduler Scheduled Job Complete: frappe.monitor.flush for meeting.dev
2021-04-23 11:24:04,541 INFO scheduler Scheduled Job Start: frappe.utils.global_search.sync_global_search for meeting.dev
2021-04-23 11:24:04,733 INFO scheduler Scheduled Job Complete: frappe.utils.global_search.sync_global_search for meeting.dev
2021-04-23 11:24:04,816 INFO scheduler Scheduled Job Start: frappe.integrations.doctype.razorpay_settings.razorpay_settings.capture_payment for meeting.dev
2021-04-23 11:24:05,298 INFO scheduler Scheduled Job Complete: frappe.integrations.doctype.razorpay_settings.razorpay_settings.capture_payment for meeting.dev
2021-04-23 11:24:05,382 INFO scheduler Scheduled Job Start: frappe.email.doctype.email_account.email_account.notify_unreplied for meeting.dev
2021-04-23 11:24:05,786 INFO scheduler Scheduled Job Complete: frappe.email.doctype.email_account.email_account.notify_unreplied for meeting.dev
2021-04-23 11:24:05,872 INFO scheduler Scheduled Job Start: frappe.email.doctype.email_account.email_account.pull for meeting.dev
2021-04-23 11:24:06,311 INFO scheduler Scheduled Job Complete: frappe.email.doctype.email_account.email_account.pull for meeting.dev
2021-04-23 11:24:06,395 INFO scheduler Scheduled Job Start: frappe.email.queue.flush for meeting.dev
2021-04-23 11:24:06,738 INFO scheduler Scheduled Job Complete: frappe.email.queue.flush for meeting.dev
2021-04-23 11:25:04,538 DEBUG scheduler Queued events for site meeting.dev
2021-04-23 11:26:04,842 DEBUG scheduler Queued events for site meeting.dev
2021-04-23 11:27:05,272 DEBUG scheduler Queued events for site meeting.dev
2021-04-23 11:28:05,649 DEBUG scheduler Queued events for site meeting.dev
2021-04-23 11:28:05,698 INFO scheduler Scheduled Job Start: frappe.monitor.flush for meeting.dev
2021-04-23 11:28:05,903 INFO scheduler Scheduled Job Complete: frappe.monitor.flush for meeting.dev
2021-04-23 11:28:06,007 INFO scheduler Scheduled Job Start: frappe.utils.global_search.sync_global_search for meeting.dev
2021-04-23 11:28:06,219 INFO scheduler Scheduled Job Complete: frappe.utils.global_search.sync_global_search for meeting.dev
2021-04-23 11:28:06,318 INFO scheduler Scheduled Job Start: frappe.integrations.doctype.razorpay_settings.razorpay_settings.capture_payment for meeting.dev
2021-04-23 11:28:06,856 INFO scheduler Scheduled Job Complete: frappe.integrations.doctype.razorpay_settings.razorpay_settings.capture_payment for meeting.dev
2021-04-23 11:28:06,963 INFO scheduler Scheduled Job Start: frappe.email.doctype.email_account.email_account.notify_unreplied for meeting.dev
2021-04-23 11:28:07,385 INFO scheduler Scheduled Job Complete: frappe.email.doctype.email_account.email_account.notify_unreplied for meeting.dev
2021-04-23 11:28:07,486 INFO scheduler Scheduled Job Start: frappe.email.doctype.email_account.email_account.pull for meeting.dev
2021-04-23 11:28:07,927 INFO scheduler Scheduled Job Complete: frappe.email.doctype.email_account.email_account.pull for meeting.dev
2021-04-23 11:28:08,029 INFO scheduler Scheduled Job Start: frappe.email.queue.flush for meeting.dev
2021-04-23 11:28:08,391 INFO scheduler Scheduled Job Complete: frappe.email.queue.flush for meeting.dev
2021-04-23 11:29:05,987 DEBUG scheduler Queued events for site meeting.dev
2021-04-23 11:30:06,310 DEBUG scheduler Queued events for site meeting.dev
2021-04-23 11:30:06,380 INFO scheduler Scheduled Job Start: frappe.twofactor.delete_all_barcodes_for_users for meeting.dev
2021-04-23 11:30:06,990 INFO scheduler Scheduled Job Complete: frappe.twofactor.delete_all_barcodes_for_users for meeting.dev
2021-04-23 11:30:07,105 INFO scheduler Scheduled Job Start: frappe.website.doctype.web_page.web_page.check_publish_status for meeting.dev
2021-04-23 11:30:07,791 INFO scheduler Scheduled Job Complete: frappe.website.doctype.web_page.web_page.check_publish_status for meeting.dev
2021-04-23 11:30:07,911 INFO scheduler Scheduled Job Start: frappe.oauth.delete_oauth2_data for meeting.dev
2021-04-23 11:30:08,459 INFO scheduler Scheduled Job Complete: frappe.oauth.delete_oauth2_data for meeting.dev
2021-04-23 11:31:06,629 DEBUG scheduler Queued events for site meeting.dev
2021-04-23 11:32:06,968 DEBUG scheduler Queued events for site meeting.dev
2021-04-23 11:32:07,017 INFO scheduler Scheduled Job Start: frappe.monitor.flush for meeting.dev
2021-04-23 11:32:07,246 INFO scheduler Scheduled Job Complete: frappe.monitor.flush for meeting.dev
2021-04-23 11:32:07,323 INFO scheduler Scheduled Job Start: frappe.utils.global_search.sync_global_search for meeting.dev
2021-04-23 11:32:07,499 INFO scheduler Scheduled Job Complete: frappe.utils.global_search.sync_global_search for meeting.dev
2021-04-23 11:32:07,616 INFO scheduler Scheduled Job Start: frappe.integrations.doctype.razorpay_settings.razorpay_settings.capture_payment for meeting.dev
2021-04-23 11:32:08,140 INFO scheduler Scheduled Job Complete: frappe.integrations.doctype.razorpay_settings.razorpay_settings.capture_payment for meeting.dev
2021-04-23 11:32:08,265 INFO scheduler Scheduled Job Start: frappe.email.doctype.email_account.email_account.notify_unreplied for meeting.dev
2021-04-23 11:32:08,734 INFO scheduler Scheduled Job Complete: frappe.email.doctype.email_account.email_account.notify_unreplied for meeting.dev
2021-04-23 11:32:08,808 INFO scheduler Scheduled Job Start: frappe.email.doctype.email_account.email_account.pull for meeting.dev
2021-04-23 11:32:09,171 INFO scheduler Scheduled Job Complete: frappe.email.doctype.email_account.email_account.pull for meeting.dev
2021-04-23 11:32:09,254 INFO scheduler Scheduled Job Start: frappe.email.queue.flush for meeting.dev
2021-04-23 11:32:09,545 INFO scheduler Scheduled Job Complete: frappe.email.queue.flush for meeting.dev
2021-04-23 11:33:07,235 DEBUG scheduler Queued events for site meeting.dev
2021-04-23 11:34:07,471 DEBUG scheduler Queued events for site meeting.dev
2021-04-23 11:35:07,714 DEBUG scheduler Queued events for site meeting.dev
2021-04-23 11:36:08,019 DEBUG scheduler Queued events for site meeting.dev
2021-04-23 11:36:08,065 INFO scheduler Scheduled Job Start: frappe.monitor.flush for meeting.dev
2021-04-23 11:36:08,284 INFO scheduler Scheduled Job Complete: frappe.monitor.flush for meeting.dev
2021-04-23 11:36:08,376 INFO scheduler Scheduled Job Start: frappe.utils.global_search.sync_global_search for meeting.dev
2021-04-23 11:36:08,549 INFO scheduler Scheduled Job Complete: frappe.utils.global_search.sync_global_search for meeting.dev
2021-04-23 11:36:08,637 INFO scheduler Scheduled Job Start: frappe.integrations.doctype.razorpay_settings.razorpay_settings.capture_payment for meeting.dev
2021-04-23 11:36:09,068 INFO scheduler Scheduled Job Complete: frappe.integrations.doctype.razorpay_settings.razorpay_settings.capture_payment for meeting.dev
2021-04-23 11:36:09,143 INFO scheduler Scheduled Job Start: frappe.email.doctype.email_account.email_account.notify_unreplied for meeting.dev
2021-04-23 11:36:09,524 INFO scheduler Scheduled Job Complete: frappe.email.doctype.email_account.email_account.notify_unreplied for meeting.dev
2021-04-23 11:36:09,595 INFO scheduler Scheduled Job Start: frappe.email.doctype.email_account.email_account.pull for meeting.dev
2021-04-23 11:36:09,929 INFO scheduler Scheduled Job Complete: frappe.email.doctype.email_account.email_account.pull for meeting.dev
2021-04-23 11:36:09,999 INFO scheduler Scheduled Job Start: frappe.email.queue.flush for meeting.dev
2021-04-23 11:36:10,260 INFO scheduler Scheduled Job Complete: frappe.email.queue.flush for meeting.dev
2021-04-23 11:37:08,307 DEBUG scheduler Queued events for site meeting.dev
2021-04-23 11:38:08,555 DEBUG scheduler Queued events for site meeting.dev
2021-04-23 11:39:08,859 DEBUG scheduler Queued events for site meeting.dev
2021-04-23 11:40:09,120 DEBUG scheduler Queued events for site meeting.dev
2021-04-23 11:40:09,154 INFO scheduler Scheduled Job Start: frappe.monitor.flush for meeting.dev
2021-04-23 11:40:09,310 INFO scheduler Scheduled Job Complete: frappe.monitor.flush for meeting.dev
2021-04-23 11:40:09,382 INFO scheduler Scheduled Job Start: frappe.utils.global_search.sync_global_search for meeting.dev
2021-04-23 11:40:09,537 INFO scheduler Scheduled Job Complete: frappe.utils.global_search.sync_global_search for meeting.dev
2021-04-23 11:40:09,611 INFO scheduler Scheduled Job Start: frappe.integrations.doctype.razorpay_settings.razorpay_settings.capture_payment for meeting.dev
2021-04-23 11:40:09,991 INFO scheduler Scheduled Job Complete: frappe.integrations.doctype.razorpay_settings.razorpay_settings.capture_payment for meeting.dev
2021-04-23 11:40:10,060 INFO scheduler Scheduled Job Start: frappe.email.doctype.email_account.email_account.notify_unreplied for meeting.dev
2021-04-23 11:40:10,364 INFO scheduler Scheduled Job Complete: frappe.email.doctype.email_account.email_account.notify_unreplied for meeting.dev
2021-04-23 11:40:10,438 INFO scheduler Scheduled Job Start: frappe.email.doctype.email_account.email_account.pull for meeting.dev
2021-04-23 11:40:10,781 INFO scheduler Scheduled Job Complete: frappe.email.doctype.email_account.email_account.pull for meeting.dev
2021-04-23 11:40:10,854 INFO scheduler Scheduled Job Start: frappe.email.queue.flush for meeting.dev
2021-04-23 11:40:11,138 INFO scheduler Scheduled Job Complete: frappe.email.queue.flush for meeting.dev
2021-04-23 11:41:09,381 DEBUG scheduler Queued events for site meeting.dev
2021-04-23 11:42:09,610 DEBUG scheduler Queued events for site meeting.dev
2021-04-23 11:43:09,845 DEBUG scheduler Queued events for site meeting.dev
2021-04-23 11:44:10,123 DEBUG scheduler Queued events for site meeting.dev
2021-04-23 11:44:10,168 INFO scheduler Scheduled Job Start: frappe.monitor.flush for meeting.dev
2021-04-23 11:44:10,326 INFO scheduler Scheduled Job Complete: frappe.monitor.flush for meeting.dev
2021-04-23 11:44:10,399 INFO scheduler Scheduled Job Start: frappe.utils.global_search.sync_global_search for meeting.dev
2021-04-23 11:44:10,551 INFO scheduler Scheduled Job Complete: frappe.utils.global_search.sync_global_search for meeting.dev
2021-04-23 11:44:10,626 INFO scheduler Scheduled Job Start: frappe.integrations.doctype.razorpay_settings.razorpay_settings.capture_payment for meeting.dev
2021-04-23 11:44:11,017 INFO scheduler Scheduled Job Complete: frappe.integrations.doctype.razorpay_settings.razorpay_settings.capture_payment for meeting.dev
2021-04-23 11:44:11,087 INFO scheduler Scheduled Job Start: frappe.email.doctype.email_account.email_account.notify_unreplied for meeting.dev
2021-04-23 11:44:11,394 INFO scheduler Scheduled Job Complete: frappe.email.doctype.email_account.email_account.notify_unreplied for meeting.dev
2021-04-23 11:44:11,465 INFO scheduler Scheduled Job Start: frappe.email.doctype.email_account.email_account.pull for meeting.dev
2021-04-23 11:44:11,781 INFO scheduler Scheduled Job Complete: frappe.email.doctype.email_account.email_account.pull for meeting.dev
2021-04-23 11:44:11,852 INFO scheduler Scheduled Job Start: frappe.email.queue.flush for meeting.dev
2021-04-23 11:44:12,114 INFO scheduler Scheduled Job Complete: frappe.email.queue.flush for meeting.dev
2021-04-23 11:45:10,411 DEBUG scheduler Queued events for site meeting.dev
2021-04-23 11:45:10,470 INFO scheduler Scheduled Job Start: frappe.twofactor.delete_all_barcodes_for_users for meeting.dev
2021-04-23 11:45:10,887 INFO scheduler Scheduled Job Complete: frappe.twofactor.delete_all_barcodes_for_users for meeting.dev
2021-04-23 11:45:10,971 INFO scheduler Scheduled Job Start: frappe.website.doctype.web_page.web_page.check_publish_status for meeting.dev
2021-04-23 11:45:11,421 INFO scheduler Scheduled Job Complete: frappe.website.doctype.web_page.web_page.check_publish_status for meeting.dev
2021-04-23 11:45:11,506 INFO scheduler Scheduled Job Start: frappe.oauth.delete_oauth2_data for meeting.dev
2021-04-23 11:45:11,906 INFO scheduler Scheduled Job Complete: frappe.oauth.delete_oauth2_data for meeting.dev
2021-04-23 11:46:10,667 DEBUG scheduler Queued events for site meeting.dev
2021-04-23 11:47:10,932 DEBUG scheduler Queued events for site meeting.dev
2021-04-23 11:48:11,208 DEBUG scheduler Queued events for site meeting.dev
2021-04-23 11:48:11,242 INFO scheduler Scheduled Job Start: frappe.monitor.flush for meeting.dev
2021-04-23 11:48:11,509 INFO scheduler Scheduled Job Complete: frappe.monitor.flush for meeting.dev
2021-04-23 11:48:11,618 INFO scheduler Scheduled Job Start: frappe.utils.global_search.sync_global_search for meeting.dev
2021-04-23 11:48:11,809 INFO scheduler Scheduled Job Complete: frappe.utils.global_search.sync_global_search for meeting.dev
2021-04-23 11:48:11,882 INFO scheduler Scheduled Job Start: frappe.integrations.doctype.razorpay_settings.razorpay_settings.capture_payment for meeting.dev
2021-04-23 11:48:12,266 INFO scheduler Scheduled Job Complete: frappe.integrations.doctype.razorpay_settings.razorpay_settings.capture_payment for meeting.dev
2021-04-23 11:48:12,335 INFO scheduler Scheduled Job Start: frappe.email.doctype.email_account.email_account.notify_unreplied for meeting.dev
2021-04-23 11:48:12,642 INFO scheduler Scheduled Job Complete: frappe.email.doctype.email_account.email_account.notify_unreplied for meeting.dev
2021-04-23 11:48:12,712 INFO scheduler Scheduled Job Start: frappe.email.doctype.email_account.email_account.pull for meeting.dev
2021-04-23 11:48:13,025 INFO scheduler Scheduled Job Complete: frappe.email.doctype.email_account.email_account.pull for meeting.dev
2021-04-23 11:48:13,097 INFO scheduler Scheduled Job Start: frappe.email.queue.flush for meeting.dev
2021-04-23 11:48:13,356 INFO scheduler Scheduled Job Complete: frappe.email.queue.flush for meeting.dev
2021-04-23 11:49:11,460 DEBUG scheduler Queued events for site meeting.dev
2021-04-23 11:50:11,690 DEBUG scheduler Queued events for site meeting.dev
2021-04-23 11:51:11,939 DEBUG scheduler Queued events for site meeting.dev
2021-04-23 11:52:12,261 DEBUG scheduler Queued events for site meeting.dev
2021-04-23 11:52:12,292 INFO scheduler Scheduled Job Start: frappe.monitor.flush for meeting.dev
2021-04-23 11:52:12,448 INFO scheduler Scheduled Job Complete: frappe.monitor.flush for meeting.dev
2021-04-23 11:52:12,520 INFO scheduler Scheduled Job Start: frappe.utils.global_search.sync_global_search for meeting.dev
2021-04-23 11:52:12,687 INFO scheduler Scheduled Job Complete: frappe.utils.global_search.sync_global_search for meeting.dev
2021-04-23 11:52:12,759 INFO scheduler Scheduled Job Start: frappe.integrations.doctype.razorpay_settings.razorpay_settings.capture_payment for meeting.dev
2021-04-23 11:52:13,147 INFO scheduler Scheduled Job Complete: frappe.integrations.doctype.razorpay_settings.razorpay_settings.capture_payment for meeting.dev
2021-04-23 11:52:13,217 INFO scheduler Scheduled Job Start: frappe.email.doctype.email_account.email_account.notify_unreplied for meeting.dev
2021-04-23 11:52:13,521 INFO scheduler Scheduled Job Complete: frappe.email.doctype.email_account.email_account.notify_unreplied for meeting.dev
2021-04-23 11:52:13,593 INFO scheduler Scheduled Job Start: frappe.email.doctype.email_account.email_account.pull for meeting.dev
2021-04-23 11:52:13,939 INFO scheduler Scheduled Job Complete: frappe.email.doctype.email_account.email_account.pull for meeting.dev
2021-04-23 11:52:14,017 INFO scheduler Scheduled Job Start: frappe.email.queue.flush for meeting.dev
2021-04-23 11:52:14,279 INFO scheduler Scheduled Job Complete: frappe.email.queue.flush for meeting.dev
2021-04-23 11:53:12,518 DEBUG scheduler Queued events for site meeting.dev
2021-04-23 11:54:12,771 DEBUG scheduler Queued events for site meeting.dev
2021-04-23 11:55:13,014 DEBUG scheduler Queued events for site meeting.dev
2021-04-23 11:56:13,323 DEBUG scheduler Queued events for site meeting.dev
2021-04-23 11:56:13,378 INFO scheduler Scheduled Job Start: frappe.monitor.flush for meeting.dev
2021-04-23 11:56:13,621 INFO scheduler Scheduled Job Complete: frappe.monitor.flush for meeting.dev
2021-04-23 11:56:13,746 INFO scheduler Scheduled Job Start: frappe.utils.global_search.sync_global_search for meeting.dev
2021-04-23 11:56:13,978 INFO scheduler Scheduled Job Complete: frappe.utils.global_search.sync_global_search for meeting.dev
2021-04-23 11:56:14,068 INFO scheduler Scheduled Job Start: frappe.integrations.doctype.razorpay_settings.razorpay_settings.capture_payment for meeting.dev
2021-04-23 11:56:14,664 INFO scheduler Scheduled Job Complete: frappe.integrations.doctype.razorpay_settings.razorpay_settings.capture_payment for meeting.dev
2021-04-23 11:56:14,752 INFO scheduler Scheduled Job Start: frappe.email.doctype.email_account.email_account.notify_unreplied for meeting.dev
2021-04-23 11:56:15,201 INFO scheduler Scheduled Job Complete: frappe.email.doctype.email_account.email_account.notify_unreplied for meeting.dev
2021-04-23 11:56:15,317 INFO scheduler Scheduled Job Start: frappe.email.doctype.email_account.email_account.pull for meeting.dev
2021-04-23 11:56:15,643 INFO scheduler Scheduled Job Complete: frappe.email.doctype.email_account.email_account.pull for meeting.dev
2021-04-23 11:56:15,717 INFO scheduler Scheduled Job Start: frappe.email.queue.flush for meeting.dev
2021-04-23 11:56:15,994 INFO scheduler Scheduled Job Complete: frappe.email.queue.flush for meeting.dev
2021-04-23 11:57:13,664 DEBUG scheduler Queued events for site meeting.dev
2021-04-23 11:58:14,007 DEBUG scheduler Queued events for site meeting.dev
2021-04-23 11:59:14,338 DEBUG scheduler Queued events for site meeting.dev
2021-04-23 12:00:14,665 INFO scheduler Scheduled Job Start: frappe.email.doctype.newsletter.newsletter.send_scheduled_email for meeting.dev
2021-04-23 12:00:14,789 DEBUG scheduler Queued events for site meeting.dev
2021-04-23 12:00:15,352 INFO scheduler Scheduled Job Complete: frappe.email.doctype.newsletter.newsletter.send_scheduled_email for meeting.dev
2021-04-23 12:00:15,472 INFO scheduler Scheduled Job Start: frappe.integrations.doctype.google_calendar.google_calendar.sync for meeting.dev
2021-04-23 12:00:16,268 INFO scheduler Scheduled Job Complete: frappe.integrations.doctype.google_calendar.google_calendar.sync for meeting.dev
2021-04-23 12:00:16,386 INFO scheduler Scheduled Job Start: frappe.desk.form.document_follow.send_hourly_updates for meeting.dev
2021-04-23 12:00:16,969 INFO scheduler Scheduled Job Complete: frappe.desk.form.document_follow.send_hourly_updates for meeting.dev
2021-04-23 12:00:17,085 INFO scheduler Scheduled Job Start: frappe.deferred_insert.save_to_db for meeting.dev
2021-04-23 12:00:17,602 INFO scheduler Scheduled Job Complete: frappe.deferred_insert.save_to_db for meeting.dev
2021-04-23 12:00:17,725 INFO scheduler Scheduled Job Start: frappe.desk.page.backups.backups.delete_downloadable_backups for meeting.dev
2021-04-23 12:00:18,281 INFO scheduler Scheduled Job Complete: frappe.desk.page.backups.backups.delete_downloadable_backups for meeting.dev
2021-04-23 12:00:18,399 INFO scheduler Scheduled Job Start: frappe.utils.error.collect_error_snapshots for meeting.dev
2021-04-23 12:00:18,941 INFO scheduler Scheduled Job Complete: frappe.utils.error.collect_error_snapshots for meeting.dev
2021-04-23 12:00:19,070 INFO scheduler Scheduled Job Start: frappe.model.utils.user_settings.sync_user_settings for meeting.dev
2021-04-23 12:00:19,578 INFO scheduler Scheduled Job Complete: frappe.model.utils.user_settings.sync_user_settings for meeting.dev
2021-04-23 12:00:19,703 INFO scheduler Scheduled Job Start: frappe.model.utils.link_count.update_link_count for meeting.dev
2021-04-23 12:00:20,225 INFO scheduler Scheduled Job Complete: frappe.model.utils.link_count.update_link_count for meeting.dev
2021-04-23 12:00:20,331 INFO scheduler Scheduled Job Start: frappe.monitor.flush for meeting.dev
2021-04-23 12:00:20,513 INFO scheduler Scheduled Job Complete: frappe.monitor.flush for meeting.dev
2021-04-23 12:00:20,603 INFO scheduler Scheduled Job Start: frappe.utils.global_search.sync_global_search for meeting.dev
2021-04-23 12:00:20,783 INFO scheduler Scheduled Job Complete: frappe.utils.global_search.sync_global_search for meeting.dev
2021-04-23 12:00:20,890 INFO scheduler Scheduled Job Start: frappe.integrations.doctype.razorpay_settings.razorpay_settings.capture_payment for meeting.dev
2021-04-23 12:00:21,458 INFO scheduler Scheduled Job Complete: frappe.integrations.doctype.razorpay_settings.razorpay_settings.capture_payment for meeting.dev
2021-04-23 12:00:21,562 INFO scheduler Scheduled Job Start: frappe.email.doctype.email_account.email_account.notify_unreplied for meeting.dev
2021-04-23 12:00:22,014 INFO scheduler Scheduled Job Complete: frappe.email.doctype.email_account.email_account.notify_unreplied for meeting.dev
2021-04-23 12:00:22,121 INFO scheduler Scheduled Job Start: frappe.email.doctype.email_account.email_account.pull for meeting.dev
2021-04-23 12:00:22,575 INFO scheduler Scheduled Job Complete: frappe.email.doctype.email_account.email_account.pull for meeting.dev
2021-04-23 12:00:22,719 INFO scheduler Scheduled Job Start: frappe.email.queue.flush for meeting.dev
2021-04-23 12:00:23,141 INFO scheduler Scheduled Job Complete: frappe.email.queue.flush for meeting.dev
2021-04-23 12:00:23,242 INFO scheduler Scheduled Job Start: frappe.twofactor.delete_all_barcodes_for_users for meeting.dev
2021-04-23 12:00:23,812 INFO scheduler Scheduled Job Complete: frappe.twofactor.delete_all_barcodes_for_users for meeting.dev
2021-04-23 12:00:23,945 INFO scheduler Scheduled Job Start: frappe.website.doctype.web_page.web_page.check_publish_status for meeting.dev
2021-04-23 12:00:24,626 INFO scheduler Scheduled Job Complete: frappe.website.doctype.web_page.web_page.check_publish_status for meeting.dev
2021-04-23 12:00:24,752 INFO scheduler Scheduled Job Start: frappe.oauth.delete_oauth2_data for meeting.dev
2021-04-23 12:00:25,335 INFO scheduler Scheduled Job Complete: frappe.oauth.delete_oauth2_data for meeting.dev
2021-04-23 12:01:15,106 DEBUG scheduler Queued events for site meeting.dev
2021-04-23 12:02:15,431 DEBUG scheduler Queued events for site meeting.dev
2021-04-23 12:03:15,729 DEBUG scheduler Queued events for site meeting.dev
2021-04-23 12:04:16,095 DEBUG scheduler Queued events for site meeting.dev
2021-04-23 12:04:16,135 INFO scheduler Scheduled Job Start: frappe.monitor.flush for meeting.dev
2021-04-23 12:04:16,372 INFO scheduler Scheduled Job Complete: frappe.monitor.flush for meeting.dev
2021-04-23 12:04:16,478 INFO scheduler Scheduled Job Start: frappe.utils.global_search.sync_global_search for meeting.dev
2021-04-23 12:04:16,722 INFO scheduler Scheduled Job Complete: frappe.utils.global_search.sync_global_search for meeting.dev
2021-04-23 12:04:16,823 INFO scheduler Scheduled Job Start: frappe.integrations.doctype.razorpay_settings.razorpay_settings.capture_payment for meeting.dev
2021-04-23 12:04:17,406 INFO scheduler Scheduled Job Complete: frappe.integrations.doctype.razorpay_settings.razorpay_settings.capture_payment for meeting.dev
2021-04-23 12:04:17,527 INFO scheduler Scheduled Job Start: frappe.email.doctype.email_account.email_account.notify_unreplied for meeting.dev
2021-04-23 12:04:18,046 INFO scheduler Scheduled Job Complete: frappe.email.doctype.email_account.email_account.notify_unreplied for meeting.dev
2021-04-23 12:04:18,178 INFO scheduler Scheduled Job Start: frappe.email.doctype.email_account.email_account.pull for meeting.dev
2021-04-23 12:04:18,655 INFO scheduler Scheduled Job Complete: frappe.email.doctype.email_account.email_account.pull for meeting.dev
2021-04-23 12:04:18,771 INFO scheduler Scheduled Job Start: frappe.email.queue.flush for meeting.dev
2021-04-23 12:04:19,165 INFO scheduler Scheduled Job Complete: frappe.email.queue.flush for meeting.dev
2021-04-23 12:05:16,592 DEBUG scheduler Queued events for site meeting.dev
2021-04-23 12:06:16,911 DEBUG scheduler Queued events for site meeting.dev
2021-04-23 12:07:17,228 DEBUG scheduler Queued events for site meeting.dev
2021-04-23 12:08:17,582 DEBUG scheduler Queued events for site meeting.dev
2021-04-23 12:08:17,625 INFO scheduler Scheduled Job Start: frappe.monitor.flush for meeting.dev
2021-04-23 12:08:17,886 INFO scheduler Scheduled Job Complete: frappe.monitor.flush for meeting.dev
2021-04-23 12:08:17,990 INFO scheduler Scheduled Job Start: frappe.utils.global_search.sync_global_search for meeting.dev
2021-04-23 12:08:18,214 INFO scheduler Scheduled Job Complete: frappe.utils.global_search.sync_global_search for meeting.dev
2021-04-23 12:08:18,326 INFO scheduler Scheduled Job Start: frappe.integrations.doctype.razorpay_settings.razorpay_settings.capture_payment for meeting.dev
2021-04-23 12:08:18,907 INFO scheduler Scheduled Job Complete: frappe.integrations.doctype.razorpay_settings.razorpay_settings.capture_payment for meeting.dev
2021-04-23 12:08:19,013 INFO scheduler Scheduled Job Start: frappe.email.doctype.email_account.email_account.notify_unreplied for meeting.dev
2021-04-23 12:08:19,426 INFO scheduler Scheduled Job Complete: frappe.email.doctype.email_account.email_account.notify_unreplied for meeting.dev
2021-04-23 12:08:19,526 INFO scheduler Scheduled Job Start: frappe.email.doctype.email_account.email_account.pull for meeting.dev
2021-04-23 12:08:19,977 INFO scheduler Scheduled Job Complete: frappe.email.doctype.email_account.email_account.pull for meeting.dev
2021-04-23 12:08:20,094 INFO scheduler Scheduled Job Start: frappe.email.queue.flush for meeting.dev
2021-04-23 12:08:20,496 INFO scheduler Scheduled Job Complete: frappe.email.queue.flush for meeting.dev
2021-04-23 12:09:17,915 DEBUG scheduler Queued events for site meeting.dev
2021-04-23 12:10:18,204 DEBUG scheduler Queued events for site meeting.dev
2021-04-23 12:11:18,495 DEBUG scheduler Queued events for site meeting.dev
2021-04-23 12:12:18,870 DEBUG scheduler Queued events for site meeting.dev
2021-04-23 12:12:18,924 INFO scheduler Scheduled Job Start: frappe.monitor.flush for meeting.dev
2021-04-23 12:12:19,196 INFO scheduler Scheduled Job Complete: frappe.monitor.flush for meeting.dev
2021-04-23 12:12:19,326 INFO scheduler Scheduled Job Start: frappe.utils.global_search.sync_global_search for meeting.dev
2021-04-23 12:12:19,623 INFO scheduler Scheduled Job Complete: frappe.utils.global_search.sync_global_search for meeting.dev
2021-04-23 12:12:19,793 INFO scheduler Scheduled Job Start: frappe.integrations.doctype.razorpay_settings.razorpay_settings.capture_payment for meeting.dev
2021-04-23 12:12:20,436 INFO scheduler Scheduled Job Complete: frappe.integrations.doctype.razorpay_settings.razorpay_settings.capture_payment for meeting.dev
2021-04-23 12:12:20,569 INFO scheduler Scheduled Job Start: frappe.email.doctype.email_account.email_account.notify_unreplied for meeting.dev
2021-04-23 12:12:21,115 INFO scheduler Scheduled Job Complete: frappe.email.doctype.email_account.email_account.notify_unreplied for meeting.dev
2021-04-23 12:12:21,245 INFO scheduler Scheduled Job Start: frappe.email.doctype.email_account.email_account.pull for meeting.dev
2021-04-23 12:12:21,830 INFO scheduler Scheduled Job Complete: frappe.email.doctype.email_account.email_account.pull for meeting.dev
2021-04-23 12:12:21,980 INFO scheduler Scheduled Job Start: frappe.email.queue.flush for meeting.dev
2021-04-23 12:12:22,481 INFO scheduler Scheduled Job Complete: frappe.email.queue.flush for meeting.dev
2021-04-23 12:13:19,284 DEBUG scheduler Queued events for site meeting.dev
2021-04-23 12:14:19,551 DEBUG scheduler Queued events for site meeting.dev
2021-04-23 12:15:19,803 DEBUG scheduler Queued events for site meeting.dev
2021-04-23 12:15:19,861 INFO scheduler Scheduled Job Start: frappe.twofactor.delete_all_barcodes_for_users for meeting.dev
2021-04-23 12:15:20,315 INFO scheduler Scheduled Job Complete: frappe.twofactor.delete_all_barcodes_for_users for meeting.dev
2021-04-23 12:15:20,403 INFO scheduler Scheduled Job Start: frappe.website.doctype.web_page.web_page.check_publish_status for meeting.dev
2021-04-23 12:15:20,972 INFO scheduler Scheduled Job Complete: frappe.website.doctype.web_page.web_page.check_publish_status for meeting.dev
2021-04-23 12:15:21,062 INFO scheduler Scheduled Job Start: frappe.oauth.delete_oauth2_data for meeting.dev
2021-04-23 12:15:21,553 INFO scheduler Scheduled Job Complete: frappe.oauth.delete_oauth2_data for meeting.dev
2021-04-23 12:16:20,101 DEBUG scheduler Queued events for site meeting.dev
2021-04-23 12:16:20,149 INFO scheduler Scheduled Job Start: frappe.monitor.flush for meeting.dev
2021-04-23 12:16:20,305 INFO scheduler Scheduled Job Complete: frappe.monitor.flush for meeting.dev
2021-04-23 12:16:20,378 INFO scheduler Scheduled Job Start: frappe.utils.global_search.sync_global_search for meeting.dev
2021-04-23 12:16:20,530 INFO scheduler Scheduled Job Complete: frappe.utils.global_search.sync_global_search for meeting.dev
2021-04-23 12:16:20,612 INFO scheduler Scheduled Job Start: frappe.integrations.doctype.razorpay_settings.razorpay_settings.capture_payment for meeting.dev
2021-04-23 12:16:21,008 INFO scheduler Scheduled Job Complete: frappe.integrations.doctype.razorpay_settings.razorpay_settings.capture_payment for meeting.dev
2021-04-23 12:16:21,080 INFO scheduler Scheduled Job Start: frappe.email.doctype.email_account.email_account.notify_unreplied for meeting.dev
2021-04-23 12:16:21,388 INFO scheduler Scheduled Job Complete: frappe.email.doctype.email_account.email_account.notify_unreplied for meeting.dev
2021-04-23 12:16:21,460 INFO scheduler Scheduled Job Start: frappe.email.doctype.email_account.email_account.pull for meeting.dev
2021-04-23 12:16:21,771 INFO scheduler Scheduled Job Complete: frappe.email.doctype.email_account.email_account.pull for meeting.dev
2021-04-23 12:16:21,843 INFO scheduler Scheduled Job Start: frappe.email.queue.flush for meeting.dev
2021-04-23 12:16:22,115 INFO scheduler Scheduled Job Complete: frappe.email.queue.flush for meeting.dev
2021-04-23 12:17:20,371 DEBUG scheduler Queued events for site meeting.dev
2021-04-23 12:18:20,607 DEBUG scheduler Queued events for site meeting.dev
2021-04-23 12:19:20,840 DEBUG scheduler Queued events for site meeting.dev
2021-04-23 12:20:21,163 DEBUG scheduler Queued events for site meeting.dev
2021-04-23 12:20:21,200 INFO scheduler Scheduled Job Start: frappe.monitor.flush for meeting.dev
2021-04-23 12:20:21,382 INFO scheduler Scheduled Job Complete: frappe.monitor.flush for meeting.dev
2021-04-23 12:20:21,454 INFO scheduler Scheduled Job Start: frappe.utils.global_search.sync_global_search for meeting.dev
2021-04-23 12:20:21,630 INFO scheduler Scheduled Job Complete: frappe.utils.global_search.sync_global_search for meeting.dev
2021-04-23 12:20:21,706 INFO scheduler Scheduled Job Start: frappe.integrations.doctype.razorpay_settings.razorpay_settings.capture_payment for meeting.dev
2021-04-23 12:20:22,135 INFO scheduler Scheduled Job Complete: frappe.integrations.doctype.razorpay_settings.razorpay_settings.capture_payment for meeting.dev
2021-04-23 12:20:22,212 INFO scheduler Scheduled Job Start: frappe.email.doctype.email_account.email_account.notify_unreplied for meeting.dev
2021-04-23 12:20:22,540 INFO scheduler Scheduled Job Complete: frappe.email.doctype.email_account.email_account.notify_unreplied for meeting.dev
2021-04-23 12:20:22,613 INFO scheduler Scheduled Job Start: frappe.email.doctype.email_account.email_account.pull for meeting.dev
2021-04-23 12:20:22,957 INFO scheduler Scheduled Job Complete: frappe.email.doctype.email_account.email_account.pull for meeting.dev
2021-04-23 12:20:23,033 INFO scheduler Scheduled Job Start: frappe.email.queue.flush for meeting.dev
2021-04-23 12:20:23,360 INFO scheduler Scheduled Job Complete: frappe.email.queue.flush for meeting.dev
2021-04-23 12:21:21,475 DEBUG scheduler Queued events for site meeting.dev
2021-04-23 12:22:21,787 DEBUG scheduler Queued events for site meeting.dev
2021-04-23 12:23:22,063 DEBUG scheduler Queued events for site meeting.dev
2021-04-23 12:24:22,339 DEBUG scheduler Queued events for site meeting.dev
2021-04-23 12:24:22,388 INFO scheduler Scheduled Job Start: frappe.monitor.flush for meeting.dev
2021-04-23 12:24:22,543 INFO scheduler Scheduled Job Complete: frappe.monitor.flush for meeting.dev
2021-04-23 12:24:22,616 INFO scheduler Scheduled Job Start: frappe.utils.global_search.sync_global_search for meeting.dev
2021-04-23 12:24:22,772 INFO scheduler Scheduled Job Complete: frappe.utils.global_search.sync_global_search for meeting.dev
2021-04-23 12:24:22,847 INFO scheduler Scheduled Job Start: frappe.integrations.doctype.razorpay_settings.razorpay_settings.capture_payment for meeting.dev
2021-04-23 12:24:23,250 INFO scheduler Scheduled Job Complete: frappe.integrations.doctype.razorpay_settings.razorpay_settings.capture_payment for meeting.dev
2021-04-23 12:24:23,322 INFO scheduler Scheduled Job Start: frappe.email.doctype.email_account.email_account.notify_unreplied for meeting.dev
2021-04-23 12:24:23,636 INFO scheduler Scheduled Job Complete: frappe.email.doctype.email_account.email_account.notify_unreplied for meeting.dev
2021-04-23 12:24:23,709 INFO scheduler Scheduled Job Start: frappe.email.doctype.email_account.email_account.pull for meeting.dev
2021-04-23 12:24:24,033 INFO scheduler Scheduled Job Complete: frappe.email.doctype.email_account.email_account.pull for meeting.dev
2021-04-23 12:24:24,107 INFO scheduler Scheduled Job Start: frappe.email.queue.flush for meeting.dev
2021-04-23 12:24:24,379 INFO scheduler Scheduled Job Complete: frappe.email.queue.flush for meeting.dev
2021-04-23 12:25:22,625 DEBUG scheduler Queued events for site meeting.dev
2021-04-23 12:26:22,857 DEBUG scheduler Queued events for site meeting.dev
2021-04-23 12:27:23,097 DEBUG scheduler Queued events for site meeting.dev
2021-04-23 12:28:23,389 DEBUG scheduler Queued events for site meeting.dev
2021-04-23 12:28:23,428 INFO scheduler Scheduled Job Start: frappe.monitor.flush for meeting.dev
2021-04-23 12:28:23,589 INFO scheduler Scheduled Job Complete: frappe.monitor.flush for meeting.dev
2021-04-23 12:28:23,659 INFO scheduler Scheduled Job Start: frappe.utils.global_search.sync_global_search for meeting.dev
2021-04-23 12:28:23,811 INFO scheduler Scheduled Job Complete: frappe.utils.global_search.sync_global_search for meeting.dev
2021-04-23 12:28:23,886 INFO scheduler Scheduled Job Start: frappe.integrations.doctype.razorpay_settings.razorpay_settings.capture_payment for meeting.dev
2021-04-23 12:28:24,267 INFO scheduler Scheduled Job Complete: frappe.integrations.doctype.razorpay_settings.razorpay_settings.capture_payment for meeting.dev
2021-04-23 12:28:24,337 INFO scheduler Scheduled Job Start: frappe.email.doctype.email_account.email_account.notify_unreplied for meeting.dev
2021-04-23 12:28:24,651 INFO scheduler Scheduled Job Complete: frappe.email.doctype.email_account.email_account.notify_unreplied for meeting.dev
2021-04-23 12:28:24,722 INFO scheduler Scheduled Job Start: frappe.email.doctype.email_account.email_account.pull for meeting.dev
2021-04-23 12:28:25,041 INFO scheduler Scheduled Job Complete: frappe.email.doctype.email_account.email_account.pull for meeting.dev
2021-04-23 12:28:25,110 INFO scheduler Scheduled Job Start: frappe.email.queue.flush for meeting.dev
2021-04-23 12:28:25,373 INFO scheduler Scheduled Job Complete: frappe.email.queue.flush for meeting.dev
2021-04-23 12:29:23,667 DEBUG scheduler Queued events for site meeting.dev
2021-04-23 12:30:23,884 DEBUG scheduler Queued events for site meeting.dev
2021-04-23 12:30:23,942 INFO scheduler Scheduled Job Start: frappe.twofactor.delete_all_barcodes_for_users for meeting.dev
2021-04-23 12:30:24,356 INFO scheduler Scheduled Job Complete: frappe.twofactor.delete_all_barcodes_for_users for meeting.dev
2021-04-23 12:30:24,436 INFO scheduler Scheduled Job Start: frappe.website.doctype.web_page.web_page.check_publish_status for meeting.dev
2021-04-23 12:30:24,886 INFO scheduler Scheduled Job Complete: frappe.website.doctype.web_page.web_page.check_publish_status for meeting.dev
2021-04-23 12:30:24,969 INFO scheduler Scheduled Job Start: frappe.oauth.delete_oauth2_data for meeting.dev
2021-04-23 12:30:25,362 INFO scheduler Scheduled Job Complete: frappe.oauth.delete_oauth2_data for meeting.dev
2021-04-23 12:31:24,137 DEBUG scheduler Queued events for site meeting.dev
2021-04-23 12:32:24,403 DEBUG scheduler Queued events for site meeting.dev
2021-04-23 12:32:24,435 INFO scheduler Scheduled Job Start: frappe.monitor.flush for meeting.dev
2021-04-23 12:32:24,590 INFO scheduler Scheduled Job Complete: frappe.monitor.flush for meeting.dev
2021-04-23 12:32:24,664 INFO scheduler Scheduled Job Start: frappe.utils.global_search.sync_global_search for meeting.dev
2021-04-23 12:32:24,815 INFO scheduler Scheduled Job Complete: frappe.utils.global_search.sync_global_search for meeting.dev
2021-04-23 12:32:24,885 INFO scheduler Scheduled Job Start: frappe.integrations.doctype.razorpay_settings.razorpay_settings.capture_payment for meeting.dev
2021-04-23 12:32:25,263 INFO scheduler Scheduled Job Complete: frappe.integrations.doctype.razorpay_settings.razorpay_settings.capture_payment for meeting.dev
2021-04-23 12:32:25,333 INFO scheduler Scheduled Job Start: frappe.email.doctype.email_account.email_account.notify_unreplied for meeting.dev
2021-04-23 12:32:25,639 INFO scheduler Scheduled Job Complete: frappe.email.doctype.email_account.email_account.notify_unreplied for meeting.dev
2021-04-23 12:32:25,711 INFO scheduler Scheduled Job Start: frappe.email.doctype.email_account.email_account.pull for meeting.dev
2021-04-23 12:32:26,026 INFO scheduler Scheduled Job Complete: frappe.email.doctype.email_account.email_account.pull for meeting.dev
2021-04-23 12:32:26,096 INFO scheduler Scheduled Job Start: frappe.email.queue.flush for meeting.dev
2021-04-23 12:32:26,356 INFO scheduler Scheduled Job Complete: frappe.email.queue.flush for meeting.dev
2021-04-23 12:33:24,697 DEBUG scheduler Queued events for site meeting.dev
2021-04-23 12:34:24,960 DEBUG scheduler Queued events for site meeting.dev
2021-04-23 12:35:25,228 DEBUG scheduler Queued events for site meeting.dev
2021-04-23 12:36:25,500 DEBUG scheduler Queued events for site meeting.dev
2021-04-23 12:36:25,536 INFO scheduler Scheduled Job Start: frappe.monitor.flush for meeting.dev
2021-04-23 12:36:25,698 INFO scheduler Scheduled Job Complete: frappe.monitor.flush for meeting.dev
2021-04-23 12:36:25,769 INFO scheduler Scheduled Job Start: frappe.utils.global_search.sync_global_search for meeting.dev
2021-04-23 12:36:25,932 INFO scheduler Scheduled Job Complete: frappe.utils.global_search.sync_global_search for meeting.dev
2021-04-23 12:36:26,007 INFO scheduler Scheduled Job Start: frappe.integrations.doctype.razorpay_settings.razorpay_settings.capture_payment for meeting.dev
2021-04-23 12:36:26,385 INFO scheduler Scheduled Job Complete: frappe.integrations.doctype.razorpay_settings.razorpay_settings.capture_payment for meeting.dev
2021-04-23 12:36:26,456 INFO scheduler Scheduled Job Start: frappe.email.doctype.email_account.email_account.notify_unreplied for meeting.dev
2021-04-23 12:36:26,771 INFO scheduler Scheduled Job Complete: frappe.email.doctype.email_account.email_account.notify_unreplied for meeting.dev
2021-04-23 12:36:26,844 INFO scheduler Scheduled Job Start: frappe.email.doctype.email_account.email_account.pull for meeting.dev
2021-04-23 12:36:27,171 INFO scheduler Scheduled Job Complete: frappe.email.doctype.email_account.email_account.pull for meeting.dev
2021-04-23 12:36:27,245 INFO scheduler Scheduled Job Start: frappe.email.queue.flush for meeting.dev
2021-04-23 12:36:27,508 INFO scheduler Scheduled Job Complete: frappe.email.queue.flush for meeting.dev
2021-04-23 12:37:25,830 DEBUG scheduler Queued events for site meeting.dev
2021-04-23 12:38:26,060 DEBUG scheduler Queued events for site meeting.dev
2021-04-23 12:39:26,328 DEBUG scheduler Queued events for site meeting.dev
2021-04-23 12:40:26,668 DEBUG scheduler Queued events for site meeting.dev
2021-04-23 12:40:26,725 INFO scheduler Scheduled Job Start: frappe.monitor.flush for meeting.dev
2021-04-23 12:40:26,932 INFO scheduler Scheduled Job Complete: frappe.monitor.flush for meeting.dev
2021-04-23 12:40:27,018 INFO scheduler Scheduled Job Start: frappe.utils.global_search.sync_global_search for meeting.dev
2021-04-23 12:40:27,213 INFO scheduler Scheduled Job Complete: frappe.utils.global_search.sync_global_search for meeting.dev
2021-04-23 12:40:27,304 INFO scheduler Scheduled Job Start: frappe.integrations.doctype.razorpay_settings.razorpay_settings.capture_payment for meeting.dev
2021-04-23 12:40:27,781 INFO scheduler Scheduled Job Complete: frappe.integrations.doctype.razorpay_settings.razorpay_settings.capture_payment for meeting.dev
2021-04-23 12:40:27,871 INFO scheduler Scheduled Job Start: frappe.email.doctype.email_account.email_account.notify_unreplied for meeting.dev
2021-04-23 12:40:28,236 INFO scheduler Scheduled Job Complete: frappe.email.doctype.email_account.email_account.notify_unreplied for meeting.dev
2021-04-23 12:40:28,324 INFO scheduler Scheduled Job Start: frappe.email.doctype.email_account.email_account.pull for meeting.dev
2021-04-23 12:40:28,707 INFO scheduler Scheduled Job Complete: frappe.email.doctype.email_account.email_account.pull for meeting.dev
2021-04-23 12:40:28,798 INFO scheduler Scheduled Job Start: frappe.email.queue.flush for meeting.dev
2021-04-23 12:40:29,124 INFO scheduler Scheduled Job Complete: frappe.email.queue.flush for meeting.dev
2021-04-23 12:41:26,998 DEBUG scheduler Queued events for site meeting.dev
2021-04-23 12:42:27,250 DEBUG scheduler Queued events for site meeting.dev
2021-04-23 12:43:27,496 DEBUG scheduler Queued events for site meeting.dev
2021-04-23 12:44:27,922 DEBUG scheduler Queued events for site meeting.dev
2021-04-23 12:44:27,953 INFO scheduler Scheduled Job Start: frappe.monitor.flush for meeting.dev
2021-04-23 12:44:28,210 INFO scheduler Scheduled Job Complete: frappe.monitor.flush for meeting.dev
2021-04-23 12:44:28,318 INFO scheduler Scheduled Job Start: frappe.utils.global_search.sync_global_search for meeting.dev
2021-04-23 12:44:28,519 INFO scheduler Scheduled Job Complete: frappe.utils.global_search.sync_global_search for meeting.dev
2021-04-23 12:44:28,610 INFO scheduler Scheduled Job Start: frappe.integrations.doctype.razorpay_settings.razorpay_settings.capture_payment for meeting.dev
2021-04-23 12:44:29,085 INFO scheduler Scheduled Job Complete: frappe.integrations.doctype.razorpay_settings.razorpay_settings.capture_payment for meeting.dev
2021-04-23 12:44:29,177 INFO scheduler Scheduled Job Start: frappe.email.doctype.email_account.email_account.notify_unreplied for meeting.dev
2021-04-23 12:44:29,591 INFO scheduler Scheduled Job Complete: frappe.email.doctype.email_account.email_account.notify_unreplied for meeting.dev
2021-04-23 12:44:29,699 INFO scheduler Scheduled Job Start: frappe.email.doctype.email_account.email_account.pull for meeting.dev
2021-04-23 12:44:30,125 INFO scheduler Scheduled Job Complete: frappe.email.doctype.email_account.email_account.pull for meeting.dev
2021-04-23 12:44:30,232 INFO scheduler Scheduled Job Start: frappe.email.queue.flush for meeting.dev
2021-04-23 12:44:30,605 INFO scheduler Scheduled Job Complete: frappe.email.queue.flush for meeting.dev
2021-04-23 12:45:28,291 DEBUG scheduler Queued events for site meeting.dev
2021-04-23 12:45:28,369 INFO scheduler Scheduled Job Start: frappe.twofactor.delete_all_barcodes_for_users for meeting.dev
2021-04-23 12:45:28,889 INFO scheduler Scheduled Job Complete: frappe.twofactor.delete_all_barcodes_for_users for meeting.dev
2021-04-23 12:45:29,027 INFO scheduler Scheduled Job Start: frappe.website.doctype.web_page.web_page.check_publish_status for meeting.dev
2021-04-23 12:45:29,849 INFO scheduler Scheduled Job Complete: frappe.website.doctype.web_page.web_page.check_publish_status for meeting.dev
2021-04-23 12:45:29,962 INFO scheduler Scheduled Job Start: frappe.oauth.delete_oauth2_data for meeting.dev
2021-04-23 12:45:30,590 INFO scheduler Scheduled Job Complete: frappe.oauth.delete_oauth2_data for meeting.dev
2021-04-23 12:46:28,601 DEBUG scheduler Queued events for site meeting.dev
2021-04-23 12:47:29,512 DEBUG scheduler Queued events for site meeting.dev
2021-04-23 12:48:29,866 DEBUG scheduler Queued events for site meeting.dev
2021-04-23 12:48:29,916 INFO scheduler Scheduled Job Start: frappe.monitor.flush for meeting.dev
2021-04-23 12:48:30,113 INFO scheduler Scheduled Job Complete: frappe.monitor.flush for meeting.dev
2021-04-23 12:48:30,223 INFO scheduler Scheduled Job Start: frappe.utils.global_search.sync_global_search for meeting.dev
2021-04-23 12:48:30,429 INFO scheduler Scheduled Job Complete: frappe.utils.global_search.sync_global_search for meeting.dev
2021-04-23 12:48:30,526 INFO scheduler Scheduled Job Start: frappe.integrations.doctype.razorpay_settings.razorpay_settings.capture_payment for meeting.dev
2021-04-23 12:48:30,997 INFO scheduler Scheduled Job Complete: frappe.integrations.doctype.razorpay_settings.razorpay_settings.capture_payment for meeting.dev
2021-04-23 12:48:31,087 INFO scheduler Scheduled Job Start: frappe.email.doctype.email_account.email_account.notify_unreplied for meeting.dev
2021-04-23 12:48:31,463 INFO scheduler Scheduled Job Complete: frappe.email.doctype.email_account.email_account.notify_unreplied for meeting.dev
2021-04-23 12:48:31,581 INFO scheduler Scheduled Job Start: frappe.email.doctype.email_account.email_account.pull for meeting.dev
2021-04-23 12:48:31,984 INFO scheduler Scheduled Job Complete: frappe.email.doctype.email_account.email_account.pull for meeting.dev
2021-04-23 12:48:32,072 INFO scheduler Scheduled Job Start: frappe.email.queue.flush for meeting.dev
2021-04-23 12:48:32,398 INFO scheduler Scheduled Job Complete: frappe.email.queue.flush for meeting.dev
2021-04-23 12:49:30,189 DEBUG scheduler Queued events for site meeting.dev
2021-04-23 12:50:30,497 DEBUG scheduler Queued events for site meeting.dev
2021-04-23 12:51:31,467 DEBUG scheduler Queued events for site meeting.dev
2021-04-23 12:52:31,738 DEBUG scheduler Queued events for site meeting.dev
2021-04-23 12:52:31,768 INFO scheduler Scheduled Job Start: frappe.monitor.flush for meeting.dev
2021-04-23 12:52:31,939 INFO scheduler Scheduled Job Complete: frappe.monitor.flush for meeting.dev
2021-04-23 12:52:32,013 INFO scheduler Scheduled Job Start: frappe.utils.global_search.sync_global_search for meeting.dev
2021-04-23 12:52:32,194 INFO scheduler Scheduled Job Complete: frappe.utils.global_search.sync_global_search for meeting.dev
2021-04-23 12:52:32,270 INFO scheduler Scheduled Job Start: frappe.integrations.doctype.razorpay_settings.razorpay_settings.capture_payment for meeting.dev
2021-04-23 12:52:32,665 INFO scheduler Scheduled Job Complete: frappe.integrations.doctype.razorpay_settings.razorpay_settings.capture_payment for meeting.dev
2021-04-23 12:52:32,739 INFO scheduler Scheduled Job Start: frappe.email.doctype.email_account.email_account.notify_unreplied for meeting.dev
2021-04-23 12:52:33,075 INFO scheduler Scheduled Job Complete: frappe.email.doctype.email_account.email_account.notify_unreplied for meeting.dev
2021-04-23 12:52:33,161 INFO scheduler Scheduled Job Start: frappe.email.doctype.email_account.email_account.pull for meeting.dev
2021-04-23 12:52:33,549 INFO scheduler Scheduled Job Complete: frappe.email.doctype.email_account.email_account.pull for meeting.dev
2021-04-23 12:52:33,621 INFO scheduler Scheduled Job Start: frappe.email.queue.flush for meeting.dev
2021-04-23 12:52:33,975 INFO scheduler Scheduled Job Complete: frappe.email.queue.flush for meeting.dev
2021-04-23 12:53:31,991 DEBUG scheduler Queued events for site meeting.dev
2021-04-23 12:54:32,289 DEBUG scheduler Queued events for site meeting.dev
2021-04-23 12:55:32,582 DEBUG scheduler Queued events for site meeting.dev
2021-04-23 12:56:32,853 DEBUG scheduler Queued events for site meeting.dev
2021-04-23 12:56:32,888 INFO scheduler Scheduled Job Start: frappe.monitor.flush for meeting.dev
2021-04-23 12:56:33,053 INFO scheduler Scheduled Job Complete: frappe.monitor.flush for meeting.dev
2021-04-23 12:56:33,141 INFO scheduler Scheduled Job Start: frappe.utils.global_search.sync_global_search for meeting.dev
2021-04-23 12:56:33,304 INFO scheduler Scheduled Job Complete: frappe.utils.global_search.sync_global_search for meeting.dev
2021-04-23 12:56:33,388 INFO scheduler Scheduled Job Start: frappe.integrations.doctype.razorpay_settings.razorpay_settings.capture_payment for meeting.dev
2021-04-23 12:56:33,792 INFO scheduler Scheduled Job Complete: frappe.integrations.doctype.razorpay_settings.razorpay_settings.capture_payment for meeting.dev
2021-04-23 12:56:33,875 INFO scheduler Scheduled Job Start: frappe.email.doctype.email_account.email_account.notify_unreplied for meeting.dev
2021-04-23 12:56:34,223 INFO scheduler Scheduled Job Complete: frappe.email.doctype.email_account.email_account.notify_unreplied for meeting.dev
2021-04-23 12:56:34,296 INFO scheduler Scheduled Job Start: frappe.email.doctype.email_account.email_account.pull for meeting.dev
2021-04-23 12:56:34,655 INFO scheduler Scheduled Job Complete: frappe.email.doctype.email_account.email_account.pull for meeting.dev
2021-04-23 12:56:34,726 INFO scheduler Scheduled Job Start: frappe.email.queue.flush for meeting.dev
2021-04-23 12:56:35,002 INFO scheduler Scheduled Job Complete: frappe.email.queue.flush for meeting.dev
2021-04-23 12:57:33,119 DEBUG scheduler Queued events for site meeting.dev
2021-04-23 12:58:33,378 DEBUG scheduler Queued events for site meeting.dev
2021-04-23 12:59:33,665 DEBUG scheduler Queued events for site meeting.dev
2021-04-23 13:00:33,973 INFO scheduler Scheduled Job Start: frappe.email.doctype.newsletter.newsletter.send_scheduled_email for meeting.dev
2021-04-23 13:00:34,071 DEBUG scheduler Queued events for site meeting.dev
2021-04-23 13:00:34,618 INFO scheduler Scheduled Job Complete: frappe.email.doctype.newsletter.newsletter.send_scheduled_email for meeting.dev
2021-04-23 13:00:34,721 INFO scheduler Scheduled Job Start: frappe.integrations.doctype.google_calendar.google_calendar.sync for meeting.dev
2021-04-23 13:00:35,535 INFO scheduler Scheduled Job Complete: frappe.integrations.doctype.google_calendar.google_calendar.sync for meeting.dev
2021-04-23 13:00:35,628 INFO scheduler Scheduled Job Start: frappe.desk.form.document_follow.send_hourly_updates for meeting.dev
2021-04-23 13:00:36,088 INFO scheduler Scheduled Job Complete: frappe.desk.form.document_follow.send_hourly_updates for meeting.dev
2021-04-23 13:00:36,179 INFO scheduler Scheduled Job Start: frappe.deferred_insert.save_to_db for meeting.dev
2021-04-23 13:00:36,657 INFO scheduler Scheduled Job Complete: frappe.deferred_insert.save_to_db for meeting.dev
2021-04-23 13:00:36,749 INFO scheduler Scheduled Job Start: frappe.desk.page.backups.backups.delete_downloadable_backups for meeting.dev
2021-04-23 13:00:37,149 INFO scheduler Scheduled Job Complete: frappe.desk.page.backups.backups.delete_downloadable_backups for meeting.dev
2021-04-23 13:00:37,232 INFO scheduler Scheduled Job Start: frappe.utils.error.collect_error_snapshots for meeting.dev
2021-04-23 13:00:37,620 INFO scheduler Scheduled Job Complete: frappe.utils.error.collect_error_snapshots for meeting.dev
2021-04-23 13:00:37,706 INFO scheduler Scheduled Job Start: frappe.model.utils.user_settings.sync_user_settings for meeting.dev
2021-04-23 13:00:38,087 INFO scheduler Scheduled Job Complete: frappe.model.utils.user_settings.sync_user_settings for meeting.dev
2021-04-23 13:00:38,177 INFO scheduler Scheduled Job Start: frappe.model.utils.link_count.update_link_count for meeting.dev
2021-04-23 13:00:38,569 INFO scheduler Scheduled Job Complete: frappe.model.utils.link_count.update_link_count for meeting.dev
2021-04-23 13:00:38,653 INFO scheduler Scheduled Job Start: frappe.monitor.flush for meeting.dev
2021-04-23 13:00:38,806 INFO scheduler Scheduled Job Complete: frappe.monitor.flush for meeting.dev
2021-04-23 13:00:38,877 INFO scheduler Scheduled Job Start: frappe.utils.global_search.sync_global_search for meeting.dev
2021-04-23 13:00:39,030 INFO scheduler Scheduled Job Complete: frappe.utils.global_search.sync_global_search for meeting.dev
2021-04-23 13:00:39,105 INFO scheduler Scheduled Job Start: frappe.integrations.doctype.razorpay_settings.razorpay_settings.capture_payment for meeting.dev
2021-04-23 13:00:39,511 INFO scheduler Scheduled Job Complete: frappe.integrations.doctype.razorpay_settings.razorpay_settings.capture_payment for meeting.dev
2021-04-23 13:00:39,587 INFO scheduler Scheduled Job Start: frappe.email.doctype.email_account.email_account.notify_unreplied for meeting.dev
2021-04-23 13:00:39,943 INFO scheduler Scheduled Job Complete: frappe.email.doctype.email_account.email_account.notify_unreplied for meeting.dev
2021-04-23 13:00:40,023 INFO scheduler Scheduled Job Start: frappe.email.doctype.email_account.email_account.pull for meeting.dev
2021-04-23 13:00:40,411 INFO scheduler Scheduled Job Complete: frappe.email.doctype.email_account.email_account.pull for meeting.dev
2021-04-23 13:00:40,481 INFO scheduler Scheduled Job Start: frappe.email.queue.flush for meeting.dev
2021-04-23 13:00:40,741 INFO scheduler Scheduled Job Complete: frappe.email.queue.flush for meeting.dev
2021-04-23 13:00:40,811 INFO scheduler Scheduled Job Start: frappe.twofactor.delete_all_barcodes_for_users for meeting.dev
2021-04-23 13:00:41,225 INFO scheduler Scheduled Job Complete: frappe.twofactor.delete_all_barcodes_for_users for meeting.dev
2021-04-23 13:00:41,311 INFO scheduler Scheduled Job Start: frappe.website.doctype.web_page.web_page.check_publish_status for meeting.dev
2021-04-23 13:00:41,770 INFO scheduler Scheduled Job Complete: frappe.website.doctype.web_page.web_page.check_publish_status for meeting.dev
2021-04-23 13:00:41,857 INFO scheduler Scheduled Job Start: frappe.oauth.delete_oauth2_data for meeting.dev
2021-04-23 13:00:42,311 INFO scheduler Scheduled Job Complete: frappe.oauth.delete_oauth2_data for meeting.dev
2021-04-23 13:01:35,484 DEBUG scheduler Queued events for site meeting.dev
2021-04-23 13:02:35,728 DEBUG scheduler Queued events for site meeting.dev
2021-04-23 13:03:36,074 DEBUG scheduler Queued events for site meeting.dev
2021-04-23 13:04:36,383 DEBUG scheduler Queued events for site meeting.dev
2021-04-23 13:04:36,413 INFO scheduler Scheduled Job Start: frappe.monitor.flush for meeting.dev
2021-04-23 13:04:36,608 INFO scheduler Scheduled Job Complete: frappe.monitor.flush for meeting.dev
2021-04-23 13:04:36,701 INFO scheduler Scheduled Job Start: frappe.utils.global_search.sync_global_search for meeting.dev
2021-04-23 13:04:36,886 INFO scheduler Scheduled Job Complete: frappe.utils.global_search.sync_global_search for meeting.dev
2021-04-23 13:04:36,990 INFO scheduler Scheduled Job Start: frappe.integrations.doctype.razorpay_settings.razorpay_settings.capture_payment for meeting.dev
2021-04-23 13:04:37,494 INFO scheduler Scheduled Job Complete: frappe.integrations.doctype.razorpay_settings.razorpay_settings.capture_payment for meeting.dev
2021-04-23 13:04:37,581 INFO scheduler Scheduled Job Start: frappe.email.doctype.email_account.email_account.notify_unreplied for meeting.dev
2021-04-23 13:04:37,961 INFO scheduler Scheduled Job Complete: frappe.email.doctype.email_account.email_account.notify_unreplied for meeting.dev
2021-04-23 13:04:38,047 INFO scheduler Scheduled Job Start: frappe.email.doctype.email_account.email_account.pull for meeting.dev
2021-04-23 13:04:38,418 INFO scheduler Scheduled Job Complete: frappe.email.doctype.email_account.email_account.pull for meeting.dev
2021-04-23 13:04:38,507 INFO scheduler Scheduled Job Start: frappe.email.queue.flush for meeting.dev
2021-04-23 13:04:38,827 INFO scheduler Scheduled Job Complete: frappe.email.queue.flush for meeting.dev
2021-04-23 13:05:36,660 DEBUG scheduler Queued events for site meeting.dev
2021-04-23 13:06:36,943 DEBUG scheduler Queued events for site meeting.dev
2021-04-23 13:07:37,208 DEBUG scheduler Queued events for site meeting.dev
2021-04-23 13:08:37,625 DEBUG scheduler Queued events for site meeting.dev
2021-04-23 13:08:37,661 INFO scheduler Scheduled Job Start: frappe.monitor.flush for meeting.dev
2021-04-23 13:08:37,874 INFO scheduler Scheduled Job Complete: frappe.monitor.flush for meeting.dev
2021-04-23 13:08:37,989 INFO scheduler Scheduled Job Start: frappe.utils.global_search.sync_global_search for meeting.dev
2021-04-23 13:08:38,288 INFO scheduler Scheduled Job Complete: frappe.utils.global_search.sync_global_search for meeting.dev
2021-04-23 13:08:38,396 INFO scheduler Scheduled Job Start: frappe.integrations.doctype.razorpay_settings.razorpay_settings.capture_payment for meeting.dev
2021-04-23 13:08:39,162 INFO scheduler Scheduled Job Complete: frappe.integrations.doctype.razorpay_settings.razorpay_settings.capture_payment for meeting.dev
2021-04-23 13:08:39,279 INFO scheduler Scheduled Job Start: frappe.email.doctype.email_account.email_account.notify_unreplied for meeting.dev
2021-04-23 13:08:39,791 INFO scheduler Scheduled Job Complete: frappe.email.doctype.email_account.email_account.notify_unreplied for meeting.dev
2021-04-23 13:08:39,950 INFO scheduler Scheduled Job Start: frappe.email.doctype.email_account.email_account.pull for meeting.dev
2021-04-23 13:08:40,446 INFO scheduler Scheduled Job Complete: frappe.email.doctype.email_account.email_account.pull for meeting.dev
2021-04-23 13:08:40,580 INFO scheduler Scheduled Job Start: frappe.email.queue.flush for meeting.dev
2021-04-23 13:08:40,922 INFO scheduler Scheduled Job Complete: frappe.email.queue.flush for meeting.dev
2021-04-23 13:09:38,036 DEBUG scheduler Queued events for site meeting.dev
2021-04-23 13:10:38,308 DEBUG scheduler Queued events for site meeting.dev
2021-04-23 13:11:38,647 DEBUG scheduler Queued events for site meeting.dev
2021-04-23 13:12:39,087 DEBUG scheduler Queued events for site meeting.dev
2021-04-23 13:12:39,119 INFO scheduler Scheduled Job Start: frappe.monitor.flush for meeting.dev
2021-04-23 13:12:39,340 INFO scheduler Scheduled Job Complete: frappe.monitor.flush for meeting.dev
2021-04-23 13:12:39,458 INFO scheduler Scheduled Job Start: frappe.utils.global_search.sync_global_search for meeting.dev
2021-04-23 13:12:39,695 INFO scheduler Scheduled Job Complete: frappe.utils.global_search.sync_global_search for meeting.dev
2021-04-23 13:12:39,789 INFO scheduler Scheduled Job Start: frappe.integrations.doctype.razorpay_settings.razorpay_settings.capture_payment for meeting.dev
2021-04-23 13:12:40,407 INFO scheduler Scheduled Job Complete: frappe.integrations.doctype.razorpay_settings.razorpay_settings.capture_payment for meeting.dev
2021-04-23 13:12:40,495 INFO scheduler Scheduled Job Start: frappe.email.doctype.email_account.email_account.notify_unreplied for meeting.dev
2021-04-23 13:12:40,895 INFO scheduler Scheduled Job Complete: frappe.email.doctype.email_account.email_account.notify_unreplied for meeting.dev
2021-04-23 13:12:41,005 INFO scheduler Scheduled Job Start: frappe.email.doctype.email_account.email_account.pull for meeting.dev
2021-04-23 13:12:41,467 INFO scheduler Scheduled Job Complete: frappe.email.doctype.email_account.email_account.pull for meeting.dev
2021-04-23 13:12:41,555 INFO scheduler Scheduled Job Start: frappe.email.queue.flush for meeting.dev
2021-04-23 13:12:41,909 INFO scheduler Scheduled Job Complete: frappe.email.queue.flush for meeting.dev
2021-04-23 13:13:39,487 DEBUG scheduler Queued events for site meeting.dev
2021-04-23 13:14:39,816 DEBUG scheduler Queued events for site meeting.dev
2021-04-23 13:15:40,273 DEBUG scheduler Queued events for site meeting.dev
2021-04-23 13:15:40,365 INFO scheduler Scheduled Job Start: frappe.twofactor.delete_all_barcodes_for_users for meeting.dev
2021-04-23 13:15:41,417 INFO scheduler Scheduled Job Complete: frappe.twofactor.delete_all_barcodes_for_users for meeting.dev
2021-04-23 13:15:41,648 INFO scheduler Scheduled Job Start: frappe.website.doctype.web_page.web_page.check_publish_status for meeting.dev
2021-04-23 13:15:42,879 INFO scheduler Scheduled Job Complete: frappe.website.doctype.web_page.web_page.check_publish_status for meeting.dev
2021-04-23 13:15:43,004 INFO scheduler Scheduled Job Start: frappe.oauth.delete_oauth2_data for meeting.dev
2021-04-23 13:15:43,730 INFO scheduler Scheduled Job Complete: frappe.oauth.delete_oauth2_data for meeting.dev
2021-04-23 13:16:40,652 DEBUG scheduler Queued events for site meeting.dev
2021-04-23 13:16:40,701 INFO scheduler Scheduled Job Start: frappe.monitor.flush for meeting.dev
2021-04-23 13:16:40,892 INFO scheduler Scheduled Job Complete: frappe.monitor.flush for meeting.dev
2021-04-23 13:16:40,983 INFO scheduler Scheduled Job Start: frappe.utils.global_search.sync_global_search for meeting.dev
2021-04-23 13:16:41,168 INFO scheduler Scheduled Job Complete: frappe.utils.global_search.sync_global_search for meeting.dev
2021-04-23 13:16:41,256 INFO scheduler Scheduled Job Start: frappe.integrations.doctype.razorpay_settings.razorpay_settings.capture_payment for meeting.dev
2021-04-23 13:16:41,739 INFO scheduler Scheduled Job Complete: frappe.integrations.doctype.razorpay_settings.razorpay_settings.capture_payment for meeting.dev
2021-04-23 13:16:41,827 INFO scheduler Scheduled Job Start: frappe.email.doctype.email_account.email_account.notify_unreplied for meeting.dev
2021-04-23 13:16:42,206 INFO scheduler Scheduled Job Complete: frappe.email.doctype.email_account.email_account.notify_unreplied for meeting.dev
2021-04-23 13:16:42,293 INFO scheduler Scheduled Job Start: frappe.email.doctype.email_account.email_account.pull for meeting.dev
2021-04-23 13:16:42,706 INFO scheduler Scheduled Job Complete: frappe.email.doctype.email_account.email_account.pull for meeting.dev
2021-04-23 13:16:42,800 INFO scheduler Scheduled Job Start: frappe.email.queue.flush for meeting.dev
2021-04-23 13:16:43,117 INFO scheduler Scheduled Job Complete: frappe.email.queue.flush for meeting.dev
2021-04-23 13:17:40,957 DEBUG scheduler Queued events for site meeting.dev
2021-04-23 13:18:41,238 DEBUG scheduler Queued events for site meeting.dev
2021-04-23 13:19:41,507 DEBUG scheduler Queued events for site meeting.dev
2021-04-23 13:20:41,838 DEBUG scheduler Queued events for site meeting.dev
2021-04-23 13:20:41,887 INFO scheduler Scheduled Job Start: frappe.monitor.flush for meeting.dev
2021-04-23 13:20:42,107 INFO scheduler Scheduled Job Complete: frappe.monitor.flush for meeting.dev
2021-04-23 13:20:42,259 INFO scheduler Scheduled Job Start: frappe.utils.global_search.sync_global_search for meeting.dev
2021-04-23 13:20:42,549 INFO scheduler Scheduled Job Complete: frappe.utils.global_search.sync_global_search for meeting.dev
2021-04-23 13:20:42,670 INFO scheduler Scheduled Job Start: frappe.integrations.doctype.razorpay_settings.razorpay_settings.capture_payment for meeting.dev
2021-04-23 13:20:43,309 INFO scheduler Scheduled Job Complete: frappe.integrations.doctype.razorpay_settings.razorpay_settings.capture_payment for meeting.dev
2021-04-23 13:20:43,444 INFO scheduler Scheduled Job Start: frappe.email.doctype.email_account.email_account.notify_unreplied for meeting.dev
2021-04-23 13:20:43,836 INFO scheduler Scheduled Job Complete: frappe.email.doctype.email_account.email_account.notify_unreplied for meeting.dev
2021-04-23 13:20:43,975 INFO scheduler Scheduled Job Start: frappe.email.doctype.email_account.email_account.pull for meeting.dev
2021-04-23 13:20:44,587 INFO scheduler Scheduled Job Complete: frappe.email.doctype.email_account.email_account.pull for meeting.dev
2021-04-23 13:20:44,757 INFO scheduler Scheduled Job Start: frappe.email.queue.flush for meeting.dev
2021-04-23 13:20:45,135 INFO scheduler Scheduled Job Complete: frappe.email.queue.flush for meeting.dev
2021-04-23 13:21:42,193 DEBUG scheduler Queued events for site meeting.dev
2021-04-23 13:22:42,463 DEBUG scheduler Queued events for site meeting.dev
2021-04-23 13:23:42,711 DEBUG scheduler Queued events for site meeting.dev
2021-04-23 13:24:42,997 DEBUG scheduler Queued events for site meeting.dev
2021-04-23 13:24:43,032 INFO scheduler Scheduled Job Start: frappe.monitor.flush for meeting.dev
2021-04-23 13:24:43,207 INFO scheduler Scheduled Job Complete: frappe.monitor.flush for meeting.dev
2021-04-23 13:24:43,280 INFO scheduler Scheduled Job Start: frappe.utils.global_search.sync_global_search for meeting.dev
2021-04-23 13:24:43,442 INFO scheduler Scheduled Job Complete: frappe.utils.global_search.sync_global_search for meeting.dev
2021-04-23 13:24:43,532 INFO scheduler Scheduled Job Start: frappe.integrations.doctype.razorpay_settings.razorpay_settings.capture_payment for meeting.dev
2021-04-23 13:24:44,007 INFO scheduler Scheduled Job Complete: frappe.integrations.doctype.razorpay_settings.razorpay_settings.capture_payment for meeting.dev
2021-04-23 13:24:44,099 INFO scheduler Scheduled Job Start: frappe.email.doctype.email_account.email_account.notify_unreplied for meeting.dev
2021-04-23 13:24:44,531 INFO scheduler Scheduled Job Complete: frappe.email.doctype.email_account.email_account.notify_unreplied for meeting.dev
2021-04-23 13:24:44,664 INFO scheduler Scheduled Job Start: frappe.email.doctype.email_account.email_account.pull for meeting.dev
2021-04-23 13:24:45,259 INFO scheduler Scheduled Job Complete: frappe.email.doctype.email_account.email_account.pull for meeting.dev
2021-04-23 13:24:45,358 INFO scheduler Scheduled Job Start: frappe.email.queue.flush for meeting.dev
2021-04-23 13:24:45,740 INFO scheduler Scheduled Job Complete: frappe.email.queue.flush for meeting.dev
2021-04-23 13:25:43,311 DEBUG scheduler Queued events for site meeting.dev
2021-04-23 13:26:43,619 DEBUG scheduler Queued events for site meeting.dev
2021-04-23 13:27:43,909 DEBUG scheduler Queued events for site meeting.dev
2021-04-23 13:28:44,283 DEBUG scheduler Queued events for site meeting.dev
2021-04-23 13:28:44,325 INFO scheduler Scheduled Job Start: frappe.monitor.flush for meeting.dev
2021-04-23 13:28:44,553 INFO scheduler Scheduled Job Complete: frappe.monitor.flush for meeting.dev
2021-04-23 13:28:44,657 INFO scheduler Scheduled Job Start: frappe.utils.global_search.sync_global_search for meeting.dev
2021-04-23 13:28:44,861 INFO scheduler Scheduled Job Complete: frappe.utils.global_search.sync_global_search for meeting.dev
2021-04-23 13:28:44,963 INFO scheduler Scheduled Job Start: frappe.integrations.doctype.razorpay_settings.razorpay_settings.capture_payment for meeting.dev
2021-04-23 13:28:45,497 INFO scheduler Scheduled Job Complete: frappe.integrations.doctype.razorpay_settings.razorpay_settings.capture_payment for meeting.dev
2021-04-23 13:28:45,583 INFO scheduler Scheduled Job Start: frappe.email.doctype.email_account.email_account.notify_unreplied for meeting.dev
2021-04-23 13:28:45,936 INFO scheduler Scheduled Job Complete: frappe.email.doctype.email_account.email_account.notify_unreplied for meeting.dev
2021-04-23 13:28:46,043 INFO scheduler Scheduled Job Start: frappe.email.doctype.email_account.email_account.pull for meeting.dev
2021-04-23 13:28:46,506 INFO scheduler Scheduled Job Complete: frappe.email.doctype.email_account.email_account.pull for meeting.dev
2021-04-23 13:28:46,613 INFO scheduler Scheduled Job Start: frappe.email.queue.flush for meeting.dev
2021-04-23 13:28:46,990 INFO scheduler Scheduled Job Complete: frappe.email.queue.flush for meeting.dev
2021-04-23 13:29:44,604 DEBUG scheduler Queued events for site meeting.dev
2021-04-23 13:30:44,937 DEBUG scheduler Queued events for site meeting.dev
2021-04-23 13:30:45,015 INFO scheduler Scheduled Job Start: frappe.twofactor.delete_all_barcodes_for_users for meeting.dev
2021-04-23 13:30:45,641 INFO scheduler Scheduled Job Complete: frappe.twofactor.delete_all_barcodes_for_users for meeting.dev
2021-04-23 13:30:45,768 INFO scheduler Scheduled Job Start: frappe.website.doctype.web_page.web_page.check_publish_status for meeting.dev
2021-04-23 13:30:46,429 INFO scheduler Scheduled Job Complete: frappe.website.doctype.web_page.web_page.check_publish_status for meeting.dev
2021-04-23 13:30:46,553 INFO scheduler Scheduled Job Start: frappe.oauth.delete_oauth2_data for meeting.dev
2021-04-23 13:30:47,126 INFO scheduler Scheduled Job Complete: frappe.oauth.delete_oauth2_data for meeting.dev
2021-04-23 13:31:45,276 DEBUG scheduler Queued events for site meeting.dev
2021-04-23 13:32:45,612 DEBUG scheduler Queued events for site meeting.dev
2021-04-23 13:32:45,648 INFO scheduler Scheduled Job Start: frappe.monitor.flush for meeting.dev
2021-04-23 13:32:45,844 INFO scheduler Scheduled Job Complete: frappe.monitor.flush for meeting.dev
2021-04-23 13:32:45,924 INFO scheduler Scheduled Job Start: frappe.utils.global_search.sync_global_search for meeting.dev
2021-04-23 13:32:46,101 INFO scheduler Scheduled Job Complete: frappe.utils.global_search.sync_global_search for meeting.dev
2021-04-23 13:32:46,185 INFO scheduler Scheduled Job Start: frappe.integrations.doctype.razorpay_settings.razorpay_settings.capture_payment for meeting.dev
2021-04-23 13:32:46,641 INFO scheduler Scheduled Job Complete: frappe.integrations.doctype.razorpay_settings.razorpay_settings.capture_payment for meeting.dev
2021-04-23 13:32:46,722 INFO scheduler Scheduled Job Start: frappe.email.doctype.email_account.email_account.notify_unreplied for meeting.dev
2021-04-23 13:32:47,088 INFO scheduler Scheduled Job Complete: frappe.email.doctype.email_account.email_account.notify_unreplied for meeting.dev
2021-04-23 13:32:47,182 INFO scheduler Scheduled Job Start: frappe.email.doctype.email_account.email_account.pull for meeting.dev
2021-04-23 13:32:47,560 INFO scheduler Scheduled Job Complete: frappe.email.doctype.email_account.email_account.pull for meeting.dev
2021-04-23 13:32:47,648 INFO scheduler Scheduled Job Start: frappe.email.queue.flush for meeting.dev
2021-04-23 13:32:47,969 INFO scheduler Scheduled Job Complete: frappe.email.queue.flush for meeting.dev
2021-04-23 13:33:45,944 DEBUG scheduler Queued events for site meeting.dev
2021-04-23 13:34:46,237 DEBUG scheduler Queued events for site meeting.dev
2021-04-23 13:35:46,520 DEBUG scheduler Queued events for site meeting.dev
2021-04-23 13:36:46,830 DEBUG scheduler Queued events for site meeting.dev
2021-04-23 13:36:46,867 INFO scheduler Scheduled Job Start: frappe.monitor.flush for meeting.dev
2021-04-23 13:36:47,037 INFO scheduler Scheduled Job Complete: frappe.monitor.flush for meeting.dev
2021-04-23 13:36:47,115 INFO scheduler Scheduled Job Start: frappe.utils.global_search.sync_global_search for meeting.dev
2021-04-23 13:36:47,295 INFO scheduler Scheduled Job Complete: frappe.utils.global_search.sync_global_search for meeting.dev
2021-04-23 13:36:47,370 INFO scheduler Scheduled Job Start: frappe.integrations.doctype.razorpay_settings.razorpay_settings.capture_payment for meeting.dev
2021-04-23 13:36:47,826 INFO scheduler Scheduled Job Complete: frappe.integrations.doctype.razorpay_settings.razorpay_settings.capture_payment for meeting.dev
2021-04-23 13:36:47,897 INFO scheduler Scheduled Job Start: frappe.email.doctype.email_account.email_account.notify_unreplied for meeting.dev
2021-04-23 13:36:48,217 INFO scheduler Scheduled Job Complete: frappe.email.doctype.email_account.email_account.notify_unreplied for meeting.dev
2021-04-23 13:36:48,291 INFO scheduler Scheduled Job Start: frappe.email.doctype.email_account.email_account.pull for meeting.dev
2021-04-23 13:36:48,631 INFO scheduler Scheduled Job Complete: frappe.email.doctype.email_account.email_account.pull for meeting.dev
2021-04-23 13:36:48,704 INFO scheduler Scheduled Job Start: frappe.email.queue.flush for meeting.dev
2021-04-23 13:36:48,992 INFO scheduler Scheduled Job Complete: frappe.email.queue.flush for meeting.dev
2021-04-23 13:37:47,103 DEBUG scheduler Queued events for site meeting.dev
2021-04-23 13:38:47,337 DEBUG scheduler Queued events for site meeting.dev
2021-04-23 13:39:47,622 DEBUG scheduler Queued events for site meeting.dev
2021-04-23 13:40:47,898 DEBUG scheduler Queued events for site meeting.dev
2021-04-23 13:40:47,963 INFO scheduler Scheduled Job Start: frappe.monitor.flush for meeting.dev
2021-04-23 13:40:48,195 INFO scheduler Scheduled Job Complete: frappe.monitor.flush for meeting.dev
2021-04-23 13:40:48,276 INFO scheduler Scheduled Job Start: frappe.utils.global_search.sync_global_search for meeting.dev
2021-04-23 13:40:48,481 INFO scheduler Scheduled Job Complete: frappe.utils.global_search.sync_global_search for meeting.dev
2021-04-23 13:40:48,571 INFO scheduler Scheduled Job Start: frappe.integrations.doctype.razorpay_settings.razorpay_settings.capture_payment for meeting.dev
2021-04-23 13:40:48,986 INFO scheduler Scheduled Job Complete: frappe.integrations.doctype.razorpay_settings.razorpay_settings.capture_payment for meeting.dev
2021-04-23 13:40:49,058 INFO scheduler Scheduled Job Start: frappe.email.doctype.email_account.email_account.notify_unreplied for meeting.dev
2021-04-23 13:40:49,402 INFO scheduler Scheduled Job Complete: frappe.email.doctype.email_account.email_account.notify_unreplied for meeting.dev
2021-04-23 13:40:49,481 INFO scheduler Scheduled Job Start: frappe.email.doctype.email_account.email_account.pull for meeting.dev
2021-04-23 13:40:49,924 INFO scheduler Scheduled Job Complete: frappe.email.doctype.email_account.email_account.pull for meeting.dev
2021-04-23 13:40:50,034 INFO scheduler Scheduled Job Start: frappe.email.queue.flush for meeting.dev
2021-04-23 13:40:50,331 INFO scheduler Scheduled Job Complete: frappe.email.queue.flush for meeting.dev
2021-04-23 13:41:48,182 DEBUG scheduler Queued events for site meeting.dev
2021-04-23 13:42:48,459 DEBUG scheduler Queued events for site meeting.dev
2021-04-23 13:43:48,731 DEBUG scheduler Queued events for site meeting.dev
2021-04-23 13:44:49,005 DEBUG scheduler Queued events for site meeting.dev
2021-04-23 13:44:49,038 INFO scheduler Scheduled Job Start: frappe.monitor.flush for meeting.dev
2021-04-23 13:44:49,204 INFO scheduler Scheduled Job Complete: frappe.monitor.flush for meeting.dev
2021-04-23 13:44:49,296 INFO scheduler Scheduled Job Start: frappe.utils.global_search.sync_global_search for meeting.dev
2021-04-23 13:44:49,465 INFO scheduler Scheduled Job Complete: frappe.utils.global_search.sync_global_search for meeting.dev
2021-04-23 13:44:49,548 INFO scheduler Scheduled Job Start: frappe.integrations.doctype.razorpay_settings.razorpay_settings.capture_payment for meeting.dev
2021-04-23 13:44:49,962 INFO scheduler Scheduled Job Complete: frappe.integrations.doctype.razorpay_settings.razorpay_settings.capture_payment for meeting.dev
2021-04-23 13:44:50,037 INFO scheduler Scheduled Job Start: frappe.email.doctype.email_account.email_account.notify_unreplied for meeting.dev
2021-04-23 13:44:50,356 INFO scheduler Scheduled Job Complete: frappe.email.doctype.email_account.email_account.notify_unreplied for meeting.dev
2021-04-23 13:44:50,431 INFO scheduler Scheduled Job Start: frappe.email.doctype.email_account.email_account.pull for meeting.dev
2021-04-23 13:44:50,780 INFO scheduler Scheduled Job Complete: frappe.email.doctype.email_account.email_account.pull for meeting.dev
2021-04-23 13:44:50,882 INFO scheduler Scheduled Job Start: frappe.email.queue.flush for meeting.dev
2021-04-23 13:44:51,208 INFO scheduler Scheduled Job Complete: frappe.email.queue.flush for meeting.dev
2021-04-23 13:45:49,268 DEBUG scheduler Queued events for site meeting.dev
2021-04-23 13:45:49,325 INFO scheduler Scheduled Job Start: frappe.twofactor.delete_all_barcodes_for_users for meeting.dev
2021-04-23 13:45:49,755 INFO scheduler Scheduled Job Complete: frappe.twofactor.delete_all_barcodes_for_users for meeting.dev
2021-04-23 13:45:49,836 INFO scheduler Scheduled Job Start: frappe.website.doctype.web_page.web_page.check_publish_status for meeting.dev
2021-04-23 13:45:50,293 INFO scheduler Scheduled Job Complete: frappe.website.doctype.web_page.web_page.check_publish_status for meeting.dev
2021-04-23 13:45:50,384 INFO scheduler Scheduled Job Start: frappe.oauth.delete_oauth2_data for meeting.dev
2021-04-23 13:45:50,802 INFO scheduler Scheduled Job Complete: frappe.oauth.delete_oauth2_data for meeting.dev
2021-04-23 13:46:49,560 DEBUG scheduler Queued events for site meeting.dev
2021-04-23 13:47:49,917 DEBUG scheduler Queued events for site meeting.dev
2021-04-23 13:48:50,304 DEBUG scheduler Queued events for site meeting.dev
2021-04-23 13:48:50,354 INFO scheduler Scheduled Job Start: frappe.monitor.flush for meeting.dev
2021-04-23 13:48:50,592 INFO scheduler Scheduled Job Complete: frappe.monitor.flush for meeting.dev
2021-04-23 13:48:50,696 INFO scheduler Scheduled Job Start: frappe.utils.global_search.sync_global_search for meeting.dev
2021-04-23 13:48:50,903 INFO scheduler Scheduled Job Complete: frappe.utils.global_search.sync_global_search for meeting.dev
