2021-04-23 13:49:50,660 DEBUG scheduler Queued events for site meeting.dev
2021-04-23 13:50:50,966 DEBUG scheduler Queued events for site meeting.dev
2021-04-23 13:51:51,284 DEBUG scheduler Queued events for site meeting.dev
2021-04-23 13:52:51,695 DEBUG scheduler Queued events for site meeting.dev
2021-04-23 13:52:51,743 INFO scheduler Scheduled Job Start: frappe.monitor.flush for meeting.dev
2021-04-23 13:52:51,983 INFO scheduler Scheduled Job Complete: frappe.monitor.flush for meeting.dev
2021-04-23 13:52:52,098 INFO scheduler Scheduled Job Start: frappe.utils.global_search.sync_global_search for meeting.dev
2021-04-23 13:52:52,343 INFO scheduler Scheduled Job Complete: frappe.utils.global_search.sync_global_search for meeting.dev
2021-04-23 13:52:52,449 INFO scheduler Scheduled Job Start: frappe.integrations.doctype.razorpay_settings.razorpay_settings.capture_payment for meeting.dev
2021-04-23 13:52:52,978 INFO scheduler Scheduled Job Complete: frappe.integrations.doctype.razorpay_settings.razorpay_settings.capture_payment for meeting.dev
2021-04-23 13:52:53,081 INFO scheduler Scheduled Job Start: frappe.email.doctype.email_account.email_account.notify_unreplied for meeting.dev
2021-04-23 13:52:53,513 INFO scheduler Scheduled Job Complete: frappe.email.doctype.email_account.email_account.notify_unreplied for meeting.dev
2021-04-23 13:52:53,617 INFO scheduler Scheduled Job Start: frappe.email.doctype.email_account.email_account.pull for meeting.dev
2021-04-23 13:52:54,078 INFO scheduler Scheduled Job Complete: frappe.email.doctype.email_account.email_account.pull for meeting.dev
2021-04-23 13:52:54,190 INFO scheduler Scheduled Job Start: frappe.email.queue.flush for meeting.dev
2021-04-23 13:52:54,586 INFO scheduler Scheduled Job Complete: frappe.email.queue.flush for meeting.dev
2021-04-23 13:53:52,041 DEBUG scheduler Queued events for site meeting.dev
2021-04-23 13:54:52,352 DEBUG scheduler Queued events for site meeting.dev
2021-04-23 13:55:52,619 DEBUG scheduler Queued events for site meeting.dev
2021-04-23 13:56:52,958 DEBUG scheduler Queued events for site meeting.dev
2021-04-23 13:56:53,015 INFO scheduler Scheduled Job Start: frappe.monitor.flush for meeting.dev
2021-04-23 13:56:53,238 INFO scheduler Scheduled Job Complete: frappe.monitor.flush for meeting.dev
2021-04-23 13:56:53,347 INFO scheduler Scheduled Job Start: frappe.utils.global_search.sync_global_search for meeting.dev
2021-04-23 13:56:53,582 INFO scheduler Scheduled Job Complete: frappe.utils.global_search.sync_global_search for meeting.dev
2021-04-23 13:56:53,683 INFO scheduler Scheduled Job Start: frappe.integrations.doctype.razorpay_settings.razorpay_settings.capture_payment for meeting.dev
2021-04-23 13:56:54,174 INFO scheduler Scheduled Job Complete: frappe.integrations.doctype.razorpay_settings.razorpay_settings.capture_payment for meeting.dev
2021-04-23 13:56:54,268 INFO scheduler Scheduled Job Start: frappe.email.doctype.email_account.email_account.notify_unreplied for meeting.dev
2021-04-23 13:56:54,733 INFO scheduler Scheduled Job Complete: frappe.email.doctype.email_account.email_account.notify_unreplied for meeting.dev
2021-04-23 13:56:54,835 INFO scheduler Scheduled Job Start: frappe.email.doctype.email_account.email_account.pull for meeting.dev
2021-04-23 13:56:55,285 INFO scheduler Scheduled Job Complete: frappe.email.doctype.email_account.email_account.pull for meeting.dev
2021-04-23 13:56:55,384 INFO scheduler Scheduled Job Start: frappe.email.queue.flush for meeting.dev
2021-04-23 13:56:55,766 INFO scheduler Scheduled Job Complete: frappe.email.queue.flush for meeting.dev
2021-04-23 13:57:53,309 DEBUG scheduler Queued events for site meeting.dev
2021-04-23 13:58:53,596 DEBUG scheduler Queued events for site meeting.dev
2021-04-23 13:59:53,863 DEBUG scheduler Queued events for site meeting.dev
2021-04-23 14:00:54,169 INFO scheduler Scheduled Job Start: frappe.email.doctype.newsletter.newsletter.send_scheduled_email for meeting.dev
2021-04-23 14:00:54,250 DEBUG scheduler Queued events for site meeting.dev
2021-04-23 14:00:54,670 INFO scheduler Scheduled Job Complete: frappe.email.doctype.newsletter.newsletter.send_scheduled_email for meeting.dev
2021-04-23 14:00:54,767 INFO scheduler Scheduled Job Start: frappe.integrations.doctype.google_calendar.google_calendar.sync for meeting.dev
2021-04-23 14:00:55,353 INFO scheduler Scheduled Job Complete: frappe.integrations.doctype.google_calendar.google_calendar.sync for meeting.dev
2021-04-23 14:00:55,449 INFO scheduler Scheduled Job Start: frappe.desk.form.document_follow.send_hourly_updates for meeting.dev
2021-04-23 14:00:55,907 INFO scheduler Scheduled Job Complete: frappe.desk.form.document_follow.send_hourly_updates for meeting.dev
2021-04-23 14:00:56,013 INFO scheduler Scheduled Job Start: frappe.deferred_insert.save_to_db for meeting.dev
2021-04-23 14:00:56,492 INFO scheduler Scheduled Job Complete: frappe.deferred_insert.save_to_db for meeting.dev
2021-04-23 14:00:56,584 INFO scheduler Scheduled Job Start: frappe.desk.page.backups.backups.delete_downloadable_backups for meeting.dev
2021-04-23 14:00:57,019 INFO scheduler Scheduled Job Complete: frappe.desk.page.backups.backups.delete_downloadable_backups for meeting.dev
2021-04-23 14:00:57,134 INFO scheduler Scheduled Job Start: frappe.utils.error.collect_error_snapshots for meeting.dev
2021-04-23 14:00:57,658 INFO scheduler Scheduled Job Complete: frappe.utils.error.collect_error_snapshots for meeting.dev
2021-04-23 14:00:57,756 INFO scheduler Scheduled Job Start: frappe.model.utils.user_settings.sync_user_settings for meeting.dev
2021-04-23 14:00:58,263 INFO scheduler Scheduled Job Complete: frappe.model.utils.user_settings.sync_user_settings for meeting.dev
2021-04-23 14:00:58,392 INFO scheduler Scheduled Job Start: frappe.model.utils.link_count.update_link_count for meeting.dev
2021-04-23 14:00:58,992 INFO scheduler Scheduled Job Complete: frappe.model.utils.link_count.update_link_count for meeting.dev
2021-04-23 14:00:59,111 INFO scheduler Scheduled Job Start: frappe.monitor.flush for meeting.dev
2021-04-23 14:00:59,387 INFO scheduler Scheduled Job Complete: frappe.monitor.flush for meeting.dev
2021-04-23 14:00:59,545 INFO scheduler Scheduled Job Start: frappe.utils.global_search.sync_global_search for meeting.dev
2021-04-23 14:00:59,832 INFO scheduler Scheduled Job Complete: frappe.utils.global_search.sync_global_search for meeting.dev
2021-04-23 14:00:59,911 INFO scheduler Scheduled Job Start: frappe.integrations.doctype.razorpay_settings.razorpay_settings.capture_payment for meeting.dev
2021-04-23 14:01:00,371 INFO scheduler Scheduled Job Complete: frappe.integrations.doctype.razorpay_settings.razorpay_settings.capture_payment for meeting.dev
2021-04-23 14:01:00,442 INFO scheduler Scheduled Job Start: frappe.email.doctype.email_account.email_account.notify_unreplied for meeting.dev
2021-04-23 14:01:00,815 INFO scheduler Scheduled Job Complete: frappe.email.doctype.email_account.email_account.notify_unreplied for meeting.dev
2021-04-23 14:01:00,925 INFO scheduler Scheduled Job Start: frappe.email.doctype.email_account.email_account.pull for meeting.dev
2021-04-23 14:01:01,396 INFO scheduler Scheduled Job Complete: frappe.email.doctype.email_account.email_account.pull for meeting.dev
2021-04-23 14:01:01,471 INFO scheduler Scheduled Job Start: frappe.email.queue.flush for meeting.dev
2021-04-23 14:01:01,785 INFO scheduler Scheduled Job Complete: frappe.email.queue.flush for meeting.dev
2021-04-23 14:01:01,879 INFO scheduler Scheduled Job Start: frappe.twofactor.delete_all_barcodes_for_users for meeting.dev
2021-04-23 14:01:02,468 INFO scheduler Scheduled Job Complete: frappe.twofactor.delete_all_barcodes_for_users for meeting.dev
2021-04-23 14:01:02,552 INFO scheduler Scheduled Job Start: frappe.website.doctype.web_page.web_page.check_publish_status for meeting.dev
2021-04-23 14:01:03,279 INFO scheduler Scheduled Job Complete: frappe.website.doctype.web_page.web_page.check_publish_status for meeting.dev
2021-04-23 14:01:03,441 INFO scheduler Scheduled Job Start: frappe.oauth.delete_oauth2_data for meeting.dev
2021-04-23 14:01:04,093 INFO scheduler Scheduled Job Complete: frappe.oauth.delete_oauth2_data for meeting.dev
2021-04-23 14:23:30,746 INFO scheduler Scheduled Job Start: frappe.monitor.flush for meeting.dev
2021-04-23 14:23:30,753 DEBUG scheduler Queued events for site meeting.dev
2021-04-23 14:23:30,959 INFO scheduler Scheduled Job Complete: frappe.monitor.flush for meeting.dev
2021-04-23 14:23:31,039 INFO scheduler Scheduled Job Start: frappe.utils.global_search.sync_global_search for meeting.dev
2021-04-23 14:23:31,199 INFO scheduler Scheduled Job Complete: frappe.utils.global_search.sync_global_search for meeting.dev
2021-04-23 14:23:31,282 INFO scheduler Scheduled Job Start: frappe.integrations.doctype.razorpay_settings.razorpay_settings.capture_payment for meeting.dev
2021-04-23 14:23:31,697 INFO scheduler Scheduled Job Complete: frappe.integrations.doctype.razorpay_settings.razorpay_settings.capture_payment for meeting.dev
2021-04-23 14:23:31,790 INFO scheduler Scheduled Job Start: frappe.email.doctype.email_account.email_account.notify_unreplied for meeting.dev
2021-04-23 14:23:32,268 INFO scheduler Scheduled Job Complete: frappe.email.doctype.email_account.email_account.notify_unreplied for meeting.dev
2021-04-23 14:23:32,341 INFO scheduler Scheduled Job Start: frappe.email.doctype.email_account.email_account.pull for meeting.dev
2021-04-23 14:23:32,694 INFO scheduler Scheduled Job Complete: frappe.email.doctype.email_account.email_account.pull for meeting.dev
2021-04-23 14:23:32,765 INFO scheduler Scheduled Job Start: frappe.email.queue.flush for meeting.dev
2021-04-23 14:23:33,033 INFO scheduler Scheduled Job Complete: frappe.email.queue.flush for meeting.dev
2021-04-23 14:23:33,108 INFO scheduler Scheduled Job Start: frappe.twofactor.delete_all_barcodes_for_users for meeting.dev
2021-04-23 14:23:33,550 INFO scheduler Scheduled Job Complete: frappe.twofactor.delete_all_barcodes_for_users for meeting.dev
2021-04-23 14:23:33,642 INFO scheduler Scheduled Job Start: frappe.website.doctype.web_page.web_page.check_publish_status for meeting.dev
2021-04-23 14:23:34,105 INFO scheduler Scheduled Job Complete: frappe.website.doctype.web_page.web_page.check_publish_status for meeting.dev
2021-04-23 14:23:34,198 INFO scheduler Scheduled Job Start: frappe.oauth.delete_oauth2_data for meeting.dev
2021-04-23 14:23:34,644 INFO scheduler Scheduled Job Complete: frappe.oauth.delete_oauth2_data for meeting.dev
2021-04-23 14:24:31,148 DEBUG scheduler Queued events for site meeting.dev
2021-04-23 14:24:31,177 INFO scheduler Scheduled Job Start: frappe.monitor.flush for meeting.dev
2021-04-23 14:24:31,351 INFO scheduler Scheduled Job Complete: frappe.monitor.flush for meeting.dev
2021-04-23 14:24:31,432 INFO scheduler Scheduled Job Start: frappe.utils.global_search.sync_global_search for meeting.dev
2021-04-23 14:24:31,598 INFO scheduler Scheduled Job Complete: frappe.utils.global_search.sync_global_search for meeting.dev
2021-04-23 14:24:31,675 INFO scheduler Scheduled Job Start: frappe.integrations.doctype.razorpay_settings.razorpay_settings.capture_payment for meeting.dev
2021-04-23 14:24:32,061 INFO scheduler Scheduled Job Complete: frappe.integrations.doctype.razorpay_settings.razorpay_settings.capture_payment for meeting.dev
2021-04-23 14:24:32,133 INFO scheduler Scheduled Job Start: frappe.email.doctype.email_account.email_account.notify_unreplied for meeting.dev
2021-04-23 14:24:32,444 INFO scheduler Scheduled Job Complete: frappe.email.doctype.email_account.email_account.notify_unreplied for meeting.dev
2021-04-23 14:24:32,516 INFO scheduler Scheduled Job Start: frappe.email.doctype.email_account.email_account.pull for meeting.dev
2021-04-23 14:24:32,841 INFO scheduler Scheduled Job Complete: frappe.email.doctype.email_account.email_account.pull for meeting.dev
2021-04-23 14:24:32,912 INFO scheduler Scheduled Job Start: frappe.email.queue.flush for meeting.dev
2021-04-23 14:24:33,185 INFO scheduler Scheduled Job Complete: frappe.email.queue.flush for meeting.dev
2021-04-23 14:25:31,404 DEBUG scheduler Queued events for site meeting.dev
2021-04-23 14:26:31,690 DEBUG scheduler Queued events for site meeting.dev
2021-04-23 14:27:32,036 DEBUG scheduler Queued events for site meeting.dev
2021-04-23 14:28:32,381 DEBUG scheduler Queued events for site meeting.dev
2021-04-23 14:28:32,415 INFO scheduler Scheduled Job Start: frappe.monitor.flush for meeting.dev
2021-04-23 14:28:32,600 INFO scheduler Scheduled Job Complete: frappe.monitor.flush for meeting.dev
2021-04-23 14:28:32,714 INFO scheduler Scheduled Job Start: frappe.utils.global_search.sync_global_search for meeting.dev
2021-04-23 14:28:32,965 INFO scheduler Scheduled Job Complete: frappe.utils.global_search.sync_global_search for meeting.dev
2021-04-23 14:28:33,067 INFO scheduler Scheduled Job Start: frappe.integrations.doctype.razorpay_settings.razorpay_settings.capture_payment for meeting.dev
2021-04-23 14:28:33,465 INFO scheduler Scheduled Job Complete: frappe.integrations.doctype.razorpay_settings.razorpay_settings.capture_payment for meeting.dev
2021-04-23 14:28:33,578 INFO scheduler Scheduled Job Start: frappe.email.doctype.email_account.email_account.notify_unreplied for meeting.dev
2021-04-23 14:28:33,927 INFO scheduler Scheduled Job Complete: frappe.email.doctype.email_account.email_account.notify_unreplied for meeting.dev
2021-04-23 14:28:33,999 INFO scheduler Scheduled Job Start: frappe.email.doctype.email_account.email_account.pull for meeting.dev
2021-04-23 14:28:34,316 INFO scheduler Scheduled Job Complete: frappe.email.doctype.email_account.email_account.pull for meeting.dev
2021-04-23 14:28:34,387 INFO scheduler Scheduled Job Start: frappe.email.queue.flush for meeting.dev
2021-04-23 14:28:34,648 INFO scheduler Scheduled Job Complete: frappe.email.queue.flush for meeting.dev
2021-04-23 14:29:32,668 DEBUG scheduler Queued events for site meeting.dev
2021-04-23 14:30:32,933 DEBUG scheduler Queued events for site meeting.dev
2021-04-23 14:30:32,985 INFO scheduler Scheduled Job Start: frappe.twofactor.delete_all_barcodes_for_users for meeting.dev
2021-04-23 14:30:33,406 INFO scheduler Scheduled Job Complete: frappe.twofactor.delete_all_barcodes_for_users for meeting.dev
2021-04-23 14:30:33,501 INFO scheduler Scheduled Job Start: frappe.website.doctype.web_page.web_page.check_publish_status for meeting.dev
2021-04-23 14:30:33,998 INFO scheduler Scheduled Job Complete: frappe.website.doctype.web_page.web_page.check_publish_status for meeting.dev
2021-04-23 14:30:34,089 INFO scheduler Scheduled Job Start: frappe.oauth.delete_oauth2_data for meeting.dev
2021-04-23 14:30:34,559 INFO scheduler Scheduled Job Complete: frappe.oauth.delete_oauth2_data for meeting.dev
2021-04-23 14:31:33,185 DEBUG scheduler Queued events for site meeting.dev
2021-04-23 14:32:33,978 DEBUG scheduler Queued events for site meeting.dev
2021-04-23 14:32:34,009 INFO scheduler Scheduled Job Start: frappe.monitor.flush for meeting.dev
2021-04-23 14:32:34,176 INFO scheduler Scheduled Job Complete: frappe.monitor.flush for meeting.dev
2021-04-23 14:32:34,247 INFO scheduler Scheduled Job Start: frappe.utils.global_search.sync_global_search for meeting.dev
2021-04-23 14:32:34,400 INFO scheduler Scheduled Job Complete: frappe.utils.global_search.sync_global_search for meeting.dev
2021-04-23 14:32:34,472 INFO scheduler Scheduled Job Start: frappe.integrations.doctype.razorpay_settings.razorpay_settings.capture_payment for meeting.dev
2021-04-23 14:32:34,863 INFO scheduler Scheduled Job Complete: frappe.integrations.doctype.razorpay_settings.razorpay_settings.capture_payment for meeting.dev
2021-04-23 14:32:34,939 INFO scheduler Scheduled Job Start: frappe.email.doctype.email_account.email_account.notify_unreplied for meeting.dev
2021-04-23 14:32:35,249 INFO scheduler Scheduled Job Complete: frappe.email.doctype.email_account.email_account.notify_unreplied for meeting.dev
2021-04-23 14:32:35,319 INFO scheduler Scheduled Job Start: frappe.email.doctype.email_account.email_account.pull for meeting.dev
2021-04-23 14:32:35,632 INFO scheduler Scheduled Job Complete: frappe.email.doctype.email_account.email_account.pull for meeting.dev
2021-04-23 14:32:35,704 INFO scheduler Scheduled Job Start: frappe.email.queue.flush for meeting.dev
2021-04-23 14:32:35,971 INFO scheduler Scheduled Job Complete: frappe.email.queue.flush for meeting.dev
2021-04-23 14:33:34,259 DEBUG scheduler Queued events for site meeting.dev
2021-04-23 14:34:34,498 DEBUG scheduler Queued events for site meeting.dev
2021-04-23 14:35:34,753 DEBUG scheduler Queued events for site meeting.dev
2021-04-23 14:36:35,080 DEBUG scheduler Queued events for site meeting.dev
2021-04-23 14:36:35,122 INFO scheduler Scheduled Job Start: frappe.monitor.flush for meeting.dev
2021-04-23 14:36:35,314 INFO scheduler Scheduled Job Complete: frappe.monitor.flush for meeting.dev
2021-04-23 14:36:35,391 INFO scheduler Scheduled Job Start: frappe.utils.global_search.sync_global_search for meeting.dev
2021-04-23 14:36:35,565 INFO scheduler Scheduled Job Complete: frappe.utils.global_search.sync_global_search for meeting.dev
2021-04-23 14:36:35,658 INFO scheduler Scheduled Job Start: frappe.integrations.doctype.razorpay_settings.razorpay_settings.capture_payment for meeting.dev
2021-04-23 14:36:36,172 INFO scheduler Scheduled Job Complete: frappe.integrations.doctype.razorpay_settings.razorpay_settings.capture_payment for meeting.dev
2021-04-23 14:36:36,266 INFO scheduler Scheduled Job Start: frappe.email.doctype.email_account.email_account.notify_unreplied for meeting.dev
2021-04-23 14:36:36,601 INFO scheduler Scheduled Job Complete: frappe.email.doctype.email_account.email_account.notify_unreplied for meeting.dev
2021-04-23 14:36:36,711 INFO scheduler Scheduled Job Start: frappe.email.doctype.email_account.email_account.pull for meeting.dev
2021-04-23 14:36:37,070 INFO scheduler Scheduled Job Complete: frappe.email.doctype.email_account.email_account.pull for meeting.dev
2021-04-23 14:36:37,145 INFO scheduler Scheduled Job Start: frappe.email.queue.flush for meeting.dev
2021-04-23 14:36:37,416 INFO scheduler Scheduled Job Complete: frappe.email.queue.flush for meeting.dev
2021-04-23 14:37:35,362 DEBUG scheduler Queued events for site meeting.dev
2021-04-23 14:38:35,602 DEBUG scheduler Queued events for site meeting.dev
2021-04-23 14:39:35,835 DEBUG scheduler Queued events for site meeting.dev
2021-04-23 14:40:36,191 DEBUG scheduler Queued events for site meeting.dev
2021-04-23 14:40:36,222 INFO scheduler Scheduled Job Start: frappe.monitor.flush for meeting.dev
2021-04-23 14:40:36,396 INFO scheduler Scheduled Job Complete: frappe.monitor.flush for meeting.dev
2021-04-23 14:40:36,470 INFO scheduler Scheduled Job Start: frappe.utils.global_search.sync_global_search for meeting.dev
2021-04-23 14:40:36,697 INFO scheduler Scheduled Job Complete: frappe.utils.global_search.sync_global_search for meeting.dev
2021-04-23 14:40:36,784 INFO scheduler Scheduled Job Start: frappe.integrations.doctype.razorpay_settings.razorpay_settings.capture_payment for meeting.dev
2021-04-23 14:40:37,174 INFO scheduler Scheduled Job Complete: frappe.integrations.doctype.razorpay_settings.razorpay_settings.capture_payment for meeting.dev
2021-04-23 14:40:37,246 INFO scheduler Scheduled Job Start: frappe.email.doctype.email_account.email_account.notify_unreplied for meeting.dev
2021-04-23 14:40:37,556 INFO scheduler Scheduled Job Complete: frappe.email.doctype.email_account.email_account.notify_unreplied for meeting.dev
2021-04-23 14:40:37,630 INFO scheduler Scheduled Job Start: frappe.email.doctype.email_account.email_account.pull for meeting.dev
2021-04-23 14:40:37,954 INFO scheduler Scheduled Job Complete: frappe.email.doctype.email_account.email_account.pull for meeting.dev
2021-04-23 14:40:38,038 INFO scheduler Scheduled Job Start: frappe.email.queue.flush for meeting.dev
2021-04-23 14:40:38,306 INFO scheduler Scheduled Job Complete: frappe.email.queue.flush for meeting.dev
2021-04-23 14:41:36,492 DEBUG scheduler Queued events for site meeting.dev
2021-04-23 14:42:36,753 DEBUG scheduler Queued events for site meeting.dev
2021-04-23 14:43:37,008 DEBUG scheduler Queued events for site meeting.dev
2021-04-23 14:44:37,312 DEBUG scheduler Queued events for site meeting.dev
2021-04-23 14:44:37,349 INFO scheduler Scheduled Job Start: frappe.monitor.flush for meeting.dev
2021-04-23 14:44:37,511 INFO scheduler Scheduled Job Complete: frappe.monitor.flush for meeting.dev
2021-04-23 14:44:37,584 INFO scheduler Scheduled Job Start: frappe.utils.global_search.sync_global_search for meeting.dev
2021-04-23 14:44:37,747 INFO scheduler Scheduled Job Complete: frappe.utils.global_search.sync_global_search for meeting.dev
2021-04-23 14:44:37,824 INFO scheduler Scheduled Job Start: frappe.integrations.doctype.razorpay_settings.razorpay_settings.capture_payment for meeting.dev
2021-04-23 14:44:38,311 INFO scheduler Scheduled Job Complete: frappe.integrations.doctype.razorpay_settings.razorpay_settings.capture_payment for meeting.dev
2021-04-23 14:44:38,383 INFO scheduler Scheduled Job Start: frappe.email.doctype.email_account.email_account.notify_unreplied for meeting.dev
2021-04-23 14:44:38,709 INFO scheduler Scheduled Job Complete: frappe.email.doctype.email_account.email_account.notify_unreplied for meeting.dev
2021-04-23 14:44:38,781 INFO scheduler Scheduled Job Start: frappe.email.doctype.email_account.email_account.pull for meeting.dev
2021-04-23 14:44:39,159 INFO scheduler Scheduled Job Complete: frappe.email.doctype.email_account.email_account.pull for meeting.dev
2021-04-23 14:44:39,233 INFO scheduler Scheduled Job Start: frappe.email.queue.flush for meeting.dev
2021-04-23 14:44:39,528 INFO scheduler Scheduled Job Complete: frappe.email.queue.flush for meeting.dev
2021-04-23 14:45:37,592 DEBUG scheduler Queued events for site meeting.dev
2021-04-23 14:45:37,653 INFO scheduler Scheduled Job Start: frappe.twofactor.delete_all_barcodes_for_users for meeting.dev
2021-04-23 14:45:38,118 INFO scheduler Scheduled Job Complete: frappe.twofactor.delete_all_barcodes_for_users for meeting.dev
2021-04-23 14:45:38,207 INFO scheduler Scheduled Job Start: frappe.website.doctype.web_page.web_page.check_publish_status for meeting.dev
2021-04-23 14:45:38,693 INFO scheduler Scheduled Job Complete: frappe.website.doctype.web_page.web_page.check_publish_status for meeting.dev
2021-04-23 14:45:38,845 INFO scheduler Scheduled Job Start: frappe.oauth.delete_oauth2_data for meeting.dev
2021-04-23 14:45:39,352 INFO scheduler Scheduled Job Complete: frappe.oauth.delete_oauth2_data for meeting.dev
2021-04-23 14:46:37,882 DEBUG scheduler Queued events for site meeting.dev
2021-04-23 14:47:38,138 DEBUG scheduler Queued events for site meeting.dev
2021-04-23 14:48:38,457 DEBUG scheduler Queued events for site meeting.dev
2021-04-23 14:48:38,501 INFO scheduler Scheduled Job Start: frappe.monitor.flush for meeting.dev
2021-04-23 14:48:38,661 INFO scheduler Scheduled Job Complete: frappe.monitor.flush for meeting.dev
2021-04-23 14:48:38,734 INFO scheduler Scheduled Job Start: frappe.utils.global_search.sync_global_search for meeting.dev
2021-04-23 14:48:38,930 INFO scheduler Scheduled Job Complete: frappe.utils.global_search.sync_global_search for meeting.dev
2021-04-23 14:48:39,008 INFO scheduler Scheduled Job Start: frappe.integrations.doctype.razorpay_settings.razorpay_settings.capture_payment for meeting.dev
2021-04-23 14:48:39,409 INFO scheduler Scheduled Job Complete: frappe.integrations.doctype.razorpay_settings.razorpay_settings.capture_payment for meeting.dev
2021-04-23 14:48:39,485 INFO scheduler Scheduled Job Start: frappe.email.doctype.email_account.email_account.notify_unreplied for meeting.dev
2021-04-23 14:48:39,809 INFO scheduler Scheduled Job Complete: frappe.email.doctype.email_account.email_account.notify_unreplied for meeting.dev
2021-04-23 14:48:39,886 INFO scheduler Scheduled Job Start: frappe.email.doctype.email_account.email_account.pull for meeting.dev
2021-04-23 14:48:40,216 INFO scheduler Scheduled Job Complete: frappe.email.doctype.email_account.email_account.pull for meeting.dev
2021-04-23 14:48:40,304 INFO scheduler Scheduled Job Start: frappe.email.queue.flush for meeting.dev
2021-04-23 14:48:40,647 INFO scheduler Scheduled Job Complete: frappe.email.queue.flush for meeting.dev
2021-04-23 14:49:38,878 DEBUG scheduler Queued events for site meeting.dev
2021-04-23 14:50:39,144 DEBUG scheduler Queued events for site meeting.dev
2021-04-23 14:51:39,426 DEBUG scheduler Queued events for site meeting.dev
2021-04-23 14:52:39,716 DEBUG scheduler Queued events for site meeting.dev
2021-04-23 14:52:39,746 INFO scheduler Scheduled Job Start: frappe.monitor.flush for meeting.dev
2021-04-23 14:52:39,906 INFO scheduler Scheduled Job Complete: frappe.monitor.flush for meeting.dev
2021-04-23 14:52:39,982 INFO scheduler Scheduled Job Start: frappe.utils.global_search.sync_global_search for meeting.dev
2021-04-23 14:52:40,243 INFO scheduler Scheduled Job Complete: frappe.utils.global_search.sync_global_search for meeting.dev
2021-04-23 14:52:40,342 INFO scheduler Scheduled Job Start: frappe.integrations.doctype.razorpay_settings.razorpay_settings.capture_payment for meeting.dev
2021-04-23 14:52:40,763 INFO scheduler Scheduled Job Complete: frappe.integrations.doctype.razorpay_settings.razorpay_settings.capture_payment for meeting.dev
2021-04-23 14:52:40,841 INFO scheduler Scheduled Job Start: frappe.email.doctype.email_account.email_account.notify_unreplied for meeting.dev
2021-04-23 14:52:41,193 INFO scheduler Scheduled Job Complete: frappe.email.doctype.email_account.email_account.notify_unreplied for meeting.dev
2021-04-23 14:52:41,279 INFO scheduler Scheduled Job Start: frappe.email.doctype.email_account.email_account.pull for meeting.dev
2021-04-23 14:52:41,763 INFO scheduler Scheduled Job Complete: frappe.email.doctype.email_account.email_account.pull for meeting.dev
2021-04-23 14:52:41,872 INFO scheduler Scheduled Job Start: frappe.email.queue.flush for meeting.dev
2021-04-23 14:52:42,197 INFO scheduler Scheduled Job Complete: frappe.email.queue.flush for meeting.dev
2021-04-23 14:53:39,980 DEBUG scheduler Queued events for site meeting.dev
2021-04-23 14:54:40,221 DEBUG scheduler Queued events for site meeting.dev
2021-04-23 14:55:40,472 DEBUG scheduler Queued events for site meeting.dev
2021-04-23 14:56:40,829 DEBUG scheduler Queued events for site meeting.dev
2021-04-23 14:56:40,883 INFO scheduler Scheduled Job Start: frappe.monitor.flush for meeting.dev
2021-04-23 14:56:41,053 INFO scheduler Scheduled Job Complete: frappe.monitor.flush for meeting.dev
2021-04-23 14:56:41,133 INFO scheduler Scheduled Job Start: frappe.utils.global_search.sync_global_search for meeting.dev
2021-04-23 14:56:41,304 INFO scheduler Scheduled Job Complete: frappe.utils.global_search.sync_global_search for meeting.dev
2021-04-23 14:56:41,381 INFO scheduler Scheduled Job Start: frappe.integrations.doctype.razorpay_settings.razorpay_settings.capture_payment for meeting.dev
2021-04-23 14:56:41,842 INFO scheduler Scheduled Job Complete: frappe.integrations.doctype.razorpay_settings.razorpay_settings.capture_payment for meeting.dev
2021-04-23 14:56:41,928 INFO scheduler Scheduled Job Start: frappe.email.doctype.email_account.email_account.notify_unreplied for meeting.dev
2021-04-23 14:56:42,264 INFO scheduler Scheduled Job Complete: frappe.email.doctype.email_account.email_account.notify_unreplied for meeting.dev
2021-04-23 14:56:42,341 INFO scheduler Scheduled Job Start: frappe.email.doctype.email_account.email_account.pull for meeting.dev
2021-04-23 14:56:42,678 INFO scheduler Scheduled Job Complete: frappe.email.doctype.email_account.email_account.pull for meeting.dev
2021-04-23 14:56:42,757 INFO scheduler Scheduled Job Start: frappe.email.queue.flush for meeting.dev
2021-04-23 14:56:43,042 INFO scheduler Scheduled Job Complete: frappe.email.queue.flush for meeting.dev
2021-04-23 14:57:41,097 DEBUG scheduler Queued events for site meeting.dev
2021-04-23 14:58:41,360 DEBUG scheduler Queued events for site meeting.dev
2021-04-23 14:59:41,615 DEBUG scheduler Queued events for site meeting.dev
2021-04-23 15:00:41,910 INFO scheduler Scheduled Job Start: frappe.email.doctype.newsletter.newsletter.send_scheduled_email for meeting.dev
2021-04-23 15:00:42,006 DEBUG scheduler Queued events for site meeting.dev
2021-04-23 15:00:42,424 INFO scheduler Scheduled Job Complete: frappe.email.doctype.newsletter.newsletter.send_scheduled_email for meeting.dev
2021-04-23 15:00:42,509 INFO scheduler Scheduled Job Start: frappe.integrations.doctype.google_calendar.google_calendar.sync for meeting.dev
2021-04-23 15:00:43,063 INFO scheduler Scheduled Job Complete: frappe.integrations.doctype.google_calendar.google_calendar.sync for meeting.dev
2021-04-23 15:00:43,151 INFO scheduler Scheduled Job Start: frappe.desk.form.document_follow.send_hourly_updates for meeting.dev
2021-04-23 15:00:43,545 INFO scheduler Scheduled Job Complete: frappe.desk.form.document_follow.send_hourly_updates for meeting.dev
2021-04-23 15:00:43,631 INFO scheduler Scheduled Job Start: frappe.deferred_insert.save_to_db for meeting.dev
2021-04-23 15:00:44,010 INFO scheduler Scheduled Job Complete: frappe.deferred_insert.save_to_db for meeting.dev
2021-04-23 15:00:44,100 INFO scheduler Scheduled Job Start: frappe.desk.page.backups.backups.delete_downloadable_backups for meeting.dev
2021-04-23 15:00:44,511 INFO scheduler Scheduled Job Complete: frappe.desk.page.backups.backups.delete_downloadable_backups for meeting.dev
2021-04-23 15:00:44,604 INFO scheduler Scheduled Job Start: frappe.utils.error.collect_error_snapshots for meeting.dev
2021-04-23 15:00:44,994 INFO scheduler Scheduled Job Complete: frappe.utils.error.collect_error_snapshots for meeting.dev
2021-04-23 15:00:45,083 INFO scheduler Scheduled Job Start: frappe.model.utils.user_settings.sync_user_settings for meeting.dev
2021-04-23 15:00:45,466 INFO scheduler Scheduled Job Complete: frappe.model.utils.user_settings.sync_user_settings for meeting.dev
2021-04-23 15:00:45,556 INFO scheduler Scheduled Job Start: frappe.model.utils.link_count.update_link_count for meeting.dev
2021-04-23 15:00:45,943 INFO scheduler Scheduled Job Complete: frappe.model.utils.link_count.update_link_count for meeting.dev
2021-04-23 15:00:46,033 INFO scheduler Scheduled Job Start: frappe.monitor.flush for meeting.dev
2021-04-23 15:00:46,228 INFO scheduler Scheduled Job Complete: frappe.monitor.flush for meeting.dev
2021-04-23 15:00:46,347 INFO scheduler Scheduled Job Start: frappe.utils.global_search.sync_global_search for meeting.dev
2021-04-23 15:00:46,537 INFO scheduler Scheduled Job Complete: frappe.utils.global_search.sync_global_search for meeting.dev
2021-04-23 15:00:46,621 INFO scheduler Scheduled Job Start: frappe.integrations.doctype.razorpay_settings.razorpay_settings.capture_payment for meeting.dev
2021-04-23 15:00:47,067 INFO scheduler Scheduled Job Complete: frappe.integrations.doctype.razorpay_settings.razorpay_settings.capture_payment for meeting.dev
2021-04-23 15:00:47,148 INFO scheduler Scheduled Job Start: frappe.email.doctype.email_account.email_account.notify_unreplied for meeting.dev
2021-04-23 15:00:47,461 INFO scheduler Scheduled Job Complete: frappe.email.doctype.email_account.email_account.notify_unreplied for meeting.dev
2021-04-23 15:00:47,533 INFO scheduler Scheduled Job Start: frappe.email.doctype.email_account.email_account.pull for meeting.dev
2021-04-23 15:00:47,854 INFO scheduler Scheduled Job Complete: frappe.email.doctype.email_account.email_account.pull for meeting.dev
2021-04-23 15:00:47,927 INFO scheduler Scheduled Job Start: frappe.email.queue.flush for meeting.dev
2021-04-23 15:00:48,241 INFO scheduler Scheduled Job Complete: frappe.email.queue.flush for meeting.dev
2021-04-23 15:00:48,332 INFO scheduler Scheduled Job Start: frappe.twofactor.delete_all_barcodes_for_users for meeting.dev
2021-04-23 15:00:48,819 INFO scheduler Scheduled Job Complete: frappe.twofactor.delete_all_barcodes_for_users for meeting.dev
2021-04-23 15:00:48,903 INFO scheduler Scheduled Job Start: frappe.website.doctype.web_page.web_page.check_publish_status for meeting.dev
2021-04-23 15:00:49,396 INFO scheduler Scheduled Job Complete: frappe.website.doctype.web_page.web_page.check_publish_status for meeting.dev
2021-04-23 15:00:49,490 INFO scheduler Scheduled Job Start: frappe.oauth.delete_oauth2_data for meeting.dev
2021-04-23 15:00:50,013 INFO scheduler Scheduled Job Complete: frappe.oauth.delete_oauth2_data for meeting.dev
2021-04-23 15:01:42,321 DEBUG scheduler Queued events for site meeting.dev
2021-04-23 15:02:42,582 DEBUG scheduler Queued events for site meeting.dev
2021-04-23 15:03:42,813 DEBUG scheduler Queued events for site meeting.dev
2021-04-23 15:04:43,107 DEBUG scheduler Queued events for site meeting.dev
2021-04-23 15:04:43,145 INFO scheduler Scheduled Job Start: frappe.monitor.flush for meeting.dev
2021-04-23 15:04:43,306 INFO scheduler Scheduled Job Complete: frappe.monitor.flush for meeting.dev
2021-04-23 15:04:43,378 INFO scheduler Scheduled Job Start: frappe.utils.global_search.sync_global_search for meeting.dev
2021-04-23 15:04:43,531 INFO scheduler Scheduled Job Complete: frappe.utils.global_search.sync_global_search for meeting.dev
2021-04-23 15:04:43,603 INFO scheduler Scheduled Job Start: frappe.integrations.doctype.razorpay_settings.razorpay_settings.capture_payment for meeting.dev
2021-04-23 15:04:44,026 INFO scheduler Scheduled Job Complete: frappe.integrations.doctype.razorpay_settings.razorpay_settings.capture_payment for meeting.dev
2021-04-23 15:04:44,141 INFO scheduler Scheduled Job Start: frappe.email.doctype.email_account.email_account.notify_unreplied for meeting.dev
2021-04-23 15:04:44,548 INFO scheduler Scheduled Job Complete: frappe.email.doctype.email_account.email_account.notify_unreplied for meeting.dev
2021-04-23 15:04:44,619 INFO scheduler Scheduled Job Start: frappe.email.doctype.email_account.email_account.pull for meeting.dev
2021-04-23 15:04:44,989 INFO scheduler Scheduled Job Complete: frappe.email.doctype.email_account.email_account.pull for meeting.dev
2021-04-23 15:04:45,095 INFO scheduler Scheduled Job Start: frappe.email.queue.flush for meeting.dev
2021-04-23 15:04:45,460 INFO scheduler Scheduled Job Complete: frappe.email.queue.flush for meeting.dev
2021-04-23 15:05:43,441 DEBUG scheduler Queued events for site meeting.dev
2021-04-23 15:06:43,765 DEBUG scheduler Queued events for site meeting.dev
2021-04-23 15:07:44,043 DEBUG scheduler Queued events for site meeting.dev
2021-04-23 15:08:44,335 DEBUG scheduler Queued events for site meeting.dev
2021-04-23 15:08:44,361 INFO scheduler Scheduled Job Start: frappe.monitor.flush for meeting.dev
2021-04-23 15:08:44,528 INFO scheduler Scheduled Job Complete: frappe.monitor.flush for meeting.dev
2021-04-23 15:08:44,601 INFO scheduler Scheduled Job Start: frappe.utils.global_search.sync_global_search for meeting.dev
2021-04-23 15:08:44,753 INFO scheduler Scheduled Job Complete: frappe.utils.global_search.sync_global_search for meeting.dev
2021-04-23 15:08:44,834 INFO scheduler Scheduled Job Start: frappe.integrations.doctype.razorpay_settings.razorpay_settings.capture_payment for meeting.dev
2021-04-23 15:08:45,248 INFO scheduler Scheduled Job Complete: frappe.integrations.doctype.razorpay_settings.razorpay_settings.capture_payment for meeting.dev
2021-04-23 15:08:45,330 INFO scheduler Scheduled Job Start: frappe.email.doctype.email_account.email_account.notify_unreplied for meeting.dev
2021-04-23 15:08:45,673 INFO scheduler Scheduled Job Complete: frappe.email.doctype.email_account.email_account.notify_unreplied for meeting.dev
2021-04-23 15:08:45,746 INFO scheduler Scheduled Job Start: frappe.email.doctype.email_account.email_account.pull for meeting.dev
2021-04-23 15:08:46,166 INFO scheduler Scheduled Job Complete: frappe.email.doctype.email_account.email_account.pull for meeting.dev
2021-04-23 15:08:46,248 INFO scheduler Scheduled Job Start: frappe.email.queue.flush for meeting.dev
2021-04-23 15:08:46,516 INFO scheduler Scheduled Job Complete: frappe.email.queue.flush for meeting.dev
2021-04-23 15:09:44,605 DEBUG scheduler Queued events for site meeting.dev
2021-04-23 15:10:44,894 DEBUG scheduler Queued events for site meeting.dev
2021-04-23 15:11:45,154 DEBUG scheduler Queued events for site meeting.dev
2021-04-23 15:12:45,455 DEBUG scheduler Queued events for site meeting.dev
2021-04-23 15:12:45,483 INFO scheduler Scheduled Job Start: frappe.monitor.flush for meeting.dev
2021-04-23 15:12:45,642 INFO scheduler Scheduled Job Complete: frappe.monitor.flush for meeting.dev
2021-04-23 15:12:45,717 INFO scheduler Scheduled Job Start: frappe.utils.global_search.sync_global_search for meeting.dev
2021-04-23 15:12:45,874 INFO scheduler Scheduled Job Complete: frappe.utils.global_search.sync_global_search for meeting.dev
2021-04-23 15:12:45,945 INFO scheduler Scheduled Job Start: frappe.integrations.doctype.razorpay_settings.razorpay_settings.capture_payment for meeting.dev
2021-04-23 15:12:46,345 INFO scheduler Scheduled Job Complete: frappe.integrations.doctype.razorpay_settings.razorpay_settings.capture_payment for meeting.dev
2021-04-23 15:12:46,416 INFO scheduler Scheduled Job Start: frappe.email.doctype.email_account.email_account.notify_unreplied for meeting.dev
2021-04-23 15:12:46,724 INFO scheduler Scheduled Job Complete: frappe.email.doctype.email_account.email_account.notify_unreplied for meeting.dev
2021-04-23 15:12:46,796 INFO scheduler Scheduled Job Start: frappe.email.doctype.email_account.email_account.pull for meeting.dev
2021-04-23 15:12:47,160 INFO scheduler Scheduled Job Complete: frappe.email.doctype.email_account.email_account.pull for meeting.dev
2021-04-23 15:12:47,233 INFO scheduler Scheduled Job Start: frappe.email.queue.flush for meeting.dev
2021-04-23 15:12:47,509 INFO scheduler Scheduled Job Complete: frappe.email.queue.flush for meeting.dev
2021-04-23 15:13:45,714 DEBUG scheduler Queued events for site meeting.dev
2021-04-23 15:14:45,971 DEBUG scheduler Queued events for site meeting.dev
2021-04-23 15:15:46,247 DEBUG scheduler Queued events for site meeting.dev
2021-04-23 15:15:46,315 INFO scheduler Scheduled Job Start: frappe.twofactor.delete_all_barcodes_for_users for meeting.dev
2021-04-23 15:15:46,835 INFO scheduler Scheduled Job Complete: frappe.twofactor.delete_all_barcodes_for_users for meeting.dev
2021-04-23 15:15:46,925 INFO scheduler Scheduled Job Start: frappe.website.doctype.web_page.web_page.check_publish_status for meeting.dev
2021-04-23 15:15:47,776 INFO scheduler Scheduled Job Complete: frappe.website.doctype.web_page.web_page.check_publish_status for meeting.dev
2021-04-23 15:15:47,969 INFO scheduler Scheduled Job Start: frappe.oauth.delete_oauth2_data for meeting.dev
2021-04-23 15:15:48,624 INFO scheduler Scheduled Job Complete: frappe.oauth.delete_oauth2_data for meeting.dev
2021-04-23 15:16:46,622 DEBUG scheduler Queued events for site meeting.dev
2021-04-23 15:16:46,642 INFO scheduler Scheduled Job Start: frappe.monitor.flush for meeting.dev
2021-04-23 15:16:46,859 INFO scheduler Scheduled Job Complete: frappe.monitor.flush for meeting.dev
2021-04-23 15:16:46,965 INFO scheduler Scheduled Job Start: frappe.utils.global_search.sync_global_search for meeting.dev
2021-04-23 15:16:47,229 INFO scheduler Scheduled Job Complete: frappe.utils.global_search.sync_global_search for meeting.dev
2021-04-23 15:16:47,328 INFO scheduler Scheduled Job Start: frappe.integrations.doctype.razorpay_settings.razorpay_settings.capture_payment for meeting.dev
2021-04-23 15:16:47,860 INFO scheduler Scheduled Job Complete: frappe.integrations.doctype.razorpay_settings.razorpay_settings.capture_payment for meeting.dev
2021-04-23 15:16:47,965 INFO scheduler Scheduled Job Start: frappe.email.doctype.email_account.email_account.notify_unreplied for meeting.dev
2021-04-23 15:16:48,408 INFO scheduler Scheduled Job Complete: frappe.email.doctype.email_account.email_account.notify_unreplied for meeting.dev
2021-04-23 15:16:48,525 INFO scheduler Scheduled Job Start: frappe.email.doctype.email_account.email_account.pull for meeting.dev
2021-04-23 15:16:48,989 INFO scheduler Scheduled Job Complete: frappe.email.doctype.email_account.email_account.pull for meeting.dev
2021-04-23 15:16:49,126 INFO scheduler Scheduled Job Start: frappe.email.queue.flush for meeting.dev
2021-04-23 15:16:49,525 INFO scheduler Scheduled Job Complete: frappe.email.queue.flush for meeting.dev
2021-04-23 15:17:46,960 DEBUG scheduler Queued events for site meeting.dev
2021-04-23 15:18:47,286 DEBUG scheduler Queued events for site meeting.dev
2021-04-23 15:19:47,598 DEBUG scheduler Queued events for site meeting.dev
2021-04-23 15:20:47,932 DEBUG scheduler Queued events for site meeting.dev
2021-04-23 15:20:47,974 INFO scheduler Scheduled Job Start: frappe.monitor.flush for meeting.dev
2021-04-23 15:20:48,168 INFO scheduler Scheduled Job Complete: frappe.monitor.flush for meeting.dev
2021-04-23 15:20:48,275 INFO scheduler Scheduled Job Start: frappe.utils.global_search.sync_global_search for meeting.dev
2021-04-23 15:20:48,470 INFO scheduler Scheduled Job Complete: frappe.utils.global_search.sync_global_search for meeting.dev
2021-04-23 15:20:48,554 INFO scheduler Scheduled Job Start: frappe.integrations.doctype.razorpay_settings.razorpay_settings.capture_payment for meeting.dev
2021-04-23 15:20:49,054 INFO scheduler Scheduled Job Complete: frappe.integrations.doctype.razorpay_settings.razorpay_settings.capture_payment for meeting.dev
2021-04-23 15:20:49,168 INFO scheduler Scheduled Job Start: frappe.email.doctype.email_account.email_account.notify_unreplied for meeting.dev
2021-04-23 15:20:49,647 INFO scheduler Scheduled Job Complete: frappe.email.doctype.email_account.email_account.notify_unreplied for meeting.dev
2021-04-23 15:20:49,758 INFO scheduler Scheduled Job Start: frappe.email.doctype.email_account.email_account.pull for meeting.dev
2021-04-23 15:20:50,230 INFO scheduler Scheduled Job Complete: frappe.email.doctype.email_account.email_account.pull for meeting.dev
2021-04-23 15:20:50,330 INFO scheduler Scheduled Job Start: frappe.email.queue.flush for meeting.dev
2021-04-23 15:20:50,750 INFO scheduler Scheduled Job Complete: frappe.email.queue.flush for meeting.dev
2021-04-23 15:21:48,263 DEBUG scheduler Queued events for site meeting.dev
2021-04-23 15:22:48,616 DEBUG scheduler Queued events for site meeting.dev
2021-04-23 15:23:48,941 DEBUG scheduler Queued events for site meeting.dev
2021-04-23 15:24:49,491 DEBUG scheduler Queued events for site meeting.dev
2021-04-23 15:24:49,509 INFO scheduler Scheduled Job Start: frappe.monitor.flush for meeting.dev
2021-04-23 15:24:49,891 INFO scheduler Scheduled Job Complete: frappe.monitor.flush for meeting.dev
2021-04-23 15:24:50,015 INFO scheduler Scheduled Job Start: frappe.utils.global_search.sync_global_search for meeting.dev
2021-04-23 15:24:50,324 INFO scheduler Scheduled Job Complete: frappe.utils.global_search.sync_global_search for meeting.dev
2021-04-23 15:24:50,476 INFO scheduler Scheduled Job Start: frappe.integrations.doctype.razorpay_settings.razorpay_settings.capture_payment for meeting.dev
2021-04-23 15:24:51,176 INFO scheduler Scheduled Job Complete: frappe.integrations.doctype.razorpay_settings.razorpay_settings.capture_payment for meeting.dev
2021-04-23 15:24:51,318 INFO scheduler Scheduled Job Start: frappe.email.doctype.email_account.email_account.notify_unreplied for meeting.dev
2021-04-23 15:24:51,832 INFO scheduler Scheduled Job Complete: frappe.email.doctype.email_account.email_account.notify_unreplied for meeting.dev
2021-04-23 15:24:51,964 INFO scheduler Scheduled Job Start: frappe.email.doctype.email_account.email_account.pull for meeting.dev
2021-04-23 15:24:52,463 INFO scheduler Scheduled Job Complete: frappe.email.doctype.email_account.email_account.pull for meeting.dev
2021-04-23 15:24:52,574 INFO scheduler Scheduled Job Start: frappe.email.queue.flush for meeting.dev
2021-04-23 15:24:52,969 INFO scheduler Scheduled Job Complete: frappe.email.queue.flush for meeting.dev
2021-04-23 15:25:49,881 DEBUG scheduler Queued events for site meeting.dev
2021-04-23 15:26:50,207 DEBUG scheduler Queued events for site meeting.dev
2021-04-23 15:27:50,476 DEBUG scheduler Queued events for site meeting.dev
2021-04-23 15:28:50,790 DEBUG scheduler Queued events for site meeting.dev
2021-04-23 15:28:50,835 INFO scheduler Scheduled Job Start: frappe.monitor.flush for meeting.dev
2021-04-23 15:28:51,046 INFO scheduler Scheduled Job Complete: frappe.monitor.flush for meeting.dev
2021-04-23 15:28:51,150 INFO scheduler Scheduled Job Start: frappe.utils.global_search.sync_global_search for meeting.dev
2021-04-23 15:28:51,358 INFO scheduler Scheduled Job Complete: frappe.utils.global_search.sync_global_search for meeting.dev
2021-04-23 15:28:51,470 INFO scheduler Scheduled Job Start: frappe.integrations.doctype.razorpay_settings.razorpay_settings.capture_payment for meeting.dev
2021-04-23 15:28:51,984 INFO scheduler Scheduled Job Complete: frappe.integrations.doctype.razorpay_settings.razorpay_settings.capture_payment for meeting.dev
2021-04-23 15:28:52,074 INFO scheduler Scheduled Job Start: frappe.email.doctype.email_account.email_account.notify_unreplied for meeting.dev
2021-04-23 15:28:52,491 INFO scheduler Scheduled Job Complete: frappe.email.doctype.email_account.email_account.notify_unreplied for meeting.dev
2021-04-23 15:28:52,592 INFO scheduler Scheduled Job Start: frappe.email.doctype.email_account.email_account.pull for meeting.dev
2021-04-23 15:28:53,026 INFO scheduler Scheduled Job Complete: frappe.email.doctype.email_account.email_account.pull for meeting.dev
2021-04-23 15:28:53,132 INFO scheduler Scheduled Job Start: frappe.email.queue.flush for meeting.dev
2021-04-23 15:28:53,523 INFO scheduler Scheduled Job Complete: frappe.email.queue.flush for meeting.dev
2021-04-23 15:29:51,137 DEBUG scheduler Queued events for site meeting.dev
2021-04-23 15:30:51,502 DEBUG scheduler Queued events for site meeting.dev
2021-04-23 15:30:51,604 INFO scheduler Scheduled Job Start: frappe.twofactor.delete_all_barcodes_for_users for meeting.dev
2021-04-23 15:30:52,215 INFO scheduler Scheduled Job Complete: frappe.twofactor.delete_all_barcodes_for_users for meeting.dev
2021-04-23 15:30:52,338 INFO scheduler Scheduled Job Start: frappe.website.doctype.web_page.web_page.check_publish_status for meeting.dev
2021-04-23 15:30:53,154 INFO scheduler Scheduled Job Complete: frappe.website.doctype.web_page.web_page.check_publish_status for meeting.dev
2021-04-23 15:30:53,299 INFO scheduler Scheduled Job Start: frappe.oauth.delete_oauth2_data for meeting.dev
2021-04-23 15:30:53,981 INFO scheduler Scheduled Job Complete: frappe.oauth.delete_oauth2_data for meeting.dev
2021-04-23 15:31:51,991 DEBUG scheduler Queued events for site meeting.dev
2021-04-23 15:32:52,454 DEBUG scheduler Queued events for site meeting.dev
2021-04-23 15:32:52,470 INFO scheduler Scheduled Job Start: frappe.monitor.flush for meeting.dev
2021-04-23 15:32:52,695 INFO scheduler Scheduled Job Complete: frappe.monitor.flush for meeting.dev
2021-04-23 15:32:52,808 INFO scheduler Scheduled Job Start: frappe.utils.global_search.sync_global_search for meeting.dev
2021-04-23 15:32:53,039 INFO scheduler Scheduled Job Complete: frappe.utils.global_search.sync_global_search for meeting.dev
2021-04-23 15:32:53,174 INFO scheduler Scheduled Job Start: frappe.integrations.doctype.razorpay_settings.razorpay_settings.capture_payment for meeting.dev
2021-04-23 15:32:53,866 INFO scheduler Scheduled Job Complete: frappe.integrations.doctype.razorpay_settings.razorpay_settings.capture_payment for meeting.dev
2021-04-23 15:32:53,974 INFO scheduler Scheduled Job Start: frappe.email.doctype.email_account.email_account.notify_unreplied for meeting.dev
2021-04-23 15:32:54,483 INFO scheduler Scheduled Job Complete: frappe.email.doctype.email_account.email_account.notify_unreplied for meeting.dev
2021-04-23 15:32:54,596 INFO scheduler Scheduled Job Start: frappe.email.doctype.email_account.email_account.pull for meeting.dev
2021-04-23 15:32:55,114 INFO scheduler Scheduled Job Complete: frappe.email.doctype.email_account.email_account.pull for meeting.dev
2021-04-23 15:32:55,234 INFO scheduler Scheduled Job Start: frappe.email.queue.flush for meeting.dev
2021-04-23 15:32:55,647 INFO scheduler Scheduled Job Complete: frappe.email.queue.flush for meeting.dev
2021-04-23 15:33:52,789 DEBUG scheduler Queued events for site meeting.dev
2021-04-23 15:34:53,080 DEBUG scheduler Queued events for site meeting.dev
2021-04-23 15:35:53,391 DEBUG scheduler Queued events for site meeting.dev
2021-04-23 15:36:53,798 DEBUG scheduler Queued events for site meeting.dev
2021-04-23 15:36:53,856 INFO scheduler Scheduled Job Start: frappe.monitor.flush for meeting.dev
2021-04-23 15:36:54,136 INFO scheduler Scheduled Job Complete: frappe.monitor.flush for meeting.dev
2021-04-23 15:36:54,266 INFO scheduler Scheduled Job Start: frappe.utils.global_search.sync_global_search for meeting.dev
2021-04-23 15:36:54,515 INFO scheduler Scheduled Job Complete: frappe.utils.global_search.sync_global_search for meeting.dev
2021-04-23 15:36:54,677 INFO scheduler Scheduled Job Start: frappe.integrations.doctype.razorpay_settings.razorpay_settings.capture_payment for meeting.dev
2021-04-23 15:36:55,337 INFO scheduler Scheduled Job Complete: frappe.integrations.doctype.razorpay_settings.razorpay_settings.capture_payment for meeting.dev
2021-04-23 15:36:55,469 INFO scheduler Scheduled Job Start: frappe.email.doctype.email_account.email_account.notify_unreplied for meeting.dev
2021-04-23 15:36:56,022 INFO scheduler Scheduled Job Complete: frappe.email.doctype.email_account.email_account.notify_unreplied for meeting.dev
2021-04-23 15:36:56,133 INFO scheduler Scheduled Job Start: frappe.email.doctype.email_account.email_account.pull for meeting.dev
2021-04-23 15:36:56,606 INFO scheduler Scheduled Job Complete: frappe.email.doctype.email_account.email_account.pull for meeting.dev
2021-04-23 15:36:56,715 INFO scheduler Scheduled Job Start: frappe.email.queue.flush for meeting.dev
2021-04-23 15:36:57,114 INFO scheduler Scheduled Job Complete: frappe.email.queue.flush for meeting.dev
2021-04-23 15:37:54,119 DEBUG scheduler Queued events for site meeting.dev
2021-04-23 15:38:54,393 DEBUG scheduler Queued events for site meeting.dev
2021-04-23 15:39:54,686 DEBUG scheduler Queued events for site meeting.dev
2021-04-23 15:40:55,062 DEBUG scheduler Queued events for site meeting.dev
2021-04-23 15:40:55,079 INFO scheduler Scheduled Job Start: frappe.monitor.flush for meeting.dev
2021-04-23 15:40:55,301 INFO scheduler Scheduled Job Complete: frappe.monitor.flush for meeting.dev
2021-04-23 15:40:55,399 INFO scheduler Scheduled Job Start: frappe.utils.global_search.sync_global_search for meeting.dev
2021-04-23 15:40:55,618 INFO scheduler Scheduled Job Complete: frappe.utils.global_search.sync_global_search for meeting.dev
2021-04-23 15:40:55,726 INFO scheduler Scheduled Job Start: frappe.integrations.doctype.razorpay_settings.razorpay_settings.capture_payment for meeting.dev
2021-04-23 15:40:56,279 INFO scheduler Scheduled Job Complete: frappe.integrations.doctype.razorpay_settings.razorpay_settings.capture_payment for meeting.dev
2021-04-23 15:40:56,384 INFO scheduler Scheduled Job Start: frappe.email.doctype.email_account.email_account.notify_unreplied for meeting.dev
2021-04-23 15:40:56,819 INFO scheduler Scheduled Job Complete: frappe.email.doctype.email_account.email_account.notify_unreplied for meeting.dev
2021-04-23 15:40:56,927 INFO scheduler Scheduled Job Start: frappe.email.doctype.email_account.email_account.pull for meeting.dev
2021-04-23 15:40:57,399 INFO scheduler Scheduled Job Complete: frappe.email.doctype.email_account.email_account.pull for meeting.dev
2021-04-23 15:40:57,500 INFO scheduler Scheduled Job Start: frappe.email.queue.flush for meeting.dev
2021-04-23 15:40:57,850 INFO scheduler Scheduled Job Complete: frappe.email.queue.flush for meeting.dev
2021-04-23 15:41:55,485 DEBUG scheduler Queued events for site meeting.dev
2021-04-23 15:42:55,821 DEBUG scheduler Queued events for site meeting.dev
2021-04-23 15:43:56,128 DEBUG scheduler Queued events for site meeting.dev
2021-04-23 15:44:56,465 DEBUG scheduler Queued events for site meeting.dev
2021-04-23 15:44:56,501 INFO scheduler Scheduled Job Start: frappe.monitor.flush for meeting.dev
2021-04-23 15:44:56,688 INFO scheduler Scheduled Job Complete: frappe.monitor.flush for meeting.dev
2021-04-23 15:44:56,783 INFO scheduler Scheduled Job Start: frappe.utils.global_search.sync_global_search for meeting.dev
2021-04-23 15:44:56,974 INFO scheduler Scheduled Job Complete: frappe.utils.global_search.sync_global_search for meeting.dev
2021-04-23 15:44:57,064 INFO scheduler Scheduled Job Start: frappe.integrations.doctype.razorpay_settings.razorpay_settings.capture_payment for meeting.dev
2021-04-23 15:44:57,573 INFO scheduler Scheduled Job Complete: frappe.integrations.doctype.razorpay_settings.razorpay_settings.capture_payment for meeting.dev
2021-04-23 15:44:57,695 INFO scheduler Scheduled Job Start: frappe.email.doctype.email_account.email_account.notify_unreplied for meeting.dev
2021-04-23 15:44:58,157 INFO scheduler Scheduled Job Complete: frappe.email.doctype.email_account.email_account.notify_unreplied for meeting.dev
2021-04-23 15:44:58,266 INFO scheduler Scheduled Job Start: frappe.email.doctype.email_account.email_account.pull for meeting.dev
2021-04-23 15:44:58,732 INFO scheduler Scheduled Job Complete: frappe.email.doctype.email_account.email_account.pull for meeting.dev
2021-04-23 15:44:58,831 INFO scheduler Scheduled Job Start: frappe.email.queue.flush for meeting.dev
2021-04-23 15:44:59,149 INFO scheduler Scheduled Job Complete: frappe.email.queue.flush for meeting.dev
2021-04-23 15:45:56,778 DEBUG scheduler Queued events for site meeting.dev
2021-04-23 15:45:56,845 INFO scheduler Scheduled Job Start: frappe.twofactor.delete_all_barcodes_for_users for meeting.dev
2021-04-23 15:45:57,340 INFO scheduler Scheduled Job Complete: frappe.twofactor.delete_all_barcodes_for_users for meeting.dev
2021-04-23 15:45:57,438 INFO scheduler Scheduled Job Start: frappe.website.doctype.web_page.web_page.check_publish_status for meeting.dev
2021-04-23 15:45:57,994 INFO scheduler Scheduled Job Complete: frappe.website.doctype.web_page.web_page.check_publish_status for meeting.dev
2021-04-23 15:45:58,133 INFO scheduler Scheduled Job Start: frappe.oauth.delete_oauth2_data for meeting.dev
2021-04-23 15:45:58,607 INFO scheduler Scheduled Job Complete: frappe.oauth.delete_oauth2_data for meeting.dev
2021-04-23 15:46:57,091 DEBUG scheduler Queued events for site meeting.dev
2021-04-23 15:47:57,408 DEBUG scheduler Queued events for site meeting.dev
2021-04-23 15:48:57,719 DEBUG scheduler Queued events for site meeting.dev
2021-04-23 15:48:57,751 INFO scheduler Scheduled Job Start: frappe.monitor.flush for meeting.dev
2021-04-23 15:48:57,939 INFO scheduler Scheduled Job Complete: frappe.monitor.flush for meeting.dev
2021-04-23 15:48:58,028 INFO scheduler Scheduled Job Start: frappe.utils.global_search.sync_global_search for meeting.dev
2021-04-23 15:48:58,212 INFO scheduler Scheduled Job Complete: frappe.utils.global_search.sync_global_search for meeting.dev
2021-04-23 15:48:58,322 INFO scheduler Scheduled Job Start: frappe.integrations.doctype.razorpay_settings.razorpay_settings.capture_payment for meeting.dev
2021-04-23 15:48:59,257 INFO scheduler Scheduled Job Complete: frappe.integrations.doctype.razorpay_settings.razorpay_settings.capture_payment for meeting.dev
2021-04-23 15:48:59,438 INFO scheduler Scheduled Job Start: frappe.email.doctype.email_account.email_account.notify_unreplied for meeting.dev
2021-04-23 15:48:59,961 INFO scheduler Scheduled Job Complete: frappe.email.doctype.email_account.email_account.notify_unreplied for meeting.dev
2021-04-23 15:49:00,074 INFO scheduler Scheduled Job Start: frappe.email.doctype.email_account.email_account.pull for meeting.dev
2021-04-23 15:49:00,456 INFO scheduler Scheduled Job Complete: frappe.email.doctype.email_account.email_account.pull for meeting.dev
2021-04-23 15:49:00,543 INFO scheduler Scheduled Job Start: frappe.email.queue.flush for meeting.dev
2021-04-23 15:49:00,895 INFO scheduler Scheduled Job Complete: frappe.email.queue.flush for meeting.dev
2021-04-23 15:49:58,009 DEBUG scheduler Queued events for site meeting.dev
2021-04-23 15:50:58,312 DEBUG scheduler Queued events for site meeting.dev
2021-04-23 15:51:58,609 DEBUG scheduler Queued events for site meeting.dev
2021-04-23 15:52:58,925 DEBUG scheduler Queued events for site meeting.dev
2021-04-23 15:52:58,963 INFO scheduler Scheduled Job Start: frappe.monitor.flush for meeting.dev
2021-04-23 15:52:59,226 INFO scheduler Scheduled Job Complete: frappe.monitor.flush for meeting.dev
2021-04-23 15:52:59,325 INFO scheduler Scheduled Job Start: frappe.utils.global_search.sync_global_search for meeting.dev
2021-04-23 15:52:59,523 INFO scheduler Scheduled Job Complete: frappe.utils.global_search.sync_global_search for meeting.dev
2021-04-23 15:52:59,608 INFO scheduler Scheduled Job Start: frappe.integrations.doctype.razorpay_settings.razorpay_settings.capture_payment for meeting.dev
2021-04-23 15:53:00,058 INFO scheduler Scheduled Job Complete: frappe.integrations.doctype.razorpay_settings.razorpay_settings.capture_payment for meeting.dev
2021-04-23 15:53:00,140 INFO scheduler Scheduled Job Start: frappe.email.doctype.email_account.email_account.notify_unreplied for meeting.dev
2021-04-23 15:53:00,526 INFO scheduler Scheduled Job Complete: frappe.email.doctype.email_account.email_account.notify_unreplied for meeting.dev
2021-04-23 15:53:00,608 INFO scheduler Scheduled Job Start: frappe.email.doctype.email_account.email_account.pull for meeting.dev
2021-04-23 15:53:00,983 INFO scheduler Scheduled Job Complete: frappe.email.doctype.email_account.email_account.pull for meeting.dev
2021-04-23 15:53:01,064 INFO scheduler Scheduled Job Start: frappe.email.queue.flush for meeting.dev
2021-04-23 15:53:01,363 INFO scheduler Scheduled Job Complete: frappe.email.queue.flush for meeting.dev
2021-04-23 15:53:59,203 DEBUG scheduler Queued events for site meeting.dev
2021-04-23 15:54:59,465 DEBUG scheduler Queued events for site meeting.dev
2021-04-23 15:55:59,731 DEBUG scheduler Queued events for site meeting.dev
2021-04-23 15:57:00,052 DEBUG scheduler Queued events for site meeting.dev
2021-04-23 15:57:00,082 INFO scheduler Scheduled Job Start: frappe.monitor.flush for meeting.dev
2021-04-23 15:57:00,266 INFO scheduler Scheduled Job Complete: frappe.monitor.flush for meeting.dev
2021-04-23 15:57:00,349 INFO scheduler Scheduled Job Start: frappe.utils.global_search.sync_global_search for meeting.dev
2021-04-23 15:57:00,534 INFO scheduler Scheduled Job Complete: frappe.utils.global_search.sync_global_search for meeting.dev
2021-04-23 15:57:00,619 INFO scheduler Scheduled Job Start: frappe.integrations.doctype.razorpay_settings.razorpay_settings.capture_payment for meeting.dev
2021-04-23 15:57:01,205 INFO scheduler Scheduled Job Complete: frappe.integrations.doctype.razorpay_settings.razorpay_settings.capture_payment for meeting.dev
2021-04-23 15:57:01,284 INFO scheduler Scheduled Job Start: frappe.email.doctype.email_account.email_account.notify_unreplied for meeting.dev
2021-04-23 15:57:01,663 INFO scheduler Scheduled Job Complete: frappe.email.doctype.email_account.email_account.notify_unreplied for meeting.dev
2021-04-23 15:57:01,761 INFO scheduler Scheduled Job Start: frappe.email.doctype.email_account.email_account.pull for meeting.dev
2021-04-23 15:57:02,134 INFO scheduler Scheduled Job Complete: frappe.email.doctype.email_account.email_account.pull for meeting.dev
2021-04-23 15:57:02,218 INFO scheduler Scheduled Job Start: frappe.email.queue.flush for meeting.dev
2021-04-23 15:57:02,528 INFO scheduler Scheduled Job Complete: frappe.email.queue.flush for meeting.dev
2021-04-23 15:58:00,382 DEBUG scheduler Queued events for site meeting.dev
2021-04-23 15:59:00,753 DEBUG scheduler Queued events for site meeting.dev
2021-04-23 16:00:01,048 INFO scheduler Scheduled Job Start: frappe.email.doctype.newsletter.newsletter.send_scheduled_email for meeting.dev
2021-04-23 16:00:01,143 DEBUG scheduler Queued events for site meeting.dev
2021-04-23 16:00:01,564 INFO scheduler Scheduled Job Complete: frappe.email.doctype.newsletter.newsletter.send_scheduled_email for meeting.dev
2021-04-23 16:00:01,651 INFO scheduler Scheduled Job Start: frappe.integrations.doctype.google_calendar.google_calendar.sync for meeting.dev
2021-04-23 16:00:02,198 INFO scheduler Scheduled Job Complete: frappe.integrations.doctype.google_calendar.google_calendar.sync for meeting.dev
2021-04-23 16:00:02,295 INFO scheduler Scheduled Job Start: frappe.desk.form.document_follow.send_hourly_updates for meeting.dev
2021-04-23 16:00:02,682 INFO scheduler Scheduled Job Complete: frappe.desk.form.document_follow.send_hourly_updates for meeting.dev
2021-04-23 16:00:02,778 INFO scheduler Scheduled Job Start: frappe.deferred_insert.save_to_db for meeting.dev
2021-04-23 16:00:03,155 INFO scheduler Scheduled Job Complete: frappe.deferred_insert.save_to_db for meeting.dev
2021-04-23 16:00:03,244 INFO scheduler Scheduled Job Start: frappe.desk.page.backups.backups.delete_downloadable_backups for meeting.dev
2021-04-23 16:00:03,656 INFO scheduler Scheduled Job Complete: frappe.desk.page.backups.backups.delete_downloadable_backups for meeting.dev
2021-04-23 16:00:03,738 INFO scheduler Scheduled Job Start: frappe.utils.error.collect_error_snapshots for meeting.dev
2021-04-23 16:00:04,118 INFO scheduler Scheduled Job Complete: frappe.utils.error.collect_error_snapshots for meeting.dev
2021-04-23 16:00:04,208 INFO scheduler Scheduled Job Start: frappe.model.utils.user_settings.sync_user_settings for meeting.dev
2021-04-23 16:00:04,590 INFO scheduler Scheduled Job Complete: frappe.model.utils.user_settings.sync_user_settings for meeting.dev
2021-04-23 16:00:04,676 INFO scheduler Scheduled Job Start: frappe.model.utils.link_count.update_link_count for meeting.dev
2021-04-23 16:00:05,068 INFO scheduler Scheduled Job Complete: frappe.model.utils.link_count.update_link_count for meeting.dev
2021-04-23 16:00:05,161 INFO scheduler Scheduled Job Start: frappe.monitor.flush for meeting.dev
2021-04-23 16:00:05,319 INFO scheduler Scheduled Job Complete: frappe.monitor.flush for meeting.dev
2021-04-23 16:00:05,397 INFO scheduler Scheduled Job Start: frappe.utils.global_search.sync_global_search for meeting.dev
2021-04-23 16:00:05,549 INFO scheduler Scheduled Job Complete: frappe.utils.global_search.sync_global_search for meeting.dev
2021-04-23 16:00:05,624 INFO scheduler Scheduled Job Start: frappe.integrations.doctype.razorpay_settings.razorpay_settings.capture_payment for meeting.dev
2021-04-23 16:00:06,006 INFO scheduler Scheduled Job Complete: frappe.integrations.doctype.razorpay_settings.razorpay_settings.capture_payment for meeting.dev
2021-04-23 16:00:06,079 INFO scheduler Scheduled Job Start: frappe.email.doctype.email_account.email_account.notify_unreplied for meeting.dev
2021-04-23 16:00:06,399 INFO scheduler Scheduled Job Complete: frappe.email.doctype.email_account.email_account.notify_unreplied for meeting.dev
2021-04-23 16:00:06,471 INFO scheduler Scheduled Job Start: frappe.email.doctype.email_account.email_account.pull for meeting.dev
2021-04-23 16:00:06,791 INFO scheduler Scheduled Job Complete: frappe.email.doctype.email_account.email_account.pull for meeting.dev
2021-04-23 16:00:06,862 INFO scheduler Scheduled Job Start: frappe.email.queue.flush for meeting.dev
2021-04-23 16:00:07,122 INFO scheduler Scheduled Job Complete: frappe.email.queue.flush for meeting.dev
2021-04-23 16:00:07,193 INFO scheduler Scheduled Job Start: frappe.twofactor.delete_all_barcodes_for_users for meeting.dev
2021-04-23 16:00:07,613 INFO scheduler Scheduled Job Complete: frappe.twofactor.delete_all_barcodes_for_users for meeting.dev
2021-04-23 16:00:07,697 INFO scheduler Scheduled Job Start: frappe.website.doctype.web_page.web_page.check_publish_status for meeting.dev
2021-04-23 16:00:08,151 INFO scheduler Scheduled Job Complete: frappe.website.doctype.web_page.web_page.check_publish_status for meeting.dev
2021-04-23 16:00:08,239 INFO scheduler Scheduled Job Start: frappe.oauth.delete_oauth2_data for meeting.dev
2021-04-23 16:00:08,651 INFO scheduler Scheduled Job Complete: frappe.oauth.delete_oauth2_data for meeting.dev
2021-04-23 16:01:01,466 DEBUG scheduler Queued events for site meeting.dev
2021-04-23 16:02:01,749 DEBUG scheduler Queued events for site meeting.dev
2021-04-23 16:03:02,053 DEBUG scheduler Queued events for site meeting.dev
2021-04-23 16:04:02,330 DEBUG scheduler Queued events for site meeting.dev
2021-04-23 16:04:02,375 INFO scheduler Scheduled Job Start: frappe.monitor.flush for meeting.dev
2021-04-23 16:04:02,543 INFO scheduler Scheduled Job Complete: frappe.monitor.flush for meeting.dev
2021-04-23 16:04:02,616 INFO scheduler Scheduled Job Start: frappe.utils.global_search.sync_global_search for meeting.dev
2021-04-23 16:04:02,770 INFO scheduler Scheduled Job Complete: frappe.utils.global_search.sync_global_search for meeting.dev
2021-04-23 16:04:02,856 INFO scheduler Scheduled Job Start: frappe.integrations.doctype.razorpay_settings.razorpay_settings.capture_payment for meeting.dev
2021-04-23 16:04:03,261 INFO scheduler Scheduled Job Complete: frappe.integrations.doctype.razorpay_settings.razorpay_settings.capture_payment for meeting.dev
2021-04-23 16:04:03,333 INFO scheduler Scheduled Job Start: frappe.email.doctype.email_account.email_account.notify_unreplied for meeting.dev
2021-04-23 16:04:03,672 INFO scheduler Scheduled Job Complete: frappe.email.doctype.email_account.email_account.notify_unreplied for meeting.dev
2021-04-23 16:04:03,744 INFO scheduler Scheduled Job Start: frappe.email.doctype.email_account.email_account.pull for meeting.dev
2021-04-23 16:04:04,088 INFO scheduler Scheduled Job Complete: frappe.email.doctype.email_account.email_account.pull for meeting.dev
2021-04-23 16:04:04,179 INFO scheduler Scheduled Job Start: frappe.email.queue.flush for meeting.dev
2021-04-23 16:04:04,618 INFO scheduler Scheduled Job Complete: frappe.email.queue.flush for meeting.dev
2021-04-23 16:05:02,641 DEBUG scheduler Queued events for site meeting.dev
2021-04-23 16:06:02,914 DEBUG scheduler Queued events for site meeting.dev
2021-04-23 16:07:03,198 DEBUG scheduler Queued events for site meeting.dev
2021-04-23 16:08:03,591 DEBUG scheduler Queued events for site meeting.dev
2021-04-23 16:08:03,655 INFO scheduler Scheduled Job Start: frappe.monitor.flush for meeting.dev
2021-04-23 16:08:03,897 INFO scheduler Scheduled Job Complete: frappe.monitor.flush for meeting.dev
2021-04-23 16:08:04,009 INFO scheduler Scheduled Job Start: frappe.utils.global_search.sync_global_search for meeting.dev
2021-04-23 16:08:04,270 INFO scheduler Scheduled Job Complete: frappe.utils.global_search.sync_global_search for meeting.dev
2021-04-23 16:08:04,382 INFO scheduler Scheduled Job Start: frappe.integrations.doctype.razorpay_settings.razorpay_settings.capture_payment for meeting.dev
2021-04-23 16:08:04,878 INFO scheduler Scheduled Job Complete: frappe.integrations.doctype.razorpay_settings.razorpay_settings.capture_payment for meeting.dev
2021-04-23 16:08:04,983 INFO scheduler Scheduled Job Start: frappe.email.doctype.email_account.email_account.notify_unreplied for meeting.dev
2021-04-23 16:08:05,399 INFO scheduler Scheduled Job Complete: frappe.email.doctype.email_account.email_account.notify_unreplied for meeting.dev
2021-04-23 16:08:05,494 INFO scheduler Scheduled Job Start: frappe.email.doctype.email_account.email_account.pull for meeting.dev
2021-04-23 16:08:05,972 INFO scheduler Scheduled Job Complete: frappe.email.doctype.email_account.email_account.pull for meeting.dev
2021-04-23 16:08:06,105 INFO scheduler Scheduled Job Start: frappe.email.queue.flush for meeting.dev
2021-04-23 16:08:06,460 INFO scheduler Scheduled Job Complete: frappe.email.queue.flush for meeting.dev
2021-04-23 16:09:03,940 DEBUG scheduler Queued events for site meeting.dev
2021-04-23 16:10:04,300 DEBUG scheduler Queued events for site meeting.dev
2021-04-23 16:11:04,552 DEBUG scheduler Queued events for site meeting.dev
2021-04-23 16:12:04,826 DEBUG scheduler Queued events for site meeting.dev
2021-04-23 16:12:04,862 INFO scheduler Scheduled Job Start: frappe.monitor.flush for meeting.dev
2021-04-23 16:12:05,020 INFO scheduler Scheduled Job Complete: frappe.monitor.flush for meeting.dev
2021-04-23 16:12:05,095 INFO scheduler Scheduled Job Start: frappe.utils.global_search.sync_global_search for meeting.dev
2021-04-23 16:12:05,270 INFO scheduler Scheduled Job Complete: frappe.utils.global_search.sync_global_search for meeting.dev
2021-04-23 16:12:05,368 INFO scheduler Scheduled Job Start: frappe.integrations.doctype.razorpay_settings.razorpay_settings.capture_payment for meeting.dev
2021-04-23 16:12:05,850 INFO scheduler Scheduled Job Complete: frappe.integrations.doctype.razorpay_settings.razorpay_settings.capture_payment for meeting.dev
2021-04-23 16:12:05,922 INFO scheduler Scheduled Job Start: frappe.email.doctype.email_account.email_account.notify_unreplied for meeting.dev
2021-04-23 16:12:06,259 INFO scheduler Scheduled Job Complete: frappe.email.doctype.email_account.email_account.notify_unreplied for meeting.dev
2021-04-23 16:12:06,335 INFO scheduler Scheduled Job Start: frappe.email.doctype.email_account.email_account.pull for meeting.dev
2021-04-23 16:12:06,706 INFO scheduler Scheduled Job Complete: frappe.email.doctype.email_account.email_account.pull for meeting.dev
2021-04-23 16:12:06,785 INFO scheduler Scheduled Job Start: frappe.email.queue.flush for meeting.dev
2021-04-23 16:12:07,078 INFO scheduler Scheduled Job Complete: frappe.email.queue.flush for meeting.dev
2021-04-23 16:13:05,166 DEBUG scheduler Queued events for site meeting.dev
2021-04-23 16:14:05,422 DEBUG scheduler Queued events for site meeting.dev
2021-04-23 16:15:05,672 DEBUG scheduler Queued events for site meeting.dev
2021-04-23 16:15:05,724 INFO scheduler Scheduled Job Start: frappe.twofactor.delete_all_barcodes_for_users for meeting.dev
2021-04-23 16:15:06,192 INFO scheduler Scheduled Job Complete: frappe.twofactor.delete_all_barcodes_for_users for meeting.dev
2021-04-23 16:15:06,294 INFO scheduler Scheduled Job Start: frappe.website.doctype.web_page.web_page.check_publish_status for meeting.dev
2021-04-23 16:15:06,801 INFO scheduler Scheduled Job Complete: frappe.website.doctype.web_page.web_page.check_publish_status for meeting.dev
2021-04-23 16:15:06,894 INFO scheduler Scheduled Job Start: frappe.oauth.delete_oauth2_data for meeting.dev
2021-04-23 16:15:07,536 INFO scheduler Scheduled Job Complete: frappe.oauth.delete_oauth2_data for meeting.dev
2021-04-23 16:16:06,152 DEBUG scheduler Queued events for site meeting.dev
2021-04-23 16:16:06,230 INFO scheduler Scheduled Job Start: frappe.monitor.flush for meeting.dev
2021-04-23 16:16:06,507 INFO scheduler Scheduled Job Complete: frappe.monitor.flush for meeting.dev
2021-04-23 16:16:06,646 INFO scheduler Scheduled Job Start: frappe.utils.global_search.sync_global_search for meeting.dev
2021-04-23 16:16:06,920 INFO scheduler Scheduled Job Complete: frappe.utils.global_search.sync_global_search for meeting.dev
2021-04-23 16:16:07,061 INFO scheduler Scheduled Job Start: frappe.integrations.doctype.razorpay_settings.razorpay_settings.capture_payment for meeting.dev
2021-04-23 16:16:07,749 INFO scheduler Scheduled Job Complete: frappe.integrations.doctype.razorpay_settings.razorpay_settings.capture_payment for meeting.dev
2021-04-23 16:16:07,895 INFO scheduler Scheduled Job Start: frappe.email.doctype.email_account.email_account.notify_unreplied for meeting.dev
2021-04-23 16:16:08,510 INFO scheduler Scheduled Job Complete: frappe.email.doctype.email_account.email_account.notify_unreplied for meeting.dev
2021-04-23 16:16:08,630 INFO scheduler Scheduled Job Start: frappe.email.doctype.email_account.email_account.pull for meeting.dev
2021-04-23 16:16:09,059 INFO scheduler Scheduled Job Complete: frappe.email.doctype.email_account.email_account.pull for meeting.dev
2021-04-23 16:16:09,135 INFO scheduler Scheduled Job Start: frappe.email.queue.flush for meeting.dev
2021-04-23 16:16:09,531 INFO scheduler Scheduled Job Complete: frappe.email.queue.flush for meeting.dev
2021-04-23 16:17:06,428 DEBUG scheduler Queued events for site meeting.dev
2021-04-23 16:18:06,663 DEBUG scheduler Queued events for site meeting.dev
2021-04-23 16:19:06,901 DEBUG scheduler Queued events for site meeting.dev
2021-04-23 16:20:07,268 DEBUG scheduler Queued events for site meeting.dev
2021-04-23 16:20:07,328 INFO scheduler Scheduled Job Start: frappe.monitor.flush for meeting.dev
2021-04-23 16:20:07,575 INFO scheduler Scheduled Job Complete: frappe.monitor.flush for meeting.dev
2021-04-23 16:20:07,681 INFO scheduler Scheduled Job Start: frappe.utils.global_search.sync_global_search for meeting.dev
2021-04-23 16:20:07,917 INFO scheduler Scheduled Job Complete: frappe.utils.global_search.sync_global_search for meeting.dev
2021-04-23 16:20:08,041 INFO scheduler Scheduled Job Start: frappe.integrations.doctype.razorpay_settings.razorpay_settings.capture_payment for meeting.dev
2021-04-23 16:20:08,669 INFO scheduler Scheduled Job Complete: frappe.integrations.doctype.razorpay_settings.razorpay_settings.capture_payment for meeting.dev
2021-04-23 16:20:08,780 INFO scheduler Scheduled Job Start: frappe.email.doctype.email_account.email_account.notify_unreplied for meeting.dev
2021-04-23 16:20:09,285 INFO scheduler Scheduled Job Complete: frappe.email.doctype.email_account.email_account.notify_unreplied for meeting.dev
2021-04-23 16:20:09,382 INFO scheduler Scheduled Job Start: frappe.email.doctype.email_account.email_account.pull for meeting.dev
2021-04-23 16:20:09,871 INFO scheduler Scheduled Job Complete: frappe.email.doctype.email_account.email_account.pull for meeting.dev
2021-04-23 16:20:09,984 INFO scheduler Scheduled Job Start: frappe.email.queue.flush for meeting.dev
2021-04-23 16:20:10,335 INFO scheduler Scheduled Job Complete: frappe.email.queue.flush for meeting.dev
2021-04-23 16:21:07,985 DEBUG scheduler Queued events for site meeting.dev
2021-04-23 16:22:08,222 DEBUG scheduler Queued events for site meeting.dev
2021-04-23 16:23:08,550 DEBUG scheduler Queued events for site meeting.dev
2021-04-23 16:24:08,904 DEBUG scheduler Queued events for site meeting.dev
2021-04-23 16:24:08,951 INFO scheduler Scheduled Job Start: frappe.monitor.flush for meeting.dev
2021-04-23 16:24:09,127 INFO scheduler Scheduled Job Complete: frappe.monitor.flush for meeting.dev
2021-04-23 16:24:09,208 INFO scheduler Scheduled Job Start: frappe.utils.global_search.sync_global_search for meeting.dev
2021-04-23 16:24:09,503 INFO scheduler Scheduled Job Complete: frappe.utils.global_search.sync_global_search for meeting.dev
2021-04-23 16:24:09,686 INFO scheduler Scheduled Job Start: frappe.integrations.doctype.razorpay_settings.razorpay_settings.capture_payment for meeting.dev
2021-04-23 16:24:10,194 INFO scheduler Scheduled Job Complete: frappe.integrations.doctype.razorpay_settings.razorpay_settings.capture_payment for meeting.dev
2021-04-23 16:24:10,270 INFO scheduler Scheduled Job Start: frappe.email.doctype.email_account.email_account.notify_unreplied for meeting.dev
2021-04-23 16:24:10,664 INFO scheduler Scheduled Job Complete: frappe.email.doctype.email_account.email_account.notify_unreplied for meeting.dev
2021-04-23 16:24:10,775 INFO scheduler Scheduled Job Start: frappe.email.doctype.email_account.email_account.pull for meeting.dev
2021-04-23 16:24:11,114 INFO scheduler Scheduled Job Complete: frappe.email.doctype.email_account.email_account.pull for meeting.dev
2021-04-23 16:24:11,197 INFO scheduler Scheduled Job Start: frappe.email.queue.flush for meeting.dev
2021-04-23 16:24:11,467 INFO scheduler Scheduled Job Complete: frappe.email.queue.flush for meeting.dev
2021-04-23 16:25:09,262 DEBUG scheduler Queued events for site meeting.dev
2021-04-23 16:26:09,623 DEBUG scheduler Queued events for site meeting.dev
2021-04-23 16:27:10,011 DEBUG scheduler Queued events for site meeting.dev
2021-04-23 16:28:10,395 DEBUG scheduler Queued events for site meeting.dev
2021-04-23 16:28:10,452 INFO scheduler Scheduled Job Start: frappe.monitor.flush for meeting.dev
2021-04-23 16:28:10,682 INFO scheduler Scheduled Job Complete: frappe.monitor.flush for meeting.dev
2021-04-23 16:28:10,791 INFO scheduler Scheduled Job Start: frappe.utils.global_search.sync_global_search for meeting.dev
2021-04-23 16:28:11,043 INFO scheduler Scheduled Job Complete: frappe.utils.global_search.sync_global_search for meeting.dev
2021-04-23 16:28:11,145 INFO scheduler Scheduled Job Start: frappe.integrations.doctype.razorpay_settings.razorpay_settings.capture_payment for meeting.dev
2021-04-23 16:28:11,737 INFO scheduler Scheduled Job Complete: frappe.integrations.doctype.razorpay_settings.razorpay_settings.capture_payment for meeting.dev
2021-04-23 16:28:11,843 INFO scheduler Scheduled Job Start: frappe.email.doctype.email_account.email_account.notify_unreplied for meeting.dev
2021-04-23 16:28:12,227 INFO scheduler Scheduled Job Complete: frappe.email.doctype.email_account.email_account.notify_unreplied for meeting.dev
2021-04-23 16:28:12,324 INFO scheduler Scheduled Job Start: frappe.email.doctype.email_account.email_account.pull for meeting.dev
2021-04-23 16:28:12,742 INFO scheduler Scheduled Job Complete: frappe.email.doctype.email_account.email_account.pull for meeting.dev
2021-04-23 16:28:12,823 INFO scheduler Scheduled Job Start: frappe.email.queue.flush for meeting.dev
2021-04-23 16:28:13,196 INFO scheduler Scheduled Job Complete: frappe.email.queue.flush for meeting.dev
2021-04-23 16:29:10,783 DEBUG scheduler Queued events for site meeting.dev
2021-04-23 16:30:11,121 DEBUG scheduler Queued events for site meeting.dev
2021-04-23 16:30:11,213 INFO scheduler Scheduled Job Start: frappe.twofactor.delete_all_barcodes_for_users for meeting.dev
2021-04-23 16:30:11,809 INFO scheduler Scheduled Job Complete: frappe.twofactor.delete_all_barcodes_for_users for meeting.dev
2021-04-23 16:30:11,924 INFO scheduler Scheduled Job Start: frappe.website.doctype.web_page.web_page.check_publish_status for meeting.dev
2021-04-23 16:30:12,568 INFO scheduler Scheduled Job Complete: frappe.website.doctype.web_page.web_page.check_publish_status for meeting.dev
2021-04-23 16:30:12,686 INFO scheduler Scheduled Job Start: frappe.oauth.delete_oauth2_data for meeting.dev
2021-04-23 16:30:13,269 INFO scheduler Scheduled Job Complete: frappe.oauth.delete_oauth2_data for meeting.dev
2021-04-23 16:31:11,506 DEBUG scheduler Queued events for site meeting.dev
2021-04-23 16:32:11,786 DEBUG scheduler Queued events for site meeting.dev
2021-04-23 16:32:11,817 INFO scheduler Scheduled Job Start: frappe.monitor.flush for meeting.dev
2021-04-23 16:32:11,989 INFO scheduler Scheduled Job Complete: frappe.monitor.flush for meeting.dev
2021-04-23 16:32:12,064 INFO scheduler Scheduled Job Start: frappe.utils.global_search.sync_global_search for meeting.dev
2021-04-23 16:32:12,231 INFO scheduler Scheduled Job Complete: frappe.utils.global_search.sync_global_search for meeting.dev
2021-04-23 16:32:12,319 INFO scheduler Scheduled Job Start: frappe.integrations.doctype.razorpay_settings.razorpay_settings.capture_payment for meeting.dev
2021-04-23 16:32:12,731 INFO scheduler Scheduled Job Complete: frappe.integrations.doctype.razorpay_settings.razorpay_settings.capture_payment for meeting.dev
2021-04-23 16:32:12,803 INFO scheduler Scheduled Job Start: frappe.email.doctype.email_account.email_account.notify_unreplied for meeting.dev
2021-04-23 16:32:13,122 INFO scheduler Scheduled Job Complete: frappe.email.doctype.email_account.email_account.notify_unreplied for meeting.dev
2021-04-23 16:32:13,197 INFO scheduler Scheduled Job Start: frappe.email.doctype.email_account.email_account.pull for meeting.dev
2021-04-23 16:32:13,522 INFO scheduler Scheduled Job Complete: frappe.email.doctype.email_account.email_account.pull for meeting.dev
2021-04-23 16:32:13,605 INFO scheduler Scheduled Job Start: frappe.email.queue.flush for meeting.dev
2021-04-23 16:32:13,953 INFO scheduler Scheduled Job Complete: frappe.email.queue.flush for meeting.dev
2021-04-23 16:33:12,056 DEBUG scheduler Queued events for site meeting.dev
2021-04-23 16:34:12,370 DEBUG scheduler Queued events for site meeting.dev
2021-04-23 16:35:12,640 DEBUG scheduler Queued events for site meeting.dev
2021-04-23 16:36:12,938 DEBUG scheduler Queued events for site meeting.dev
2021-04-23 16:36:12,984 INFO scheduler Scheduled Job Start: frappe.monitor.flush for meeting.dev
2021-04-23 16:36:13,174 INFO scheduler Scheduled Job Complete: frappe.monitor.flush for meeting.dev
2021-04-23 16:36:13,279 INFO scheduler Scheduled Job Start: frappe.utils.global_search.sync_global_search for meeting.dev
2021-04-23 16:36:13,471 INFO scheduler Scheduled Job Complete: frappe.utils.global_search.sync_global_search for meeting.dev
2021-04-23 16:36:13,566 INFO scheduler Scheduled Job Start: frappe.integrations.doctype.razorpay_settings.razorpay_settings.capture_payment for meeting.dev
2021-04-23 16:36:14,035 INFO scheduler Scheduled Job Complete: frappe.integrations.doctype.razorpay_settings.razorpay_settings.capture_payment for meeting.dev
2021-04-23 16:36:14,123 INFO scheduler Scheduled Job Start: frappe.email.doctype.email_account.email_account.notify_unreplied for meeting.dev
2021-04-23 16:36:14,487 INFO scheduler Scheduled Job Complete: frappe.email.doctype.email_account.email_account.notify_unreplied for meeting.dev
2021-04-23 16:36:14,577 INFO scheduler Scheduled Job Start: frappe.email.doctype.email_account.email_account.pull for meeting.dev
2021-04-23 16:36:14,948 INFO scheduler Scheduled Job Complete: frappe.email.doctype.email_account.email_account.pull for meeting.dev
2021-04-23 16:36:15,061 INFO scheduler Scheduled Job Start: frappe.email.queue.flush for meeting.dev
2021-04-23 16:36:15,385 INFO scheduler Scheduled Job Complete: frappe.email.queue.flush for meeting.dev
2021-04-23 16:37:13,198 DEBUG scheduler Queued events for site meeting.dev
2021-04-23 16:38:13,491 DEBUG scheduler Queued events for site meeting.dev
2021-04-23 16:39:13,727 DEBUG scheduler Queued events for site meeting.dev
2021-04-23 16:40:13,997 DEBUG scheduler Queued events for site meeting.dev
2021-04-23 16:40:14,041 INFO scheduler Scheduled Job Start: frappe.monitor.flush for meeting.dev
2021-04-23 16:40:14,202 INFO scheduler Scheduled Job Complete: frappe.monitor.flush for meeting.dev
2021-04-23 16:40:14,272 INFO scheduler Scheduled Job Start: frappe.utils.global_search.sync_global_search for meeting.dev
2021-04-23 16:40:14,430 INFO scheduler Scheduled Job Complete: frappe.utils.global_search.sync_global_search for meeting.dev
2021-04-23 16:40:14,511 INFO scheduler Scheduled Job Start: frappe.integrations.doctype.razorpay_settings.razorpay_settings.capture_payment for meeting.dev
2021-04-23 16:40:14,898 INFO scheduler Scheduled Job Complete: frappe.integrations.doctype.razorpay_settings.razorpay_settings.capture_payment for meeting.dev
2021-04-23 16:40:14,969 INFO scheduler Scheduled Job Start: frappe.email.doctype.email_account.email_account.notify_unreplied for meeting.dev
2021-04-23 16:40:15,291 INFO scheduler Scheduled Job Complete: frappe.email.doctype.email_account.email_account.notify_unreplied for meeting.dev
2021-04-23 16:40:15,364 INFO scheduler Scheduled Job Start: frappe.email.doctype.email_account.email_account.pull for meeting.dev
2021-04-23 16:40:15,690 INFO scheduler Scheduled Job Complete: frappe.email.doctype.email_account.email_account.pull for meeting.dev
2021-04-23 16:40:15,761 INFO scheduler Scheduled Job Start: frappe.email.queue.flush for meeting.dev
2021-04-23 16:40:16,021 INFO scheduler Scheduled Job Complete: frappe.email.queue.flush for meeting.dev
2021-04-23 16:41:14,271 DEBUG scheduler Queued events for site meeting.dev
2021-04-23 16:42:14,563 DEBUG scheduler Queued events for site meeting.dev
2021-04-23 16:43:14,813 DEBUG scheduler Queued events for site meeting.dev
2021-04-23 16:44:15,085 DEBUG scheduler Queued events for site meeting.dev
2021-04-23 16:44:15,120 INFO scheduler Scheduled Job Start: frappe.monitor.flush for meeting.dev
2021-04-23 16:44:15,300 INFO scheduler Scheduled Job Complete: frappe.monitor.flush for meeting.dev
2021-04-23 16:44:15,371 INFO scheduler Scheduled Job Start: frappe.utils.global_search.sync_global_search for meeting.dev
2021-04-23 16:44:15,536 INFO scheduler Scheduled Job Complete: frappe.utils.global_search.sync_global_search for meeting.dev
2021-04-23 16:44:15,611 INFO scheduler Scheduled Job Start: frappe.integrations.doctype.razorpay_settings.razorpay_settings.capture_payment for meeting.dev
2021-04-23 16:44:16,009 INFO scheduler Scheduled Job Complete: frappe.integrations.doctype.razorpay_settings.razorpay_settings.capture_payment for meeting.dev
2021-04-23 16:44:16,091 INFO scheduler Scheduled Job Start: frappe.email.doctype.email_account.email_account.notify_unreplied for meeting.dev
2021-04-23 16:44:16,422 INFO scheduler Scheduled Job Complete: frappe.email.doctype.email_account.email_account.notify_unreplied for meeting.dev
2021-04-23 16:44:16,514 INFO scheduler Scheduled Job Start: frappe.email.doctype.email_account.email_account.pull for meeting.dev
2021-04-23 16:44:16,902 INFO scheduler Scheduled Job Complete: frappe.email.doctype.email_account.email_account.pull for meeting.dev
2021-04-23 16:44:17,032 INFO scheduler Scheduled Job Start: frappe.email.queue.flush for meeting.dev
2021-04-23 16:44:17,437 INFO scheduler Scheduled Job Complete: frappe.email.queue.flush for meeting.dev
2021-04-23 16:45:15,352 DEBUG scheduler Queued events for site meeting.dev
2021-04-23 16:45:15,411 INFO scheduler Scheduled Job Start: frappe.twofactor.delete_all_barcodes_for_users for meeting.dev
2021-04-23 16:45:16,064 INFO scheduler Scheduled Job Complete: frappe.twofactor.delete_all_barcodes_for_users for meeting.dev
2021-04-23 16:45:16,161 INFO scheduler Scheduled Job Start: frappe.website.doctype.web_page.web_page.check_publish_status for meeting.dev
2021-04-23 16:45:16,673 INFO scheduler Scheduled Job Complete: frappe.website.doctype.web_page.web_page.check_publish_status for meeting.dev
2021-04-23 16:45:16,765 INFO scheduler Scheduled Job Start: frappe.oauth.delete_oauth2_data for meeting.dev
2021-04-23 16:45:17,293 INFO scheduler Scheduled Job Complete: frappe.oauth.delete_oauth2_data for meeting.dev
2021-04-23 16:46:15,668 DEBUG scheduler Queued events for site meeting.dev
2021-04-23 16:47:15,916 DEBUG scheduler Queued events for site meeting.dev
2021-04-23 16:48:16,221 DEBUG scheduler Queued events for site meeting.dev
2021-04-23 16:48:16,262 INFO scheduler Scheduled Job Start: frappe.monitor.flush for meeting.dev
2021-04-23 16:48:16,438 INFO scheduler Scheduled Job Complete: frappe.monitor.flush for meeting.dev
2021-04-23 16:48:16,521 INFO scheduler Scheduled Job Start: frappe.utils.global_search.sync_global_search for meeting.dev
2021-04-23 16:48:16,703 INFO scheduler Scheduled Job Complete: frappe.utils.global_search.sync_global_search for meeting.dev
2021-04-23 16:48:16,839 INFO scheduler Scheduled Job Start: frappe.integrations.doctype.razorpay_settings.razorpay_settings.capture_payment for meeting.dev
2021-04-23 16:48:17,302 INFO scheduler Scheduled Job Complete: frappe.integrations.doctype.razorpay_settings.razorpay_settings.capture_payment for meeting.dev
2021-04-23 16:48:17,377 INFO scheduler Scheduled Job Start: frappe.email.doctype.email_account.email_account.notify_unreplied for meeting.dev
2021-04-23 16:48:17,698 INFO scheduler Scheduled Job Complete: frappe.email.doctype.email_account.email_account.notify_unreplied for meeting.dev
2021-04-23 16:48:17,769 INFO scheduler Scheduled Job Start: frappe.email.doctype.email_account.email_account.pull for meeting.dev
2021-04-23 16:48:18,225 INFO scheduler Scheduled Job Complete: frappe.email.doctype.email_account.email_account.pull for meeting.dev
2021-04-23 16:48:18,328 INFO scheduler Scheduled Job Start: frappe.email.queue.flush for meeting.dev
2021-04-23 16:48:18,638 INFO scheduler Scheduled Job Complete: frappe.email.queue.flush for meeting.dev
2021-04-23 16:49:16,498 DEBUG scheduler Queued events for site meeting.dev
2021-04-23 16:50:16,744 DEBUG scheduler Queued events for site meeting.dev
2021-04-23 16:51:16,982 DEBUG scheduler Queued events for site meeting.dev
2021-04-23 16:52:17,280 DEBUG scheduler Queued events for site meeting.dev
2021-04-23 16:52:17,323 INFO scheduler Scheduled Job Start: frappe.monitor.flush for meeting.dev
2021-04-23 16:52:17,498 INFO scheduler Scheduled Job Complete: frappe.monitor.flush for meeting.dev
2021-04-23 16:52:17,572 INFO scheduler Scheduled Job Start: frappe.utils.global_search.sync_global_search for meeting.dev
2021-04-23 16:52:17,728 INFO scheduler Scheduled Job Complete: frappe.utils.global_search.sync_global_search for meeting.dev
2021-04-23 16:52:17,840 INFO scheduler Scheduled Job Start: frappe.integrations.doctype.razorpay_settings.razorpay_settings.capture_payment for meeting.dev
2021-04-23 16:52:18,299 INFO scheduler Scheduled Job Complete: frappe.integrations.doctype.razorpay_settings.razorpay_settings.capture_payment for meeting.dev
2021-04-23 16:52:18,368 INFO scheduler Scheduled Job Start: frappe.email.doctype.email_account.email_account.notify_unreplied for meeting.dev
2021-04-23 16:52:18,679 INFO scheduler Scheduled Job Complete: frappe.email.doctype.email_account.email_account.notify_unreplied for meeting.dev
2021-04-23 16:52:18,754 INFO scheduler Scheduled Job Start: frappe.email.doctype.email_account.email_account.pull for meeting.dev
2021-04-23 16:52:19,081 INFO scheduler Scheduled Job Complete: frappe.email.doctype.email_account.email_account.pull for meeting.dev
2021-04-23 16:52:19,167 INFO scheduler Scheduled Job Start: frappe.email.queue.flush for meeting.dev
2021-04-23 16:52:19,570 INFO scheduler Scheduled Job Complete: frappe.email.queue.flush for meeting.dev
2021-04-23 16:53:17,603 DEBUG scheduler Queued events for site meeting.dev
2021-04-23 16:54:17,852 DEBUG scheduler Queued events for site meeting.dev
2021-04-23 16:55:18,107 DEBUG scheduler Queued events for site meeting.dev
2021-04-23 16:56:18,490 DEBUG scheduler Queued events for site meeting.dev
2021-04-23 16:56:18,531 INFO scheduler Scheduled Job Start: frappe.monitor.flush for meeting.dev
2021-04-23 16:56:18,750 INFO scheduler Scheduled Job Complete: frappe.monitor.flush for meeting.dev
2021-04-23 16:56:18,820 INFO scheduler Scheduled Job Start: frappe.utils.global_search.sync_global_search for meeting.dev
2021-04-23 16:56:19,008 INFO scheduler Scheduled Job Complete: frappe.utils.global_search.sync_global_search for meeting.dev
2021-04-23 16:56:19,117 INFO scheduler Scheduled Job Start: frappe.integrations.doctype.razorpay_settings.razorpay_settings.capture_payment for meeting.dev
2021-04-23 16:56:19,621 INFO scheduler Scheduled Job Complete: frappe.integrations.doctype.razorpay_settings.razorpay_settings.capture_payment for meeting.dev
2021-04-23 16:56:19,695 INFO scheduler Scheduled Job Start: frappe.email.doctype.email_account.email_account.notify_unreplied for meeting.dev
2021-04-23 16:56:20,004 INFO scheduler Scheduled Job Complete: frappe.email.doctype.email_account.email_account.notify_unreplied for meeting.dev
2021-04-23 16:56:20,082 INFO scheduler Scheduled Job Start: frappe.email.doctype.email_account.email_account.pull for meeting.dev
2021-04-23 16:56:20,414 INFO scheduler Scheduled Job Complete: frappe.email.doctype.email_account.email_account.pull for meeting.dev
2021-04-23 16:56:20,494 INFO scheduler Scheduled Job Start: frappe.email.queue.flush for meeting.dev
2021-04-23 16:56:20,773 INFO scheduler Scheduled Job Complete: frappe.email.queue.flush for meeting.dev
2021-04-23 16:57:18,772 DEBUG scheduler Queued events for site meeting.dev
2021-04-23 16:58:19,042 DEBUG scheduler Queued events for site meeting.dev
2021-04-23 16:59:19,284 DEBUG scheduler Queued events for site meeting.dev
2021-04-23 17:00:19,596 INFO scheduler Scheduled Job Start: frappe.email.doctype.newsletter.newsletter.send_scheduled_email for meeting.dev
2021-04-23 17:00:19,729 DEBUG scheduler Queued events for site meeting.dev
2021-04-23 17:00:20,186 INFO scheduler Scheduled Job Complete: frappe.email.doctype.newsletter.newsletter.send_scheduled_email for meeting.dev
2021-04-23 17:00:20,301 INFO scheduler Scheduled Job Start: frappe.integrations.doctype.google_calendar.google_calendar.sync for meeting.dev
2021-04-23 17:00:21,124 INFO scheduler Scheduled Job Complete: frappe.integrations.doctype.google_calendar.google_calendar.sync for meeting.dev
2021-04-23 17:00:21,232 INFO scheduler Scheduled Job Start: frappe.desk.form.document_follow.send_hourly_updates for meeting.dev
2021-04-23 17:00:21,674 INFO scheduler Scheduled Job Complete: frappe.desk.form.document_follow.send_hourly_updates for meeting.dev
2021-04-23 17:00:21,756 INFO scheduler Scheduled Job Start: frappe.deferred_insert.save_to_db for meeting.dev
2021-04-23 17:00:22,142 INFO scheduler Scheduled Job Complete: frappe.deferred_insert.save_to_db for meeting.dev
2021-04-23 17:00:22,228 INFO scheduler Scheduled Job Start: frappe.desk.page.backups.backups.delete_downloadable_backups for meeting.dev
2021-04-23 17:00:22,632 INFO scheduler Scheduled Job Complete: frappe.desk.page.backups.backups.delete_downloadable_backups for meeting.dev
2021-04-23 17:00:22,718 INFO scheduler Scheduled Job Start: frappe.utils.error.collect_error_snapshots for meeting.dev
2021-04-23 17:00:23,097 INFO scheduler Scheduled Job Complete: frappe.utils.error.collect_error_snapshots for meeting.dev
2021-04-23 17:00:23,184 INFO scheduler Scheduled Job Start: frappe.model.utils.user_settings.sync_user_settings for meeting.dev
2021-04-23 17:00:23,562 INFO scheduler Scheduled Job Complete: frappe.model.utils.user_settings.sync_user_settings for meeting.dev
2021-04-23 17:00:23,651 INFO scheduler Scheduled Job Start: frappe.model.utils.link_count.update_link_count for meeting.dev
2021-04-23 17:00:24,044 INFO scheduler Scheduled Job Complete: frappe.model.utils.link_count.update_link_count for meeting.dev
2021-04-23 17:00:24,173 INFO scheduler Scheduled Job Start: frappe.monitor.flush for meeting.dev
2021-04-23 17:00:24,416 INFO scheduler Scheduled Job Complete: frappe.monitor.flush for meeting.dev
2021-04-23 17:00:24,512 INFO scheduler Scheduled Job Start: frappe.utils.global_search.sync_global_search for meeting.dev
2021-04-23 17:00:24,673 INFO scheduler Scheduled Job Complete: frappe.utils.global_search.sync_global_search for meeting.dev
2021-04-23 17:00:24,748 INFO scheduler Scheduled Job Start: frappe.integrations.doctype.razorpay_settings.razorpay_settings.capture_payment for meeting.dev
2021-04-23 17:00:25,174 INFO scheduler Scheduled Job Complete: frappe.integrations.doctype.razorpay_settings.razorpay_settings.capture_payment for meeting.dev
2021-04-23 17:00:25,262 INFO scheduler Scheduled Job Start: frappe.email.doctype.email_account.email_account.notify_unreplied for meeting.dev
2021-04-23 17:00:25,708 INFO scheduler Scheduled Job Complete: frappe.email.doctype.email_account.email_account.notify_unreplied for meeting.dev
2021-04-23 17:00:25,838 INFO scheduler Scheduled Job Start: frappe.email.doctype.email_account.email_account.pull for meeting.dev
2021-04-23 17:00:26,332 INFO scheduler Scheduled Job Complete: frappe.email.doctype.email_account.email_account.pull for meeting.dev
2021-04-23 17:00:26,405 INFO scheduler Scheduled Job Start: frappe.email.queue.flush for meeting.dev
2021-04-23 17:00:26,679 INFO scheduler Scheduled Job Complete: frappe.email.queue.flush for meeting.dev
2021-04-23 17:00:26,763 INFO scheduler Scheduled Job Start: frappe.twofactor.delete_all_barcodes_for_users for meeting.dev
2021-04-23 17:00:27,177 INFO scheduler Scheduled Job Complete: frappe.twofactor.delete_all_barcodes_for_users for meeting.dev
2021-04-23 17:00:27,299 INFO scheduler Scheduled Job Start: frappe.website.doctype.web_page.web_page.check_publish_status for meeting.dev
2021-04-23 17:00:27,851 INFO scheduler Scheduled Job Complete: frappe.website.doctype.web_page.web_page.check_publish_status for meeting.dev
2021-04-23 17:00:27,992 INFO scheduler Scheduled Job Start: frappe.oauth.delete_oauth2_data for meeting.dev
2021-04-23 17:00:28,424 INFO scheduler Scheduled Job Complete: frappe.oauth.delete_oauth2_data for meeting.dev
2021-04-23 17:01:20,053 DEBUG scheduler Queued events for site meeting.dev
2021-04-23 17:02:20,313 DEBUG scheduler Queued events for site meeting.dev
2021-04-23 17:03:20,617 DEBUG scheduler Queued events for site meeting.dev
2021-04-23 17:04:20,878 DEBUG scheduler Queued events for site meeting.dev
2021-04-23 17:04:20,912 INFO scheduler Scheduled Job Start: frappe.monitor.flush for meeting.dev
2021-04-23 17:04:21,069 INFO scheduler Scheduled Job Complete: frappe.monitor.flush for meeting.dev
2021-04-23 17:04:21,144 INFO scheduler Scheduled Job Start: frappe.utils.global_search.sync_global_search for meeting.dev
2021-04-23 17:04:21,300 INFO scheduler Scheduled Job Complete: frappe.utils.global_search.sync_global_search for meeting.dev
2021-04-23 17:04:21,374 INFO scheduler Scheduled Job Start: frappe.integrations.doctype.razorpay_settings.razorpay_settings.capture_payment for meeting.dev
2021-04-23 17:04:21,907 INFO scheduler Scheduled Job Complete: frappe.integrations.doctype.razorpay_settings.razorpay_settings.capture_payment for meeting.dev
2021-04-23 17:04:22,022 INFO scheduler Scheduled Job Start: frappe.email.doctype.email_account.email_account.notify_unreplied for meeting.dev
2021-04-23 17:04:22,427 INFO scheduler Scheduled Job Complete: frappe.email.doctype.email_account.email_account.notify_unreplied for meeting.dev
2021-04-23 17:04:22,504 INFO scheduler Scheduled Job Start: frappe.email.doctype.email_account.email_account.pull for meeting.dev
2021-04-23 17:04:22,822 INFO scheduler Scheduled Job Complete: frappe.email.doctype.email_account.email_account.pull for meeting.dev
2021-04-23 17:04:22,925 INFO scheduler Scheduled Job Start: frappe.email.queue.flush for meeting.dev
2021-04-23 17:04:23,276 INFO scheduler Scheduled Job Complete: frappe.email.queue.flush for meeting.dev
2021-04-23 17:05:21,137 DEBUG scheduler Queued events for site meeting.dev
2021-04-23 17:24:13,439 DEBUG scheduler Queued events for site meeting.dev
2021-04-23 17:24:13,475 INFO scheduler Scheduled Job Start: frappe.monitor.flush for meeting.dev
2021-04-23 17:24:13,752 INFO scheduler Scheduled Job Complete: frappe.monitor.flush for meeting.dev
2021-04-23 17:24:13,904 INFO scheduler Scheduled Job Start: frappe.utils.global_search.sync_global_search for meeting.dev
2021-04-23 17:24:14,116 INFO scheduler Scheduled Job Complete: frappe.utils.global_search.sync_global_search for meeting.dev
2021-04-23 17:24:14,204 INFO scheduler Scheduled Job Start: frappe.integrations.doctype.razorpay_settings.razorpay_settings.capture_payment for meeting.dev
2021-04-23 17:25:14,483 DEBUG scheduler Queued events for site meeting.dev
