2021-04-22 14:21:43,880 DEBUG scheduler Queued events for site meeting.dev
2021-04-22 14:22:44,145 DEBUG scheduler Queued events for site meeting.dev
2021-04-22 14:23:44,407 DEBUG scheduler Queued events for site meeting.dev
2021-04-22 14:24:44,705 DEBUG scheduler Queued events for site meeting.dev
2021-04-22 14:24:44,739 INFO scheduler Scheduled Job Start: frappe.monitor.flush for meeting.dev
2021-04-22 14:24:44,892 INFO scheduler Scheduled Job Complete: frappe.monitor.flush for meeting.dev
2021-04-22 14:24:44,963 INFO scheduler Scheduled Job Start: frappe.utils.global_search.sync_global_search for meeting.dev
2021-04-22 14:24:45,114 INFO scheduler Scheduled Job Complete: frappe.utils.global_search.sync_global_search for meeting.dev
2021-04-22 14:24:45,183 INFO scheduler Scheduled Job Start: frappe.integrations.doctype.razorpay_settings.razorpay_settings.capture_payment for meeting.dev
2021-04-22 14:24:45,567 INFO scheduler Scheduled Job Complete: frappe.integrations.doctype.razorpay_settings.razorpay_settings.capture_payment for meeting.dev
2021-04-22 14:24:45,636 INFO scheduler Scheduled Job Start: frappe.email.doctype.email_account.email_account.notify_unreplied for meeting.dev
2021-04-22 14:24:45,939 INFO scheduler Scheduled Job Complete: frappe.email.doctype.email_account.email_account.notify_unreplied for meeting.dev
2021-04-22 14:24:46,010 INFO scheduler Scheduled Job Start: frappe.email.doctype.email_account.email_account.pull for meeting.dev
2021-04-22 14:24:46,322 INFO scheduler Scheduled Job Complete: frappe.email.doctype.email_account.email_account.pull for meeting.dev
2021-04-22 14:24:46,392 INFO scheduler Scheduled Job Start: frappe.email.queue.flush for meeting.dev
2021-04-22 14:24:46,656 INFO scheduler Scheduled Job Complete: frappe.email.queue.flush for meeting.dev
2021-04-22 14:25:45,163 DEBUG scheduler Queued events for site meeting.dev
2021-04-22 14:26:45,461 DEBUG scheduler Queued events for site meeting.dev
2021-04-22 14:27:45,698 DEBUG scheduler Queued events for site meeting.dev
2021-04-22 14:52:32,028 INFO scheduler Scheduled Job Start: frappe.monitor.flush for meeting.dev
2021-04-22 14:52:32,052 DEBUG scheduler Queued events for site meeting.dev
2021-04-22 14:52:32,325 INFO scheduler Scheduled Job Complete: frappe.monitor.flush for meeting.dev
2021-04-22 14:52:32,433 INFO scheduler Scheduled Job Start: frappe.utils.global_search.sync_global_search for meeting.dev
2021-04-22 14:52:32,687 INFO scheduler Scheduled Job Complete: frappe.utils.global_search.sync_global_search for meeting.dev
2021-04-22 14:52:32,832 INFO scheduler Scheduled Job Start: frappe.integrations.doctype.razorpay_settings.razorpay_settings.capture_payment for meeting.dev
2021-04-22 14:52:33,341 INFO scheduler Scheduled Job Complete: frappe.integrations.doctype.razorpay_settings.razorpay_settings.capture_payment for meeting.dev
2021-04-22 14:52:33,425 INFO scheduler Scheduled Job Start: frappe.email.doctype.email_account.email_account.notify_unreplied for meeting.dev
2021-04-22 14:52:33,794 INFO scheduler Scheduled Job Complete: frappe.email.doctype.email_account.email_account.notify_unreplied for meeting.dev
2021-04-22 14:52:33,877 INFO scheduler Scheduled Job Start: frappe.email.doctype.email_account.email_account.pull for meeting.dev
2021-04-22 14:52:34,271 INFO scheduler Scheduled Job Complete: frappe.email.doctype.email_account.email_account.pull for meeting.dev
2021-04-22 14:52:34,357 INFO scheduler Scheduled Job Start: frappe.email.queue.flush for meeting.dev
2021-04-22 14:52:34,637 INFO scheduler Scheduled Job Complete: frappe.email.queue.flush for meeting.dev
2021-04-22 14:52:34,707 INFO scheduler Scheduled Job Start: frappe.twofactor.delete_all_barcodes_for_users for meeting.dev
2021-04-22 14:52:35,116 INFO scheduler Scheduled Job Complete: frappe.twofactor.delete_all_barcodes_for_users for meeting.dev
2021-04-22 14:52:35,209 INFO scheduler Scheduled Job Start: frappe.website.doctype.web_page.web_page.check_publish_status for meeting.dev
2021-04-22 14:52:35,676 INFO scheduler Scheduled Job Complete: frappe.website.doctype.web_page.web_page.check_publish_status for meeting.dev
2021-04-22 14:52:35,769 INFO scheduler Scheduled Job Start: frappe.oauth.delete_oauth2_data for meeting.dev
2021-04-22 14:52:36,369 INFO scheduler Scheduled Job Complete: frappe.oauth.delete_oauth2_data for meeting.dev
2021-04-22 14:53:32,404 DEBUG scheduler Queued events for site meeting.dev
2021-04-22 14:54:32,662 DEBUG scheduler Queued events for site meeting.dev
2021-04-22 14:55:32,972 DEBUG scheduler Queued events for site meeting.dev
2021-04-22 14:56:33,278 DEBUG scheduler Queued events for site meeting.dev
2021-04-22 14:56:33,327 INFO scheduler Scheduled Job Start: frappe.monitor.flush for meeting.dev
2021-04-22 14:56:33,496 INFO scheduler Scheduled Job Complete: frappe.monitor.flush for meeting.dev
2021-04-22 14:56:33,575 INFO scheduler Scheduled Job Start: frappe.utils.global_search.sync_global_search for meeting.dev
2021-04-22 14:56:33,766 INFO scheduler Scheduled Job Complete: frappe.utils.global_search.sync_global_search for meeting.dev
2021-04-22 14:56:33,842 INFO scheduler Scheduled Job Start: frappe.integrations.doctype.razorpay_settings.razorpay_settings.capture_payment for meeting.dev
2021-04-22 14:56:34,249 INFO scheduler Scheduled Job Complete: frappe.integrations.doctype.razorpay_settings.razorpay_settings.capture_payment for meeting.dev
2021-04-22 14:56:34,346 INFO scheduler Scheduled Job Start: frappe.email.doctype.email_account.email_account.notify_unreplied for meeting.dev
2021-04-22 14:56:34,678 INFO scheduler Scheduled Job Complete: frappe.email.doctype.email_account.email_account.notify_unreplied for meeting.dev
2021-04-22 14:56:34,754 INFO scheduler Scheduled Job Start: frappe.email.doctype.email_account.email_account.pull for meeting.dev
2021-04-22 14:56:35,092 INFO scheduler Scheduled Job Complete: frappe.email.doctype.email_account.email_account.pull for meeting.dev
2021-04-22 14:56:35,171 INFO scheduler Scheduled Job Start: frappe.email.queue.flush for meeting.dev
2021-04-22 14:56:35,453 INFO scheduler Scheduled Job Complete: frappe.email.queue.flush for meeting.dev
2021-04-22 14:57:33,652 DEBUG scheduler Queued events for site meeting.dev
2021-04-22 14:58:33,892 DEBUG scheduler Queued events for site meeting.dev
2021-04-22 14:59:34,162 DEBUG scheduler Queued events for site meeting.dev
2021-04-22 15:00:34,457 INFO scheduler Scheduled Job Start: frappe.email.doctype.newsletter.newsletter.send_scheduled_email for meeting.dev
2021-04-22 15:00:34,566 DEBUG scheduler Queued events for site meeting.dev
2021-04-22 15:00:34,988 INFO scheduler Scheduled Job Complete: frappe.email.doctype.newsletter.newsletter.send_scheduled_email for meeting.dev
2021-04-22 15:00:35,074 INFO scheduler Scheduled Job Start: frappe.integrations.doctype.google_calendar.google_calendar.sync for meeting.dev
2021-04-22 15:00:35,646 INFO scheduler Scheduled Job Complete: frappe.integrations.doctype.google_calendar.google_calendar.sync for meeting.dev
2021-04-22 15:00:35,744 INFO scheduler Scheduled Job Start: frappe.desk.form.document_follow.send_hourly_updates for meeting.dev
2021-04-22 15:00:36,161 INFO scheduler Scheduled Job Complete: frappe.desk.form.document_follow.send_hourly_updates for meeting.dev
2021-04-22 15:00:36,257 INFO scheduler Scheduled Job Start: frappe.deferred_insert.save_to_db for meeting.dev
2021-04-22 15:00:36,670 INFO scheduler Scheduled Job Complete: frappe.deferred_insert.save_to_db for meeting.dev
2021-04-22 15:00:36,793 INFO scheduler Scheduled Job Start: frappe.desk.page.backups.backups.delete_downloadable_backups for meeting.dev
2021-04-22 15:00:37,219 INFO scheduler Scheduled Job Complete: frappe.desk.page.backups.backups.delete_downloadable_backups for meeting.dev
2021-04-22 15:00:37,308 INFO scheduler Scheduled Job Start: frappe.utils.error.collect_error_snapshots for meeting.dev
2021-04-22 15:00:37,707 INFO scheduler Scheduled Job Complete: frappe.utils.error.collect_error_snapshots for meeting.dev
2021-04-22 15:00:37,815 INFO scheduler Scheduled Job Start: frappe.model.utils.user_settings.sync_user_settings for meeting.dev
2021-04-22 15:00:38,215 INFO scheduler Scheduled Job Complete: frappe.model.utils.user_settings.sync_user_settings for meeting.dev
2021-04-22 15:00:38,310 INFO scheduler Scheduled Job Start: frappe.model.utils.link_count.update_link_count for meeting.dev
2021-04-22 15:00:38,706 INFO scheduler Scheduled Job Complete: frappe.model.utils.link_count.update_link_count for meeting.dev
2021-04-22 15:00:38,798 INFO scheduler Scheduled Job Start: frappe.monitor.flush for meeting.dev
2021-04-22 15:00:38,956 INFO scheduler Scheduled Job Complete: frappe.monitor.flush for meeting.dev
2021-04-22 15:00:39,044 INFO scheduler Scheduled Job Start: frappe.utils.global_search.sync_global_search for meeting.dev
2021-04-22 15:00:39,213 INFO scheduler Scheduled Job Complete: frappe.utils.global_search.sync_global_search for meeting.dev
2021-04-22 15:00:39,310 INFO scheduler Scheduled Job Start: frappe.integrations.doctype.razorpay_settings.razorpay_settings.capture_payment for meeting.dev
2021-04-22 15:00:39,706 INFO scheduler Scheduled Job Complete: frappe.integrations.doctype.razorpay_settings.razorpay_settings.capture_payment for meeting.dev
2021-04-22 15:00:39,779 INFO scheduler Scheduled Job Start: frappe.email.doctype.email_account.email_account.notify_unreplied for meeting.dev
2021-04-22 15:00:40,098 INFO scheduler Scheduled Job Complete: frappe.email.doctype.email_account.email_account.notify_unreplied for meeting.dev
2021-04-22 15:00:40,171 INFO scheduler Scheduled Job Start: frappe.email.doctype.email_account.email_account.pull for meeting.dev
2021-04-22 15:00:40,510 INFO scheduler Scheduled Job Complete: frappe.email.doctype.email_account.email_account.pull for meeting.dev
2021-04-22 15:00:40,582 INFO scheduler Scheduled Job Start: frappe.email.queue.flush for meeting.dev
2021-04-22 15:00:40,853 INFO scheduler Scheduled Job Complete: frappe.email.queue.flush for meeting.dev
2021-04-22 15:00:40,923 INFO scheduler Scheduled Job Start: frappe.twofactor.delete_all_barcodes_for_users for meeting.dev
2021-04-22 15:00:41,351 INFO scheduler Scheduled Job Complete: frappe.twofactor.delete_all_barcodes_for_users for meeting.dev
2021-04-22 15:00:41,441 INFO scheduler Scheduled Job Start: frappe.website.doctype.web_page.web_page.check_publish_status for meeting.dev
2021-04-22 15:00:41,913 INFO scheduler Scheduled Job Complete: frappe.website.doctype.web_page.web_page.check_publish_status for meeting.dev
2021-04-22 15:00:42,001 INFO scheduler Scheduled Job Start: frappe.oauth.delete_oauth2_data for meeting.dev
2021-04-22 15:00:42,410 INFO scheduler Scheduled Job Complete: frappe.oauth.delete_oauth2_data for meeting.dev
2021-04-22 15:01:34,828 DEBUG scheduler Queued events for site meeting.dev
2021-04-22 15:02:35,095 DEBUG scheduler Queued events for site meeting.dev
2021-04-22 15:03:35,325 DEBUG scheduler Queued events for site meeting.dev
2021-04-22 15:04:35,613 DEBUG scheduler Queued events for site meeting.dev
2021-04-22 15:04:35,644 INFO scheduler Scheduled Job Start: frappe.monitor.flush for meeting.dev
2021-04-22 15:04:35,801 INFO scheduler Scheduled Job Complete: frappe.monitor.flush for meeting.dev
2021-04-22 15:04:35,895 INFO scheduler Scheduled Job Start: frappe.utils.global_search.sync_global_search for meeting.dev
2021-04-22 15:04:36,127 INFO scheduler Scheduled Job Complete: frappe.utils.global_search.sync_global_search for meeting.dev
2021-04-22 15:04:36,210 INFO scheduler Scheduled Job Start: frappe.integrations.doctype.razorpay_settings.razorpay_settings.capture_payment for meeting.dev
2021-04-22 15:04:36,628 INFO scheduler Scheduled Job Complete: frappe.integrations.doctype.razorpay_settings.razorpay_settings.capture_payment for meeting.dev
2021-04-22 15:04:36,698 INFO scheduler Scheduled Job Start: frappe.email.doctype.email_account.email_account.notify_unreplied for meeting.dev
2021-04-22 15:04:37,094 INFO scheduler Scheduled Job Complete: frappe.email.doctype.email_account.email_account.notify_unreplied for meeting.dev
2021-04-22 15:04:37,177 INFO scheduler Scheduled Job Start: frappe.email.doctype.email_account.email_account.pull for meeting.dev
2021-04-22 15:04:37,530 INFO scheduler Scheduled Job Complete: frappe.email.doctype.email_account.email_account.pull for meeting.dev
2021-04-22 15:04:37,619 INFO scheduler Scheduled Job Start: frappe.email.queue.flush for meeting.dev
2021-04-22 15:04:37,904 INFO scheduler Scheduled Job Complete: frappe.email.queue.flush for meeting.dev
2021-04-22 15:05:35,881 DEBUG scheduler Queued events for site meeting.dev
2021-04-22 15:06:36,115 DEBUG scheduler Queued events for site meeting.dev
2021-04-22 15:07:36,352 DEBUG scheduler Queued events for site meeting.dev
2021-04-22 15:08:36,620 DEBUG scheduler Queued events for site meeting.dev
2021-04-22 15:08:36,652 INFO scheduler Scheduled Job Start: frappe.monitor.flush for meeting.dev
2021-04-22 15:08:36,816 INFO scheduler Scheduled Job Complete: frappe.monitor.flush for meeting.dev
2021-04-22 15:08:36,899 INFO scheduler Scheduled Job Start: frappe.utils.global_search.sync_global_search for meeting.dev
2021-04-22 15:08:37,068 INFO scheduler Scheduled Job Complete: frappe.utils.global_search.sync_global_search for meeting.dev
2021-04-22 15:08:37,144 INFO scheduler Scheduled Job Start: frappe.integrations.doctype.razorpay_settings.razorpay_settings.capture_payment for meeting.dev
2021-04-22 15:08:37,544 INFO scheduler Scheduled Job Complete: frappe.integrations.doctype.razorpay_settings.razorpay_settings.capture_payment for meeting.dev
2021-04-22 15:08:37,623 INFO scheduler Scheduled Job Start: frappe.email.doctype.email_account.email_account.notify_unreplied for meeting.dev
2021-04-22 15:08:37,941 INFO scheduler Scheduled Job Complete: frappe.email.doctype.email_account.email_account.notify_unreplied for meeting.dev
2021-04-22 15:08:38,012 INFO scheduler Scheduled Job Start: frappe.email.doctype.email_account.email_account.pull for meeting.dev
2021-04-22 15:08:38,339 INFO scheduler Scheduled Job Complete: frappe.email.doctype.email_account.email_account.pull for meeting.dev
2021-04-22 15:08:38,409 INFO scheduler Scheduled Job Start: frappe.email.queue.flush for meeting.dev
2021-04-22 15:08:38,685 INFO scheduler Scheduled Job Complete: frappe.email.queue.flush for meeting.dev
2021-04-22 15:09:36,876 DEBUG scheduler Queued events for site meeting.dev
2021-04-22 15:10:37,113 DEBUG scheduler Queued events for site meeting.dev
2021-04-22 15:11:37,364 DEBUG scheduler Queued events for site meeting.dev
2021-04-22 15:12:37,821 DEBUG scheduler Queued events for site meeting.dev
2021-04-22 15:12:37,874 INFO scheduler Scheduled Job Start: frappe.monitor.flush for meeting.dev
2021-04-22 15:12:38,077 INFO scheduler Scheduled Job Complete: frappe.monitor.flush for meeting.dev
2021-04-22 15:12:38,193 INFO scheduler Scheduled Job Start: frappe.utils.global_search.sync_global_search for meeting.dev
2021-04-22 15:12:38,384 INFO scheduler Scheduled Job Complete: frappe.utils.global_search.sync_global_search for meeting.dev
2021-04-22 15:12:38,460 INFO scheduler Scheduled Job Start: frappe.integrations.doctype.razorpay_settings.razorpay_settings.capture_payment for meeting.dev
2021-04-22 15:12:38,865 INFO scheduler Scheduled Job Complete: frappe.integrations.doctype.razorpay_settings.razorpay_settings.capture_payment for meeting.dev
2021-04-22 15:12:38,973 INFO scheduler Scheduled Job Start: frappe.email.doctype.email_account.email_account.notify_unreplied for meeting.dev
2021-04-22 15:12:39,365 INFO scheduler Scheduled Job Complete: frappe.email.doctype.email_account.email_account.notify_unreplied for meeting.dev
2021-04-22 15:12:39,440 INFO scheduler Scheduled Job Start: frappe.email.doctype.email_account.email_account.pull for meeting.dev
2021-04-22 15:12:39,865 INFO scheduler Scheduled Job Complete: frappe.email.doctype.email_account.email_account.pull for meeting.dev
2021-04-22 15:12:39,942 INFO scheduler Scheduled Job Start: frappe.email.queue.flush for meeting.dev
2021-04-22 15:12:40,279 INFO scheduler Scheduled Job Complete: frappe.email.queue.flush for meeting.dev
2021-04-22 15:13:38,120 DEBUG scheduler Queued events for site meeting.dev
2021-04-22 15:14:38,380 DEBUG scheduler Queued events for site meeting.dev
2021-04-22 15:15:38,650 DEBUG scheduler Queued events for site meeting.dev
2021-04-22 15:15:38,717 INFO scheduler Scheduled Job Start: frappe.twofactor.delete_all_barcodes_for_users for meeting.dev
2021-04-22 15:15:39,186 INFO scheduler Scheduled Job Complete: frappe.twofactor.delete_all_barcodes_for_users for meeting.dev
2021-04-22 15:15:39,285 INFO scheduler Scheduled Job Start: frappe.website.doctype.web_page.web_page.check_publish_status for meeting.dev
2021-04-22 15:15:39,882 INFO scheduler Scheduled Job Complete: frappe.website.doctype.web_page.web_page.check_publish_status for meeting.dev
2021-04-22 15:15:39,969 INFO scheduler Scheduled Job Start: frappe.oauth.delete_oauth2_data for meeting.dev
2021-04-22 15:15:40,396 INFO scheduler Scheduled Job Complete: frappe.oauth.delete_oauth2_data for meeting.dev
2021-04-22 15:16:39,024 DEBUG scheduler Queued events for site meeting.dev
2021-04-22 15:16:39,064 INFO scheduler Scheduled Job Start: frappe.monitor.flush for meeting.dev
2021-04-22 15:16:39,233 INFO scheduler Scheduled Job Complete: frappe.monitor.flush for meeting.dev
2021-04-22 15:16:39,347 INFO scheduler Scheduled Job Start: frappe.utils.global_search.sync_global_search for meeting.dev
2021-04-22 15:16:39,506 INFO scheduler Scheduled Job Complete: frappe.utils.global_search.sync_global_search for meeting.dev
2021-04-22 15:16:39,580 INFO scheduler Scheduled Job Start: frappe.integrations.doctype.razorpay_settings.razorpay_settings.capture_payment for meeting.dev
2021-04-22 15:16:39,994 INFO scheduler Scheduled Job Complete: frappe.integrations.doctype.razorpay_settings.razorpay_settings.capture_payment for meeting.dev
2021-04-22 15:16:40,102 INFO scheduler Scheduled Job Start: frappe.email.doctype.email_account.email_account.notify_unreplied for meeting.dev
2021-04-22 15:16:40,495 INFO scheduler Scheduled Job Complete: frappe.email.doctype.email_account.email_account.notify_unreplied for meeting.dev
2021-04-22 15:16:40,567 INFO scheduler Scheduled Job Start: frappe.email.doctype.email_account.email_account.pull for meeting.dev
2021-04-22 15:16:40,917 INFO scheduler Scheduled Job Complete: frappe.email.doctype.email_account.email_account.pull for meeting.dev
2021-04-22 15:16:41,009 INFO scheduler Scheduled Job Start: frappe.email.queue.flush for meeting.dev
2021-04-22 15:16:41,312 INFO scheduler Scheduled Job Complete: frappe.email.queue.flush for meeting.dev
2021-04-22 15:17:39,314 DEBUG scheduler Queued events for site meeting.dev
2021-04-22 15:18:39,565 DEBUG scheduler Queued events for site meeting.dev
2021-04-22 15:19:39,818 DEBUG scheduler Queued events for site meeting.dev
2021-04-22 15:20:40,083 DEBUG scheduler Queued events for site meeting.dev
2021-04-22 15:20:40,118 INFO scheduler Scheduled Job Start: frappe.monitor.flush for meeting.dev
2021-04-22 15:20:40,281 INFO scheduler Scheduled Job Complete: frappe.monitor.flush for meeting.dev
2021-04-22 15:20:40,360 INFO scheduler Scheduled Job Start: frappe.utils.global_search.sync_global_search for meeting.dev
2021-04-22 15:20:40,515 INFO scheduler Scheduled Job Complete: frappe.utils.global_search.sync_global_search for meeting.dev
2021-04-22 15:20:40,587 INFO scheduler Scheduled Job Start: frappe.integrations.doctype.razorpay_settings.razorpay_settings.capture_payment for meeting.dev
2021-04-22 15:20:40,993 INFO scheduler Scheduled Job Complete: frappe.integrations.doctype.razorpay_settings.razorpay_settings.capture_payment for meeting.dev
2021-04-22 15:20:41,081 INFO scheduler Scheduled Job Start: frappe.email.doctype.email_account.email_account.notify_unreplied for meeting.dev
2021-04-22 15:20:41,456 INFO scheduler Scheduled Job Complete: frappe.email.doctype.email_account.email_account.notify_unreplied for meeting.dev
2021-04-22 15:20:41,534 INFO scheduler Scheduled Job Start: frappe.email.doctype.email_account.email_account.pull for meeting.dev
2021-04-22 15:20:41,912 INFO scheduler Scheduled Job Complete: frappe.email.doctype.email_account.email_account.pull for meeting.dev
2021-04-22 15:20:41,986 INFO scheduler Scheduled Job Start: frappe.email.queue.flush for meeting.dev
2021-04-22 15:20:42,280 INFO scheduler Scheduled Job Complete: frappe.email.queue.flush for meeting.dev
2021-04-22 15:21:40,343 DEBUG scheduler Queued events for site meeting.dev
2021-04-22 15:22:40,585 DEBUG scheduler Queued events for site meeting.dev
2021-04-22 15:23:40,934 DEBUG scheduler Queued events for site meeting.dev
2021-04-22 15:24:41,231 DEBUG scheduler Queued events for site meeting.dev
2021-04-22 15:24:41,256 INFO scheduler Scheduled Job Start: frappe.monitor.flush for meeting.dev
2021-04-22 15:24:41,422 INFO scheduler Scheduled Job Complete: frappe.monitor.flush for meeting.dev
2021-04-22 15:24:41,506 INFO scheduler Scheduled Job Start: frappe.utils.global_search.sync_global_search for meeting.dev
2021-04-22 15:24:41,665 INFO scheduler Scheduled Job Complete: frappe.utils.global_search.sync_global_search for meeting.dev
2021-04-22 15:24:41,754 INFO scheduler Scheduled Job Start: frappe.integrations.doctype.razorpay_settings.razorpay_settings.capture_payment for meeting.dev
2021-04-22 15:24:42,179 INFO scheduler Scheduled Job Complete: frappe.integrations.doctype.razorpay_settings.razorpay_settings.capture_payment for meeting.dev
2021-04-22 15:24:42,265 INFO scheduler Scheduled Job Start: frappe.email.doctype.email_account.email_account.notify_unreplied for meeting.dev
2021-04-22 15:24:42,634 INFO scheduler Scheduled Job Complete: frappe.email.doctype.email_account.email_account.notify_unreplied for meeting.dev
2021-04-22 15:24:42,721 INFO scheduler Scheduled Job Start: frappe.email.doctype.email_account.email_account.pull for meeting.dev
2021-04-22 15:24:43,062 INFO scheduler Scheduled Job Complete: frappe.email.doctype.email_account.email_account.pull for meeting.dev
2021-04-22 15:24:43,138 INFO scheduler Scheduled Job Start: frappe.email.queue.flush for meeting.dev
2021-04-22 15:24:43,415 INFO scheduler Scheduled Job Complete: frappe.email.queue.flush for meeting.dev
2021-04-22 15:25:41,485 DEBUG scheduler Queued events for site meeting.dev
2021-04-22 15:26:41,731 DEBUG scheduler Queued events for site meeting.dev
2021-04-22 15:27:41,967 DEBUG scheduler Queued events for site meeting.dev
2021-04-22 15:28:42,267 DEBUG scheduler Queued events for site meeting.dev
2021-04-22 15:28:42,302 INFO scheduler Scheduled Job Start: frappe.monitor.flush for meeting.dev
2021-04-22 15:28:42,460 INFO scheduler Scheduled Job Complete: frappe.monitor.flush for meeting.dev
2021-04-22 15:28:42,536 INFO scheduler Scheduled Job Start: frappe.utils.global_search.sync_global_search for meeting.dev
2021-04-22 15:28:42,689 INFO scheduler Scheduled Job Complete: frappe.utils.global_search.sync_global_search for meeting.dev
2021-04-22 15:28:42,763 INFO scheduler Scheduled Job Start: frappe.integrations.doctype.razorpay_settings.razorpay_settings.capture_payment for meeting.dev
2021-04-22 15:28:43,158 INFO scheduler Scheduled Job Complete: frappe.integrations.doctype.razorpay_settings.razorpay_settings.capture_payment for meeting.dev
2021-04-22 15:28:43,228 INFO scheduler Scheduled Job Start: frappe.email.doctype.email_account.email_account.notify_unreplied for meeting.dev
2021-04-22 15:28:43,534 INFO scheduler Scheduled Job Complete: frappe.email.doctype.email_account.email_account.notify_unreplied for meeting.dev
2021-04-22 15:28:43,603 INFO scheduler Scheduled Job Start: frappe.email.doctype.email_account.email_account.pull for meeting.dev
2021-04-22 15:28:43,928 INFO scheduler Scheduled Job Complete: frappe.email.doctype.email_account.email_account.pull for meeting.dev
2021-04-22 15:28:43,999 INFO scheduler Scheduled Job Start: frappe.email.queue.flush for meeting.dev
2021-04-22 15:28:44,266 INFO scheduler Scheduled Job Complete: frappe.email.queue.flush for meeting.dev
2021-04-22 15:29:42,594 DEBUG scheduler Queued events for site meeting.dev
2021-04-22 15:30:42,859 DEBUG scheduler Queued events for site meeting.dev
2021-04-22 15:30:42,933 INFO scheduler Scheduled Job Start: frappe.twofactor.delete_all_barcodes_for_users for meeting.dev
2021-04-22 15:30:43,449 INFO scheduler Scheduled Job Complete: frappe.twofactor.delete_all_barcodes_for_users for meeting.dev
2021-04-22 15:30:43,561 INFO scheduler Scheduled Job Start: frappe.website.doctype.web_page.web_page.check_publish_status for meeting.dev
2021-04-22 15:30:44,184 INFO scheduler Scheduled Job Complete: frappe.website.doctype.web_page.web_page.check_publish_status for meeting.dev
2021-04-22 15:30:44,282 INFO scheduler Scheduled Job Start: frappe.oauth.delete_oauth2_data for meeting.dev
2021-04-22 15:30:44,774 INFO scheduler Scheduled Job Complete: frappe.oauth.delete_oauth2_data for meeting.dev
2021-04-22 15:31:43,138 DEBUG scheduler Queued events for site meeting.dev
2021-04-22 15:32:43,424 DEBUG scheduler Queued events for site meeting.dev
2021-04-22 15:32:43,456 INFO scheduler Scheduled Job Start: frappe.monitor.flush for meeting.dev
2021-04-22 15:32:43,615 INFO scheduler Scheduled Job Complete: frappe.monitor.flush for meeting.dev
2021-04-22 15:32:43,689 INFO scheduler Scheduled Job Start: frappe.utils.global_search.sync_global_search for meeting.dev
2021-04-22 15:32:43,856 INFO scheduler Scheduled Job Complete: frappe.utils.global_search.sync_global_search for meeting.dev
2021-04-22 15:32:43,927 INFO scheduler Scheduled Job Start: frappe.integrations.doctype.razorpay_settings.razorpay_settings.capture_payment for meeting.dev
2021-04-22 15:32:44,340 INFO scheduler Scheduled Job Complete: frappe.integrations.doctype.razorpay_settings.razorpay_settings.capture_payment for meeting.dev
2021-04-22 15:32:44,419 INFO scheduler Scheduled Job Start: frappe.email.doctype.email_account.email_account.notify_unreplied for meeting.dev
2021-04-22 15:32:44,735 INFO scheduler Scheduled Job Complete: frappe.email.doctype.email_account.email_account.notify_unreplied for meeting.dev
2021-04-22 15:32:44,808 INFO scheduler Scheduled Job Start: frappe.email.doctype.email_account.email_account.pull for meeting.dev
2021-04-22 15:32:45,133 INFO scheduler Scheduled Job Complete: frappe.email.doctype.email_account.email_account.pull for meeting.dev
2021-04-22 15:32:45,208 INFO scheduler Scheduled Job Start: frappe.email.queue.flush for meeting.dev
2021-04-22 15:32:45,473 INFO scheduler Scheduled Job Complete: frappe.email.queue.flush for meeting.dev
2021-04-22 15:33:43,683 DEBUG scheduler Queued events for site meeting.dev
2021-04-22 15:34:43,915 DEBUG scheduler Queued events for site meeting.dev
2021-04-22 15:35:44,224 DEBUG scheduler Queued events for site meeting.dev
2021-04-22 15:36:44,614 DEBUG scheduler Queued events for site meeting.dev
2021-04-22 15:36:44,650 INFO scheduler Scheduled Job Start: frappe.monitor.flush for meeting.dev
2021-04-22 15:36:44,836 INFO scheduler Scheduled Job Complete: frappe.monitor.flush for meeting.dev
2021-04-22 15:36:44,930 INFO scheduler Scheduled Job Start: frappe.utils.global_search.sync_global_search for meeting.dev
2021-04-22 15:36:45,148 INFO scheduler Scheduled Job Complete: frappe.utils.global_search.sync_global_search for meeting.dev
2021-04-22 15:36:45,256 INFO scheduler Scheduled Job Start: frappe.integrations.doctype.razorpay_settings.razorpay_settings.capture_payment for meeting.dev
2021-04-22 15:36:45,708 INFO scheduler Scheduled Job Complete: frappe.integrations.doctype.razorpay_settings.razorpay_settings.capture_payment for meeting.dev
2021-04-22 15:36:45,788 INFO scheduler Scheduled Job Start: frappe.email.doctype.email_account.email_account.notify_unreplied for meeting.dev
2021-04-22 15:36:46,095 INFO scheduler Scheduled Job Complete: frappe.email.doctype.email_account.email_account.notify_unreplied for meeting.dev
2021-04-22 15:36:46,168 INFO scheduler Scheduled Job Start: frappe.email.doctype.email_account.email_account.pull for meeting.dev
2021-04-22 15:36:46,498 INFO scheduler Scheduled Job Complete: frappe.email.doctype.email_account.email_account.pull for meeting.dev
2021-04-22 15:36:46,574 INFO scheduler Scheduled Job Start: frappe.email.queue.flush for meeting.dev
2021-04-22 15:36:46,843 INFO scheduler Scheduled Job Complete: frappe.email.queue.flush for meeting.dev
2021-04-22 15:37:44,909 DEBUG scheduler Queued events for site meeting.dev
2021-04-22 15:38:45,138 DEBUG scheduler Queued events for site meeting.dev
2021-04-22 15:39:45,395 DEBUG scheduler Queued events for site meeting.dev
2021-04-22 15:40:45,709 DEBUG scheduler Queued events for site meeting.dev
2021-04-22 15:40:45,743 INFO scheduler Scheduled Job Start: frappe.monitor.flush for meeting.dev
2021-04-22 15:40:45,959 INFO scheduler Scheduled Job Complete: frappe.monitor.flush for meeting.dev
2021-04-22 15:40:46,033 INFO scheduler Scheduled Job Start: frappe.utils.global_search.sync_global_search for meeting.dev
2021-04-22 15:40:46,213 INFO scheduler Scheduled Job Complete: frappe.utils.global_search.sync_global_search for meeting.dev
2021-04-22 15:40:46,286 INFO scheduler Scheduled Job Start: frappe.integrations.doctype.razorpay_settings.razorpay_settings.capture_payment for meeting.dev
2021-04-22 15:40:46,668 INFO scheduler Scheduled Job Complete: frappe.integrations.doctype.razorpay_settings.razorpay_settings.capture_payment for meeting.dev
2021-04-22 15:40:46,742 INFO scheduler Scheduled Job Start: frappe.email.doctype.email_account.email_account.notify_unreplied for meeting.dev
2021-04-22 15:40:47,191 INFO scheduler Scheduled Job Complete: frappe.email.doctype.email_account.email_account.notify_unreplied for meeting.dev
2021-04-22 15:40:47,266 INFO scheduler Scheduled Job Start: frappe.email.doctype.email_account.email_account.pull for meeting.dev
2021-04-22 15:40:47,617 INFO scheduler Scheduled Job Complete: frappe.email.doctype.email_account.email_account.pull for meeting.dev
2021-04-22 15:40:47,708 INFO scheduler Scheduled Job Start: frappe.email.queue.flush for meeting.dev
2021-04-22 15:40:48,012 INFO scheduler Scheduled Job Complete: frappe.email.queue.flush for meeting.dev
2021-04-22 15:41:45,986 DEBUG scheduler Queued events for site meeting.dev
2021-04-22 15:42:46,226 DEBUG scheduler Queued events for site meeting.dev
2021-04-22 15:43:46,463 DEBUG scheduler Queued events for site meeting.dev
2021-04-22 15:44:46,769 DEBUG scheduler Queued events for site meeting.dev
2021-04-22 15:44:46,807 INFO scheduler Scheduled Job Start: frappe.monitor.flush for meeting.dev
2021-04-22 15:44:47,025 INFO scheduler Scheduled Job Complete: frappe.monitor.flush for meeting.dev
2021-04-22 15:44:47,101 INFO scheduler Scheduled Job Start: frappe.utils.global_search.sync_global_search for meeting.dev
2021-04-22 15:44:47,261 INFO scheduler Scheduled Job Complete: frappe.utils.global_search.sync_global_search for meeting.dev
2021-04-22 15:44:47,333 INFO scheduler Scheduled Job Start: frappe.integrations.doctype.razorpay_settings.razorpay_settings.capture_payment for meeting.dev
2021-04-22 15:44:47,824 INFO scheduler Scheduled Job Complete: frappe.integrations.doctype.razorpay_settings.razorpay_settings.capture_payment for meeting.dev
2021-04-22 15:44:47,895 INFO scheduler Scheduled Job Start: frappe.email.doctype.email_account.email_account.notify_unreplied for meeting.dev
2021-04-22 15:44:48,205 INFO scheduler Scheduled Job Complete: frappe.email.doctype.email_account.email_account.notify_unreplied for meeting.dev
2021-04-22 15:44:48,278 INFO scheduler Scheduled Job Start: frappe.email.doctype.email_account.email_account.pull for meeting.dev
2021-04-22 15:44:48,600 INFO scheduler Scheduled Job Complete: frappe.email.doctype.email_account.email_account.pull for meeting.dev
2021-04-22 15:44:48,673 INFO scheduler Scheduled Job Start: frappe.email.queue.flush for meeting.dev
2021-04-22 15:44:49,002 INFO scheduler Scheduled Job Complete: frappe.email.queue.flush for meeting.dev
2021-04-22 15:45:47,050 DEBUG scheduler Queued events for site meeting.dev
2021-04-22 15:45:47,112 INFO scheduler Scheduled Job Start: frappe.twofactor.delete_all_barcodes_for_users for meeting.dev
2021-04-22 15:45:47,546 INFO scheduler Scheduled Job Complete: frappe.twofactor.delete_all_barcodes_for_users for meeting.dev
2021-04-22 15:45:47,636 INFO scheduler Scheduled Job Start: frappe.website.doctype.web_page.web_page.check_publish_status for meeting.dev
2021-04-22 15:45:48,101 INFO scheduler Scheduled Job Complete: frappe.website.doctype.web_page.web_page.check_publish_status for meeting.dev
2021-04-22 15:45:48,216 INFO scheduler Scheduled Job Start: frappe.oauth.delete_oauth2_data for meeting.dev
2021-04-22 15:45:48,675 INFO scheduler Scheduled Job Complete: frappe.oauth.delete_oauth2_data for meeting.dev
2021-04-22 15:46:47,349 DEBUG scheduler Queued events for site meeting.dev
2021-04-22 15:47:47,658 DEBUG scheduler Queued events for site meeting.dev
2021-04-22 15:48:47,949 DEBUG scheduler Queued events for site meeting.dev
2021-04-22 15:48:48,005 INFO scheduler Scheduled Job Start: frappe.monitor.flush for meeting.dev
2021-04-22 15:48:48,283 INFO scheduler Scheduled Job Complete: frappe.monitor.flush for meeting.dev
2021-04-22 15:48:48,359 INFO scheduler Scheduled Job Start: frappe.utils.global_search.sync_global_search for meeting.dev
2021-04-22 15:48:48,521 INFO scheduler Scheduled Job Complete: frappe.utils.global_search.sync_global_search for meeting.dev
2021-04-22 15:48:48,598 INFO scheduler Scheduled Job Start: frappe.integrations.doctype.razorpay_settings.razorpay_settings.capture_payment for meeting.dev
2021-04-22 15:48:49,103 INFO scheduler Scheduled Job Complete: frappe.integrations.doctype.razorpay_settings.razorpay_settings.capture_payment for meeting.dev
2021-04-22 15:48:49,175 INFO scheduler Scheduled Job Start: frappe.email.doctype.email_account.email_account.notify_unreplied for meeting.dev
2021-04-22 15:48:49,578 INFO scheduler Scheduled Job Complete: frappe.email.doctype.email_account.email_account.notify_unreplied for meeting.dev
2021-04-22 15:48:49,665 INFO scheduler Scheduled Job Start: frappe.email.doctype.email_account.email_account.pull for meeting.dev
2021-04-22 15:48:50,121 INFO scheduler Scheduled Job Complete: frappe.email.doctype.email_account.email_account.pull for meeting.dev
2021-04-22 15:48:50,204 INFO scheduler Scheduled Job Start: frappe.email.queue.flush for meeting.dev
2021-04-22 15:48:50,504 INFO scheduler Scheduled Job Complete: frappe.email.queue.flush for meeting.dev
2021-04-22 15:49:48,206 DEBUG scheduler Queued events for site meeting.dev
2021-04-22 15:50:48,441 DEBUG scheduler Queued events for site meeting.dev
2021-04-22 15:51:48,688 DEBUG scheduler Queued events for site meeting.dev
2021-04-22 15:52:48,976 DEBUG scheduler Queued events for site meeting.dev
2021-04-22 15:52:49,023 INFO scheduler Scheduled Job Start: frappe.monitor.flush for meeting.dev
2021-04-22 15:52:49,187 INFO scheduler Scheduled Job Complete: frappe.monitor.flush for meeting.dev
2021-04-22 15:52:49,270 INFO scheduler Scheduled Job Start: frappe.utils.global_search.sync_global_search for meeting.dev
2021-04-22 15:52:49,421 INFO scheduler Scheduled Job Complete: frappe.utils.global_search.sync_global_search for meeting.dev
2021-04-22 15:52:49,500 INFO scheduler Scheduled Job Start: frappe.integrations.doctype.razorpay_settings.razorpay_settings.capture_payment for meeting.dev
2021-04-22 15:52:49,919 INFO scheduler Scheduled Job Complete: frappe.integrations.doctype.razorpay_settings.razorpay_settings.capture_payment for meeting.dev
2021-04-22 15:52:50,022 INFO scheduler Scheduled Job Start: frappe.email.doctype.email_account.email_account.notify_unreplied for meeting.dev
2021-04-22 15:52:50,364 INFO scheduler Scheduled Job Complete: frappe.email.doctype.email_account.email_account.notify_unreplied for meeting.dev
2021-04-22 15:52:50,437 INFO scheduler Scheduled Job Start: frappe.email.doctype.email_account.email_account.pull for meeting.dev
2021-04-22 15:52:50,777 INFO scheduler Scheduled Job Complete: frappe.email.doctype.email_account.email_account.pull for meeting.dev
2021-04-22 15:52:50,850 INFO scheduler Scheduled Job Start: frappe.email.queue.flush for meeting.dev
2021-04-22 15:52:51,296 INFO scheduler Scheduled Job Complete: frappe.email.queue.flush for meeting.dev
2021-04-22 15:53:49,256 DEBUG scheduler Queued events for site meeting.dev
2021-04-22 15:54:49,493 DEBUG scheduler Queued events for site meeting.dev
2021-04-22 15:55:49,747 DEBUG scheduler Queued events for site meeting.dev
2021-04-22 15:56:50,085 DEBUG scheduler Queued events for site meeting.dev
2021-04-22 15:56:50,096 INFO scheduler Scheduled Job Start: frappe.monitor.flush for meeting.dev
2021-04-22 15:56:50,256 INFO scheduler Scheduled Job Complete: frappe.monitor.flush for meeting.dev
2021-04-22 15:56:50,329 INFO scheduler Scheduled Job Start: frappe.utils.global_search.sync_global_search for meeting.dev
2021-04-22 15:56:50,481 INFO scheduler Scheduled Job Complete: frappe.utils.global_search.sync_global_search for meeting.dev
2021-04-22 15:56:50,563 INFO scheduler Scheduled Job Start: frappe.integrations.doctype.razorpay_settings.razorpay_settings.capture_payment for meeting.dev
2021-04-22 15:56:50,941 INFO scheduler Scheduled Job Complete: frappe.integrations.doctype.razorpay_settings.razorpay_settings.capture_payment for meeting.dev
2021-04-22 15:56:51,010 INFO scheduler Scheduled Job Start: frappe.email.doctype.email_account.email_account.notify_unreplied for meeting.dev
2021-04-22 15:56:51,321 INFO scheduler Scheduled Job Complete: frappe.email.doctype.email_account.email_account.notify_unreplied for meeting.dev
2021-04-22 15:56:51,393 INFO scheduler Scheduled Job Start: frappe.email.doctype.email_account.email_account.pull for meeting.dev
2021-04-22 15:56:51,731 INFO scheduler Scheduled Job Complete: frappe.email.doctype.email_account.email_account.pull for meeting.dev
2021-04-22 15:56:51,802 INFO scheduler Scheduled Job Start: frappe.email.queue.flush for meeting.dev
2021-04-22 15:56:52,065 INFO scheduler Scheduled Job Complete: frappe.email.queue.flush for meeting.dev
2021-04-22 15:57:50,343 DEBUG scheduler Queued events for site meeting.dev
2021-04-22 15:58:50,620 DEBUG scheduler Queued events for site meeting.dev
2021-04-22 15:59:50,861 DEBUG scheduler Queued events for site meeting.dev
2021-04-22 16:00:51,149 INFO scheduler Scheduled Job Start: frappe.email.doctype.newsletter.newsletter.send_scheduled_email for meeting.dev
2021-04-22 16:00:51,216 DEBUG scheduler Queued events for site meeting.dev
2021-04-22 16:00:51,622 INFO scheduler Scheduled Job Complete: frappe.email.doctype.newsletter.newsletter.send_scheduled_email for meeting.dev
2021-04-22 16:00:51,711 INFO scheduler Scheduled Job Start: frappe.integrations.doctype.google_calendar.google_calendar.sync for meeting.dev
2021-04-22 16:00:52,268 INFO scheduler Scheduled Job Complete: frappe.integrations.doctype.google_calendar.google_calendar.sync for meeting.dev
2021-04-22 16:00:52,352 INFO scheduler Scheduled Job Start: frappe.desk.form.document_follow.send_hourly_updates for meeting.dev
2021-04-22 16:00:52,744 INFO scheduler Scheduled Job Complete: frappe.desk.form.document_follow.send_hourly_updates for meeting.dev
2021-04-22 16:00:52,830 INFO scheduler Scheduled Job Start: frappe.deferred_insert.save_to_db for meeting.dev
2021-04-22 16:00:53,237 INFO scheduler Scheduled Job Complete: frappe.deferred_insert.save_to_db for meeting.dev
2021-04-22 16:00:53,326 INFO scheduler Scheduled Job Start: frappe.desk.page.backups.backups.delete_downloadable_backups for meeting.dev
2021-04-22 16:00:53,728 INFO scheduler Scheduled Job Complete: frappe.desk.page.backups.backups.delete_downloadable_backups for meeting.dev
2021-04-22 16:00:53,813 INFO scheduler Scheduled Job Start: frappe.utils.error.collect_error_snapshots for meeting.dev
2021-04-22 16:00:54,198 INFO scheduler Scheduled Job Complete: frappe.utils.error.collect_error_snapshots for meeting.dev
2021-04-22 16:00:54,286 INFO scheduler Scheduled Job Start: frappe.model.utils.user_settings.sync_user_settings for meeting.dev
2021-04-22 16:00:54,665 INFO scheduler Scheduled Job Complete: frappe.model.utils.user_settings.sync_user_settings for meeting.dev
2021-04-22 16:00:54,752 INFO scheduler Scheduled Job Start: frappe.model.utils.link_count.update_link_count for meeting.dev
2021-04-22 16:00:55,145 INFO scheduler Scheduled Job Complete: frappe.model.utils.link_count.update_link_count for meeting.dev
2021-04-22 16:00:55,240 INFO scheduler Scheduled Job Start: frappe.monitor.flush for meeting.dev
2021-04-22 16:00:55,398 INFO scheduler Scheduled Job Complete: frappe.monitor.flush for meeting.dev
2021-04-22 16:00:55,480 INFO scheduler Scheduled Job Start: frappe.utils.global_search.sync_global_search for meeting.dev
2021-04-22 16:00:55,639 INFO scheduler Scheduled Job Complete: frappe.utils.global_search.sync_global_search for meeting.dev
2021-04-22 16:00:55,712 INFO scheduler Scheduled Job Start: frappe.integrations.doctype.razorpay_settings.razorpay_settings.capture_payment for meeting.dev
2021-04-22 16:00:56,199 INFO scheduler Scheduled Job Complete: frappe.integrations.doctype.razorpay_settings.razorpay_settings.capture_payment for meeting.dev
2021-04-22 16:00:56,328 INFO scheduler Scheduled Job Start: frappe.email.doctype.email_account.email_account.notify_unreplied for meeting.dev
2021-04-22 16:00:56,659 INFO scheduler Scheduled Job Complete: frappe.email.doctype.email_account.email_account.notify_unreplied for meeting.dev
2021-04-22 16:00:56,731 INFO scheduler Scheduled Job Start: frappe.email.doctype.email_account.email_account.pull for meeting.dev
2021-04-22 16:00:57,051 INFO scheduler Scheduled Job Complete: frappe.email.doctype.email_account.email_account.pull for meeting.dev
2021-04-22 16:00:57,123 INFO scheduler Scheduled Job Start: frappe.email.queue.flush for meeting.dev
2021-04-22 16:00:57,386 INFO scheduler Scheduled Job Complete: frappe.email.queue.flush for meeting.dev
2021-04-22 16:00:57,463 INFO scheduler Scheduled Job Start: frappe.twofactor.delete_all_barcodes_for_users for meeting.dev
2021-04-22 16:00:57,876 INFO scheduler Scheduled Job Complete: frappe.twofactor.delete_all_barcodes_for_users for meeting.dev
2021-04-22 16:00:57,960 INFO scheduler Scheduled Job Start: frappe.website.doctype.web_page.web_page.check_publish_status for meeting.dev
2021-04-22 16:00:58,488 INFO scheduler Scheduled Job Complete: frappe.website.doctype.web_page.web_page.check_publish_status for meeting.dev
2021-04-22 16:00:58,576 INFO scheduler Scheduled Job Start: frappe.oauth.delete_oauth2_data for meeting.dev
2021-04-22 16:00:58,979 INFO scheduler Scheduled Job Complete: frappe.oauth.delete_oauth2_data for meeting.dev
2021-04-22 16:01:51,475 DEBUG scheduler Queued events for site meeting.dev
2021-04-22 16:02:51,868 DEBUG scheduler Queued events for site meeting.dev
2021-04-22 16:03:52,125 DEBUG scheduler Queued events for site meeting.dev
2021-04-22 16:04:52,447 DEBUG scheduler Queued events for site meeting.dev
2021-04-22 16:04:52,479 INFO scheduler Scheduled Job Start: frappe.monitor.flush for meeting.dev
2021-04-22 16:04:52,693 INFO scheduler Scheduled Job Complete: frappe.monitor.flush for meeting.dev
2021-04-22 16:04:52,809 INFO scheduler Scheduled Job Start: frappe.utils.global_search.sync_global_search for meeting.dev
2021-04-22 16:04:53,009 INFO scheduler Scheduled Job Complete: frappe.utils.global_search.sync_global_search for meeting.dev
2021-04-22 16:04:53,166 INFO scheduler Scheduled Job Start: frappe.integrations.doctype.razorpay_settings.razorpay_settings.capture_payment for meeting.dev
2021-04-22 16:04:53,713 INFO scheduler Scheduled Job Complete: frappe.integrations.doctype.razorpay_settings.razorpay_settings.capture_payment for meeting.dev
2021-04-22 16:04:53,796 INFO scheduler Scheduled Job Start: frappe.email.doctype.email_account.email_account.notify_unreplied for meeting.dev
2021-04-22 16:04:54,127 INFO scheduler Scheduled Job Complete: frappe.email.doctype.email_account.email_account.notify_unreplied for meeting.dev
2021-04-22 16:04:54,199 INFO scheduler Scheduled Job Start: frappe.email.doctype.email_account.email_account.pull for meeting.dev
2021-04-22 16:04:54,534 INFO scheduler Scheduled Job Complete: frappe.email.doctype.email_account.email_account.pull for meeting.dev
2021-04-22 16:04:54,605 INFO scheduler Scheduled Job Start: frappe.email.queue.flush for meeting.dev
2021-04-22 16:04:54,879 INFO scheduler Scheduled Job Complete: frappe.email.queue.flush for meeting.dev
2021-04-22 16:05:52,704 DEBUG scheduler Queued events for site meeting.dev
2021-04-22 16:06:52,940 DEBUG scheduler Queued events for site meeting.dev
2021-04-22 16:07:53,218 DEBUG scheduler Queued events for site meeting.dev
2021-04-22 16:08:53,575 DEBUG scheduler Queued events for site meeting.dev
2021-04-22 16:08:53,601 INFO scheduler Scheduled Job Start: frappe.monitor.flush for meeting.dev
2021-04-22 16:08:53,763 INFO scheduler Scheduled Job Complete: frappe.monitor.flush for meeting.dev
2021-04-22 16:08:53,837 INFO scheduler Scheduled Job Start: frappe.utils.global_search.sync_global_search for meeting.dev
2021-04-22 16:08:53,995 INFO scheduler Scheduled Job Complete: frappe.utils.global_search.sync_global_search for meeting.dev
2021-04-22 16:08:54,070 INFO scheduler Scheduled Job Start: frappe.integrations.doctype.razorpay_settings.razorpay_settings.capture_payment for meeting.dev
2021-04-22 16:08:54,473 INFO scheduler Scheduled Job Complete: frappe.integrations.doctype.razorpay_settings.razorpay_settings.capture_payment for meeting.dev
2021-04-22 16:08:54,547 INFO scheduler Scheduled Job Start: frappe.email.doctype.email_account.email_account.notify_unreplied for meeting.dev
2021-04-22 16:08:54,852 INFO scheduler Scheduled Job Complete: frappe.email.doctype.email_account.email_account.notify_unreplied for meeting.dev
2021-04-22 16:08:54,922 INFO scheduler Scheduled Job Start: frappe.email.doctype.email_account.email_account.pull for meeting.dev
2021-04-22 16:08:55,310 INFO scheduler Scheduled Job Complete: frappe.email.doctype.email_account.email_account.pull for meeting.dev
2021-04-22 16:08:55,408 INFO scheduler Scheduled Job Start: frappe.email.queue.flush for meeting.dev
2021-04-22 16:08:55,701 INFO scheduler Scheduled Job Complete: frappe.email.queue.flush for meeting.dev
2021-04-22 16:09:53,897 DEBUG scheduler Queued events for site meeting.dev
2021-04-22 16:10:54,146 DEBUG scheduler Queued events for site meeting.dev
2021-04-22 16:11:54,399 DEBUG scheduler Queued events for site meeting.dev
2021-04-22 16:12:54,720 DEBUG scheduler Queued events for site meeting.dev
2021-04-22 16:12:54,746 INFO scheduler Scheduled Job Start: frappe.monitor.flush for meeting.dev
2021-04-22 16:12:54,943 INFO scheduler Scheduled Job Complete: frappe.monitor.flush for meeting.dev
2021-04-22 16:12:55,033 INFO scheduler Scheduled Job Start: frappe.utils.global_search.sync_global_search for meeting.dev
2021-04-22 16:12:55,246 INFO scheduler Scheduled Job Complete: frappe.utils.global_search.sync_global_search for meeting.dev
2021-04-22 16:12:55,348 INFO scheduler Scheduled Job Start: frappe.integrations.doctype.razorpay_settings.razorpay_settings.capture_payment for meeting.dev
2021-04-22 16:12:55,814 INFO scheduler Scheduled Job Complete: frappe.integrations.doctype.razorpay_settings.razorpay_settings.capture_payment for meeting.dev
2021-04-22 16:12:55,928 INFO scheduler Scheduled Job Start: frappe.email.doctype.email_account.email_account.notify_unreplied for meeting.dev
2021-04-22 16:12:56,317 INFO scheduler Scheduled Job Complete: frappe.email.doctype.email_account.email_account.notify_unreplied for meeting.dev
2021-04-22 16:12:56,407 INFO scheduler Scheduled Job Start: frappe.email.doctype.email_account.email_account.pull for meeting.dev
2021-04-22 16:12:56,838 INFO scheduler Scheduled Job Complete: frappe.email.doctype.email_account.email_account.pull for meeting.dev
2021-04-22 16:12:56,923 INFO scheduler Scheduled Job Start: frappe.email.queue.flush for meeting.dev
2021-04-22 16:12:57,236 INFO scheduler Scheduled Job Complete: frappe.email.queue.flush for meeting.dev
2021-04-22 16:13:54,994 DEBUG scheduler Queued events for site meeting.dev
2021-04-22 16:14:55,264 DEBUG scheduler Queued events for site meeting.dev
2021-04-22 16:15:55,539 DEBUG scheduler Queued events for site meeting.dev
2021-04-22 16:15:55,598 INFO scheduler Scheduled Job Start: frappe.twofactor.delete_all_barcodes_for_users for meeting.dev
2021-04-22 16:15:56,019 INFO scheduler Scheduled Job Complete: frappe.twofactor.delete_all_barcodes_for_users for meeting.dev
2021-04-22 16:15:56,103 INFO scheduler Scheduled Job Start: frappe.website.doctype.web_page.web_page.check_publish_status for meeting.dev
2021-04-22 16:15:56,562 INFO scheduler Scheduled Job Complete: frappe.website.doctype.web_page.web_page.check_publish_status for meeting.dev
2021-04-22 16:15:56,653 INFO scheduler Scheduled Job Start: frappe.oauth.delete_oauth2_data for meeting.dev
2021-04-22 16:15:57,069 INFO scheduler Scheduled Job Complete: frappe.oauth.delete_oauth2_data for meeting.dev
2021-04-22 16:16:55,922 DEBUG scheduler Queued events for site meeting.dev
2021-04-22 16:16:55,964 INFO scheduler Scheduled Job Start: frappe.monitor.flush for meeting.dev
2021-04-22 16:16:56,195 INFO scheduler Scheduled Job Complete: frappe.monitor.flush for meeting.dev
2021-04-22 16:16:56,311 INFO scheduler Scheduled Job Start: frappe.utils.global_search.sync_global_search for meeting.dev
2021-04-22 16:16:56,551 INFO scheduler Scheduled Job Complete: frappe.utils.global_search.sync_global_search for meeting.dev
2021-04-22 16:16:56,655 INFO scheduler Scheduled Job Start: frappe.integrations.doctype.razorpay_settings.razorpay_settings.capture_payment for meeting.dev
2021-04-22 16:16:57,059 INFO scheduler Scheduled Job Complete: frappe.integrations.doctype.razorpay_settings.razorpay_settings.capture_payment for meeting.dev
2021-04-22 16:16:57,132 INFO scheduler Scheduled Job Start: frappe.email.doctype.email_account.email_account.notify_unreplied for meeting.dev
2021-04-22 16:16:57,448 INFO scheduler Scheduled Job Complete: frappe.email.doctype.email_account.email_account.notify_unreplied for meeting.dev
2021-04-22 16:16:57,521 INFO scheduler Scheduled Job Start: frappe.email.doctype.email_account.email_account.pull for meeting.dev
2021-04-22 16:16:57,865 INFO scheduler Scheduled Job Complete: frappe.email.doctype.email_account.email_account.pull for meeting.dev
2021-04-22 16:16:57,940 INFO scheduler Scheduled Job Start: frappe.email.queue.flush for meeting.dev
2021-04-22 16:16:58,205 INFO scheduler Scheduled Job Complete: frappe.email.queue.flush for meeting.dev
2021-04-22 16:17:56,251 DEBUG scheduler Queued events for site meeting.dev
2021-04-22 16:18:56,536 DEBUG scheduler Queued events for site meeting.dev
2021-04-22 16:19:56,785 DEBUG scheduler Queued events for site meeting.dev
2021-04-22 16:20:57,054 DEBUG scheduler Queued events for site meeting.dev
2021-04-22 16:20:57,096 INFO scheduler Scheduled Job Start: frappe.monitor.flush for meeting.dev
2021-04-22 16:20:57,254 INFO scheduler Scheduled Job Complete: frappe.monitor.flush for meeting.dev
2021-04-22 16:20:57,327 INFO scheduler Scheduled Job Start: frappe.utils.global_search.sync_global_search for meeting.dev
2021-04-22 16:20:57,500 INFO scheduler Scheduled Job Complete: frappe.utils.global_search.sync_global_search for meeting.dev
2021-04-22 16:20:57,576 INFO scheduler Scheduled Job Start: frappe.integrations.doctype.razorpay_settings.razorpay_settings.capture_payment for meeting.dev
2021-04-22 16:20:57,971 INFO scheduler Scheduled Job Complete: frappe.integrations.doctype.razorpay_settings.razorpay_settings.capture_payment for meeting.dev
2021-04-22 16:20:58,041 INFO scheduler Scheduled Job Start: frappe.email.doctype.email_account.email_account.notify_unreplied for meeting.dev
2021-04-22 16:20:58,358 INFO scheduler Scheduled Job Complete: frappe.email.doctype.email_account.email_account.notify_unreplied for meeting.dev
2021-04-22 16:20:58,431 INFO scheduler Scheduled Job Start: frappe.email.doctype.email_account.email_account.pull for meeting.dev
2021-04-22 16:20:58,746 INFO scheduler Scheduled Job Complete: frappe.email.doctype.email_account.email_account.pull for meeting.dev
2021-04-22 16:20:58,820 INFO scheduler Scheduled Job Start: frappe.email.queue.flush for meeting.dev
2021-04-22 16:20:59,094 INFO scheduler Scheduled Job Complete: frappe.email.queue.flush for meeting.dev
2021-04-22 16:21:57,324 DEBUG scheduler Queued events for site meeting.dev
2021-04-22 16:22:57,628 DEBUG scheduler Queued events for site meeting.dev
2021-04-22 16:23:57,897 DEBUG scheduler Queued events for site meeting.dev
2021-04-22 16:24:58,194 DEBUG scheduler Queued events for site meeting.dev
2021-04-22 16:24:58,226 INFO scheduler Scheduled Job Start: frappe.monitor.flush for meeting.dev
2021-04-22 16:24:58,396 INFO scheduler Scheduled Job Complete: frappe.monitor.flush for meeting.dev
2021-04-22 16:24:58,474 INFO scheduler Scheduled Job Start: frappe.utils.global_search.sync_global_search for meeting.dev
2021-04-22 16:24:58,639 INFO scheduler Scheduled Job Complete: frappe.utils.global_search.sync_global_search for meeting.dev
2021-04-22 16:24:58,716 INFO scheduler Scheduled Job Start: frappe.integrations.doctype.razorpay_settings.razorpay_settings.capture_payment for meeting.dev
2021-04-22 16:24:59,187 INFO scheduler Scheduled Job Complete: frappe.integrations.doctype.razorpay_settings.razorpay_settings.capture_payment for meeting.dev
2021-04-22 16:24:59,261 INFO scheduler Scheduled Job Start: frappe.email.doctype.email_account.email_account.notify_unreplied for meeting.dev
2021-04-22 16:24:59,573 INFO scheduler Scheduled Job Complete: frappe.email.doctype.email_account.email_account.notify_unreplied for meeting.dev
2021-04-22 16:24:59,646 INFO scheduler Scheduled Job Start: frappe.email.doctype.email_account.email_account.pull for meeting.dev
2021-04-22 16:25:00,080 INFO scheduler Scheduled Job Complete: frappe.email.doctype.email_account.email_account.pull for meeting.dev
2021-04-22 16:25:00,155 INFO scheduler Scheduled Job Start: frappe.email.queue.flush for meeting.dev
2021-04-22 16:25:00,431 INFO scheduler Scheduled Job Complete: frappe.email.queue.flush for meeting.dev
2021-04-22 16:25:58,449 DEBUG scheduler Queued events for site meeting.dev
2021-04-22 16:26:58,726 DEBUG scheduler Queued events for site meeting.dev
2021-04-22 16:27:58,968 DEBUG scheduler Queued events for site meeting.dev
2021-04-22 16:28:59,315 DEBUG scheduler Queued events for site meeting.dev
2021-04-22 16:28:59,351 INFO scheduler Scheduled Job Start: frappe.monitor.flush for meeting.dev
2021-04-22 16:28:59,580 INFO scheduler Scheduled Job Complete: frappe.monitor.flush for meeting.dev
2021-04-22 16:28:59,665 INFO scheduler Scheduled Job Start: frappe.utils.global_search.sync_global_search for meeting.dev
2021-04-22 16:28:59,861 INFO scheduler Scheduled Job Complete: frappe.utils.global_search.sync_global_search for meeting.dev
2021-04-22 16:28:59,937 INFO scheduler Scheduled Job Start: frappe.integrations.doctype.razorpay_settings.razorpay_settings.capture_payment for meeting.dev
2021-04-22 16:29:00,447 INFO scheduler Scheduled Job Complete: frappe.integrations.doctype.razorpay_settings.razorpay_settings.capture_payment for meeting.dev
2021-04-22 16:29:00,562 INFO scheduler Scheduled Job Start: frappe.email.doctype.email_account.email_account.notify_unreplied for meeting.dev
2021-04-22 16:29:00,921 INFO scheduler Scheduled Job Complete: frappe.email.doctype.email_account.email_account.notify_unreplied for meeting.dev
2021-04-22 16:29:01,008 INFO scheduler Scheduled Job Start: frappe.email.doctype.email_account.email_account.pull for meeting.dev
2021-04-22 16:29:01,506 INFO scheduler Scheduled Job Complete: frappe.email.doctype.email_account.email_account.pull for meeting.dev
2021-04-22 16:29:01,598 INFO scheduler Scheduled Job Start: frappe.email.queue.flush for meeting.dev
2021-04-22 16:29:01,966 INFO scheduler Scheduled Job Complete: frappe.email.queue.flush for meeting.dev
2021-04-22 16:29:59,612 DEBUG scheduler Queued events for site meeting.dev
2021-04-22 16:30:59,918 DEBUG scheduler Queued events for site meeting.dev
2021-04-22 16:30:59,988 INFO scheduler Scheduled Job Start: frappe.twofactor.delete_all_barcodes_for_users for meeting.dev
2021-04-22 16:31:00,541 INFO scheduler Scheduled Job Complete: frappe.twofactor.delete_all_barcodes_for_users for meeting.dev
2021-04-22 16:31:00,632 INFO scheduler Scheduled Job Start: frappe.website.doctype.web_page.web_page.check_publish_status for meeting.dev
2021-04-22 16:31:01,128 INFO scheduler Scheduled Job Complete: frappe.website.doctype.web_page.web_page.check_publish_status for meeting.dev
2021-04-22 16:31:01,221 INFO scheduler Scheduled Job Start: frappe.oauth.delete_oauth2_data for meeting.dev
2021-04-22 16:31:01,704 INFO scheduler Scheduled Job Complete: frappe.oauth.delete_oauth2_data for meeting.dev
2021-04-22 16:32:00,290 DEBUG scheduler Queued events for site meeting.dev
2021-04-22 16:32:00,344 INFO scheduler Scheduled Job Start: frappe.monitor.flush for meeting.dev
2021-04-22 16:32:00,645 INFO scheduler Scheduled Job Complete: frappe.monitor.flush for meeting.dev
2021-04-22 16:32:00,747 INFO scheduler Scheduled Job Start: frappe.utils.global_search.sync_global_search for meeting.dev
2021-04-22 16:32:00,937 INFO scheduler Scheduled Job Complete: frappe.utils.global_search.sync_global_search for meeting.dev
2021-04-22 16:32:01,012 INFO scheduler Scheduled Job Start: frappe.integrations.doctype.razorpay_settings.razorpay_settings.capture_payment for meeting.dev
2021-04-22 16:32:01,454 INFO scheduler Scheduled Job Complete: frappe.integrations.doctype.razorpay_settings.razorpay_settings.capture_payment for meeting.dev
2021-04-22 16:32:01,563 INFO scheduler Scheduled Job Start: frappe.email.doctype.email_account.email_account.notify_unreplied for meeting.dev
2021-04-22 16:32:02,033 INFO scheduler Scheduled Job Complete: frappe.email.doctype.email_account.email_account.notify_unreplied for meeting.dev
2021-04-22 16:32:02,145 INFO scheduler Scheduled Job Start: frappe.email.doctype.email_account.email_account.pull for meeting.dev
2021-04-22 16:32:02,517 INFO scheduler Scheduled Job Complete: frappe.email.doctype.email_account.email_account.pull for meeting.dev
2021-04-22 16:32:02,627 INFO scheduler Scheduled Job Start: frappe.email.queue.flush for meeting.dev
2021-04-22 16:32:02,917 INFO scheduler Scheduled Job Complete: frappe.email.queue.flush for meeting.dev
2021-04-22 16:33:00,587 DEBUG scheduler Queued events for site meeting.dev
2021-04-22 16:34:00,856 DEBUG scheduler Queued events for site meeting.dev
2021-04-22 16:35:01,099 DEBUG scheduler Queued events for site meeting.dev
2021-04-22 16:36:01,371 DEBUG scheduler Queued events for site meeting.dev
2021-04-22 16:36:01,402 INFO scheduler Scheduled Job Start: frappe.monitor.flush for meeting.dev
2021-04-22 16:36:01,705 INFO scheduler Scheduled Job Complete: frappe.monitor.flush for meeting.dev
2021-04-22 16:36:01,804 INFO scheduler Scheduled Job Start: frappe.utils.global_search.sync_global_search for meeting.dev
2021-04-22 16:36:02,054 INFO scheduler Scheduled Job Complete: frappe.utils.global_search.sync_global_search for meeting.dev
2021-04-22 16:36:02,146 INFO scheduler Scheduled Job Start: frappe.integrations.doctype.razorpay_settings.razorpay_settings.capture_payment for meeting.dev
2021-04-22 16:36:02,659 INFO scheduler Scheduled Job Complete: frappe.integrations.doctype.razorpay_settings.razorpay_settings.capture_payment for meeting.dev
2021-04-22 16:36:02,743 INFO scheduler Scheduled Job Start: frappe.email.doctype.email_account.email_account.notify_unreplied for meeting.dev
2021-04-22 16:36:03,173 INFO scheduler Scheduled Job Complete: frappe.email.doctype.email_account.email_account.notify_unreplied for meeting.dev
2021-04-22 16:36:03,287 INFO scheduler Scheduled Job Start: frappe.email.doctype.email_account.email_account.pull for meeting.dev
2021-04-22 16:36:03,668 INFO scheduler Scheduled Job Complete: frappe.email.doctype.email_account.email_account.pull for meeting.dev
2021-04-22 16:36:03,756 INFO scheduler Scheduled Job Start: frappe.email.queue.flush for meeting.dev
2021-04-22 16:36:04,104 INFO scheduler Scheduled Job Complete: frappe.email.queue.flush for meeting.dev
2021-04-22 16:37:01,633 DEBUG scheduler Queued events for site meeting.dev
2021-04-22 16:38:01,881 DEBUG scheduler Queued events for site meeting.dev
2021-04-22 16:39:02,142 DEBUG scheduler Queued events for site meeting.dev
2021-04-22 16:40:02,408 DEBUG scheduler Queued events for site meeting.dev
2021-04-22 16:40:02,447 INFO scheduler Scheduled Job Start: frappe.monitor.flush for meeting.dev
2021-04-22 16:40:02,651 INFO scheduler Scheduled Job Complete: frappe.monitor.flush for meeting.dev
2021-04-22 16:40:02,723 INFO scheduler Scheduled Job Start: frappe.utils.global_search.sync_global_search for meeting.dev
2021-04-22 16:40:02,875 INFO scheduler Scheduled Job Complete: frappe.utils.global_search.sync_global_search for meeting.dev
2021-04-22 16:40:02,946 INFO scheduler Scheduled Job Start: frappe.integrations.doctype.razorpay_settings.razorpay_settings.capture_payment for meeting.dev
2021-04-22 16:40:03,412 INFO scheduler Scheduled Job Complete: frappe.integrations.doctype.razorpay_settings.razorpay_settings.capture_payment for meeting.dev
2021-04-22 16:40:03,497 INFO scheduler Scheduled Job Start: frappe.email.doctype.email_account.email_account.notify_unreplied for meeting.dev
2021-04-22 16:40:03,827 INFO scheduler Scheduled Job Complete: frappe.email.doctype.email_account.email_account.notify_unreplied for meeting.dev
2021-04-22 16:40:03,901 INFO scheduler Scheduled Job Start: frappe.email.doctype.email_account.email_account.pull for meeting.dev
2021-04-22 16:40:04,234 INFO scheduler Scheduled Job Complete: frappe.email.doctype.email_account.email_account.pull for meeting.dev
2021-04-22 16:40:04,343 INFO scheduler Scheduled Job Start: frappe.email.queue.flush for meeting.dev
2021-04-22 16:40:04,706 INFO scheduler Scheduled Job Complete: frappe.email.queue.flush for meeting.dev
2021-04-22 16:41:02,656 DEBUG scheduler Queued events for site meeting.dev
2021-04-22 16:42:02,959 DEBUG scheduler Queued events for site meeting.dev
2021-04-22 16:43:03,199 DEBUG scheduler Queued events for site meeting.dev
2021-04-22 16:44:03,489 DEBUG scheduler Queued events for site meeting.dev
2021-04-22 16:44:03,521 INFO scheduler Scheduled Job Start: frappe.monitor.flush for meeting.dev
2021-04-22 16:44:03,687 INFO scheduler Scheduled Job Complete: frappe.monitor.flush for meeting.dev
2021-04-22 16:44:03,798 INFO scheduler Scheduled Job Start: frappe.utils.global_search.sync_global_search for meeting.dev
2021-04-22 16:44:04,002 INFO scheduler Scheduled Job Complete: frappe.utils.global_search.sync_global_search for meeting.dev
2021-04-22 16:44:04,076 INFO scheduler Scheduled Job Start: frappe.integrations.doctype.razorpay_settings.razorpay_settings.capture_payment for meeting.dev
2021-04-22 16:44:04,650 INFO scheduler Scheduled Job Complete: frappe.integrations.doctype.razorpay_settings.razorpay_settings.capture_payment for meeting.dev
2021-04-22 16:44:04,770 INFO scheduler Scheduled Job Start: frappe.email.doctype.email_account.email_account.notify_unreplied for meeting.dev
2021-04-22 16:44:05,097 INFO scheduler Scheduled Job Complete: frappe.email.doctype.email_account.email_account.notify_unreplied for meeting.dev
2021-04-22 16:44:05,170 INFO scheduler Scheduled Job Start: frappe.email.doctype.email_account.email_account.pull for meeting.dev
2021-04-22 16:44:05,634 INFO scheduler Scheduled Job Complete: frappe.email.doctype.email_account.email_account.pull for meeting.dev
2021-04-22 16:44:05,751 INFO scheduler Scheduled Job Start: frappe.email.queue.flush for meeting.dev
2021-04-22 16:44:06,050 INFO scheduler Scheduled Job Complete: frappe.email.queue.flush for meeting.dev
2021-04-22 16:45:03,768 DEBUG scheduler Queued events for site meeting.dev
2021-04-22 16:45:03,828 INFO scheduler Scheduled Job Start: frappe.twofactor.delete_all_barcodes_for_users for meeting.dev
2021-04-22 16:45:04,282 INFO scheduler Scheduled Job Complete: frappe.twofactor.delete_all_barcodes_for_users for meeting.dev
2021-04-22 16:45:04,368 INFO scheduler Scheduled Job Start: frappe.website.doctype.web_page.web_page.check_publish_status for meeting.dev
2021-04-22 16:45:04,871 INFO scheduler Scheduled Job Complete: frappe.website.doctype.web_page.web_page.check_publish_status for meeting.dev
2021-04-22 16:45:04,961 INFO scheduler Scheduled Job Start: frappe.oauth.delete_oauth2_data for meeting.dev
2021-04-22 16:45:05,410 INFO scheduler Scheduled Job Complete: frappe.oauth.delete_oauth2_data for meeting.dev
2021-04-22 16:46:04,037 DEBUG scheduler Queued events for site meeting.dev
2021-04-22 16:47:04,271 DEBUG scheduler Queued events for site meeting.dev
2021-04-22 16:48:04,620 DEBUG scheduler Queued events for site meeting.dev
2021-04-22 16:48:04,677 INFO scheduler Scheduled Job Start: frappe.monitor.flush for meeting.dev
2021-04-22 16:48:04,877 INFO scheduler Scheduled Job Complete: frappe.monitor.flush for meeting.dev
2021-04-22 16:48:04,996 INFO scheduler Scheduled Job Start: frappe.utils.global_search.sync_global_search for meeting.dev
2021-04-22 16:48:05,249 INFO scheduler Scheduled Job Complete: frappe.utils.global_search.sync_global_search for meeting.dev
2021-04-22 16:48:05,381 INFO scheduler Scheduled Job Start: frappe.integrations.doctype.razorpay_settings.razorpay_settings.capture_payment for meeting.dev
2021-04-22 16:48:05,988 INFO scheduler Scheduled Job Complete: frappe.integrations.doctype.razorpay_settings.razorpay_settings.capture_payment for meeting.dev
2021-04-22 16:48:06,071 INFO scheduler Scheduled Job Start: frappe.email.doctype.email_account.email_account.notify_unreplied for meeting.dev
2021-04-22 16:48:06,454 INFO scheduler Scheduled Job Complete: frappe.email.doctype.email_account.email_account.notify_unreplied for meeting.dev
2021-04-22 16:48:06,581 INFO scheduler Scheduled Job Start: frappe.email.doctype.email_account.email_account.pull for meeting.dev
2021-04-22 16:48:07,308 INFO scheduler Scheduled Job Complete: frappe.email.doctype.email_account.email_account.pull for meeting.dev
2021-04-22 16:48:07,397 INFO scheduler Scheduled Job Start: frappe.email.queue.flush for meeting.dev
2021-04-22 16:48:07,707 INFO scheduler Scheduled Job Complete: frappe.email.queue.flush for meeting.dev
2021-04-22 16:49:04,919 DEBUG scheduler Queued events for site meeting.dev
2021-04-22 16:50:05,157 DEBUG scheduler Queued events for site meeting.dev
2021-04-22 16:51:05,406 DEBUG scheduler Queued events for site meeting.dev
2021-04-22 16:52:05,674 DEBUG scheduler Queued events for site meeting.dev
2021-04-22 16:52:05,701 INFO scheduler Scheduled Job Start: frappe.monitor.flush for meeting.dev
2021-04-22 16:52:05,870 INFO scheduler Scheduled Job Complete: frappe.monitor.flush for meeting.dev
2021-04-22 16:52:05,945 INFO scheduler Scheduled Job Start: frappe.utils.global_search.sync_global_search for meeting.dev
2021-04-22 16:52:06,106 INFO scheduler Scheduled Job Complete: frappe.utils.global_search.sync_global_search for meeting.dev
2021-04-22 16:52:06,177 INFO scheduler Scheduled Job Start: frappe.integrations.doctype.razorpay_settings.razorpay_settings.capture_payment for meeting.dev
2021-04-22 16:52:06,567 INFO scheduler Scheduled Job Complete: frappe.integrations.doctype.razorpay_settings.razorpay_settings.capture_payment for meeting.dev
2021-04-22 16:52:06,636 INFO scheduler Scheduled Job Start: frappe.email.doctype.email_account.email_account.notify_unreplied for meeting.dev
2021-04-22 16:52:06,949 INFO scheduler Scheduled Job Complete: frappe.email.doctype.email_account.email_account.notify_unreplied for meeting.dev
2021-04-22 16:52:07,027 INFO scheduler Scheduled Job Start: frappe.email.doctype.email_account.email_account.pull for meeting.dev
2021-04-22 16:52:07,346 INFO scheduler Scheduled Job Complete: frappe.email.doctype.email_account.email_account.pull for meeting.dev
2021-04-22 16:52:07,422 INFO scheduler Scheduled Job Start: frappe.email.queue.flush for meeting.dev
2021-04-22 16:52:07,698 INFO scheduler Scheduled Job Complete: frappe.email.queue.flush for meeting.dev
2021-04-22 16:53:05,926 DEBUG scheduler Queued events for site meeting.dev
2021-04-22 16:54:06,213 DEBUG scheduler Queued events for site meeting.dev
2021-04-22 16:55:06,454 DEBUG scheduler Queued events for site meeting.dev
2021-04-22 16:56:06,725 DEBUG scheduler Queued events for site meeting.dev
2021-04-22 16:56:06,758 INFO scheduler Scheduled Job Start: frappe.monitor.flush for meeting.dev
2021-04-22 16:56:06,911 INFO scheduler Scheduled Job Complete: frappe.monitor.flush for meeting.dev
2021-04-22 16:56:06,980 INFO scheduler Scheduled Job Start: frappe.utils.global_search.sync_global_search for meeting.dev
2021-04-22 16:56:07,143 INFO scheduler Scheduled Job Complete: frappe.utils.global_search.sync_global_search for meeting.dev
2021-04-22 16:56:07,223 INFO scheduler Scheduled Job Start: frappe.integrations.doctype.razorpay_settings.razorpay_settings.capture_payment for meeting.dev
2021-04-22 16:56:07,601 INFO scheduler Scheduled Job Complete: frappe.integrations.doctype.razorpay_settings.razorpay_settings.capture_payment for meeting.dev
2021-04-22 16:56:07,673 INFO scheduler Scheduled Job Start: frappe.email.doctype.email_account.email_account.notify_unreplied for meeting.dev
2021-04-22 16:56:07,979 INFO scheduler Scheduled Job Complete: frappe.email.doctype.email_account.email_account.notify_unreplied for meeting.dev
2021-04-22 16:56:08,052 INFO scheduler Scheduled Job Start: frappe.email.doctype.email_account.email_account.pull for meeting.dev
2021-04-22 16:56:08,368 INFO scheduler Scheduled Job Complete: frappe.email.doctype.email_account.email_account.pull for meeting.dev
2021-04-22 16:56:08,438 INFO scheduler Scheduled Job Start: frappe.email.queue.flush for meeting.dev
2021-04-22 16:56:08,699 INFO scheduler Scheduled Job Complete: frappe.email.queue.flush for meeting.dev
2021-04-22 16:57:06,987 DEBUG scheduler Queued events for site meeting.dev
2021-04-22 16:58:07,230 DEBUG scheduler Queued events for site meeting.dev
2021-04-22 16:59:07,466 DEBUG scheduler Queued events for site meeting.dev
2021-04-22 17:00:07,916 INFO scheduler Scheduled Job Start: frappe.email.doctype.newsletter.newsletter.send_scheduled_email for meeting.dev
2021-04-22 17:00:08,068 DEBUG scheduler Queued events for site meeting.dev
2021-04-22 17:00:08,460 INFO scheduler Scheduled Job Complete: frappe.email.doctype.newsletter.newsletter.send_scheduled_email for meeting.dev
2021-04-22 17:00:08,552 INFO scheduler Scheduled Job Start: frappe.integrations.doctype.google_calendar.google_calendar.sync for meeting.dev
2021-04-22 17:00:09,126 INFO scheduler Scheduled Job Complete: frappe.integrations.doctype.google_calendar.google_calendar.sync for meeting.dev
2021-04-22 17:00:09,223 INFO scheduler Scheduled Job Start: frappe.desk.form.document_follow.send_hourly_updates for meeting.dev
2021-04-22 17:00:09,613 INFO scheduler Scheduled Job Complete: frappe.desk.form.document_follow.send_hourly_updates for meeting.dev
2021-04-22 17:00:09,706 INFO scheduler Scheduled Job Start: frappe.deferred_insert.save_to_db for meeting.dev
2021-04-22 17:00:10,084 INFO scheduler Scheduled Job Complete: frappe.deferred_insert.save_to_db for meeting.dev
2021-04-22 17:00:10,175 INFO scheduler Scheduled Job Start: frappe.desk.page.backups.backups.delete_downloadable_backups for meeting.dev
2021-04-22 17:00:10,590 INFO scheduler Scheduled Job Complete: frappe.desk.page.backups.backups.delete_downloadable_backups for meeting.dev
2021-04-22 17:00:10,678 INFO scheduler Scheduled Job Start: frappe.utils.error.collect_error_snapshots for meeting.dev
2021-04-22 17:00:11,084 INFO scheduler Scheduled Job Complete: frappe.utils.error.collect_error_snapshots for meeting.dev
2021-04-22 17:00:11,176 INFO scheduler Scheduled Job Start: frappe.model.utils.user_settings.sync_user_settings for meeting.dev
2021-04-22 17:00:11,572 INFO scheduler Scheduled Job Complete: frappe.model.utils.user_settings.sync_user_settings for meeting.dev
2021-04-22 17:00:11,660 INFO scheduler Scheduled Job Start: frappe.model.utils.link_count.update_link_count for meeting.dev
2021-04-22 17:00:12,055 INFO scheduler Scheduled Job Complete: frappe.model.utils.link_count.update_link_count for meeting.dev
2021-04-22 17:00:12,144 INFO scheduler Scheduled Job Start: frappe.monitor.flush for meeting.dev
2021-04-22 17:00:12,303 INFO scheduler Scheduled Job Complete: frappe.monitor.flush for meeting.dev
2021-04-22 17:00:12,375 INFO scheduler Scheduled Job Start: frappe.utils.global_search.sync_global_search for meeting.dev
2021-04-22 17:00:12,548 INFO scheduler Scheduled Job Complete: frappe.utils.global_search.sync_global_search for meeting.dev
2021-04-22 17:00:12,622 INFO scheduler Scheduled Job Start: frappe.integrations.doctype.razorpay_settings.razorpay_settings.capture_payment for meeting.dev
2021-04-22 17:00:13,014 INFO scheduler Scheduled Job Complete: frappe.integrations.doctype.razorpay_settings.razorpay_settings.capture_payment for meeting.dev
2021-04-22 17:00:13,084 INFO scheduler Scheduled Job Start: frappe.email.doctype.email_account.email_account.notify_unreplied for meeting.dev
2021-04-22 17:00:13,403 INFO scheduler Scheduled Job Complete: frappe.email.doctype.email_account.email_account.notify_unreplied for meeting.dev
2021-04-22 17:00:13,482 INFO scheduler Scheduled Job Start: frappe.email.doctype.email_account.email_account.pull for meeting.dev
2021-04-22 17:00:13,800 INFO scheduler Scheduled Job Complete: frappe.email.doctype.email_account.email_account.pull for meeting.dev
2021-04-22 17:00:13,873 INFO scheduler Scheduled Job Start: frappe.email.queue.flush for meeting.dev
2021-04-22 17:00:14,144 INFO scheduler Scheduled Job Complete: frappe.email.queue.flush for meeting.dev
2021-04-22 17:00:14,215 INFO scheduler Scheduled Job Start: frappe.twofactor.delete_all_barcodes_for_users for meeting.dev
2021-04-22 17:00:14,643 INFO scheduler Scheduled Job Complete: frappe.twofactor.delete_all_barcodes_for_users for meeting.dev
2021-04-22 17:00:14,728 INFO scheduler Scheduled Job Start: frappe.website.doctype.web_page.web_page.check_publish_status for meeting.dev
2021-04-22 17:00:15,196 INFO scheduler Scheduled Job Complete: frappe.website.doctype.web_page.web_page.check_publish_status for meeting.dev
2021-04-22 17:00:15,292 INFO scheduler Scheduled Job Start: frappe.oauth.delete_oauth2_data for meeting.dev
2021-04-22 17:00:15,718 INFO scheduler Scheduled Job Complete: frappe.oauth.delete_oauth2_data for meeting.dev
2021-04-22 17:01:08,480 DEBUG scheduler Queued events for site meeting.dev
2021-04-22 17:02:08,770 DEBUG scheduler Queued events for site meeting.dev
2021-04-22 17:03:09,007 DEBUG scheduler Queued events for site meeting.dev
2021-04-22 17:04:09,512 DEBUG scheduler Queued events for site meeting.dev
2021-04-22 17:04:09,546 INFO scheduler Scheduled Job Start: frappe.monitor.flush for meeting.dev
2021-04-22 17:04:09,712 INFO scheduler Scheduled Job Complete: frappe.monitor.flush for meeting.dev
2021-04-22 17:04:09,797 INFO scheduler Scheduled Job Start: frappe.utils.global_search.sync_global_search for meeting.dev
2021-04-22 17:04:10,015 INFO scheduler Scheduled Job Complete: frappe.utils.global_search.sync_global_search for meeting.dev
2021-04-22 17:04:10,090 INFO scheduler Scheduled Job Start: frappe.integrations.doctype.razorpay_settings.razorpay_settings.capture_payment for meeting.dev
2021-04-22 17:04:10,495 INFO scheduler Scheduled Job Complete: frappe.integrations.doctype.razorpay_settings.razorpay_settings.capture_payment for meeting.dev
2021-04-22 17:04:10,567 INFO scheduler Scheduled Job Start: frappe.email.doctype.email_account.email_account.notify_unreplied for meeting.dev
2021-04-22 17:04:10,876 INFO scheduler Scheduled Job Complete: frappe.email.doctype.email_account.email_account.notify_unreplied for meeting.dev
2021-04-22 17:04:10,949 INFO scheduler Scheduled Job Start: frappe.email.doctype.email_account.email_account.pull for meeting.dev
2021-04-22 17:04:11,263 INFO scheduler Scheduled Job Complete: frappe.email.doctype.email_account.email_account.pull for meeting.dev
2021-04-22 17:04:11,335 INFO scheduler Scheduled Job Start: frappe.email.queue.flush for meeting.dev
2021-04-22 17:04:11,603 INFO scheduler Scheduled Job Complete: frappe.email.queue.flush for meeting.dev
2021-04-22 17:13:19,333 DEBUG scheduler Queued events for site meeting.dev
2021-04-22 17:13:19,380 INFO scheduler Scheduled Job Start: frappe.monitor.flush for meeting.dev
2021-04-22 17:13:19,602 INFO scheduler Scheduled Job Complete: frappe.monitor.flush for meeting.dev
2021-04-22 17:13:19,699 INFO scheduler Scheduled Job Start: frappe.utils.global_search.sync_global_search for meeting.dev
2021-04-22 17:13:19,861 INFO scheduler Scheduled Job Complete: frappe.utils.global_search.sync_global_search for meeting.dev
2021-04-22 17:13:19,937 INFO scheduler Scheduled Job Start: frappe.integrations.doctype.razorpay_settings.razorpay_settings.capture_payment for meeting.dev
2021-04-22 17:13:20,369 INFO scheduler Scheduled Job Complete: frappe.integrations.doctype.razorpay_settings.razorpay_settings.capture_payment for meeting.dev
2021-04-22 17:13:20,441 INFO scheduler Scheduled Job Start: frappe.email.doctype.email_account.email_account.notify_unreplied for meeting.dev
2021-04-22 17:13:20,792 INFO scheduler Scheduled Job Complete: frappe.email.doctype.email_account.email_account.notify_unreplied for meeting.dev
2021-04-22 17:13:20,864 INFO scheduler Scheduled Job Start: frappe.email.doctype.email_account.email_account.pull for meeting.dev
2021-04-22 17:13:21,189 INFO scheduler Scheduled Job Complete: frappe.email.doctype.email_account.email_account.pull for meeting.dev
2021-04-22 17:13:21,261 INFO scheduler Scheduled Job Start: frappe.email.queue.flush for meeting.dev
2021-04-22 17:13:21,536 INFO scheduler Scheduled Job Complete: frappe.email.queue.flush for meeting.dev
2021-04-22 17:14:19,614 DEBUG scheduler Queued events for site meeting.dev
2021-04-22 17:15:19,883 DEBUG scheduler Queued events for site meeting.dev
2021-04-22 17:15:19,948 INFO scheduler Scheduled Job Start: frappe.twofactor.delete_all_barcodes_for_users for meeting.dev
2021-04-22 17:15:20,463 INFO scheduler Scheduled Job Complete: frappe.twofactor.delete_all_barcodes_for_users for meeting.dev
2021-04-22 17:15:20,575 INFO scheduler Scheduled Job Start: frappe.website.doctype.web_page.web_page.check_publish_status for meeting.dev
2021-04-22 17:15:21,127 INFO scheduler Scheduled Job Complete: frappe.website.doctype.web_page.web_page.check_publish_status for meeting.dev
2021-04-22 17:15:21,235 INFO scheduler Scheduled Job Start: frappe.oauth.delete_oauth2_data for meeting.dev
2021-04-22 17:15:21,686 INFO scheduler Scheduled Job Complete: frappe.oauth.delete_oauth2_data for meeting.dev
2021-04-22 17:16:20,893 DEBUG scheduler Queued events for site meeting.dev
2021-04-22 17:16:20,931 INFO scheduler Scheduled Job Start: frappe.monitor.flush for meeting.dev
2021-04-22 17:16:21,151 INFO scheduler Scheduled Job Complete: frappe.monitor.flush for meeting.dev
2021-04-22 17:16:21,257 INFO scheduler Scheduled Job Start: frappe.utils.global_search.sync_global_search for meeting.dev
2021-04-22 17:16:21,457 INFO scheduler Scheduled Job Complete: frappe.utils.global_search.sync_global_search for meeting.dev
2021-04-22 17:16:21,561 INFO scheduler Scheduled Job Start: frappe.integrations.doctype.razorpay_settings.razorpay_settings.capture_payment for meeting.dev
2021-04-22 17:16:22,084 INFO scheduler Scheduled Job Complete: frappe.integrations.doctype.razorpay_settings.razorpay_settings.capture_payment for meeting.dev
2021-04-22 17:16:22,203 INFO scheduler Scheduled Job Start: frappe.email.doctype.email_account.email_account.notify_unreplied for meeting.dev
2021-04-22 17:16:22,644 INFO scheduler Scheduled Job Complete: frappe.email.doctype.email_account.email_account.notify_unreplied for meeting.dev
2021-04-22 17:16:22,746 INFO scheduler Scheduled Job Start: frappe.email.doctype.email_account.email_account.pull for meeting.dev
2021-04-22 17:16:23,206 INFO scheduler Scheduled Job Complete: frappe.email.doctype.email_account.email_account.pull for meeting.dev
2021-04-22 17:16:23,300 INFO scheduler Scheduled Job Start: frappe.email.queue.flush for meeting.dev
2021-04-22 17:16:23,677 INFO scheduler Scheduled Job Complete: frappe.email.queue.flush for meeting.dev
2021-04-22 17:17:21,235 DEBUG scheduler Queued events for site meeting.dev
2021-04-22 17:18:21,553 DEBUG scheduler Queued events for site meeting.dev
2021-04-22 17:19:21,843 DEBUG scheduler Queued events for site meeting.dev
2021-04-22 17:20:22,231 DEBUG scheduler Queued events for site meeting.dev
2021-04-22 17:20:22,268 INFO scheduler Scheduled Job Start: frappe.monitor.flush for meeting.dev
2021-04-22 17:20:22,504 INFO scheduler Scheduled Job Complete: frappe.monitor.flush for meeting.dev
2021-04-22 17:20:22,609 INFO scheduler Scheduled Job Start: frappe.utils.global_search.sync_global_search for meeting.dev
2021-04-22 17:20:22,838 INFO scheduler Scheduled Job Complete: frappe.utils.global_search.sync_global_search for meeting.dev
2021-04-22 17:20:22,937 INFO scheduler Scheduled Job Start: frappe.integrations.doctype.razorpay_settings.razorpay_settings.capture_payment for meeting.dev
2021-04-22 17:20:23,470 INFO scheduler Scheduled Job Complete: frappe.integrations.doctype.razorpay_settings.razorpay_settings.capture_payment for meeting.dev
2021-04-22 17:20:23,573 INFO scheduler Scheduled Job Start: frappe.email.doctype.email_account.email_account.notify_unreplied for meeting.dev
2021-04-22 17:20:24,023 INFO scheduler Scheduled Job Complete: frappe.email.doctype.email_account.email_account.notify_unreplied for meeting.dev
2021-04-22 17:20:24,125 INFO scheduler Scheduled Job Start: frappe.email.doctype.email_account.email_account.pull for meeting.dev
2021-04-22 17:20:24,552 INFO scheduler Scheduled Job Complete: frappe.email.doctype.email_account.email_account.pull for meeting.dev
2021-04-22 17:20:24,652 INFO scheduler Scheduled Job Start: frappe.email.queue.flush for meeting.dev
2021-04-22 17:20:25,021 INFO scheduler Scheduled Job Complete: frappe.email.queue.flush for meeting.dev
2021-04-22 17:21:22,564 DEBUG scheduler Queued events for site meeting.dev
2021-04-22 17:22:22,871 DEBUG scheduler Queued events for site meeting.dev
2021-04-22 17:23:23,120 DEBUG scheduler Queued events for site meeting.dev
2021-04-22 17:24:23,400 DEBUG scheduler Queued events for site meeting.dev
2021-04-22 17:24:23,431 INFO scheduler Scheduled Job Start: frappe.monitor.flush for meeting.dev
2021-04-22 17:24:23,592 INFO scheduler Scheduled Job Complete: frappe.monitor.flush for meeting.dev
2021-04-22 17:24:23,669 INFO scheduler Scheduled Job Start: frappe.utils.global_search.sync_global_search for meeting.dev
2021-04-22 17:24:23,824 INFO scheduler Scheduled Job Complete: frappe.utils.global_search.sync_global_search for meeting.dev
2021-04-22 17:24:23,898 INFO scheduler Scheduled Job Start: frappe.integrations.doctype.razorpay_settings.razorpay_settings.capture_payment for meeting.dev
2021-04-22 17:24:24,293 INFO scheduler Scheduled Job Complete: frappe.integrations.doctype.razorpay_settings.razorpay_settings.capture_payment for meeting.dev
2021-04-22 17:24:24,364 INFO scheduler Scheduled Job Start: frappe.email.doctype.email_account.email_account.notify_unreplied for meeting.dev
2021-04-22 17:24:24,671 INFO scheduler Scheduled Job Complete: frappe.email.doctype.email_account.email_account.notify_unreplied for meeting.dev
2021-04-22 17:24:24,741 INFO scheduler Scheduled Job Start: frappe.email.doctype.email_account.email_account.pull for meeting.dev
2021-04-22 17:24:25,069 INFO scheduler Scheduled Job Complete: frappe.email.doctype.email_account.email_account.pull for meeting.dev
2021-04-22 17:24:25,143 INFO scheduler Scheduled Job Start: frappe.email.queue.flush for meeting.dev
2021-04-22 17:24:25,412 INFO scheduler Scheduled Job Complete: frappe.email.queue.flush for meeting.dev
2021-04-22 17:25:23,665 DEBUG scheduler Queued events for site meeting.dev
2021-04-22 17:26:23,902 DEBUG scheduler Queued events for site meeting.dev
2021-04-22 17:27:24,136 DEBUG scheduler Queued events for site meeting.dev
2021-04-22 17:28:24,409 DEBUG scheduler Queued events for site meeting.dev
2021-04-22 17:28:24,440 INFO scheduler Scheduled Job Start: frappe.monitor.flush for meeting.dev
2021-04-22 17:28:24,596 INFO scheduler Scheduled Job Complete: frappe.monitor.flush for meeting.dev
2021-04-22 17:28:24,668 INFO scheduler Scheduled Job Start: frappe.utils.global_search.sync_global_search for meeting.dev
2021-04-22 17:28:24,828 INFO scheduler Scheduled Job Complete: frappe.utils.global_search.sync_global_search for meeting.dev
2021-04-22 17:28:24,903 INFO scheduler Scheduled Job Start: frappe.integrations.doctype.razorpay_settings.razorpay_settings.capture_payment for meeting.dev
2021-04-22 17:28:25,287 INFO scheduler Scheduled Job Complete: frappe.integrations.doctype.razorpay_settings.razorpay_settings.capture_payment for meeting.dev
2021-04-22 17:28:25,360 INFO scheduler Scheduled Job Start: frappe.email.doctype.email_account.email_account.notify_unreplied for meeting.dev
2021-04-22 17:28:25,672 INFO scheduler Scheduled Job Complete: frappe.email.doctype.email_account.email_account.notify_unreplied for meeting.dev
2021-04-22 17:28:25,749 INFO scheduler Scheduled Job Start: frappe.email.doctype.email_account.email_account.pull for meeting.dev
2021-04-22 17:28:26,073 INFO scheduler Scheduled Job Complete: frappe.email.doctype.email_account.email_account.pull for meeting.dev
2021-04-22 17:28:26,142 INFO scheduler Scheduled Job Start: frappe.email.queue.flush for meeting.dev
2021-04-22 17:28:26,406 INFO scheduler Scheduled Job Complete: frappe.email.queue.flush for meeting.dev
2021-04-22 17:29:24,660 DEBUG scheduler Queued events for site meeting.dev
2021-04-22 17:30:24,956 DEBUG scheduler Queued events for site meeting.dev
2021-04-22 17:30:25,026 INFO scheduler Scheduled Job Start: frappe.twofactor.delete_all_barcodes_for_users for meeting.dev
2021-04-22 17:30:25,766 INFO scheduler Scheduled Job Complete: frappe.twofactor.delete_all_barcodes_for_users for meeting.dev
2021-04-22 17:30:25,907 INFO scheduler Scheduled Job Start: frappe.website.doctype.web_page.web_page.check_publish_status for meeting.dev
2021-04-22 17:30:26,500 INFO scheduler Scheduled Job Complete: frappe.website.doctype.web_page.web_page.check_publish_status for meeting.dev
2021-04-22 17:30:26,619 INFO scheduler Scheduled Job Start: frappe.oauth.delete_oauth2_data for meeting.dev
2021-04-22 17:30:27,114 INFO scheduler Scheduled Job Complete: frappe.oauth.delete_oauth2_data for meeting.dev
2021-04-22 17:31:25,229 DEBUG scheduler Queued events for site meeting.dev
2021-04-22 17:32:25,508 DEBUG scheduler Queued events for site meeting.dev
2021-04-22 17:32:25,543 INFO scheduler Scheduled Job Start: frappe.monitor.flush for meeting.dev
2021-04-22 17:32:25,705 INFO scheduler Scheduled Job Complete: frappe.monitor.flush for meeting.dev
2021-04-22 17:32:25,779 INFO scheduler Scheduled Job Start: frappe.utils.global_search.sync_global_search for meeting.dev
2021-04-22 17:32:25,939 INFO scheduler Scheduled Job Complete: frappe.utils.global_search.sync_global_search for meeting.dev
2021-04-22 17:32:26,017 INFO scheduler Scheduled Job Start: frappe.integrations.doctype.razorpay_settings.razorpay_settings.capture_payment for meeting.dev
2021-04-22 17:32:26,422 INFO scheduler Scheduled Job Complete: frappe.integrations.doctype.razorpay_settings.razorpay_settings.capture_payment for meeting.dev
2021-04-22 17:32:26,508 INFO scheduler Scheduled Job Start: frappe.email.doctype.email_account.email_account.notify_unreplied for meeting.dev
2021-04-22 17:32:26,858 INFO scheduler Scheduled Job Complete: frappe.email.doctype.email_account.email_account.notify_unreplied for meeting.dev
2021-04-22 17:32:26,950 INFO scheduler Scheduled Job Start: frappe.email.doctype.email_account.email_account.pull for meeting.dev
2021-04-22 17:32:27,357 INFO scheduler Scheduled Job Complete: frappe.email.doctype.email_account.email_account.pull for meeting.dev
2021-04-22 17:32:27,473 INFO scheduler Scheduled Job Start: frappe.email.queue.flush for meeting.dev
2021-04-22 17:32:27,868 INFO scheduler Scheduled Job Complete: frappe.email.queue.flush for meeting.dev
2021-04-22 17:33:25,773 DEBUG scheduler Queued events for site meeting.dev
2021-04-22 17:34:26,007 DEBUG scheduler Queued events for site meeting.dev
2021-04-22 17:35:26,254 DEBUG scheduler Queued events for site meeting.dev
2021-04-22 17:36:26,614 DEBUG scheduler Queued events for site meeting.dev
2021-04-22 17:36:26,652 INFO scheduler Scheduled Job Start: frappe.monitor.flush for meeting.dev
2021-04-22 17:36:26,857 INFO scheduler Scheduled Job Complete: frappe.monitor.flush for meeting.dev
2021-04-22 17:36:26,939 INFO scheduler Scheduled Job Start: frappe.utils.global_search.sync_global_search for meeting.dev
2021-04-22 17:36:27,119 INFO scheduler Scheduled Job Complete: frappe.utils.global_search.sync_global_search for meeting.dev
2021-04-22 17:36:27,240 INFO scheduler Scheduled Job Start: frappe.integrations.doctype.razorpay_settings.razorpay_settings.capture_payment for meeting.dev
2021-04-22 17:36:27,780 INFO scheduler Scheduled Job Complete: frappe.integrations.doctype.razorpay_settings.razorpay_settings.capture_payment for meeting.dev
2021-04-22 17:36:27,891 INFO scheduler Scheduled Job Start: frappe.email.doctype.email_account.email_account.notify_unreplied for meeting.dev
2021-04-22 17:36:28,413 INFO scheduler Scheduled Job Complete: frappe.email.doctype.email_account.email_account.notify_unreplied for meeting.dev
2021-04-22 17:36:28,519 INFO scheduler Scheduled Job Start: frappe.email.doctype.email_account.email_account.pull for meeting.dev
2021-04-22 17:36:28,972 INFO scheduler Scheduled Job Complete: frappe.email.doctype.email_account.email_account.pull for meeting.dev
2021-04-22 17:36:29,043 INFO scheduler Scheduled Job Start: frappe.email.queue.flush for meeting.dev
2021-04-22 17:36:29,324 INFO scheduler Scheduled Job Complete: frappe.email.queue.flush for meeting.dev
2021-04-22 17:37:26,934 DEBUG scheduler Queued events for site meeting.dev
2021-04-22 17:38:27,220 DEBUG scheduler Queued events for site meeting.dev
2021-04-22 17:39:27,490 DEBUG scheduler Queued events for site meeting.dev
2021-04-22 17:40:27,865 DEBUG scheduler Queued events for site meeting.dev
2021-04-22 17:40:27,907 INFO scheduler Scheduled Job Start: frappe.monitor.flush for meeting.dev
2021-04-22 17:40:28,162 INFO scheduler Scheduled Job Complete: frappe.monitor.flush for meeting.dev
2021-04-22 17:40:28,266 INFO scheduler Scheduled Job Start: frappe.utils.global_search.sync_global_search for meeting.dev
2021-04-22 17:40:28,461 INFO scheduler Scheduled Job Complete: frappe.utils.global_search.sync_global_search for meeting.dev
2021-04-22 17:40:28,563 INFO scheduler Scheduled Job Start: frappe.integrations.doctype.razorpay_settings.razorpay_settings.capture_payment for meeting.dev
2021-04-22 17:40:29,206 INFO scheduler Scheduled Job Complete: frappe.integrations.doctype.razorpay_settings.razorpay_settings.capture_payment for meeting.dev
2021-04-22 17:40:29,328 INFO scheduler Scheduled Job Start: frappe.email.doctype.email_account.email_account.notify_unreplied for meeting.dev
2021-04-22 17:40:29,893 INFO scheduler Scheduled Job Complete: frappe.email.doctype.email_account.email_account.notify_unreplied for meeting.dev
2021-04-22 17:40:30,024 INFO scheduler Scheduled Job Start: frappe.email.doctype.email_account.email_account.pull for meeting.dev
2021-04-22 17:40:30,448 INFO scheduler Scheduled Job Complete: frappe.email.doctype.email_account.email_account.pull for meeting.dev
2021-04-22 17:40:30,553 INFO scheduler Scheduled Job Start: frappe.email.queue.flush for meeting.dev
2021-04-22 17:40:30,968 INFO scheduler Scheduled Job Complete: frappe.email.queue.flush for meeting.dev
2021-04-22 17:41:28,162 DEBUG scheduler Queued events for site meeting.dev
2021-04-22 17:42:28,417 DEBUG scheduler Queued events for site meeting.dev
2021-04-22 17:43:28,842 DEBUG scheduler Queued events for site meeting.dev
2021-04-22 17:44:29,318 DEBUG scheduler Queued events for site meeting.dev
2021-04-22 17:44:29,341 INFO scheduler Scheduled Job Start: frappe.monitor.flush for meeting.dev
2021-04-22 17:44:29,636 INFO scheduler Scheduled Job Complete: frappe.monitor.flush for meeting.dev
2021-04-22 17:44:29,766 INFO scheduler Scheduled Job Start: frappe.utils.global_search.sync_global_search for meeting.dev
2021-04-22 17:44:30,029 INFO scheduler Scheduled Job Complete: frappe.utils.global_search.sync_global_search for meeting.dev
2021-04-22 17:44:30,161 INFO scheduler Scheduled Job Start: frappe.integrations.doctype.razorpay_settings.razorpay_settings.capture_payment for meeting.dev
2021-04-22 17:44:30,922 INFO scheduler Scheduled Job Complete: frappe.integrations.doctype.razorpay_settings.razorpay_settings.capture_payment for meeting.dev
2021-04-22 17:44:31,096 INFO scheduler Scheduled Job Start: frappe.email.doctype.email_account.email_account.notify_unreplied for meeting.dev
2021-04-22 17:44:31,615 INFO scheduler Scheduled Job Complete: frappe.email.doctype.email_account.email_account.notify_unreplied for meeting.dev
2021-04-22 17:44:31,738 INFO scheduler Scheduled Job Start: frappe.email.doctype.email_account.email_account.pull for meeting.dev
2021-04-22 17:44:32,246 INFO scheduler Scheduled Job Complete: frappe.email.doctype.email_account.email_account.pull for meeting.dev
2021-04-22 17:44:32,348 INFO scheduler Scheduled Job Start: frappe.email.queue.flush for meeting.dev
2021-04-22 17:44:32,871 INFO scheduler Scheduled Job Complete: frappe.email.queue.flush for meeting.dev
2021-04-22 17:45:29,608 DEBUG scheduler Queued events for site meeting.dev
2021-04-22 17:45:29,664 INFO scheduler Scheduled Job Start: frappe.twofactor.delete_all_barcodes_for_users for meeting.dev
2021-04-22 17:45:30,256 INFO scheduler Scheduled Job Complete: frappe.twofactor.delete_all_barcodes_for_users for meeting.dev
2021-04-22 17:45:30,351 INFO scheduler Scheduled Job Start: frappe.website.doctype.web_page.web_page.check_publish_status for meeting.dev
2021-04-22 17:45:30,855 INFO scheduler Scheduled Job Complete: frappe.website.doctype.web_page.web_page.check_publish_status for meeting.dev
2021-04-22 17:45:30,951 INFO scheduler Scheduled Job Start: frappe.oauth.delete_oauth2_data for meeting.dev
2021-04-22 17:45:31,380 INFO scheduler Scheduled Job Complete: frappe.oauth.delete_oauth2_data for meeting.dev
2021-04-22 17:46:29,890 DEBUG scheduler Queued events for site meeting.dev
2021-04-22 17:47:30,139 DEBUG scheduler Queued events for site meeting.dev
2021-04-22 17:48:30,489 DEBUG scheduler Queued events for site meeting.dev
2021-04-22 17:48:30,530 INFO scheduler Scheduled Job Start: frappe.monitor.flush for meeting.dev
2021-04-22 17:48:30,743 INFO scheduler Scheduled Job Complete: frappe.monitor.flush for meeting.dev
2021-04-22 17:48:30,853 INFO scheduler Scheduled Job Start: frappe.utils.global_search.sync_global_search for meeting.dev
2021-04-22 17:48:31,027 INFO scheduler Scheduled Job Complete: frappe.utils.global_search.sync_global_search for meeting.dev
2021-04-22 17:48:31,104 INFO scheduler Scheduled Job Start: frappe.integrations.doctype.razorpay_settings.razorpay_settings.capture_payment for meeting.dev
2021-04-22 17:48:31,555 INFO scheduler Scheduled Job Complete: frappe.integrations.doctype.razorpay_settings.razorpay_settings.capture_payment for meeting.dev
2021-04-22 17:48:31,650 INFO scheduler Scheduled Job Start: frappe.email.doctype.email_account.email_account.notify_unreplied for meeting.dev
2021-04-22 17:48:32,050 INFO scheduler Scheduled Job Complete: frappe.email.doctype.email_account.email_account.notify_unreplied for meeting.dev
2021-04-22 17:48:32,125 INFO scheduler Scheduled Job Start: frappe.email.doctype.email_account.email_account.pull for meeting.dev
2021-04-22 17:48:32,514 INFO scheduler Scheduled Job Complete: frappe.email.doctype.email_account.email_account.pull for meeting.dev
2021-04-22 17:48:32,611 INFO scheduler Scheduled Job Start: frappe.email.queue.flush for meeting.dev
2021-04-22 17:48:32,890 INFO scheduler Scheduled Job Complete: frappe.email.queue.flush for meeting.dev
2021-04-22 17:49:30,775 DEBUG scheduler Queued events for site meeting.dev
2021-04-22 17:50:31,023 DEBUG scheduler Queued events for site meeting.dev
2021-04-22 17:51:31,355 DEBUG scheduler Queued events for site meeting.dev
2021-04-22 17:52:31,655 DEBUG scheduler Queued events for site meeting.dev
2021-04-22 17:52:31,700 INFO scheduler Scheduled Job Start: frappe.monitor.flush for meeting.dev
2021-04-22 17:52:31,885 INFO scheduler Scheduled Job Complete: frappe.monitor.flush for meeting.dev
2021-04-22 17:52:31,972 INFO scheduler Scheduled Job Start: frappe.utils.global_search.sync_global_search for meeting.dev
2021-04-22 17:52:32,136 INFO scheduler Scheduled Job Complete: frappe.utils.global_search.sync_global_search for meeting.dev
2021-04-22 17:52:32,214 INFO scheduler Scheduled Job Start: frappe.integrations.doctype.razorpay_settings.razorpay_settings.capture_payment for meeting.dev
2021-04-22 17:52:32,605 INFO scheduler Scheduled Job Complete: frappe.integrations.doctype.razorpay_settings.razorpay_settings.capture_payment for meeting.dev
2021-04-22 17:52:32,679 INFO scheduler Scheduled Job Start: frappe.email.doctype.email_account.email_account.notify_unreplied for meeting.dev
2021-04-22 17:52:32,999 INFO scheduler Scheduled Job Complete: frappe.email.doctype.email_account.email_account.notify_unreplied for meeting.dev
2021-04-22 17:52:33,070 INFO scheduler Scheduled Job Start: frappe.email.doctype.email_account.email_account.pull for meeting.dev
2021-04-22 17:52:33,438 INFO scheduler Scheduled Job Complete: frappe.email.doctype.email_account.email_account.pull for meeting.dev
2021-04-22 17:52:33,510 INFO scheduler Scheduled Job Start: frappe.email.queue.flush for meeting.dev
2021-04-22 17:52:33,770 INFO scheduler Scheduled Job Complete: frappe.email.queue.flush for meeting.dev
2021-04-22 17:53:31,930 DEBUG scheduler Queued events for site meeting.dev
2021-04-22 17:54:32,201 DEBUG scheduler Queued events for site meeting.dev
2021-04-22 17:55:32,461 DEBUG scheduler Queued events for site meeting.dev
2021-04-22 17:56:32,725 DEBUG scheduler Queued events for site meeting.dev
2021-04-22 17:56:32,756 INFO scheduler Scheduled Job Start: frappe.monitor.flush for meeting.dev
2021-04-22 17:56:32,911 INFO scheduler Scheduled Job Complete: frappe.monitor.flush for meeting.dev
2021-04-22 17:56:32,983 INFO scheduler Scheduled Job Start: frappe.utils.global_search.sync_global_search for meeting.dev
2021-04-22 17:56:33,136 INFO scheduler Scheduled Job Complete: frappe.utils.global_search.sync_global_search for meeting.dev
2021-04-22 17:56:33,218 INFO scheduler Scheduled Job Start: frappe.integrations.doctype.razorpay_settings.razorpay_settings.capture_payment for meeting.dev
2021-04-22 17:57:33,014 DEBUG scheduler Queued events for site meeting.dev
