2021-04-22 14:20:43,608 INFO scheduler Scheduled Job Start: frappe.monitor.flush for meeting.dev
2021-04-22 14:20:43,836 INFO scheduler Scheduled Job Complete: frappe.monitor.flush for meeting.dev
2021-04-22 14:20:43,926 INFO scheduler Scheduled Job Start: frappe.utils.global_search.sync_global_search for meeting.dev
2021-04-22 14:20:44,122 INFO scheduler Scheduled Job Complete: frappe.utils.global_search.sync_global_search for meeting.dev
2021-04-22 14:20:44,215 INFO scheduler Scheduled Job Start: frappe.integrations.doctype.razorpay_settings.razorpay_settings.capture_payment for meeting.dev
2021-04-22 14:20:44,706 INFO scheduler Scheduled Job Complete: frappe.integrations.doctype.razorpay_settings.razorpay_settings.capture_payment for meeting.dev
2021-04-22 14:20:44,804 INFO scheduler Scheduled Job Start: frappe.email.doctype.email_account.email_account.notify_unreplied for meeting.dev
2021-04-22 14:20:45,202 INFO scheduler Scheduled Job Complete: frappe.email.doctype.email_account.email_account.notify_unreplied for meeting.dev
2021-04-22 14:20:45,302 INFO scheduler Scheduled Job Start: frappe.email.doctype.email_account.email_account.pull for meeting.dev
2021-04-22 14:20:45,747 INFO scheduler Scheduled Job Complete: frappe.email.doctype.email_account.email_account.pull for meeting.dev
2021-04-22 14:20:45,848 INFO scheduler Scheduled Job Start: frappe.email.queue.flush for meeting.dev
2021-04-22 14:20:46,218 INFO scheduler Scheduled Job Complete: frappe.email.queue.flush for meeting.dev
