2021-04-22 17:58:33,261 DEBUG scheduler Queued events for site meeting.dev
2021-04-22 17:59:33,516 DEBUG scheduler Queued events for site meeting.dev
2021-04-22 18:00:33,974 INFO scheduler Scheduled Job Start: frappe.email.doctype.newsletter.newsletter.send_scheduled_email for meeting.dev
2021-04-22 18:00:34,145 DEBUG scheduler Queued events for site meeting.dev
2021-04-22 18:00:34,752 INFO scheduler Scheduled Job Complete: frappe.email.doctype.newsletter.newsletter.send_scheduled_email for meeting.dev
2021-04-22 18:00:34,847 INFO scheduler Scheduled Job Start: frappe.integrations.doctype.google_calendar.google_calendar.sync for meeting.dev
2021-04-22 18:00:35,445 INFO scheduler Scheduled Job Complete: frappe.integrations.doctype.google_calendar.google_calendar.sync for meeting.dev
2021-04-22 18:00:35,535 INFO scheduler Scheduled Job Start: frappe.desk.form.document_follow.send_hourly_updates for meeting.dev
2021-04-22 18:00:35,956 INFO scheduler Scheduled Job Complete: frappe.desk.form.document_follow.send_hourly_updates for meeting.dev
2021-04-22 18:00:36,046 INFO scheduler Scheduled Job Start: frappe.deferred_insert.save_to_db for meeting.dev
2021-04-22 18:00:36,463 INFO scheduler Scheduled Job Complete: frappe.deferred_insert.save_to_db for meeting.dev
2021-04-22 18:00:36,591 INFO scheduler Scheduled Job Start: frappe.desk.page.backups.backups.delete_downloadable_backups for meeting.dev
2021-04-22 18:00:37,081 INFO scheduler Scheduled Job Complete: frappe.desk.page.backups.backups.delete_downloadable_backups for meeting.dev
2021-04-22 18:00:37,175 INFO scheduler Scheduled Job Start: frappe.utils.error.collect_error_snapshots for meeting.dev
2021-04-22 18:00:37,578 INFO scheduler Scheduled Job Complete: frappe.utils.error.collect_error_snapshots for meeting.dev
2021-04-22 18:00:37,663 INFO scheduler Scheduled Job Start: frappe.model.utils.user_settings.sync_user_settings for meeting.dev
2021-04-22 18:00:38,176 INFO scheduler Scheduled Job Complete: frappe.model.utils.user_settings.sync_user_settings for meeting.dev
2021-04-22 18:00:38,277 INFO scheduler Scheduled Job Start: frappe.model.utils.link_count.update_link_count for meeting.dev
2021-04-22 18:00:38,709 INFO scheduler Scheduled Job Complete: frappe.model.utils.link_count.update_link_count for meeting.dev
2021-04-22 18:00:38,795 INFO scheduler Scheduled Job Start: frappe.monitor.flush for meeting.dev
2021-04-22 18:00:38,972 INFO scheduler Scheduled Job Complete: frappe.monitor.flush for meeting.dev
2021-04-22 18:00:39,082 INFO scheduler Scheduled Job Start: frappe.utils.global_search.sync_global_search for meeting.dev
2021-04-22 18:00:39,246 INFO scheduler Scheduled Job Complete: frappe.utils.global_search.sync_global_search for meeting.dev
2021-04-22 18:00:39,339 INFO scheduler Scheduled Job Start: frappe.integrations.doctype.razorpay_settings.razorpay_settings.capture_payment for meeting.dev
2021-04-22 18:00:40,067 INFO scheduler Scheduled Job Complete: frappe.integrations.doctype.razorpay_settings.razorpay_settings.capture_payment for meeting.dev
2021-04-22 18:00:40,215 INFO scheduler Scheduled Job Start: frappe.email.doctype.email_account.email_account.notify_unreplied for meeting.dev
2021-04-22 18:00:40,618 INFO scheduler Scheduled Job Complete: frappe.email.doctype.email_account.email_account.notify_unreplied for meeting.dev
2021-04-22 18:00:40,690 INFO scheduler Scheduled Job Start: frappe.email.doctype.email_account.email_account.pull for meeting.dev
2021-04-22 18:00:41,199 INFO scheduler Scheduled Job Complete: frappe.email.doctype.email_account.email_account.pull for meeting.dev
2021-04-22 18:00:41,340 INFO scheduler Scheduled Job Start: frappe.email.queue.flush for meeting.dev
2021-04-22 18:00:41,718 INFO scheduler Scheduled Job Complete: frappe.email.queue.flush for meeting.dev
2021-04-22 18:00:41,838 INFO scheduler Scheduled Job Start: frappe.twofactor.delete_all_barcodes_for_users for meeting.dev
2021-04-22 18:00:42,504 INFO scheduler Scheduled Job Complete: frappe.twofactor.delete_all_barcodes_for_users for meeting.dev
2021-04-22 18:00:42,607 INFO scheduler Scheduled Job Start: frappe.website.doctype.web_page.web_page.check_publish_status for meeting.dev
2021-04-22 18:00:43,104 INFO scheduler Scheduled Job Complete: frappe.website.doctype.web_page.web_page.check_publish_status for meeting.dev
2021-04-22 18:00:43,202 INFO scheduler Scheduled Job Start: frappe.oauth.delete_oauth2_data for meeting.dev
2021-04-22 18:00:43,898 INFO scheduler Scheduled Job Complete: frappe.oauth.delete_oauth2_data for meeting.dev
2021-04-22 18:01:34,615 DEBUG scheduler Queued events for site meeting.dev
2021-04-22 18:02:34,935 DEBUG scheduler Queued events for site meeting.dev
2021-04-22 18:03:35,197 DEBUG scheduler Queued events for site meeting.dev
2021-04-22 18:04:35,529 DEBUG scheduler Queued events for site meeting.dev
2021-04-22 18:04:35,576 INFO scheduler Scheduled Job Start: frappe.monitor.flush for meeting.dev
2021-04-22 18:04:35,746 INFO scheduler Scheduled Job Complete: frappe.monitor.flush for meeting.dev
2021-04-22 18:04:35,851 INFO scheduler Scheduled Job Start: frappe.utils.global_search.sync_global_search for meeting.dev
2021-04-22 18:04:36,011 INFO scheduler Scheduled Job Complete: frappe.utils.global_search.sync_global_search for meeting.dev
2021-04-22 18:04:36,085 INFO scheduler Scheduled Job Start: frappe.integrations.doctype.razorpay_settings.razorpay_settings.capture_payment for meeting.dev
2021-04-22 18:04:36,488 INFO scheduler Scheduled Job Complete: frappe.integrations.doctype.razorpay_settings.razorpay_settings.capture_payment for meeting.dev
2021-04-22 18:04:36,564 INFO scheduler Scheduled Job Start: frappe.email.doctype.email_account.email_account.notify_unreplied for meeting.dev
2021-04-22 18:04:36,897 INFO scheduler Scheduled Job Complete: frappe.email.doctype.email_account.email_account.notify_unreplied for meeting.dev
2021-04-22 18:04:36,969 INFO scheduler Scheduled Job Start: frappe.email.doctype.email_account.email_account.pull for meeting.dev
2021-04-22 18:04:37,289 INFO scheduler Scheduled Job Complete: frappe.email.doctype.email_account.email_account.pull for meeting.dev
2021-04-22 18:04:37,359 INFO scheduler Scheduled Job Start: frappe.email.queue.flush for meeting.dev
2021-04-22 18:04:37,622 INFO scheduler Scheduled Job Complete: frappe.email.queue.flush for meeting.dev
2021-04-22 18:05:35,899 DEBUG scheduler Queued events for site meeting.dev
2021-04-22 18:06:36,171 DEBUG scheduler Queued events for site meeting.dev
2021-04-22 18:07:36,417 DEBUG scheduler Queued events for site meeting.dev
2021-04-22 18:08:36,807 DEBUG scheduler Queued events for site meeting.dev
2021-04-22 18:08:36,869 INFO scheduler Scheduled Job Start: frappe.monitor.flush for meeting.dev
2021-04-22 18:08:37,103 INFO scheduler Scheduled Job Complete: frappe.monitor.flush for meeting.dev
2021-04-22 18:08:37,179 INFO scheduler Scheduled Job Start: frappe.utils.global_search.sync_global_search for meeting.dev
2021-04-22 18:08:37,354 INFO scheduler Scheduled Job Complete: frappe.utils.global_search.sync_global_search for meeting.dev
2021-04-22 18:08:37,429 INFO scheduler Scheduled Job Start: frappe.integrations.doctype.razorpay_settings.razorpay_settings.capture_payment for meeting.dev
2021-04-22 18:08:37,977 INFO scheduler Scheduled Job Complete: frappe.integrations.doctype.razorpay_settings.razorpay_settings.capture_payment for meeting.dev
2021-04-22 18:08:38,054 INFO scheduler Scheduled Job Start: frappe.email.doctype.email_account.email_account.notify_unreplied for meeting.dev
2021-04-22 18:08:38,374 INFO scheduler Scheduled Job Complete: frappe.email.doctype.email_account.email_account.notify_unreplied for meeting.dev
2021-04-22 18:08:38,451 INFO scheduler Scheduled Job Start: frappe.email.doctype.email_account.email_account.pull for meeting.dev
2021-04-22 18:08:38,792 INFO scheduler Scheduled Job Complete: frappe.email.doctype.email_account.email_account.pull for meeting.dev
2021-04-22 18:08:38,893 INFO scheduler Scheduled Job Start: frappe.email.queue.flush for meeting.dev
2021-04-22 18:08:39,192 INFO scheduler Scheduled Job Complete: frappe.email.queue.flush for meeting.dev
2021-04-22 18:09:37,118 DEBUG scheduler Queued events for site meeting.dev
2021-04-22 18:10:37,472 DEBUG scheduler Queued events for site meeting.dev
2021-04-22 18:11:37,740 DEBUG scheduler Queued events for site meeting.dev
2021-04-22 18:12:38,014 DEBUG scheduler Queued events for site meeting.dev
2021-04-22 18:12:38,058 INFO scheduler Scheduled Job Start: frappe.monitor.flush for meeting.dev
2021-04-22 18:12:38,287 INFO scheduler Scheduled Job Complete: frappe.monitor.flush for meeting.dev
2021-04-22 18:12:38,364 INFO scheduler Scheduled Job Start: frappe.utils.global_search.sync_global_search for meeting.dev
2021-04-22 18:12:38,533 INFO scheduler Scheduled Job Complete: frappe.utils.global_search.sync_global_search for meeting.dev
2021-04-22 18:12:38,607 INFO scheduler Scheduled Job Start: frappe.integrations.doctype.razorpay_settings.razorpay_settings.capture_payment for meeting.dev
2021-04-22 18:12:39,139 INFO scheduler Scheduled Job Complete: frappe.integrations.doctype.razorpay_settings.razorpay_settings.capture_payment for meeting.dev
2021-04-22 18:12:39,260 INFO scheduler Scheduled Job Start: frappe.email.doctype.email_account.email_account.notify_unreplied for meeting.dev
2021-04-22 18:12:39,625 INFO scheduler Scheduled Job Complete: frappe.email.doctype.email_account.email_account.notify_unreplied for meeting.dev
2021-04-22 18:12:39,699 INFO scheduler Scheduled Job Start: frappe.email.doctype.email_account.email_account.pull for meeting.dev
2021-04-22 18:12:40,021 INFO scheduler Scheduled Job Complete: frappe.email.doctype.email_account.email_account.pull for meeting.dev
2021-04-22 18:12:40,094 INFO scheduler Scheduled Job Start: frappe.email.queue.flush for meeting.dev
2021-04-22 18:12:40,359 INFO scheduler Scheduled Job Complete: frappe.email.queue.flush for meeting.dev
2021-04-22 18:13:38,310 DEBUG scheduler Queued events for site meeting.dev
2021-04-22 18:14:38,632 DEBUG scheduler Queued events for site meeting.dev
2021-04-22 18:15:38,981 DEBUG scheduler Queued events for site meeting.dev
2021-04-22 18:15:39,046 INFO scheduler Scheduled Job Start: frappe.twofactor.delete_all_barcodes_for_users for meeting.dev
2021-04-22 18:15:39,567 INFO scheduler Scheduled Job Complete: frappe.twofactor.delete_all_barcodes_for_users for meeting.dev
2021-04-22 18:15:39,661 INFO scheduler Scheduled Job Start: frappe.website.doctype.web_page.web_page.check_publish_status for meeting.dev
2021-04-22 18:15:40,227 INFO scheduler Scheduled Job Complete: frappe.website.doctype.web_page.web_page.check_publish_status for meeting.dev
2021-04-22 18:15:40,342 INFO scheduler Scheduled Job Start: frappe.oauth.delete_oauth2_data for meeting.dev
2021-04-22 18:15:40,820 INFO scheduler Scheduled Job Complete: frappe.oauth.delete_oauth2_data for meeting.dev
2021-04-22 18:16:39,291 DEBUG scheduler Queued events for site meeting.dev
2021-04-22 18:16:39,328 INFO scheduler Scheduled Job Start: frappe.monitor.flush for meeting.dev
2021-04-22 18:16:39,495 INFO scheduler Scheduled Job Complete: frappe.monitor.flush for meeting.dev
2021-04-22 18:16:39,570 INFO scheduler Scheduled Job Start: frappe.utils.global_search.sync_global_search for meeting.dev
2021-04-22 18:16:39,726 INFO scheduler Scheduled Job Complete: frappe.utils.global_search.sync_global_search for meeting.dev
2021-04-22 18:16:39,798 INFO scheduler Scheduled Job Start: frappe.integrations.doctype.razorpay_settings.razorpay_settings.capture_payment for meeting.dev
2021-04-22 18:16:40,213 INFO scheduler Scheduled Job Complete: frappe.integrations.doctype.razorpay_settings.razorpay_settings.capture_payment for meeting.dev
2021-04-22 18:16:40,289 INFO scheduler Scheduled Job Start: frappe.email.doctype.email_account.email_account.notify_unreplied for meeting.dev
2021-04-22 18:16:40,598 INFO scheduler Scheduled Job Complete: frappe.email.doctype.email_account.email_account.notify_unreplied for meeting.dev
2021-04-22 18:16:40,671 INFO scheduler Scheduled Job Start: frappe.email.doctype.email_account.email_account.pull for meeting.dev
2021-04-22 18:16:40,995 INFO scheduler Scheduled Job Complete: frappe.email.doctype.email_account.email_account.pull for meeting.dev
2021-04-22 18:16:41,068 INFO scheduler Scheduled Job Start: frappe.email.queue.flush for meeting.dev
2021-04-22 18:16:41,333 INFO scheduler Scheduled Job Complete: frappe.email.queue.flush for meeting.dev
2021-04-22 18:17:39,551 DEBUG scheduler Queued events for site meeting.dev
2021-04-22 18:18:39,787 DEBUG scheduler Queued events for site meeting.dev
2021-04-22 18:19:40,039 DEBUG scheduler Queued events for site meeting.dev
2021-04-22 18:20:40,316 DEBUG scheduler Queued events for site meeting.dev
2021-04-22 18:20:40,348 INFO scheduler Scheduled Job Start: frappe.monitor.flush for meeting.dev
2021-04-22 18:20:40,504 INFO scheduler Scheduled Job Complete: frappe.monitor.flush for meeting.dev
2021-04-22 18:20:40,575 INFO scheduler Scheduled Job Start: frappe.utils.global_search.sync_global_search for meeting.dev
2021-04-22 18:20:40,730 INFO scheduler Scheduled Job Complete: frappe.utils.global_search.sync_global_search for meeting.dev
2021-04-22 18:20:40,801 INFO scheduler Scheduled Job Start: frappe.integrations.doctype.razorpay_settings.razorpay_settings.capture_payment for meeting.dev
2021-04-22 18:20:41,194 INFO scheduler Scheduled Job Complete: frappe.integrations.doctype.razorpay_settings.razorpay_settings.capture_payment for meeting.dev
2021-04-22 18:20:41,270 INFO scheduler Scheduled Job Start: frappe.email.doctype.email_account.email_account.notify_unreplied for meeting.dev
2021-04-22 18:20:41,584 INFO scheduler Scheduled Job Complete: frappe.email.doctype.email_account.email_account.notify_unreplied for meeting.dev
2021-04-22 18:20:41,656 INFO scheduler Scheduled Job Start: frappe.email.doctype.email_account.email_account.pull for meeting.dev
2021-04-22 18:20:41,979 INFO scheduler Scheduled Job Complete: frappe.email.doctype.email_account.email_account.pull for meeting.dev
2021-04-22 18:20:42,058 INFO scheduler Scheduled Job Start: frappe.email.queue.flush for meeting.dev
2021-04-22 18:20:42,322 INFO scheduler Scheduled Job Complete: frappe.email.queue.flush for meeting.dev
2021-04-22 18:21:40,567 DEBUG scheduler Queued events for site meeting.dev
2021-04-22 18:22:40,802 DEBUG scheduler Queued events for site meeting.dev
2021-04-22 18:23:41,046 DEBUG scheduler Queued events for site meeting.dev
2021-04-22 18:24:41,312 DEBUG scheduler Queued events for site meeting.dev
2021-04-22 18:24:41,357 INFO scheduler Scheduled Job Start: frappe.monitor.flush for meeting.dev
2021-04-22 18:24:41,672 INFO scheduler Scheduled Job Complete: frappe.monitor.flush for meeting.dev
2021-04-22 18:24:41,750 INFO scheduler Scheduled Job Start: frappe.utils.global_search.sync_global_search for meeting.dev
2021-04-22 18:24:41,912 INFO scheduler Scheduled Job Complete: frappe.utils.global_search.sync_global_search for meeting.dev
2021-04-22 18:24:41,989 INFO scheduler Scheduled Job Start: frappe.integrations.doctype.razorpay_settings.razorpay_settings.capture_payment for meeting.dev
2021-04-22 18:24:42,398 INFO scheduler Scheduled Job Complete: frappe.integrations.doctype.razorpay_settings.razorpay_settings.capture_payment for meeting.dev
2021-04-22 18:24:42,477 INFO scheduler Scheduled Job Start: frappe.email.doctype.email_account.email_account.notify_unreplied for meeting.dev
2021-04-22 18:24:42,838 INFO scheduler Scheduled Job Complete: frappe.email.doctype.email_account.email_account.notify_unreplied for meeting.dev
2021-04-22 18:24:42,919 INFO scheduler Scheduled Job Start: frappe.email.doctype.email_account.email_account.pull for meeting.dev
2021-04-22 18:24:43,251 INFO scheduler Scheduled Job Complete: frappe.email.doctype.email_account.email_account.pull for meeting.dev
2021-04-22 18:24:43,358 INFO scheduler Scheduled Job Start: frappe.email.queue.flush for meeting.dev
2021-04-22 18:24:43,670 INFO scheduler Scheduled Job Complete: frappe.email.queue.flush for meeting.dev
2021-04-22 18:25:41,589 DEBUG scheduler Queued events for site meeting.dev
2021-04-22 18:26:41,924 DEBUG scheduler Queued events for site meeting.dev
2021-04-22 18:27:42,210 DEBUG scheduler Queued events for site meeting.dev
2021-04-22 18:28:42,723 DEBUG scheduler Queued events for site meeting.dev
2021-04-22 18:28:42,808 INFO scheduler Scheduled Job Start: frappe.monitor.flush for meeting.dev
2021-04-22 18:28:43,020 INFO scheduler Scheduled Job Complete: frappe.monitor.flush for meeting.dev
2021-04-22 18:28:43,094 INFO scheduler Scheduled Job Start: frappe.utils.global_search.sync_global_search for meeting.dev
2021-04-22 18:28:43,274 INFO scheduler Scheduled Job Complete: frappe.utils.global_search.sync_global_search for meeting.dev
2021-04-22 18:28:43,352 INFO scheduler Scheduled Job Start: frappe.integrations.doctype.razorpay_settings.razorpay_settings.capture_payment for meeting.dev
2021-04-22 18:28:43,878 INFO scheduler Scheduled Job Complete: frappe.integrations.doctype.razorpay_settings.razorpay_settings.capture_payment for meeting.dev
2021-04-22 18:28:43,954 INFO scheduler Scheduled Job Start: frappe.email.doctype.email_account.email_account.notify_unreplied for meeting.dev
2021-04-22 18:28:44,290 INFO scheduler Scheduled Job Complete: frappe.email.doctype.email_account.email_account.notify_unreplied for meeting.dev
2021-04-22 18:28:44,369 INFO scheduler Scheduled Job Start: frappe.email.doctype.email_account.email_account.pull for meeting.dev
2021-04-22 18:28:44,696 INFO scheduler Scheduled Job Complete: frappe.email.doctype.email_account.email_account.pull for meeting.dev
2021-04-22 18:28:44,778 INFO scheduler Scheduled Job Start: frappe.email.queue.flush for meeting.dev
2021-04-22 18:28:45,061 INFO scheduler Scheduled Job Complete: frappe.email.queue.flush for meeting.dev
2021-04-22 18:29:43,029 DEBUG scheduler Queued events for site meeting.dev
2021-04-22 18:30:43,331 DEBUG scheduler Queued events for site meeting.dev
2021-04-22 18:30:43,408 INFO scheduler Scheduled Job Start: frappe.twofactor.delete_all_barcodes_for_users for meeting.dev
2021-04-22 18:30:43,946 INFO scheduler Scheduled Job Complete: frappe.twofactor.delete_all_barcodes_for_users for meeting.dev
2021-04-22 18:30:44,069 INFO scheduler Scheduled Job Start: frappe.website.doctype.web_page.web_page.check_publish_status for meeting.dev
2021-04-22 18:30:44,638 INFO scheduler Scheduled Job Complete: frappe.website.doctype.web_page.web_page.check_publish_status for meeting.dev
2021-04-22 18:30:44,731 INFO scheduler Scheduled Job Start: frappe.oauth.delete_oauth2_data for meeting.dev
2021-04-22 18:30:45,291 INFO scheduler Scheduled Job Complete: frappe.oauth.delete_oauth2_data for meeting.dev
2021-04-22 18:31:43,598 DEBUG scheduler Queued events for site meeting.dev
2021-04-22 18:32:43,875 DEBUG scheduler Queued events for site meeting.dev
2021-04-22 18:32:43,908 INFO scheduler Scheduled Job Start: frappe.monitor.flush for meeting.dev
2021-04-22 18:32:44,063 INFO scheduler Scheduled Job Complete: frappe.monitor.flush for meeting.dev
2021-04-22 18:32:44,139 INFO scheduler Scheduled Job Start: frappe.utils.global_search.sync_global_search for meeting.dev
2021-04-22 18:32:44,292 INFO scheduler Scheduled Job Complete: frappe.utils.global_search.sync_global_search for meeting.dev
2021-04-22 18:32:44,361 INFO scheduler Scheduled Job Start: frappe.integrations.doctype.razorpay_settings.razorpay_settings.capture_payment for meeting.dev
2021-04-22 18:32:44,754 INFO scheduler Scheduled Job Complete: frappe.integrations.doctype.razorpay_settings.razorpay_settings.capture_payment for meeting.dev
2021-04-22 18:32:44,825 INFO scheduler Scheduled Job Start: frappe.email.doctype.email_account.email_account.notify_unreplied for meeting.dev
2021-04-22 18:32:45,138 INFO scheduler Scheduled Job Complete: frappe.email.doctype.email_account.email_account.notify_unreplied for meeting.dev
2021-04-22 18:32:45,226 INFO scheduler Scheduled Job Start: frappe.email.doctype.email_account.email_account.pull for meeting.dev
2021-04-22 18:32:45,542 INFO scheduler Scheduled Job Complete: frappe.email.doctype.email_account.email_account.pull for meeting.dev
2021-04-22 18:32:45,614 INFO scheduler Scheduled Job Start: frappe.email.queue.flush for meeting.dev
2021-04-22 18:32:45,876 INFO scheduler Scheduled Job Complete: frappe.email.queue.flush for meeting.dev
2021-04-22 18:33:44,151 DEBUG scheduler Queued events for site meeting.dev
2021-04-22 18:34:44,384 DEBUG scheduler Queued events for site meeting.dev
2021-04-22 18:35:44,741 DEBUG scheduler Queued events for site meeting.dev
2021-04-22 18:36:45,059 DEBUG scheduler Queued events for site meeting.dev
2021-04-22 18:36:45,093 INFO scheduler Scheduled Job Start: frappe.monitor.flush for meeting.dev
2021-04-22 18:36:45,252 INFO scheduler Scheduled Job Complete: frappe.monitor.flush for meeting.dev
2021-04-22 18:36:45,329 INFO scheduler Scheduled Job Start: frappe.utils.global_search.sync_global_search for meeting.dev
2021-04-22 18:36:45,509 INFO scheduler Scheduled Job Complete: frappe.utils.global_search.sync_global_search for meeting.dev
2021-04-22 18:36:45,682 INFO scheduler Scheduled Job Start: frappe.integrations.doctype.razorpay_settings.razorpay_settings.capture_payment for meeting.dev
2021-04-22 18:36:46,630 INFO scheduler Scheduled Job Complete: frappe.integrations.doctype.razorpay_settings.razorpay_settings.capture_payment for meeting.dev
2021-04-22 18:36:46,733 INFO scheduler Scheduled Job Start: frappe.email.doctype.email_account.email_account.notify_unreplied for meeting.dev
2021-04-22 18:36:47,227 INFO scheduler Scheduled Job Complete: frappe.email.doctype.email_account.email_account.notify_unreplied for meeting.dev
2021-04-22 18:36:47,319 INFO scheduler Scheduled Job Start: frappe.email.doctype.email_account.email_account.pull for meeting.dev
2021-04-22 18:36:47,716 INFO scheduler Scheduled Job Complete: frappe.email.doctype.email_account.email_account.pull for meeting.dev
2021-04-22 18:36:47,807 INFO scheduler Scheduled Job Start: frappe.email.queue.flush for meeting.dev
2021-04-22 18:36:48,121 INFO scheduler Scheduled Job Complete: frappe.email.queue.flush for meeting.dev
2021-04-22 18:37:45,320 DEBUG scheduler Queued events for site meeting.dev
2021-04-22 18:38:45,611 DEBUG scheduler Queued events for site meeting.dev
2021-04-22 18:39:45,848 DEBUG scheduler Queued events for site meeting.dev
2021-04-22 18:40:46,122 DEBUG scheduler Queued events for site meeting.dev
2021-04-22 18:40:46,152 INFO scheduler Scheduled Job Start: frappe.monitor.flush for meeting.dev
2021-04-22 18:40:46,313 INFO scheduler Scheduled Job Complete: frappe.monitor.flush for meeting.dev
2021-04-22 18:40:46,384 INFO scheduler Scheduled Job Start: frappe.utils.global_search.sync_global_search for meeting.dev
2021-04-22 18:40:46,552 INFO scheduler Scheduled Job Complete: frappe.utils.global_search.sync_global_search for meeting.dev
2021-04-22 18:40:46,636 INFO scheduler Scheduled Job Start: frappe.integrations.doctype.razorpay_settings.razorpay_settings.capture_payment for meeting.dev
2021-04-22 18:40:47,040 INFO scheduler Scheduled Job Complete: frappe.integrations.doctype.razorpay_settings.razorpay_settings.capture_payment for meeting.dev
2021-04-22 18:40:47,120 INFO scheduler Scheduled Job Start: frappe.email.doctype.email_account.email_account.notify_unreplied for meeting.dev
2021-04-22 18:40:47,443 INFO scheduler Scheduled Job Complete: frappe.email.doctype.email_account.email_account.notify_unreplied for meeting.dev
2021-04-22 18:40:47,517 INFO scheduler Scheduled Job Start: frappe.email.doctype.email_account.email_account.pull for meeting.dev
2021-04-22 18:40:47,854 INFO scheduler Scheduled Job Complete: frappe.email.doctype.email_account.email_account.pull for meeting.dev
2021-04-22 18:40:47,931 INFO scheduler Scheduled Job Start: frappe.email.queue.flush for meeting.dev
2021-04-22 18:40:48,211 INFO scheduler Scheduled Job Complete: frappe.email.queue.flush for meeting.dev
2021-04-22 18:41:46,400 DEBUG scheduler Queued events for site meeting.dev
2021-04-22 18:42:46,639 DEBUG scheduler Queued events for site meeting.dev
2021-04-22 18:43:46,879 DEBUG scheduler Queued events for site meeting.dev
2021-04-22 18:44:47,248 DEBUG scheduler Queued events for site meeting.dev
2021-04-22 18:44:47,322 INFO scheduler Scheduled Job Start: frappe.monitor.flush for meeting.dev
2021-04-22 18:44:47,513 INFO scheduler Scheduled Job Complete: frappe.monitor.flush for meeting.dev
2021-04-22 18:44:47,607 INFO scheduler Scheduled Job Start: frappe.utils.global_search.sync_global_search for meeting.dev
2021-04-22 18:44:47,807 INFO scheduler Scheduled Job Complete: frappe.utils.global_search.sync_global_search for meeting.dev
2021-04-22 18:44:47,942 INFO scheduler Scheduled Job Start: frappe.integrations.doctype.razorpay_settings.razorpay_settings.capture_payment for meeting.dev
2021-04-22 18:44:48,417 INFO scheduler Scheduled Job Complete: frappe.integrations.doctype.razorpay_settings.razorpay_settings.capture_payment for meeting.dev
2021-04-22 18:44:48,497 INFO scheduler Scheduled Job Start: frappe.email.doctype.email_account.email_account.notify_unreplied for meeting.dev
2021-04-22 18:44:48,931 INFO scheduler Scheduled Job Complete: frappe.email.doctype.email_account.email_account.notify_unreplied for meeting.dev
2021-04-22 18:44:49,049 INFO scheduler Scheduled Job Start: frappe.email.doctype.email_account.email_account.pull for meeting.dev
2021-04-22 18:44:49,493 INFO scheduler Scheduled Job Complete: frappe.email.doctype.email_account.email_account.pull for meeting.dev
2021-04-22 18:44:49,576 INFO scheduler Scheduled Job Start: frappe.email.queue.flush for meeting.dev
2021-04-22 18:44:49,862 INFO scheduler Scheduled Job Complete: frappe.email.queue.flush for meeting.dev
2021-04-22 18:45:47,576 DEBUG scheduler Queued events for site meeting.dev
2021-04-22 18:45:47,641 INFO scheduler Scheduled Job Start: frappe.twofactor.delete_all_barcodes_for_users for meeting.dev
2021-04-22 18:45:48,085 INFO scheduler Scheduled Job Complete: frappe.twofactor.delete_all_barcodes_for_users for meeting.dev
2021-04-22 18:45:48,169 INFO scheduler Scheduled Job Start: frappe.website.doctype.web_page.web_page.check_publish_status for meeting.dev
2021-04-22 18:45:48,689 INFO scheduler Scheduled Job Complete: frappe.website.doctype.web_page.web_page.check_publish_status for meeting.dev
2021-04-22 18:45:48,811 INFO scheduler Scheduled Job Start: frappe.oauth.delete_oauth2_data for meeting.dev
2021-04-22 18:45:49,296 INFO scheduler Scheduled Job Complete: frappe.oauth.delete_oauth2_data for meeting.dev
2021-04-22 18:46:47,904 DEBUG scheduler Queued events for site meeting.dev
2021-04-22 18:47:48,190 DEBUG scheduler Queued events for site meeting.dev
2021-04-22 18:48:48,480 DEBUG scheduler Queued events for site meeting.dev
2021-04-22 18:48:48,512 INFO scheduler Scheduled Job Start: frappe.monitor.flush for meeting.dev
2021-04-22 18:48:48,671 INFO scheduler Scheduled Job Complete: frappe.monitor.flush for meeting.dev
2021-04-22 18:48:48,748 INFO scheduler Scheduled Job Start: frappe.utils.global_search.sync_global_search for meeting.dev
2021-04-22 18:48:48,908 INFO scheduler Scheduled Job Complete: frappe.utils.global_search.sync_global_search for meeting.dev
2021-04-22 18:48:48,982 INFO scheduler Scheduled Job Start: frappe.integrations.doctype.razorpay_settings.razorpay_settings.capture_payment for meeting.dev
2021-04-22 18:48:49,402 INFO scheduler Scheduled Job Complete: frappe.integrations.doctype.razorpay_settings.razorpay_settings.capture_payment for meeting.dev
2021-04-22 18:48:49,475 INFO scheduler Scheduled Job Start: frappe.email.doctype.email_account.email_account.notify_unreplied for meeting.dev
2021-04-22 18:48:49,912 INFO scheduler Scheduled Job Complete: frappe.email.doctype.email_account.email_account.notify_unreplied for meeting.dev
2021-04-22 18:48:49,996 INFO scheduler Scheduled Job Start: frappe.email.doctype.email_account.email_account.pull for meeting.dev
2021-04-22 18:48:50,336 INFO scheduler Scheduled Job Complete: frappe.email.doctype.email_account.email_account.pull for meeting.dev
2021-04-22 18:48:50,406 INFO scheduler Scheduled Job Start: frappe.email.queue.flush for meeting.dev
2021-04-22 18:48:50,711 INFO scheduler Scheduled Job Complete: frappe.email.queue.flush for meeting.dev
2021-04-22 18:49:48,731 DEBUG scheduler Queued events for site meeting.dev
2021-04-22 18:50:49,048 DEBUG scheduler Queued events for site meeting.dev
2021-04-22 18:51:49,285 DEBUG scheduler Queued events for site meeting.dev
2021-04-22 18:52:49,557 DEBUG scheduler Queued events for site meeting.dev
2021-04-22 18:52:49,591 INFO scheduler Scheduled Job Start: frappe.monitor.flush for meeting.dev
2021-04-22 18:52:49,757 INFO scheduler Scheduled Job Complete: frappe.monitor.flush for meeting.dev
2021-04-22 18:52:49,833 INFO scheduler Scheduled Job Start: frappe.utils.global_search.sync_global_search for meeting.dev
2021-04-22 18:52:49,992 INFO scheduler Scheduled Job Complete: frappe.utils.global_search.sync_global_search for meeting.dev
2021-04-22 18:52:50,095 INFO scheduler Scheduled Job Start: frappe.integrations.doctype.razorpay_settings.razorpay_settings.capture_payment for meeting.dev
2021-04-22 18:52:50,563 INFO scheduler Scheduled Job Complete: frappe.integrations.doctype.razorpay_settings.razorpay_settings.capture_payment for meeting.dev
2021-04-22 18:52:50,639 INFO scheduler Scheduled Job Start: frappe.email.doctype.email_account.email_account.notify_unreplied for meeting.dev
2021-04-22 18:52:51,040 INFO scheduler Scheduled Job Complete: frappe.email.doctype.email_account.email_account.notify_unreplied for meeting.dev
2021-04-22 18:52:51,125 INFO scheduler Scheduled Job Start: frappe.email.doctype.email_account.email_account.pull for meeting.dev
2021-04-22 18:52:51,566 INFO scheduler Scheduled Job Complete: frappe.email.doctype.email_account.email_account.pull for meeting.dev
2021-04-22 18:52:51,644 INFO scheduler Scheduled Job Start: frappe.email.queue.flush for meeting.dev
2021-04-22 18:52:51,914 INFO scheduler Scheduled Job Complete: frappe.email.queue.flush for meeting.dev
2021-04-22 18:53:49,824 DEBUG scheduler Queued events for site meeting.dev
2021-04-22 18:54:50,107 DEBUG scheduler Queued events for site meeting.dev
2021-04-22 18:55:50,409 DEBUG scheduler Queued events for site meeting.dev
2021-04-22 18:56:50,705 DEBUG scheduler Queued events for site meeting.dev
2021-04-22 18:56:50,739 INFO scheduler Scheduled Job Start: frappe.monitor.flush for meeting.dev
2021-04-22 18:56:50,908 INFO scheduler Scheduled Job Complete: frappe.monitor.flush for meeting.dev
2021-04-22 18:56:51,047 INFO scheduler Scheduled Job Start: frappe.utils.global_search.sync_global_search for meeting.dev
2021-04-22 18:56:51,248 INFO scheduler Scheduled Job Complete: frappe.utils.global_search.sync_global_search for meeting.dev
2021-04-22 18:56:51,327 INFO scheduler Scheduled Job Start: frappe.integrations.doctype.razorpay_settings.razorpay_settings.capture_payment for meeting.dev
2021-04-22 18:56:51,836 INFO scheduler Scheduled Job Complete: frappe.integrations.doctype.razorpay_settings.razorpay_settings.capture_payment for meeting.dev
2021-04-22 18:56:51,909 INFO scheduler Scheduled Job Start: frappe.email.doctype.email_account.email_account.notify_unreplied for meeting.dev
2021-04-22 18:56:52,233 INFO scheduler Scheduled Job Complete: frappe.email.doctype.email_account.email_account.notify_unreplied for meeting.dev
2021-04-22 18:56:52,331 INFO scheduler Scheduled Job Start: frappe.email.doctype.email_account.email_account.pull for meeting.dev
2021-04-22 18:56:52,775 INFO scheduler Scheduled Job Complete: frappe.email.doctype.email_account.email_account.pull for meeting.dev
2021-04-22 18:56:52,851 INFO scheduler Scheduled Job Start: frappe.email.queue.flush for meeting.dev
2021-04-22 18:56:53,141 INFO scheduler Scheduled Job Complete: frappe.email.queue.flush for meeting.dev
2021-04-22 18:57:50,973 DEBUG scheduler Queued events for site meeting.dev
2021-04-22 18:58:51,225 DEBUG scheduler Queued events for site meeting.dev
2021-04-22 18:59:51,522 DEBUG scheduler Queued events for site meeting.dev
2021-04-22 19:00:51,828 INFO scheduler Scheduled Job Start: frappe.email.doctype.newsletter.newsletter.send_scheduled_email for meeting.dev
2021-04-22 19:00:51,892 DEBUG scheduler Queued events for site meeting.dev
2021-04-22 19:00:52,330 INFO scheduler Scheduled Job Complete: frappe.email.doctype.newsletter.newsletter.send_scheduled_email for meeting.dev
2021-04-22 19:00:52,431 INFO scheduler Scheduled Job Start: frappe.integrations.doctype.google_calendar.google_calendar.sync for meeting.dev
2021-04-22 19:00:53,013 INFO scheduler Scheduled Job Complete: frappe.integrations.doctype.google_calendar.google_calendar.sync for meeting.dev
2021-04-22 19:00:53,105 INFO scheduler Scheduled Job Start: frappe.desk.form.document_follow.send_hourly_updates for meeting.dev
2021-04-22 19:00:53,532 INFO scheduler Scheduled Job Complete: frappe.desk.form.document_follow.send_hourly_updates for meeting.dev
2021-04-22 19:00:53,627 INFO scheduler Scheduled Job Start: frappe.deferred_insert.save_to_db for meeting.dev
2021-04-22 19:00:54,008 INFO scheduler Scheduled Job Complete: frappe.deferred_insert.save_to_db for meeting.dev
2021-04-22 19:00:54,094 INFO scheduler Scheduled Job Start: frappe.desk.page.backups.backups.delete_downloadable_backups for meeting.dev
2021-04-22 19:00:54,527 INFO scheduler Scheduled Job Complete: frappe.desk.page.backups.backups.delete_downloadable_backups for meeting.dev
2021-04-22 19:00:54,617 INFO scheduler Scheduled Job Start: frappe.utils.error.collect_error_snapshots for meeting.dev
2021-04-22 19:00:55,055 INFO scheduler Scheduled Job Complete: frappe.utils.error.collect_error_snapshots for meeting.dev
2021-04-22 19:00:55,150 INFO scheduler Scheduled Job Start: frappe.model.utils.user_settings.sync_user_settings for meeting.dev
2021-04-22 19:00:55,593 INFO scheduler Scheduled Job Complete: frappe.model.utils.user_settings.sync_user_settings for meeting.dev
2021-04-22 19:00:55,689 INFO scheduler Scheduled Job Start: frappe.model.utils.link_count.update_link_count for meeting.dev
2021-04-22 19:00:56,091 INFO scheduler Scheduled Job Complete: frappe.model.utils.link_count.update_link_count for meeting.dev
2021-04-22 19:00:56,194 INFO scheduler Scheduled Job Start: frappe.monitor.flush for meeting.dev
2021-04-22 19:00:56,349 INFO scheduler Scheduled Job Complete: frappe.monitor.flush for meeting.dev
2021-04-22 19:00:56,432 INFO scheduler Scheduled Job Start: frappe.utils.global_search.sync_global_search for meeting.dev
2021-04-22 19:00:56,591 INFO scheduler Scheduled Job Complete: frappe.utils.global_search.sync_global_search for meeting.dev
2021-04-22 19:00:56,671 INFO scheduler Scheduled Job Start: frappe.integrations.doctype.razorpay_settings.razorpay_settings.capture_payment for meeting.dev
2021-04-22 19:00:57,068 INFO scheduler Scheduled Job Complete: frappe.integrations.doctype.razorpay_settings.razorpay_settings.capture_payment for meeting.dev
2021-04-22 19:00:57,155 INFO scheduler Scheduled Job Start: frappe.email.doctype.email_account.email_account.notify_unreplied for meeting.dev
2021-04-22 19:00:57,482 INFO scheduler Scheduled Job Complete: frappe.email.doctype.email_account.email_account.notify_unreplied for meeting.dev
2021-04-22 19:00:57,557 INFO scheduler Scheduled Job Start: frappe.email.doctype.email_account.email_account.pull for meeting.dev
2021-04-22 19:00:57,899 INFO scheduler Scheduled Job Complete: frappe.email.doctype.email_account.email_account.pull for meeting.dev
2021-04-22 19:00:57,992 INFO scheduler Scheduled Job Start: frappe.email.queue.flush for meeting.dev
2021-04-22 19:00:58,301 INFO scheduler Scheduled Job Complete: frappe.email.queue.flush for meeting.dev
2021-04-22 19:00:58,380 INFO scheduler Scheduled Job Start: frappe.twofactor.delete_all_barcodes_for_users for meeting.dev
2021-04-22 19:00:58,812 INFO scheduler Scheduled Job Complete: frappe.twofactor.delete_all_barcodes_for_users for meeting.dev
2021-04-22 19:00:58,899 INFO scheduler Scheduled Job Start: frappe.website.doctype.web_page.web_page.check_publish_status for meeting.dev
2021-04-22 19:00:59,386 INFO scheduler Scheduled Job Complete: frappe.website.doctype.web_page.web_page.check_publish_status for meeting.dev
2021-04-22 19:00:59,476 INFO scheduler Scheduled Job Start: frappe.oauth.delete_oauth2_data for meeting.dev
2021-04-22 19:00:59,968 INFO scheduler Scheduled Job Complete: frappe.oauth.delete_oauth2_data for meeting.dev
2021-04-22 19:01:52,155 DEBUG scheduler Queued events for site meeting.dev
2021-04-22 19:02:52,422 DEBUG scheduler Queued events for site meeting.dev
2021-04-22 19:03:52,677 DEBUG scheduler Queued events for site meeting.dev
2021-04-22 19:04:52,963 DEBUG scheduler Queued events for site meeting.dev
2021-04-22 19:04:53,007 INFO scheduler Scheduled Job Start: frappe.monitor.flush for meeting.dev
2021-04-22 19:04:53,169 INFO scheduler Scheduled Job Complete: frappe.monitor.flush for meeting.dev
2021-04-22 19:04:53,243 INFO scheduler Scheduled Job Start: frappe.utils.global_search.sync_global_search for meeting.dev
2021-04-22 19:04:53,397 INFO scheduler Scheduled Job Complete: frappe.utils.global_search.sync_global_search for meeting.dev
2021-04-22 19:04:53,490 INFO scheduler Scheduled Job Start: frappe.integrations.doctype.razorpay_settings.razorpay_settings.capture_payment for meeting.dev
2021-04-22 19:04:54,041 INFO scheduler Scheduled Job Complete: frappe.integrations.doctype.razorpay_settings.razorpay_settings.capture_payment for meeting.dev
2021-04-22 19:04:54,112 INFO scheduler Scheduled Job Start: frappe.email.doctype.email_account.email_account.notify_unreplied for meeting.dev
2021-04-22 19:04:54,467 INFO scheduler Scheduled Job Complete: frappe.email.doctype.email_account.email_account.notify_unreplied for meeting.dev
2021-04-22 19:04:54,556 INFO scheduler Scheduled Job Start: frappe.email.doctype.email_account.email_account.pull for meeting.dev
2021-04-22 19:04:54,886 INFO scheduler Scheduled Job Complete: frappe.email.doctype.email_account.email_account.pull for meeting.dev
2021-04-22 19:04:54,961 INFO scheduler Scheduled Job Start: frappe.email.queue.flush for meeting.dev
2021-04-22 19:04:55,230 INFO scheduler Scheduled Job Complete: frappe.email.queue.flush for meeting.dev
2021-04-22 19:05:53,344 DEBUG scheduler Queued events for site meeting.dev
2021-04-22 19:06:53,581 DEBUG scheduler Queued events for site meeting.dev
2021-04-22 19:46:55,295 DEBUG scheduler Queued events for site meeting.dev
2021-04-22 19:46:55,302 INFO scheduler Scheduled Job Start: frappe.monitor.flush for meeting.dev
2021-04-22 19:46:55,514 INFO scheduler Scheduled Job Complete: frappe.monitor.flush for meeting.dev
2021-04-22 19:46:55,611 INFO scheduler Scheduled Job Start: frappe.utils.global_search.sync_global_search for meeting.dev
2021-04-22 19:46:55,792 INFO scheduler Scheduled Job Complete: frappe.utils.global_search.sync_global_search for meeting.dev
2021-04-22 19:46:55,879 INFO scheduler Scheduled Job Start: frappe.integrations.doctype.razorpay_settings.razorpay_settings.capture_payment for meeting.dev
2021-04-22 19:46:56,334 INFO scheduler Scheduled Job Complete: frappe.integrations.doctype.razorpay_settings.razorpay_settings.capture_payment for meeting.dev
2021-04-22 19:46:56,421 INFO scheduler Scheduled Job Start: frappe.email.doctype.email_account.email_account.notify_unreplied for meeting.dev
2021-04-22 19:46:56,827 INFO scheduler Scheduled Job Complete: frappe.email.doctype.email_account.email_account.notify_unreplied for meeting.dev
2021-04-22 19:46:56,912 INFO scheduler Scheduled Job Start: frappe.email.doctype.email_account.email_account.pull for meeting.dev
2021-04-22 19:46:57,296 INFO scheduler Scheduled Job Complete: frappe.email.doctype.email_account.email_account.pull for meeting.dev
2021-04-22 19:46:57,369 INFO scheduler Scheduled Job Start: frappe.email.queue.flush for meeting.dev
2021-04-22 19:46:57,733 INFO scheduler Scheduled Job Complete: frappe.email.queue.flush for meeting.dev
2021-04-22 19:46:57,831 INFO scheduler Scheduled Job Start: frappe.twofactor.delete_all_barcodes_for_users for meeting.dev
2021-04-22 19:46:58,268 INFO scheduler Scheduled Job Complete: frappe.twofactor.delete_all_barcodes_for_users for meeting.dev
2021-04-22 19:46:58,357 INFO scheduler Scheduled Job Start: frappe.website.doctype.web_page.web_page.check_publish_status for meeting.dev
2021-04-22 19:46:58,835 INFO scheduler Scheduled Job Complete: frappe.website.doctype.web_page.web_page.check_publish_status for meeting.dev
2021-04-22 19:46:58,920 INFO scheduler Scheduled Job Start: frappe.oauth.delete_oauth2_data for meeting.dev
2021-04-22 19:46:59,627 INFO scheduler Scheduled Job Complete: frappe.oauth.delete_oauth2_data for meeting.dev
2021-04-22 19:47:55,591 DEBUG scheduler Queued events for site meeting.dev
2021-04-22 19:48:55,887 DEBUG scheduler Queued events for site meeting.dev
2021-04-22 19:48:55,922 INFO scheduler Scheduled Job Start: frappe.monitor.flush for meeting.dev
2021-04-22 19:48:56,096 INFO scheduler Scheduled Job Complete: frappe.monitor.flush for meeting.dev
2021-04-22 19:48:56,169 INFO scheduler Scheduled Job Start: frappe.utils.global_search.sync_global_search for meeting.dev
2021-04-22 19:48:56,327 INFO scheduler Scheduled Job Complete: frappe.utils.global_search.sync_global_search for meeting.dev
2021-04-22 19:48:56,409 INFO scheduler Scheduled Job Start: frappe.integrations.doctype.razorpay_settings.razorpay_settings.capture_payment for meeting.dev
2021-04-22 19:48:56,877 INFO scheduler Scheduled Job Complete: frappe.integrations.doctype.razorpay_settings.razorpay_settings.capture_payment for meeting.dev
2021-04-22 19:48:56,957 INFO scheduler Scheduled Job Start: frappe.email.doctype.email_account.email_account.notify_unreplied for meeting.dev
2021-04-22 19:48:57,338 INFO scheduler Scheduled Job Complete: frappe.email.doctype.email_account.email_account.notify_unreplied for meeting.dev
2021-04-22 19:48:57,414 INFO scheduler Scheduled Job Start: frappe.email.doctype.email_account.email_account.pull for meeting.dev
2021-04-22 19:48:57,750 INFO scheduler Scheduled Job Complete: frappe.email.doctype.email_account.email_account.pull for meeting.dev
2021-04-22 19:48:57,823 INFO scheduler Scheduled Job Start: frappe.email.queue.flush for meeting.dev
2021-04-22 19:48:58,188 INFO scheduler Scheduled Job Complete: frappe.email.queue.flush for meeting.dev
2021-04-22 19:49:56,138 DEBUG scheduler Queued events for site meeting.dev
2021-04-22 22:06:23,274 INFO scheduler Scheduled Job Start: frappe.email.doctype.newsletter.newsletter.send_scheduled_email for meeting.dev
2021-04-22 22:06:23,374 DEBUG scheduler Queued events for site meeting.dev
2021-04-22 22:06:23,897 INFO scheduler Scheduled Job Complete: frappe.email.doctype.newsletter.newsletter.send_scheduled_email for meeting.dev
2021-04-22 22:06:24,002 INFO scheduler Scheduled Job Start: frappe.integrations.doctype.google_calendar.google_calendar.sync for meeting.dev
2021-04-22 22:06:24,664 INFO scheduler Scheduled Job Complete: frappe.integrations.doctype.google_calendar.google_calendar.sync for meeting.dev
2021-04-22 22:06:24,767 INFO scheduler Scheduled Job Start: frappe.desk.form.document_follow.send_hourly_updates for meeting.dev
2021-04-22 22:06:25,230 INFO scheduler Scheduled Job Complete: frappe.desk.form.document_follow.send_hourly_updates for meeting.dev
2021-04-22 22:06:25,404 INFO scheduler Scheduled Job Start: frappe.deferred_insert.save_to_db for meeting.dev
2021-04-22 22:06:25,899 INFO scheduler Scheduled Job Complete: frappe.deferred_insert.save_to_db for meeting.dev
2021-04-22 22:06:25,982 INFO scheduler Scheduled Job Start: frappe.desk.page.backups.backups.delete_downloadable_backups for meeting.dev
2021-04-22 22:06:26,401 INFO scheduler Scheduled Job Complete: frappe.desk.page.backups.backups.delete_downloadable_backups for meeting.dev
2021-04-22 22:06:26,511 INFO scheduler Scheduled Job Start: frappe.utils.error.collect_error_snapshots for meeting.dev
2021-04-22 22:06:26,917 INFO scheduler Scheduled Job Complete: frappe.utils.error.collect_error_snapshots for meeting.dev
2021-04-22 22:06:27,001 INFO scheduler Scheduled Job Start: frappe.model.utils.user_settings.sync_user_settings for meeting.dev
2021-04-22 22:06:27,388 INFO scheduler Scheduled Job Complete: frappe.model.utils.user_settings.sync_user_settings for meeting.dev
2021-04-22 22:06:27,500 INFO scheduler Scheduled Job Start: frappe.model.utils.link_count.update_link_count for meeting.dev
2021-04-22 22:06:27,907 INFO scheduler Scheduled Job Complete: frappe.model.utils.link_count.update_link_count for meeting.dev
2021-04-22 22:06:27,994 INFO scheduler Scheduled Job Start: frappe.monitor.flush for meeting.dev
2021-04-22 22:06:28,145 INFO scheduler Scheduled Job Complete: frappe.monitor.flush for meeting.dev
2021-04-22 22:06:28,221 INFO scheduler Scheduled Job Start: frappe.utils.global_search.sync_global_search for meeting.dev
2021-04-22 22:06:28,381 INFO scheduler Scheduled Job Complete: frappe.utils.global_search.sync_global_search for meeting.dev
2021-04-22 22:06:28,461 INFO scheduler Scheduled Job Start: frappe.integrations.doctype.razorpay_settings.razorpay_settings.capture_payment for meeting.dev
2021-04-22 22:06:28,864 INFO scheduler Scheduled Job Complete: frappe.integrations.doctype.razorpay_settings.razorpay_settings.capture_payment for meeting.dev
2021-04-22 22:06:28,937 INFO scheduler Scheduled Job Start: frappe.email.doctype.email_account.email_account.notify_unreplied for meeting.dev
2021-04-22 22:06:29,243 INFO scheduler Scheduled Job Complete: frappe.email.doctype.email_account.email_account.notify_unreplied for meeting.dev
2021-04-22 22:06:29,319 INFO scheduler Scheduled Job Start: frappe.email.doctype.email_account.email_account.pull for meeting.dev
2021-04-22 22:06:29,650 INFO scheduler Scheduled Job Complete: frappe.email.doctype.email_account.email_account.pull for meeting.dev
2021-04-22 22:06:29,724 INFO scheduler Scheduled Job Start: frappe.email.queue.flush for meeting.dev
2021-04-22 22:06:29,989 INFO scheduler Scheduled Job Complete: frappe.email.queue.flush for meeting.dev
2021-04-22 22:06:30,062 INFO scheduler Scheduled Job Start: frappe.twofactor.delete_all_barcodes_for_users for meeting.dev
2021-04-22 22:06:30,471 INFO scheduler Scheduled Job Complete: frappe.twofactor.delete_all_barcodes_for_users for meeting.dev
2021-04-22 22:06:30,558 INFO scheduler Scheduled Job Start: frappe.website.doctype.web_page.web_page.check_publish_status for meeting.dev
2021-04-22 22:06:31,097 INFO scheduler Scheduled Job Complete: frappe.website.doctype.web_page.web_page.check_publish_status for meeting.dev
2021-04-22 22:06:31,225 INFO scheduler Scheduled Job Start: frappe.oauth.delete_oauth2_data for meeting.dev
2021-04-22 22:06:31,765 INFO scheduler Scheduled Job Complete: frappe.oauth.delete_oauth2_data for meeting.dev
2021-04-22 22:07:23,661 DEBUG scheduler Queued events for site meeting.dev
2021-04-22 22:08:23,933 DEBUG scheduler Queued events for site meeting.dev
2021-04-22 22:08:23,974 INFO scheduler Scheduled Job Start: frappe.monitor.flush for meeting.dev
2021-04-22 22:08:24,128 INFO scheduler Scheduled Job Complete: frappe.monitor.flush for meeting.dev
2021-04-22 22:08:24,201 INFO scheduler Scheduled Job Start: frappe.utils.global_search.sync_global_search for meeting.dev
2021-04-22 22:08:24,352 INFO scheduler Scheduled Job Complete: frappe.utils.global_search.sync_global_search for meeting.dev
2021-04-22 22:08:24,424 INFO scheduler Scheduled Job Start: frappe.integrations.doctype.razorpay_settings.razorpay_settings.capture_payment for meeting.dev
2021-04-22 22:08:24,806 INFO scheduler Scheduled Job Complete: frappe.integrations.doctype.razorpay_settings.razorpay_settings.capture_payment for meeting.dev
2021-04-22 22:08:24,878 INFO scheduler Scheduled Job Start: frappe.email.doctype.email_account.email_account.notify_unreplied for meeting.dev
2021-04-22 22:08:25,183 INFO scheduler Scheduled Job Complete: frappe.email.doctype.email_account.email_account.notify_unreplied for meeting.dev
2021-04-22 22:08:25,253 INFO scheduler Scheduled Job Start: frappe.email.doctype.email_account.email_account.pull for meeting.dev
2021-04-22 22:08:25,563 INFO scheduler Scheduled Job Complete: frappe.email.doctype.email_account.email_account.pull for meeting.dev
2021-04-22 22:08:25,636 INFO scheduler Scheduled Job Start: frappe.email.queue.flush for meeting.dev
2021-04-22 22:08:25,894 INFO scheduler Scheduled Job Complete: frappe.email.queue.flush for meeting.dev
2021-04-22 22:09:24,184 DEBUG scheduler Queued events for site meeting.dev
2021-04-22 22:10:24,420 DEBUG scheduler Queued events for site meeting.dev
2021-04-22 22:11:24,654 DEBUG scheduler Queued events for site meeting.dev
2021-04-22 22:12:24,936 DEBUG scheduler Queued events for site meeting.dev
2021-04-22 22:12:24,979 INFO scheduler Scheduled Job Start: frappe.monitor.flush for meeting.dev
2021-04-22 22:12:25,143 INFO scheduler Scheduled Job Complete: frappe.monitor.flush for meeting.dev
2021-04-22 22:12:25,214 INFO scheduler Scheduled Job Start: frappe.utils.global_search.sync_global_search for meeting.dev
2021-04-22 22:12:25,369 INFO scheduler Scheduled Job Complete: frappe.utils.global_search.sync_global_search for meeting.dev
2021-04-22 22:12:25,441 INFO scheduler Scheduled Job Start: frappe.integrations.doctype.razorpay_settings.razorpay_settings.capture_payment for meeting.dev
2021-04-22 22:12:25,825 INFO scheduler Scheduled Job Complete: frappe.integrations.doctype.razorpay_settings.razorpay_settings.capture_payment for meeting.dev
2021-04-22 22:12:25,896 INFO scheduler Scheduled Job Start: frappe.email.doctype.email_account.email_account.notify_unreplied for meeting.dev
2021-04-22 22:12:26,197 INFO scheduler Scheduled Job Complete: frappe.email.doctype.email_account.email_account.notify_unreplied for meeting.dev
2021-04-22 22:12:26,267 INFO scheduler Scheduled Job Start: frappe.email.doctype.email_account.email_account.pull for meeting.dev
2021-04-22 22:12:26,582 INFO scheduler Scheduled Job Complete: frappe.email.doctype.email_account.email_account.pull for meeting.dev
2021-04-22 22:12:26,656 INFO scheduler Scheduled Job Start: frappe.email.queue.flush for meeting.dev
2021-04-22 22:12:26,922 INFO scheduler Scheduled Job Complete: frappe.email.queue.flush for meeting.dev
2021-04-22 22:13:25,208 DEBUG scheduler Queued events for site meeting.dev
2021-04-22 22:14:25,524 DEBUG scheduler Queued events for site meeting.dev
2021-04-22 22:15:25,978 DEBUG scheduler Queued events for site meeting.dev
2021-04-22 22:15:26,111 INFO scheduler Scheduled Job Start: frappe.twofactor.delete_all_barcodes_for_users for meeting.dev
2021-04-22 22:15:26,940 INFO scheduler Scheduled Job Complete: frappe.twofactor.delete_all_barcodes_for_users for meeting.dev
2021-04-22 22:15:27,123 INFO scheduler Scheduled Job Start: frappe.website.doctype.web_page.web_page.check_publish_status for meeting.dev
2021-04-22 22:15:28,024 INFO scheduler Scheduled Job Complete: frappe.website.doctype.web_page.web_page.check_publish_status for meeting.dev
2021-04-22 22:15:28,202 INFO scheduler Scheduled Job Start: frappe.oauth.delete_oauth2_data for meeting.dev
2021-04-22 22:15:29,101 INFO scheduler Scheduled Job Complete: frappe.oauth.delete_oauth2_data for meeting.dev
2021-04-22 22:16:26,330 DEBUG scheduler Queued events for site meeting.dev
2021-04-22 22:16:26,358 INFO scheduler Scheduled Job Start: frappe.monitor.flush for meeting.dev
2021-04-22 22:16:26,515 INFO scheduler Scheduled Job Complete: frappe.monitor.flush for meeting.dev
2021-04-22 22:16:26,588 INFO scheduler Scheduled Job Start: frappe.utils.global_search.sync_global_search for meeting.dev
2021-04-22 22:16:26,742 INFO scheduler Scheduled Job Complete: frappe.utils.global_search.sync_global_search for meeting.dev
2021-04-22 22:16:26,813 INFO scheduler Scheduled Job Start: frappe.integrations.doctype.razorpay_settings.razorpay_settings.capture_payment for meeting.dev
2021-04-22 22:16:27,194 INFO scheduler Scheduled Job Complete: frappe.integrations.doctype.razorpay_settings.razorpay_settings.capture_payment for meeting.dev
2021-04-22 22:16:27,265 INFO scheduler Scheduled Job Start: frappe.email.doctype.email_account.email_account.notify_unreplied for meeting.dev
2021-04-22 22:16:27,570 INFO scheduler Scheduled Job Complete: frappe.email.doctype.email_account.email_account.notify_unreplied for meeting.dev
2021-04-22 22:16:27,644 INFO scheduler Scheduled Job Start: frappe.email.doctype.email_account.email_account.pull for meeting.dev
2021-04-22 22:16:27,958 INFO scheduler Scheduled Job Complete: frappe.email.doctype.email_account.email_account.pull for meeting.dev
2021-04-22 22:16:28,030 INFO scheduler Scheduled Job Start: frappe.email.queue.flush for meeting.dev
2021-04-22 22:16:28,294 INFO scheduler Scheduled Job Complete: frappe.email.queue.flush for meeting.dev
2021-04-22 22:17:26,573 DEBUG scheduler Queued events for site meeting.dev
2021-04-22 22:18:26,807 DEBUG scheduler Queued events for site meeting.dev
2021-04-22 22:19:27,041 DEBUG scheduler Queued events for site meeting.dev
2021-04-22 22:20:27,312 DEBUG scheduler Queued events for site meeting.dev
2021-04-22 22:20:27,346 INFO scheduler Scheduled Job Start: frappe.monitor.flush for meeting.dev
2021-04-22 22:20:27,505 INFO scheduler Scheduled Job Complete: frappe.monitor.flush for meeting.dev
2021-04-22 22:20:27,576 INFO scheduler Scheduled Job Start: frappe.utils.global_search.sync_global_search for meeting.dev
2021-04-22 22:20:27,730 INFO scheduler Scheduled Job Complete: frappe.utils.global_search.sync_global_search for meeting.dev
2021-04-22 22:20:27,805 INFO scheduler Scheduled Job Start: frappe.integrations.doctype.razorpay_settings.razorpay_settings.capture_payment for meeting.dev
2021-04-22 22:20:28,211 INFO scheduler Scheduled Job Complete: frappe.integrations.doctype.razorpay_settings.razorpay_settings.capture_payment for meeting.dev
2021-04-22 22:20:28,283 INFO scheduler Scheduled Job Start: frappe.email.doctype.email_account.email_account.notify_unreplied for meeting.dev
2021-04-22 22:20:28,587 INFO scheduler Scheduled Job Complete: frappe.email.doctype.email_account.email_account.notify_unreplied for meeting.dev
2021-04-22 22:20:28,658 INFO scheduler Scheduled Job Start: frappe.email.doctype.email_account.email_account.pull for meeting.dev
2021-04-22 22:20:28,971 INFO scheduler Scheduled Job Complete: frappe.email.doctype.email_account.email_account.pull for meeting.dev
2021-04-22 22:20:29,042 INFO scheduler Scheduled Job Start: frappe.email.queue.flush for meeting.dev
2021-04-22 22:20:29,305 INFO scheduler Scheduled Job Complete: frappe.email.queue.flush for meeting.dev
2021-04-22 22:21:27,561 DEBUG scheduler Queued events for site meeting.dev
2021-04-22 22:22:27,796 DEBUG scheduler Queued events for site meeting.dev
2021-04-22 22:23:28,028 DEBUG scheduler Queued events for site meeting.dev
2021-04-22 22:24:28,314 DEBUG scheduler Queued events for site meeting.dev
2021-04-22 22:24:28,358 INFO scheduler Scheduled Job Start: frappe.monitor.flush for meeting.dev
2021-04-22 22:24:28,517 INFO scheduler Scheduled Job Complete: frappe.monitor.flush for meeting.dev
2021-04-22 22:24:28,592 INFO scheduler Scheduled Job Start: frappe.utils.global_search.sync_global_search for meeting.dev
2021-04-22 22:24:28,746 INFO scheduler Scheduled Job Complete: frappe.utils.global_search.sync_global_search for meeting.dev
2021-04-22 22:24:28,817 INFO scheduler Scheduled Job Start: frappe.integrations.doctype.razorpay_settings.razorpay_settings.capture_payment for meeting.dev
2021-04-22 22:24:29,198 INFO scheduler Scheduled Job Complete: frappe.integrations.doctype.razorpay_settings.razorpay_settings.capture_payment for meeting.dev
2021-04-22 22:24:29,272 INFO scheduler Scheduled Job Start: frappe.email.doctype.email_account.email_account.notify_unreplied for meeting.dev
2021-04-22 22:24:29,576 INFO scheduler Scheduled Job Complete: frappe.email.doctype.email_account.email_account.notify_unreplied for meeting.dev
2021-04-22 22:24:29,647 INFO scheduler Scheduled Job Start: frappe.email.doctype.email_account.email_account.pull for meeting.dev
2021-04-22 22:24:29,962 INFO scheduler Scheduled Job Complete: frappe.email.doctype.email_account.email_account.pull for meeting.dev
2021-04-22 22:24:30,033 INFO scheduler Scheduled Job Start: frappe.email.queue.flush for meeting.dev
2021-04-22 22:24:30,290 INFO scheduler Scheduled Job Complete: frappe.email.queue.flush for meeting.dev
2021-04-22 22:25:28,587 DEBUG scheduler Queued events for site meeting.dev
2021-04-22 22:26:28,818 DEBUG scheduler Queued events for site meeting.dev
2021-04-22 22:27:29,043 DEBUG scheduler Queued events for site meeting.dev
2021-04-22 22:28:29,316 DEBUG scheduler Queued events for site meeting.dev
2021-04-22 22:28:29,347 INFO scheduler Scheduled Job Start: frappe.monitor.flush for meeting.dev
2021-04-22 22:28:29,502 INFO scheduler Scheduled Job Complete: frappe.monitor.flush for meeting.dev
2021-04-22 22:28:29,576 INFO scheduler Scheduled Job Start: frappe.utils.global_search.sync_global_search for meeting.dev
2021-04-22 22:28:29,728 INFO scheduler Scheduled Job Complete: frappe.utils.global_search.sync_global_search for meeting.dev
2021-04-22 22:28:29,800 INFO scheduler Scheduled Job Start: frappe.integrations.doctype.razorpay_settings.razorpay_settings.capture_payment for meeting.dev
2021-04-22 22:28:30,178 INFO scheduler Scheduled Job Complete: frappe.integrations.doctype.razorpay_settings.razorpay_settings.capture_payment for meeting.dev
2021-04-22 22:28:30,248 INFO scheduler Scheduled Job Start: frappe.email.doctype.email_account.email_account.notify_unreplied for meeting.dev
2021-04-22 22:28:30,553 INFO scheduler Scheduled Job Complete: frappe.email.doctype.email_account.email_account.notify_unreplied for meeting.dev
2021-04-22 22:28:30,623 INFO scheduler Scheduled Job Start: frappe.email.doctype.email_account.email_account.pull for meeting.dev
2021-04-22 22:28:30,941 INFO scheduler Scheduled Job Complete: frappe.email.doctype.email_account.email_account.pull for meeting.dev
2021-04-22 22:28:31,014 INFO scheduler Scheduled Job Start: frappe.email.queue.flush for meeting.dev
2021-04-22 22:28:31,273 INFO scheduler Scheduled Job Complete: frappe.email.queue.flush for meeting.dev
2021-04-22 22:29:29,567 DEBUG scheduler Queued events for site meeting.dev
2021-04-22 22:30:29,821 DEBUG scheduler Queued events for site meeting.dev
2021-04-22 22:30:29,880 INFO scheduler Scheduled Job Start: frappe.twofactor.delete_all_barcodes_for_users for meeting.dev
2021-04-22 22:30:30,293 INFO scheduler Scheduled Job Complete: frappe.twofactor.delete_all_barcodes_for_users for meeting.dev
2021-04-22 22:30:30,397 INFO scheduler Scheduled Job Start: frappe.website.doctype.web_page.web_page.check_publish_status for meeting.dev
2021-04-22 22:30:30,858 INFO scheduler Scheduled Job Complete: frappe.website.doctype.web_page.web_page.check_publish_status for meeting.dev
2021-04-22 22:30:30,944 INFO scheduler Scheduled Job Start: frappe.oauth.delete_oauth2_data for meeting.dev
2021-04-22 22:30:31,343 INFO scheduler Scheduled Job Complete: frappe.oauth.delete_oauth2_data for meeting.dev
2021-04-22 22:31:30,078 DEBUG scheduler Queued events for site meeting.dev
2021-04-22 22:32:30,345 DEBUG scheduler Queued events for site meeting.dev
2021-04-22 22:32:30,382 INFO scheduler Scheduled Job Start: frappe.monitor.flush for meeting.dev
2021-04-22 22:32:30,540 INFO scheduler Scheduled Job Complete: frappe.monitor.flush for meeting.dev
2021-04-22 22:32:30,617 INFO scheduler Scheduled Job Start: frappe.utils.global_search.sync_global_search for meeting.dev
2021-04-22 22:32:30,781 INFO scheduler Scheduled Job Complete: frappe.utils.global_search.sync_global_search for meeting.dev
2021-04-22 22:32:30,850 INFO scheduler Scheduled Job Start: frappe.integrations.doctype.razorpay_settings.razorpay_settings.capture_payment for meeting.dev
2021-04-22 22:32:31,231 INFO scheduler Scheduled Job Complete: frappe.integrations.doctype.razorpay_settings.razorpay_settings.capture_payment for meeting.dev
2021-04-22 22:32:31,300 INFO scheduler Scheduled Job Start: frappe.email.doctype.email_account.email_account.notify_unreplied for meeting.dev
2021-04-22 22:32:31,601 INFO scheduler Scheduled Job Complete: frappe.email.doctype.email_account.email_account.notify_unreplied for meeting.dev
2021-04-22 22:32:31,676 INFO scheduler Scheduled Job Start: frappe.email.doctype.email_account.email_account.pull for meeting.dev
2021-04-22 22:32:31,990 INFO scheduler Scheduled Job Complete: frappe.email.doctype.email_account.email_account.pull for meeting.dev
2021-04-22 22:32:32,061 INFO scheduler Scheduled Job Start: frappe.email.queue.flush for meeting.dev
2021-04-22 22:32:32,319 INFO scheduler Scheduled Job Complete: frappe.email.queue.flush for meeting.dev
2021-04-22 22:33:30,594 DEBUG scheduler Queued events for site meeting.dev
2021-04-22 22:34:30,832 DEBUG scheduler Queued events for site meeting.dev
2021-04-22 22:35:31,058 DEBUG scheduler Queued events for site meeting.dev
2021-04-22 22:36:31,338 DEBUG scheduler Queued events for site meeting.dev
2021-04-22 22:36:31,380 INFO scheduler Scheduled Job Start: frappe.monitor.flush for meeting.dev
2021-04-22 22:36:31,535 INFO scheduler Scheduled Job Complete: frappe.monitor.flush for meeting.dev
2021-04-22 22:36:31,617 INFO scheduler Scheduled Job Start: frappe.utils.global_search.sync_global_search for meeting.dev
2021-04-22 22:36:31,768 INFO scheduler Scheduled Job Complete: frappe.utils.global_search.sync_global_search for meeting.dev
2021-04-22 22:36:31,840 INFO scheduler Scheduled Job Start: frappe.integrations.doctype.razorpay_settings.razorpay_settings.capture_payment for meeting.dev
2021-04-22 22:36:32,221 INFO scheduler Scheduled Job Complete: frappe.integrations.doctype.razorpay_settings.razorpay_settings.capture_payment for meeting.dev
2021-04-22 22:36:32,292 INFO scheduler Scheduled Job Start: frappe.email.doctype.email_account.email_account.notify_unreplied for meeting.dev
2021-04-22 22:36:32,597 INFO scheduler Scheduled Job Complete: frappe.email.doctype.email_account.email_account.notify_unreplied for meeting.dev
2021-04-22 22:36:32,669 INFO scheduler Scheduled Job Start: frappe.email.doctype.email_account.email_account.pull for meeting.dev
2021-04-22 22:36:32,983 INFO scheduler Scheduled Job Complete: frappe.email.doctype.email_account.email_account.pull for meeting.dev
2021-04-22 22:36:33,052 INFO scheduler Scheduled Job Start: frappe.email.queue.flush for meeting.dev
2021-04-22 22:36:33,311 INFO scheduler Scheduled Job Complete: frappe.email.queue.flush for meeting.dev
2021-04-22 22:37:31,613 DEBUG scheduler Queued events for site meeting.dev
2021-04-22 22:38:31,851 DEBUG scheduler Queued events for site meeting.dev
2021-04-22 22:39:32,089 DEBUG scheduler Queued events for site meeting.dev
2021-04-22 22:40:32,371 DEBUG scheduler Queued events for site meeting.dev
2021-04-22 22:40:32,414 INFO scheduler Scheduled Job Start: frappe.monitor.flush for meeting.dev
2021-04-22 22:40:32,574 INFO scheduler Scheduled Job Complete: frappe.monitor.flush for meeting.dev
2021-04-22 22:40:32,650 INFO scheduler Scheduled Job Start: frappe.utils.global_search.sync_global_search for meeting.dev
2021-04-22 22:40:32,805 INFO scheduler Scheduled Job Complete: frappe.utils.global_search.sync_global_search for meeting.dev
2021-04-22 22:40:32,880 INFO scheduler Scheduled Job Start: frappe.integrations.doctype.razorpay_settings.razorpay_settings.capture_payment for meeting.dev
2021-04-22 22:40:33,276 INFO scheduler Scheduled Job Complete: frappe.integrations.doctype.razorpay_settings.razorpay_settings.capture_payment for meeting.dev
2021-04-22 22:40:33,348 INFO scheduler Scheduled Job Start: frappe.email.doctype.email_account.email_account.notify_unreplied for meeting.dev
2021-04-22 22:40:33,647 INFO scheduler Scheduled Job Complete: frappe.email.doctype.email_account.email_account.notify_unreplied for meeting.dev
2021-04-22 22:40:33,719 INFO scheduler Scheduled Job Start: frappe.email.doctype.email_account.email_account.pull for meeting.dev
2021-04-22 22:40:34,033 INFO scheduler Scheduled Job Complete: frappe.email.doctype.email_account.email_account.pull for meeting.dev
2021-04-22 22:40:34,104 INFO scheduler Scheduled Job Start: frappe.email.queue.flush for meeting.dev
2021-04-22 22:40:34,371 INFO scheduler Scheduled Job Complete: frappe.email.queue.flush for meeting.dev
2021-04-22 22:41:33,235 DEBUG scheduler Queued events for site meeting.dev
2021-04-22 22:42:33,470 DEBUG scheduler Queued events for site meeting.dev
2021-04-22 22:43:33,696 DEBUG scheduler Queued events for site meeting.dev
2021-04-22 22:44:33,981 DEBUG scheduler Queued events for site meeting.dev
2021-04-22 22:44:34,026 INFO scheduler Scheduled Job Start: frappe.monitor.flush for meeting.dev
2021-04-22 22:44:34,221 INFO scheduler Scheduled Job Complete: frappe.monitor.flush for meeting.dev
2021-04-22 22:44:34,293 INFO scheduler Scheduled Job Start: frappe.utils.global_search.sync_global_search for meeting.dev
2021-04-22 22:44:34,454 INFO scheduler Scheduled Job Complete: frappe.utils.global_search.sync_global_search for meeting.dev
2021-04-22 22:44:34,525 INFO scheduler Scheduled Job Start: frappe.integrations.doctype.razorpay_settings.razorpay_settings.capture_payment for meeting.dev
2021-04-22 22:44:34,947 INFO scheduler Scheduled Job Complete: frappe.integrations.doctype.razorpay_settings.razorpay_settings.capture_payment for meeting.dev
2021-04-22 22:44:35,019 INFO scheduler Scheduled Job Start: frappe.email.doctype.email_account.email_account.notify_unreplied for meeting.dev
2021-04-22 22:44:35,335 INFO scheduler Scheduled Job Complete: frappe.email.doctype.email_account.email_account.notify_unreplied for meeting.dev
2021-04-22 22:44:35,406 INFO scheduler Scheduled Job Start: frappe.email.doctype.email_account.email_account.pull for meeting.dev
2021-04-22 22:44:35,744 INFO scheduler Scheduled Job Complete: frappe.email.doctype.email_account.email_account.pull for meeting.dev
2021-04-22 22:44:35,814 INFO scheduler Scheduled Job Start: frappe.email.queue.flush for meeting.dev
2021-04-22 22:44:36,083 INFO scheduler Scheduled Job Complete: frappe.email.queue.flush for meeting.dev
2021-04-22 22:45:34,271 DEBUG scheduler Queued events for site meeting.dev
2021-04-22 22:45:34,327 INFO scheduler Scheduled Job Start: frappe.twofactor.delete_all_barcodes_for_users for meeting.dev
2021-04-22 22:45:34,761 INFO scheduler Scheduled Job Complete: frappe.twofactor.delete_all_barcodes_for_users for meeting.dev
2021-04-22 22:45:34,845 INFO scheduler Scheduled Job Start: frappe.website.doctype.web_page.web_page.check_publish_status for meeting.dev
2021-04-22 22:45:35,298 INFO scheduler Scheduled Job Complete: frappe.website.doctype.web_page.web_page.check_publish_status for meeting.dev
2021-04-22 22:45:35,388 INFO scheduler Scheduled Job Start: frappe.oauth.delete_oauth2_data for meeting.dev
2021-04-22 22:45:35,783 INFO scheduler Scheduled Job Complete: frappe.oauth.delete_oauth2_data for meeting.dev
2021-04-22 22:46:34,531 DEBUG scheduler Queued events for site meeting.dev
2021-04-22 22:47:34,777 DEBUG scheduler Queued events for site meeting.dev
2021-04-22 22:48:35,045 DEBUG scheduler Queued events for site meeting.dev
2021-04-22 22:48:35,077 INFO scheduler Scheduled Job Start: frappe.monitor.flush for meeting.dev
2021-04-22 22:48:35,231 INFO scheduler Scheduled Job Complete: frappe.monitor.flush for meeting.dev
2021-04-22 22:48:35,303 INFO scheduler Scheduled Job Start: frappe.utils.global_search.sync_global_search for meeting.dev
2021-04-22 22:48:35,455 INFO scheduler Scheduled Job Complete: frappe.utils.global_search.sync_global_search for meeting.dev
2021-04-22 22:48:35,528 INFO scheduler Scheduled Job Start: frappe.integrations.doctype.razorpay_settings.razorpay_settings.capture_payment for meeting.dev
2021-04-22 22:48:35,917 INFO scheduler Scheduled Job Complete: frappe.integrations.doctype.razorpay_settings.razorpay_settings.capture_payment for meeting.dev
2021-04-22 22:48:35,990 INFO scheduler Scheduled Job Start: frappe.email.doctype.email_account.email_account.notify_unreplied for meeting.dev
2021-04-22 22:48:36,291 INFO scheduler Scheduled Job Complete: frappe.email.doctype.email_account.email_account.notify_unreplied for meeting.dev
2021-04-22 22:48:36,367 INFO scheduler Scheduled Job Start: frappe.email.doctype.email_account.email_account.pull for meeting.dev
2021-04-22 22:48:36,686 INFO scheduler Scheduled Job Complete: frappe.email.doctype.email_account.email_account.pull for meeting.dev
2021-04-22 22:48:36,757 INFO scheduler Scheduled Job Start: frappe.email.queue.flush for meeting.dev
2021-04-22 22:48:37,018 INFO scheduler Scheduled Job Complete: frappe.email.queue.flush for meeting.dev
2021-04-22 22:49:35,296 DEBUG scheduler Queued events for site meeting.dev
2021-04-22 22:50:35,531 DEBUG scheduler Queued events for site meeting.dev
2021-04-22 22:51:35,765 DEBUG scheduler Queued events for site meeting.dev
2021-04-23 10:00:36,052 INFO scheduler Scheduled Job Start: frappe.integrations.doctype.google_drive.google_drive.daily_backup for meeting.dev
2021-04-23 10:00:36,099 INFO scheduler Scheduled Job Start: frappe.core.doctype.log_settings.log_settings.run_log_clean_up for meeting.dev
2021-04-23 10:00:36,487 DEBUG scheduler Queued events for site meeting.dev
2021-04-23 10:00:36,796 INFO scheduler Scheduled Job Complete: frappe.core.doctype.log_settings.log_settings.run_log_clean_up for meeting.dev
2021-04-23 10:00:36,849 INFO scheduler Scheduled Job Complete: frappe.integrations.doctype.google_drive.google_drive.daily_backup for meeting.dev
2021-04-23 10:00:36,890 INFO scheduler Scheduled Job Start: frappe.core.doctype.prepared_report.prepared_report.delete_expired_prepared_reports for meeting.dev
2021-04-23 10:00:36,938 INFO scheduler Scheduled Job Start: frappe.integrations.doctype.s3_backup_settings.s3_backup_settings.take_backups_daily for meeting.dev
2021-04-23 10:00:37,413 INFO scheduler Scheduled Job Complete: frappe.core.doctype.prepared_report.prepared_report.delete_expired_prepared_reports for meeting.dev
2021-04-23 10:00:37,465 INFO scheduler Scheduled Job Complete: frappe.integrations.doctype.s3_backup_settings.s3_backup_settings.take_backups_daily for meeting.dev
2021-04-23 10:00:37,512 INFO scheduler Scheduled Job Start: frappe.email.doctype.unhandled_email.unhandled_email.remove_old_unhandled_emails for meeting.dev
2021-04-23 10:00:37,554 INFO scheduler Scheduled Job Start: frappe.utils.change_log.check_for_update for meeting.dev
2021-04-23 10:00:37,943 INFO scheduler Scheduled Job Complete: frappe.email.doctype.unhandled_email.unhandled_email.remove_old_unhandled_emails for meeting.dev
2021-04-23 10:00:38,040 INFO scheduler Scheduled Job Start: frappe.automation.doctype.auto_repeat.auto_repeat.set_auto_repeat_as_completed for meeting.dev
2021-04-23 10:00:38,145 INFO scheduler Scheduled Job Failed: frappe.utils.change_log.check_for_update for meeting.dev
2021-04-23 10:00:38,246 INFO scheduler Scheduled Job Start: frappe.integrations.doctype.dropbox_settings.dropbox_settings.take_backups_daily for meeting.dev
2021-04-23 10:00:38,551 INFO scheduler Scheduled Job Complete: frappe.automation.doctype.auto_repeat.auto_repeat.set_auto_repeat_as_completed for meeting.dev
2021-04-23 10:00:38,642 INFO scheduler Scheduled Job Start: frappe.automation.doctype.auto_repeat.auto_repeat.make_auto_repeat_entry for meeting.dev
2021-04-23 10:00:38,966 INFO scheduler Scheduled Job Complete: frappe.integrations.doctype.dropbox_settings.dropbox_settings.take_backups_daily for meeting.dev
2021-04-23 10:00:39,108 INFO scheduler Scheduled Job Complete: frappe.automation.doctype.auto_repeat.auto_repeat.make_auto_repeat_entry for meeting.dev
2021-04-23 10:00:39,192 INFO scheduler Scheduled Job Start: frappe.integrations.doctype.google_contacts.google_contacts.sync for meeting.dev
2021-04-23 10:00:39,771 INFO scheduler Scheduled Job Complete: frappe.integrations.doctype.google_contacts.google_contacts.sync for meeting.dev
2021-04-23 10:00:39,858 INFO scheduler Scheduled Job Start: frappe.social.doctype.energy_point_settings.energy_point_settings.allocate_review_points for meeting.dev
2021-04-23 10:00:40,244 INFO scheduler Scheduled Job Complete: frappe.social.doctype.energy_point_settings.energy_point_settings.allocate_review_points for meeting.dev
2021-04-23 10:00:40,335 INFO scheduler Scheduled Job Start: frappe.desk.form.document_follow.send_daily_updates for meeting.dev
2021-04-23 10:00:40,718 INFO scheduler Scheduled Job Complete: frappe.desk.form.document_follow.send_daily_updates for meeting.dev
2021-04-23 10:00:40,801 INFO scheduler Scheduled Job Start: frappe.website.doctype.personal_data_deletion_request.personal_data_deletion_request.remove_unverified_record for meeting.dev
2021-04-23 10:00:41,182 INFO scheduler Scheduled Job Complete: frappe.website.doctype.personal_data_deletion_request.personal_data_deletion_request.remove_unverified_record for meeting.dev
2021-04-23 10:00:41,272 INFO scheduler Scheduled Job Start: frappe.email.doctype.auto_email_report.auto_email_report.send_daily for meeting.dev
2021-04-23 10:00:42,513 INFO scheduler Scheduled Job Complete: frappe.email.doctype.auto_email_report.auto_email_report.send_daily for meeting.dev
2021-04-23 10:00:42,651 INFO scheduler Scheduled Job Start: frappe.utils.scheduler.restrict_scheduler_events_if_dormant for meeting.dev
2021-04-23 10:00:43,025 INFO scheduler Scheduled Job Failed: frappe.utils.scheduler.restrict_scheduler_events_if_dormant for meeting.dev
2021-04-23 10:00:43,114 INFO scheduler Scheduled Job Start: frappe.realtime.remove_old_task_logs for meeting.dev
2021-04-23 10:00:43,499 INFO scheduler Scheduled Job Complete: frappe.realtime.remove_old_task_logs for meeting.dev
2021-04-23 10:00:43,581 INFO scheduler Scheduled Job Start: frappe.email.doctype.notification.notification.trigger_daily_alerts for meeting.dev
2021-04-23 10:00:43,970 INFO scheduler Scheduled Job Complete: frappe.email.doctype.notification.notification.trigger_daily_alerts for meeting.dev
2021-04-23 10:00:44,054 INFO scheduler Scheduled Job Start: frappe.sessions.clear_expired_sessions for meeting.dev
2021-04-23 10:00:44,566 INFO scheduler Scheduled Job Complete: frappe.sessions.clear_expired_sessions for meeting.dev
2021-04-23 10:00:44,651 INFO scheduler Scheduled Job Start: frappe.desk.doctype.event.event.send_event_digest for meeting.dev
2021-04-23 10:00:45,054 INFO scheduler Scheduled Job Complete: frappe.desk.doctype.event.event.send_event_digest for meeting.dev
2021-04-23 10:00:45,140 INFO scheduler Scheduled Job Start: frappe.core.doctype.error_log.error_log.set_old_logs_as_seen for meeting.dev
2021-04-23 10:00:45,527 INFO scheduler Scheduled Job Complete: frappe.core.doctype.error_log.error_log.set_old_logs_as_seen for meeting.dev
2021-04-23 10:00:45,611 INFO scheduler Scheduled Job Start: frappe.desk.notifications.clear_notifications for meeting.dev
2021-04-23 10:00:45,985 INFO scheduler Scheduled Job Complete: frappe.desk.notifications.clear_notifications for meeting.dev
2021-04-23 10:00:46,069 INFO scheduler Scheduled Job Start: frappe.email.queue.set_expiry_for_email_queue for meeting.dev
2021-04-23 10:00:46,464 INFO scheduler Scheduled Job Complete: frappe.email.queue.set_expiry_for_email_queue for meeting.dev
2021-04-23 10:00:46,552 INFO scheduler Scheduled Job Start: frappe.email.doctype.newsletter.newsletter.send_scheduled_email for meeting.dev
2021-04-23 10:00:47,113 INFO scheduler Scheduled Job Complete: frappe.email.doctype.newsletter.newsletter.send_scheduled_email for meeting.dev
2021-04-23 10:00:47,199 INFO scheduler Scheduled Job Start: frappe.integrations.doctype.google_calendar.google_calendar.sync for meeting.dev
2021-04-23 10:00:47,744 INFO scheduler Scheduled Job Complete: frappe.integrations.doctype.google_calendar.google_calendar.sync for meeting.dev
2021-04-23 10:00:47,839 INFO scheduler Scheduled Job Start: frappe.desk.form.document_follow.send_hourly_updates for meeting.dev
2021-04-23 10:00:48,230 INFO scheduler Scheduled Job Complete: frappe.desk.form.document_follow.send_hourly_updates for meeting.dev
2021-04-23 10:00:48,316 INFO scheduler Scheduled Job Start: frappe.deferred_insert.save_to_db for meeting.dev
2021-04-23 10:00:48,693 INFO scheduler Scheduled Job Complete: frappe.deferred_insert.save_to_db for meeting.dev
2021-04-23 10:00:48,779 INFO scheduler Scheduled Job Start: frappe.desk.page.backups.backups.delete_downloadable_backups for meeting.dev
2021-04-23 10:00:49,180 INFO scheduler Scheduled Job Complete: frappe.desk.page.backups.backups.delete_downloadable_backups for meeting.dev
2021-04-23 10:00:49,265 INFO scheduler Scheduled Job Start: frappe.utils.error.collect_error_snapshots for meeting.dev
2021-04-23 10:00:49,662 INFO scheduler Scheduled Job Complete: frappe.utils.error.collect_error_snapshots for meeting.dev
2021-04-23 10:00:49,748 INFO scheduler Scheduled Job Start: frappe.model.utils.user_settings.sync_user_settings for meeting.dev
2021-04-23 10:00:50,124 INFO scheduler Scheduled Job Complete: frappe.model.utils.user_settings.sync_user_settings for meeting.dev
2021-04-23 10:00:50,210 INFO scheduler Scheduled Job Start: frappe.model.utils.link_count.update_link_count for meeting.dev
2021-04-23 10:00:50,608 INFO scheduler Scheduled Job Complete: frappe.model.utils.link_count.update_link_count for meeting.dev
2021-04-23 10:00:50,699 INFO scheduler Scheduled Job Start: frappe.monitor.flush for meeting.dev
2021-04-23 10:00:50,856 INFO scheduler Scheduled Job Complete: frappe.monitor.flush for meeting.dev
2021-04-23 10:00:50,929 INFO scheduler Scheduled Job Start: frappe.utils.global_search.sync_global_search for meeting.dev
2021-04-23 10:00:51,087 INFO scheduler Scheduled Job Complete: frappe.utils.global_search.sync_global_search for meeting.dev
2021-04-23 10:00:51,167 INFO scheduler Scheduled Job Start: frappe.integrations.doctype.razorpay_settings.razorpay_settings.capture_payment for meeting.dev
2021-04-23 10:00:51,557 INFO scheduler Scheduled Job Complete: frappe.integrations.doctype.razorpay_settings.razorpay_settings.capture_payment for meeting.dev
2021-04-23 10:00:51,626 INFO scheduler Scheduled Job Start: frappe.email.doctype.email_account.email_account.notify_unreplied for meeting.dev
2021-04-23 10:00:51,942 INFO scheduler Scheduled Job Complete: frappe.email.doctype.email_account.email_account.notify_unreplied for meeting.dev
2021-04-23 10:00:52,033 INFO scheduler Scheduled Job Start: frappe.email.doctype.email_account.email_account.pull for meeting.dev
2021-04-23 10:00:52,520 INFO scheduler Scheduled Job Complete: frappe.email.doctype.email_account.email_account.pull for meeting.dev
2021-04-23 10:00:52,600 INFO scheduler Scheduled Job Start: frappe.email.queue.flush for meeting.dev
2021-04-23 10:00:52,903 INFO scheduler Scheduled Job Complete: frappe.email.queue.flush for meeting.dev
2021-04-23 10:00:52,993 INFO scheduler Scheduled Job Start: frappe.twofactor.delete_all_barcodes_for_users for meeting.dev
2021-04-23 10:00:53,435 INFO scheduler Scheduled Job Complete: frappe.twofactor.delete_all_barcodes_for_users for meeting.dev
2021-04-23 10:00:53,530 INFO scheduler Scheduled Job Start: frappe.website.doctype.web_page.web_page.check_publish_status for meeting.dev
2021-04-23 10:00:53,975 INFO scheduler Scheduled Job Complete: frappe.website.doctype.web_page.web_page.check_publish_status for meeting.dev
2021-04-23 10:00:54,070 INFO scheduler Scheduled Job Start: frappe.oauth.delete_oauth2_data for meeting.dev
2021-04-23 10:00:54,490 INFO scheduler Scheduled Job Complete: frappe.oauth.delete_oauth2_data for meeting.dev
2021-04-23 10:01:37,004 DEBUG scheduler Queued events for site meeting.dev
2021-04-23 10:02:37,288 DEBUG scheduler Queued events for site meeting.dev
2021-04-23 10:03:37,542 DEBUG scheduler Queued events for site meeting.dev
2021-04-23 10:04:37,899 DEBUG scheduler Queued events for site meeting.dev
2021-04-23 10:04:37,955 INFO scheduler Scheduled Job Start: frappe.monitor.flush for meeting.dev
2021-04-23 10:04:38,169 INFO scheduler Scheduled Job Complete: frappe.monitor.flush for meeting.dev
2021-04-23 10:04:38,264 INFO scheduler Scheduled Job Start: frappe.utils.global_search.sync_global_search for meeting.dev
2021-04-23 10:04:38,490 INFO scheduler Scheduled Job Complete: frappe.utils.global_search.sync_global_search for meeting.dev
2021-04-23 10:04:38,592 INFO scheduler Scheduled Job Start: frappe.integrations.doctype.razorpay_settings.razorpay_settings.capture_payment for meeting.dev
2021-04-23 10:04:39,201 INFO scheduler Scheduled Job Complete: frappe.integrations.doctype.razorpay_settings.razorpay_settings.capture_payment for meeting.dev
2021-04-23 10:04:39,303 INFO scheduler Scheduled Job Start: frappe.email.doctype.email_account.email_account.notify_unreplied for meeting.dev
2021-04-23 10:04:39,736 INFO scheduler Scheduled Job Complete: frappe.email.doctype.email_account.email_account.notify_unreplied for meeting.dev
2021-04-23 10:04:39,836 INFO scheduler Scheduled Job Start: frappe.email.doctype.email_account.email_account.pull for meeting.dev
2021-04-23 10:04:40,282 INFO scheduler Scheduled Job Complete: frappe.email.doctype.email_account.email_account.pull for meeting.dev
2021-04-23 10:04:40,382 INFO scheduler Scheduled Job Start: frappe.email.queue.flush for meeting.dev
2021-04-23 10:04:40,740 INFO scheduler Scheduled Job Complete: frappe.email.queue.flush for meeting.dev
2021-04-23 10:05:38,309 DEBUG scheduler Queued events for site meeting.dev
2021-04-23 10:06:39,117 DEBUG scheduler Queued events for site meeting.dev
2021-04-23 10:07:39,466 DEBUG scheduler Queued events for site meeting.dev
2021-04-23 10:08:39,806 DEBUG scheduler Queued events for site meeting.dev
2021-04-23 10:08:39,839 INFO scheduler Scheduled Job Start: frappe.monitor.flush for meeting.dev
2021-04-23 10:08:40,051 INFO scheduler Scheduled Job Complete: frappe.monitor.flush for meeting.dev
2021-04-23 10:08:40,148 INFO scheduler Scheduled Job Start: frappe.utils.global_search.sync_global_search for meeting.dev
2021-04-23 10:08:40,360 INFO scheduler Scheduled Job Complete: frappe.utils.global_search.sync_global_search for meeting.dev
2021-04-23 10:08:40,459 INFO scheduler Scheduled Job Start: frappe.integrations.doctype.razorpay_settings.razorpay_settings.capture_payment for meeting.dev
2021-04-23 10:08:40,979 INFO scheduler Scheduled Job Complete: frappe.integrations.doctype.razorpay_settings.razorpay_settings.capture_payment for meeting.dev
2021-04-23 10:08:41,078 INFO scheduler Scheduled Job Start: frappe.email.doctype.email_account.email_account.notify_unreplied for meeting.dev
2021-04-23 10:08:41,538 INFO scheduler Scheduled Job Complete: frappe.email.doctype.email_account.email_account.notify_unreplied for meeting.dev
2021-04-23 10:08:41,680 INFO scheduler Scheduled Job Start: frappe.email.doctype.email_account.email_account.pull for meeting.dev
2021-04-23 10:08:42,138 INFO scheduler Scheduled Job Complete: frappe.email.doctype.email_account.email_account.pull for meeting.dev
2021-04-23 10:08:42,240 INFO scheduler Scheduled Job Start: frappe.email.queue.flush for meeting.dev
2021-04-23 10:08:42,597 INFO scheduler Scheduled Job Complete: frappe.email.queue.flush for meeting.dev
2021-04-23 10:09:40,095 DEBUG scheduler Queued events for site meeting.dev
2021-04-23 10:10:40,417 DEBUG scheduler Queued events for site meeting.dev
2021-04-23 10:11:41,327 DEBUG scheduler Queued events for site meeting.dev
2021-04-23 10:12:41,674 DEBUG scheduler Queued events for site meeting.dev
2021-04-23 10:12:41,727 INFO scheduler Scheduled Job Start: frappe.monitor.flush for meeting.dev
2021-04-23 10:12:41,953 INFO scheduler Scheduled Job Complete: frappe.monitor.flush for meeting.dev
2021-04-23 10:12:42,057 INFO scheduler Scheduled Job Start: frappe.utils.global_search.sync_global_search for meeting.dev
2021-04-23 10:12:42,270 INFO scheduler Scheduled Job Complete: frappe.utils.global_search.sync_global_search for meeting.dev
2021-04-23 10:12:42,370 INFO scheduler Scheduled Job Start: frappe.integrations.doctype.razorpay_settings.razorpay_settings.capture_payment for meeting.dev
2021-04-23 10:12:42,903 INFO scheduler Scheduled Job Complete: frappe.integrations.doctype.razorpay_settings.razorpay_settings.capture_payment for meeting.dev
2021-04-23 10:12:43,010 INFO scheduler Scheduled Job Start: frappe.email.doctype.email_account.email_account.notify_unreplied for meeting.dev
2021-04-23 10:12:43,437 INFO scheduler Scheduled Job Complete: frappe.email.doctype.email_account.email_account.notify_unreplied for meeting.dev
2021-04-23 10:12:43,533 INFO scheduler Scheduled Job Start: frappe.email.doctype.email_account.email_account.pull for meeting.dev
2021-04-23 10:12:43,977 INFO scheduler Scheduled Job Complete: frappe.email.doctype.email_account.email_account.pull for meeting.dev
2021-04-23 10:12:44,077 INFO scheduler Scheduled Job Start: frappe.email.queue.flush for meeting.dev
2021-04-23 10:12:44,451 INFO scheduler Scheduled Job Complete: frappe.email.queue.flush for meeting.dev
2021-04-23 10:13:42,047 DEBUG scheduler Queued events for site meeting.dev
2021-04-23 10:14:42,405 DEBUG scheduler Queued events for site meeting.dev
2021-04-23 10:15:42,722 DEBUG scheduler Queued events for site meeting.dev
2021-04-23 10:15:42,810 INFO scheduler Scheduled Job Start: frappe.twofactor.delete_all_barcodes_for_users for meeting.dev
2021-04-23 10:15:43,391 INFO scheduler Scheduled Job Complete: frappe.twofactor.delete_all_barcodes_for_users for meeting.dev
2021-04-23 10:15:43,502 INFO scheduler Scheduled Job Start: frappe.website.doctype.web_page.web_page.check_publish_status for meeting.dev
2021-04-23 10:15:44,139 INFO scheduler Scheduled Job Complete: frappe.website.doctype.web_page.web_page.check_publish_status for meeting.dev
2021-04-23 10:15:44,253 INFO scheduler Scheduled Job Start: frappe.oauth.delete_oauth2_data for meeting.dev
2021-04-23 10:15:44,798 INFO scheduler Scheduled Job Complete: frappe.oauth.delete_oauth2_data for meeting.dev
2021-04-23 10:16:43,191 DEBUG scheduler Queued events for site meeting.dev
2021-04-23 10:16:43,246 INFO scheduler Scheduled Job Start: frappe.monitor.flush for meeting.dev
2021-04-23 10:16:43,538 INFO scheduler Scheduled Job Complete: frappe.monitor.flush for meeting.dev
2021-04-23 10:16:43,703 INFO scheduler Scheduled Job Start: frappe.utils.global_search.sync_global_search for meeting.dev
2021-04-23 10:16:44,011 INFO scheduler Scheduled Job Complete: frappe.utils.global_search.sync_global_search for meeting.dev
2021-04-23 10:16:44,162 INFO scheduler Scheduled Job Start: frappe.integrations.doctype.razorpay_settings.razorpay_settings.capture_payment for meeting.dev
2021-04-23 10:16:44,839 INFO scheduler Scheduled Job Complete: frappe.integrations.doctype.razorpay_settings.razorpay_settings.capture_payment for meeting.dev
2021-04-23 10:16:44,963 INFO scheduler Scheduled Job Start: frappe.email.doctype.email_account.email_account.notify_unreplied for meeting.dev
2021-04-23 10:16:45,425 INFO scheduler Scheduled Job Complete: frappe.email.doctype.email_account.email_account.notify_unreplied for meeting.dev
2021-04-23 10:16:45,521 INFO scheduler Scheduled Job Start: frappe.email.doctype.email_account.email_account.pull for meeting.dev
2021-04-23 10:16:45,946 INFO scheduler Scheduled Job Complete: frappe.email.doctype.email_account.email_account.pull for meeting.dev
2021-04-23 10:16:46,042 INFO scheduler Scheduled Job Start: frappe.email.queue.flush for meeting.dev
2021-04-23 10:16:46,404 INFO scheduler Scheduled Job Complete: frappe.email.queue.flush for meeting.dev
2021-04-23 10:17:43,541 DEBUG scheduler Queued events for site meeting.dev
2021-04-23 10:18:43,886 DEBUG scheduler Queued events for site meeting.dev
2021-04-23 10:19:44,190 DEBUG scheduler Queued events for site meeting.dev
2021-04-23 10:20:44,558 DEBUG scheduler Queued events for site meeting.dev
2021-04-23 10:20:44,581 INFO scheduler Scheduled Job Start: frappe.monitor.flush for meeting.dev
2021-04-23 10:20:44,840 INFO scheduler Scheduled Job Complete: frappe.monitor.flush for meeting.dev
2021-04-23 10:20:44,951 INFO scheduler Scheduled Job Start: frappe.utils.global_search.sync_global_search for meeting.dev
2021-04-23 10:20:45,173 INFO scheduler Scheduled Job Complete: frappe.utils.global_search.sync_global_search for meeting.dev
2021-04-23 10:20:45,274 INFO scheduler Scheduled Job Start: frappe.integrations.doctype.razorpay_settings.razorpay_settings.capture_payment for meeting.dev
2021-04-23 10:20:45,794 INFO scheduler Scheduled Job Complete: frappe.integrations.doctype.razorpay_settings.razorpay_settings.capture_payment for meeting.dev
2021-04-23 10:20:45,892 INFO scheduler Scheduled Job Start: frappe.email.doctype.email_account.email_account.notify_unreplied for meeting.dev
2021-04-23 10:20:46,358 INFO scheduler Scheduled Job Complete: frappe.email.doctype.email_account.email_account.notify_unreplied for meeting.dev
2021-04-23 10:20:46,452 INFO scheduler Scheduled Job Start: frappe.email.doctype.email_account.email_account.pull for meeting.dev
2021-04-23 10:20:46,893 INFO scheduler Scheduled Job Complete: frappe.email.doctype.email_account.email_account.pull for meeting.dev
2021-04-23 10:20:47,008 INFO scheduler Scheduled Job Start: frappe.email.queue.flush for meeting.dev
2021-04-23 10:20:47,381 INFO scheduler Scheduled Job Complete: frappe.email.queue.flush for meeting.dev
2021-04-23 10:21:44,891 DEBUG scheduler Queued events for site meeting.dev
2021-04-23 10:22:45,187 DEBUG scheduler Queued events for site meeting.dev
2021-04-23 10:23:45,531 DEBUG scheduler Queued events for site meeting.dev
2021-04-23 10:24:45,872 DEBUG scheduler Queued events for site meeting.dev
2021-04-23 10:24:45,921 INFO scheduler Scheduled Job Start: frappe.monitor.flush for meeting.dev
2021-04-23 10:24:46,164 INFO scheduler Scheduled Job Complete: frappe.monitor.flush for meeting.dev
2021-04-23 10:24:46,264 INFO scheduler Scheduled Job Start: frappe.utils.global_search.sync_global_search for meeting.dev
2021-04-23 10:24:46,484 INFO scheduler Scheduled Job Complete: frappe.utils.global_search.sync_global_search for meeting.dev
2021-04-23 10:24:46,593 INFO scheduler Scheduled Job Start: frappe.integrations.doctype.razorpay_settings.razorpay_settings.capture_payment for meeting.dev
2021-04-23 10:24:47,156 INFO scheduler Scheduled Job Complete: frappe.integrations.doctype.razorpay_settings.razorpay_settings.capture_payment for meeting.dev
2021-04-23 10:24:47,257 INFO scheduler Scheduled Job Start: frappe.email.doctype.email_account.email_account.notify_unreplied for meeting.dev
2021-04-23 10:24:47,693 INFO scheduler Scheduled Job Complete: frappe.email.doctype.email_account.email_account.notify_unreplied for meeting.dev
2021-04-23 10:24:47,796 INFO scheduler Scheduled Job Start: frappe.email.doctype.email_account.email_account.pull for meeting.dev
2021-04-23 10:24:48,275 INFO scheduler Scheduled Job Complete: frappe.email.doctype.email_account.email_account.pull for meeting.dev
2021-04-23 10:24:48,380 INFO scheduler Scheduled Job Start: frappe.email.queue.flush for meeting.dev
2021-04-23 10:24:48,756 INFO scheduler Scheduled Job Complete: frappe.email.queue.flush for meeting.dev
2021-04-23 10:25:46,324 DEBUG scheduler Queued events for site meeting.dev
2021-04-23 10:26:46,655 DEBUG scheduler Queued events for site meeting.dev
2021-04-23 10:27:46,975 DEBUG scheduler Queued events for site meeting.dev
2021-04-23 10:28:47,310 DEBUG scheduler Queued events for site meeting.dev
2021-04-23 10:28:47,348 INFO scheduler Scheduled Job Start: frappe.monitor.flush for meeting.dev
2021-04-23 10:28:47,627 INFO scheduler Scheduled Job Complete: frappe.monitor.flush for meeting.dev
2021-04-23 10:28:47,736 INFO scheduler Scheduled Job Start: frappe.utils.global_search.sync_global_search for meeting.dev
2021-04-23 10:28:47,938 INFO scheduler Scheduled Job Complete: frappe.utils.global_search.sync_global_search for meeting.dev
2021-04-23 10:28:48,029 INFO scheduler Scheduled Job Start: frappe.integrations.doctype.razorpay_settings.razorpay_settings.capture_payment for meeting.dev
2021-04-23 10:28:48,579 INFO scheduler Scheduled Job Complete: frappe.integrations.doctype.razorpay_settings.razorpay_settings.capture_payment for meeting.dev
2021-04-23 10:28:48,669 INFO scheduler Scheduled Job Start: frappe.email.doctype.email_account.email_account.notify_unreplied for meeting.dev
2021-04-23 10:28:49,129 INFO scheduler Scheduled Job Complete: frappe.email.doctype.email_account.email_account.notify_unreplied for meeting.dev
2021-04-23 10:28:49,246 INFO scheduler Scheduled Job Start: frappe.email.doctype.email_account.email_account.pull for meeting.dev
2021-04-23 10:28:49,668 INFO scheduler Scheduled Job Complete: frappe.email.doctype.email_account.email_account.pull for meeting.dev
2021-04-23 10:28:49,759 INFO scheduler Scheduled Job Start: frappe.email.queue.flush for meeting.dev
2021-04-23 10:28:50,241 INFO scheduler Scheduled Job Complete: frappe.email.queue.flush for meeting.dev
2021-04-23 10:29:47,593 DEBUG scheduler Queued events for site meeting.dev
2021-04-23 10:30:47,942 DEBUG scheduler Queued events for site meeting.dev
2021-04-23 10:30:48,052 INFO scheduler Scheduled Job Start: frappe.twofactor.delete_all_barcodes_for_users for meeting.dev
2021-04-23 10:30:48,825 INFO scheduler Scheduled Job Complete: frappe.twofactor.delete_all_barcodes_for_users for meeting.dev
2021-04-23 10:30:48,983 INFO scheduler Scheduled Job Start: frappe.website.doctype.web_page.web_page.check_publish_status for meeting.dev
2021-04-23 10:30:49,680 INFO scheduler Scheduled Job Complete: frappe.website.doctype.web_page.web_page.check_publish_status for meeting.dev
2021-04-23 10:30:49,808 INFO scheduler Scheduled Job Start: frappe.oauth.delete_oauth2_data for meeting.dev
2021-04-23 10:30:50,533 INFO scheduler Scheduled Job Complete: frappe.oauth.delete_oauth2_data for meeting.dev
2021-04-23 10:31:48,333 DEBUG scheduler Queued events for site meeting.dev
2021-04-23 10:32:48,675 DEBUG scheduler Queued events for site meeting.dev
2021-04-23 10:32:48,707 INFO scheduler Scheduled Job Start: frappe.monitor.flush for meeting.dev
2021-04-23 10:32:48,892 INFO scheduler Scheduled Job Complete: frappe.monitor.flush for meeting.dev
2021-04-23 10:32:48,977 INFO scheduler Scheduled Job Start: frappe.utils.global_search.sync_global_search for meeting.dev
2021-04-23 10:32:49,154 INFO scheduler Scheduled Job Complete: frappe.utils.global_search.sync_global_search for meeting.dev
2021-04-23 10:32:49,236 INFO scheduler Scheduled Job Start: frappe.integrations.doctype.razorpay_settings.razorpay_settings.capture_payment for meeting.dev
2021-04-23 10:32:49,683 INFO scheduler Scheduled Job Complete: frappe.integrations.doctype.razorpay_settings.razorpay_settings.capture_payment for meeting.dev
2021-04-23 10:32:49,764 INFO scheduler Scheduled Job Start: frappe.email.doctype.email_account.email_account.notify_unreplied for meeting.dev
2021-04-23 10:32:50,130 INFO scheduler Scheduled Job Complete: frappe.email.doctype.email_account.email_account.notify_unreplied for meeting.dev
2021-04-23 10:32:50,212 INFO scheduler Scheduled Job Start: frappe.email.doctype.email_account.email_account.pull for meeting.dev
2021-04-23 10:32:50,595 INFO scheduler Scheduled Job Complete: frappe.email.doctype.email_account.email_account.pull for meeting.dev
2021-04-23 10:32:50,682 INFO scheduler Scheduled Job Start: frappe.email.queue.flush for meeting.dev
2021-04-23 10:32:51,088 INFO scheduler Scheduled Job Complete: frappe.email.queue.flush for meeting.dev
2021-04-23 10:33:48,987 DEBUG scheduler Queued events for site meeting.dev
2021-04-23 10:34:49,309 DEBUG scheduler Queued events for site meeting.dev
2021-04-23 10:35:49,550 DEBUG scheduler Queued events for site meeting.dev
2021-04-23 10:36:49,839 DEBUG scheduler Queued events for site meeting.dev
2021-04-23 10:36:49,878 INFO scheduler Scheduled Job Start: frappe.monitor.flush for meeting.dev
2021-04-23 10:36:50,060 INFO scheduler Scheduled Job Complete: frappe.monitor.flush for meeting.dev
2021-04-23 10:36:50,141 INFO scheduler Scheduled Job Start: frappe.utils.global_search.sync_global_search for meeting.dev
2021-04-23 10:36:50,317 INFO scheduler Scheduled Job Complete: frappe.utils.global_search.sync_global_search for meeting.dev
2021-04-23 10:36:50,393 INFO scheduler Scheduled Job Start: frappe.integrations.doctype.razorpay_settings.razorpay_settings.capture_payment for meeting.dev
2021-04-23 10:36:50,807 INFO scheduler Scheduled Job Complete: frappe.integrations.doctype.razorpay_settings.razorpay_settings.capture_payment for meeting.dev
2021-04-23 10:36:50,881 INFO scheduler Scheduled Job Start: frappe.email.doctype.email_account.email_account.notify_unreplied for meeting.dev
2021-04-23 10:36:51,211 INFO scheduler Scheduled Job Complete: frappe.email.doctype.email_account.email_account.notify_unreplied for meeting.dev
2021-04-23 10:36:51,285 INFO scheduler Scheduled Job Start: frappe.email.doctype.email_account.email_account.pull for meeting.dev
2021-04-23 10:36:51,719 INFO scheduler Scheduled Job Complete: frappe.email.doctype.email_account.email_account.pull for meeting.dev
2021-04-23 10:36:51,826 INFO scheduler Scheduled Job Start: frappe.email.queue.flush for meeting.dev
2021-04-23 10:36:52,256 INFO scheduler Scheduled Job Complete: frappe.email.queue.flush for meeting.dev
2021-04-23 10:37:50,166 DEBUG scheduler Queued events for site meeting.dev
2021-04-23 10:38:50,422 DEBUG scheduler Queued events for site meeting.dev
2021-04-23 10:39:50,701 DEBUG scheduler Queued events for site meeting.dev
2021-04-23 10:40:51,027 DEBUG scheduler Queued events for site meeting.dev
2021-04-23 10:40:51,066 INFO scheduler Scheduled Job Start: frappe.monitor.flush for meeting.dev
2021-04-23 10:40:51,236 INFO scheduler Scheduled Job Complete: frappe.monitor.flush for meeting.dev
2021-04-23 10:40:51,309 INFO scheduler Scheduled Job Start: frappe.utils.global_search.sync_global_search for meeting.dev
2021-04-23 10:40:51,476 INFO scheduler Scheduled Job Complete: frappe.utils.global_search.sync_global_search for meeting.dev
2021-04-23 10:40:51,552 INFO scheduler Scheduled Job Start: frappe.integrations.doctype.razorpay_settings.razorpay_settings.capture_payment for meeting.dev
2021-04-23 10:40:52,012 INFO scheduler Scheduled Job Complete: frappe.integrations.doctype.razorpay_settings.razorpay_settings.capture_payment for meeting.dev
2021-04-23 10:40:52,107 INFO scheduler Scheduled Job Start: frappe.email.doctype.email_account.email_account.notify_unreplied for meeting.dev
2021-04-23 10:40:52,440 INFO scheduler Scheduled Job Complete: frappe.email.doctype.email_account.email_account.notify_unreplied for meeting.dev
2021-04-23 10:40:52,513 INFO scheduler Scheduled Job Start: frappe.email.doctype.email_account.email_account.pull for meeting.dev
2021-04-23 10:40:52,841 INFO scheduler Scheduled Job Complete: frappe.email.doctype.email_account.email_account.pull for meeting.dev
2021-04-23 10:40:52,914 INFO scheduler Scheduled Job Start: frappe.email.queue.flush for meeting.dev
2021-04-23 10:40:53,192 INFO scheduler Scheduled Job Complete: frappe.email.queue.flush for meeting.dev
2021-04-23 10:41:51,301 DEBUG scheduler Queued events for site meeting.dev
