2021-04-22 17:56:33,639 INFO scheduler Scheduled Job Complete: frappe.integrations.doctype.razorpay_settings.razorpay_settings.capture_payment for meeting.dev
2021-04-22 17:56:33,711 INFO scheduler Scheduled Job Start: frappe.email.doctype.email_account.email_account.notify_unreplied for meeting.dev
2021-04-22 17:56:34,132 INFO scheduler Scheduled Job Complete: frappe.email.doctype.email_account.email_account.notify_unreplied for meeting.dev
2021-04-22 17:56:34,265 INFO scheduler Scheduled Job Start: frappe.email.doctype.email_account.email_account.pull for meeting.dev
2021-04-22 17:56:34,759 INFO scheduler Scheduled Job Complete: frappe.email.doctype.email_account.email_account.pull for meeting.dev
2021-04-22 17:56:34,889 INFO scheduler Scheduled Job Start: frappe.email.queue.flush for meeting.dev
2021-04-22 17:56:35,197 INFO scheduler Scheduled Job Complete: frappe.email.queue.flush for meeting.dev
